{"count":843,"next":"https://www.udemy.com/api-2.0/courses/1036342/reviews/?courseId=1036342&fields%5Bcourse_review%5D=%40default%2Cresponse%2Ccontent_html%2Ccreated_formatted_with_time_since&fields%5Bcourse_review_response%5D=%40min%2Cuser%2Ccontent_html%2Ccreated_formatted_with_time_since&fields%5Buser%5D=%40min%2Cimage_50x50%2Cinitials%2Cpublic_display_name%2Ctracking_id&is_text_review=1&ordering=course_review_score__rank%2C-created&page=2","previous":null,"results":[{"_class":"course_review","id":121260170,"content":"The sound is subpar. The majority of the time, I played at MAX volume. Although the content is extremely basic, I learned a lot.\nThank you very much!","rating":3.0,"created":"2022-08-15T22:31:33-07:00","modified":"2022-08-16T16:04:01-07:00","user_modified":"2022-08-15T22:33:24-07:00","user":{"_class":"user","title":"Jacques Steyn","name":"Jacques","display_name":"Jacques Steyn","image_50x50":"https://img-c.udemycdn.com/user/50x50/anonymous_3.png","initials":"JS","tracking_id":"VVeoM-L7QIqAiP73qlfNCg","public_display_name":"Jacques S."},"response":null,"content_html":"<p>The sound is subpar. The majority of the time, I played at MAX volume. Although the content is extremely basic, I learned a lot.<br>Thank you very much!</p>","created_formatted_with_time_since":"2 weeks ago"},{"_class":"course_review","id":120100354,"content":"Well Done .The Comparison of PostgreSQL and MS SQL very Useful. Easy to Understand and never forget the basic concepts Thank you Staffs.","rating":4.0,"created":"2022-07-31T22:36:58-07:00","modified":"2022-08-01T16:10:18-07:00","user_modified":"2022-07-31T22:41:07-07:00","user":{"_class":"user","title":"","name":"","display_name":"Deivaraja M","image_50x50":"https://img-c.udemycdn.com/user/50x50/anonymous_3.png","initials":"","tracking_id":"-P0DxewrRAGhUzz4En1X3w","public_display_name":"Udemy User"},"response":null,"content_html":"<p>Well Done .The Comparison of PostgreSQL and MS SQL very Useful. Easy to Understand and never forget the basic concepts Thank you Staffs.</p>","created_formatted_with_time_since":"a month ago"},{"_class":"course_review","id":117791870,"content":"Me recomendaron este curso en mi formación como técnico de soporte y, la verdad, es que es muy completo y muy bien explicado y las prácticas que proponen son un  plus","rating":5.0,"created":"2022-07-02T00:48:29-07:00","modified":"2022-07-04T16:03:56-07:00","user_modified":"2022-07-02T00:50:44-07:00","user":{"_class":"user","title":"Mar Sampedro Pérez","name":"Mar Sampedro","display_name":"Mar Sampedro Pérez","image_50x50":"https://img-c.udemycdn.com/user/50x50/anonymous_3.png","initials":"MP","tracking_id":"nFVLVEX4SZCg17uvnRz2Sw","public_display_name":"Mar Sampedro P."},"response":null,"content_html":"<p>Me recomendaron este curso en mi formación como técnico de soporte y, la verdad, es que es muy completo y muy bien explicado y las prácticas que proponen son un  plus</p>","created_formatted_with_time_since":"2 months ago"},{"_class":"course_review","id":115185126,"content":"It is a great course for understanding fundamental and compulsory concepts for kicking a start in the world of databases.","rating":4.5,"created":"2022-05-30T00:08:26-07:00","modified":"2022-06-02T21:10:37-07:00","user_modified":"2022-05-30T00:12:25-07:00","user":{"_class":"user","title":"Syed Muhammad Ajwad","name":"Syed Muhammad","display_name":"Syed Muhammad Ajwad","image_50x50":"https://img-c.udemycdn.com/user/50x50/anonymous_3.png","initials":"SA","tracking_id":"FftDKpvSQoKQ0Fkw48WAEg","public_display_name":"Syed Muhammad A."},"response":null,"content_html":"<p>It is a great course for understanding fundamental and compulsory concepts for kicking a start in the world of databases.</p>","created_formatted_with_time_since":"3 months ago"},{"_class":"course_review","id":114427218,"content":"Wow, Amazing Course \nEverything is explained so nicely.","rating":5.0,"created":"2022-05-20T02:35:32-07:00","modified":"2022-06-16T11:19:56-07:00","user_modified":"2022-06-16T11:19:56-07:00","user":{"_class":"user","title":"Swati Srivastava","name":"Swati","display_name":"Swati Srivastava","image_50x50":"https://img-c.udemycdn.com/user/50x50/anonymous_3.png","initials":"SS","tracking_id":"WqiR1MjJTJqYMd3zu_zSug","public_display_name":"Swati S."},"response":null,"content_html":"<p>Wow, Amazing Course <br>Everything is explained so nicely.</p>","created_formatted_with_time_since":"3 months ago"},{"_class":"course_review","id":108578088,"content":"All the course was informmative and easy to understand and the no of questions and worries have are high but this course helped me in clearing those worries and this course is worth the time if anyone want to try.","rating":5.0,"created":"2022-02-28T21:07:03-08:00","modified":"2022-03-01T15:04:12-08:00","user_modified":"2022-02-28T21:08:48-08:00","user":{"_class":"user","title":"Eswar Kumar","name":"Eswar","display_name":"Eswar Kumar","image_50x50":"https://img-c.udemycdn.com/user/50x50/anonymous_3.png","initials":"EK","tracking_id":"mpXSwFc-RDiaX0jJbdMJfw","public_display_name":"Eswar K."},"response":null,"content_html":"<p>All the course was informmative and easy to understand and the no of questions and worries have are high but this course helped me in clearing those worries and this course is worth the time if anyone want to try.</p>","created_formatted_with_time_since":"6 months ago"},{"_class":"course_review","id":118556620,"content":"I was hoping more in-depth data modeling and real challenge. This was pretty basic course. Section 9 was something that I was looking for more.","rating":3.0,"created":"2022-07-12T06:39:30-07:00","modified":"2022-07-13T16:08:58-07:00","user_modified":"2022-07-12T06:41:37-07:00","user":{"_class":"user","title":"Jussi-Pekka Pitkänen","name":"Jussi-Pekka","display_name":"Jussi-Pekka Pitkänen","image_50x50":"https://img-c.udemycdn.com/user/50x50/anonymous_3.png","initials":"JP","tracking_id":"v-Dgdcz2Q8uSecVtSbbYNA","public_display_name":"Jussi-Pekka P."},"response":null,"content_html":"<p>I was hoping more in-depth data modeling and real challenge. This was pretty basic course. Section 9 was something that I was looking for more.</p>","created_formatted_with_time_since":"a month ago"},{"_class":"course_review","id":115990676,"content":"Very basic yet fundamental. Not a lot of practice, mostly examples. I recommend this course to those who are making their very first steps with SQL. Be aware that the content is heavily duplicated for 2 platforms: PostgreSQL and MS Server SQL so the total content of the course to actually learn is half of the hours than those in the description.\nPros:\n1. The instructors are clear and succinct.\n2. Good basic tips that will save you later on.\n3. Real world databases to work with to get a solid impression.\n\nCons:\n1. Does not cover what you need for an actual interview.\n2. Imoprtant (NOT advanced) features of SQL like \"Having\", \"In/Not in\", Aggregation Functions, Triggers, Functions, Views and Security are not covered.\n3. No real problems to solve, simple quizes with obvious answers so there is no real \"doing\".\n\nThe course is outdated, and the vary basics of the work environment are not explained, so you might encounter a lot of technical problems, but hey, that's just the way it is :).\n\nOverall, the course is useful to get an overall picture of the subject.","rating":3.0,"created":"2022-06-08T23:33:51-07:00","modified":"2022-06-09T16:08:32-07:00","user_modified":"2022-06-09T00:11:47-07:00","user":{"_class":"user","title":"Timor T","name":"Timor","display_name":"Timor T","image_50x50":"https://img-c.udemycdn.com/user/50x50/anonymous_3.png","initials":"TT","tracking_id":"UF_xBaVrRTakB69ty8s6UA","public_display_name":"Timor T."},"response":null,"content_html":"<p>Very basic yet fundamental. Not a lot of practice, mostly examples. I recommend this course to those who are making their very first steps with SQL. Be aware that the content is heavily duplicated for 2 platforms: PostgreSQL and MS Server SQL so the total content of the course to actually learn is half of the hours than those in the description.<br>Pros:<br>1. The instructors are clear and succinct.<br>2. Good basic tips that will save you later on.<br>3. Real world databases to work with to get a solid impression.</p>\n\n<p>Cons:<br>1. Does not cover what you need for an actual interview.<br>2. Imoprtant (NOT advanced) features of SQL like \"Having\", \"In/Not in\", Aggregation Functions, Triggers, Functions, Views and Security are not covered.<br>3. No real problems to solve, simple quizes with obvious answers so there is no real \"doing\".</p>\n\n<p>The course is outdated, and the vary basics of the work environment are not explained, so you might encounter a lot of technical problems, but hey, that's just the way it is :).</p>\n\n<p>Overall, the course is useful to get an overall picture of the subject.</p>","created_formatted_with_time_since":"2 months ago"},{"_class":"course_review","id":113307246,"content":"I am gaining  knowledge to perform tasks efficiently","rating":4.5,"created":"2022-05-05T05:01:47-07:00","modified":"2022-06-09T08:08:31-07:00","user_modified":"2022-06-09T08:08:31-07:00","user":{"_class":"user","title":"NCB Analyst Training","name":"NCB Analyst","display_name":"NCB Analyst Training","image_50x50":"https://img-c.udemycdn.com/user/50x50/anonymous_3.png","initials":"NT","tracking_id":"kc3prb-ZS6m9sf0TesBdGg","public_display_name":"NCB Analyst T."},"response":null,"content_html":"<p>I am gaining  knowledge to perform tasks efficiently</p>","created_formatted_with_time_since":"4 months ago"},{"_class":"course_review","id":111308674,"content":"Good explanation of the basics.  I like the combination MSSQL and PostgreSQL demos and exercises.","rating":4.0,"created":"2022-04-06T13:09:08-07:00","modified":"2022-04-07T16:04:48-07:00","user_modified":"2022-04-06T13:10:21-07:00","user":{"_class":"user","title":"Jeffrey Johnson","name":"Jeffrey","display_name":"Jeffrey Johnson","image_50x50":"https://img-c.udemycdn.com/user/50x50/anonymous_3.png","initials":"JJ","tracking_id":"fo9V7KVPR1-OqRR82xO4kQ","public_display_name":"Jeffrey J."},"response":null,"content_html":"<p>Good explanation of the basics.  I like the combination MSSQL and PostgreSQL demos and exercises.</p>","created_formatted_with_time_since":"4 months ago"},{"_class":"course_review","id":107259710,"content":"Good course in that it covers two SQL versions. But concepts are explained twice from the same script, so it's clear that this was meant to be two courses and they were combined without editing that would have added understanding.\n\nEverything was well explained.","rating":3.5,"created":"2022-02-10T12:23:06-08:00","modified":"2022-02-12T15:06:15-08:00","user_modified":"2022-02-10T12:24:39-08:00","user":{"_class":"user","title":"Philip G","name":"Philip","display_name":"Philip G","image_50x50":"https://img-c.udemycdn.com/user/50x50/anonymous_3.png","initials":"PG","tracking_id":"4FQFpXNNRteiR_IVdSH9-g","public_display_name":"Philip G."},"response":null,"content_html":"<p>Good course in that it covers two SQL versions. But concepts are explained twice from the same script, so it's clear that this was meant to be two courses and they were combined without editing that would have added understanding.</p>\n\n<p>Everything was well explained.</p>","created_formatted_with_time_since":"6 months ago"},{"_class":"course_review","id":113863052,"content":"Not as well delivered as other courses I’ve taken.","rating":3.5,"created":"2022-05-12T12:12:10-07:00","modified":"2022-06-03T23:54:22-07:00","user_modified":"2022-06-03T23:54:22-07:00","user":{"_class":"user","title":"Daniel Ousherovitch","name":"Daniel","display_name":"Daniel Ousherovitch","image_50x50":"https://img-c.udemycdn.com/user/50x50/anonymous_3.png","initials":"DO","tracking_id":"sUoE6YQLSeqgS39y7x5ccA","public_display_name":"Daniel O."},"response":null,"content_html":"<p>Not as well delivered as other courses I’ve taken.</p>","created_formatted_with_time_since":"3 months ago"}]}