{"count":2407,"next":"https://www.udemy.com/api-2.0/courses/1045092/reviews/?courseId=1045092&fields%5Bcourse_review%5D=%40default%2Cresponse%2Ccontent_html%2Ccreated_formatted_with_time_since&fields%5Bcourse_review_response%5D=%40min%2Cuser%2Ccontent_html%2Ccreated_formatted_with_time_since&fields%5Buser%5D=%40min%2Cimage_50x50%2Cinitials%2Cpublic_display_name%2Ctracking_id&is_text_review=1&ordering=course_review_score__rank%2C-created&page=2","previous":null,"results":[{"_class":"course_review","id":119802840,"content":"Brent is an incredible instructor. He describes the drawing process in a way that is so understandable. I never tried drawing because I’m not “artsy”. He explains how drawing is a learnable skill that anyone can learn with dedicated practice. I’m going to take all his courses!","rating":5.0,"created":"2022-07-27T16:34:44-07:00","modified":"2022-07-29T16:17:05-07:00","user_modified":"2022-07-27T16:37:03-07:00","user":{"_class":"user","title":"Elizabeth Rogers","name":"Elizabeth","display_name":"Elizabeth Rogers","image_50x50":"https://img-c.udemycdn.com/user/50x50/anonymous_3.png","initials":"ER","tracking_id":"hrrkB3U-RM-KmzVekZyLlQ","public_display_name":"Elizabeth R."},"response":null,"content_html":"<p>Brent is an incredible instructor. He describes the drawing process in a way that is so understandable. I never tried drawing because I’m not “artsy”. He explains how drawing is a learnable skill that anyone can learn with dedicated practice. I’m going to take all his courses!</p>","created_formatted_with_time_since":"a month ago"},{"_class":"course_review","id":117466376,"content":"Overall I found this course to be great, but the fact that the video talking about materials is in the bonus section and is not the very first video in the course is so confusing to me.","rating":4.0,"created":"2022-06-28T08:19:34-07:00","modified":"2022-06-29T16:11:59-07:00","user_modified":"2022-06-28T08:20:15-07:00","user":{"_class":"user","title":"Bridget Lowery","name":"Bridget","display_name":"Bridget Lowery","image_50x50":"https://img-c.udemycdn.com/user/50x50/anonymous_3.png","initials":"BL","tracking_id":"r4s8qsU7TBCDAZxsrxXKLg","public_display_name":"Bridget L."},"response":null,"content_html":"<p>Overall I found this course to be great, but the fact that the video talking about materials is in the bonus section and is not the very first video in the course is so confusing to me.</p>","created_formatted_with_time_since":"2 months ago"},{"_class":"course_review","id":116488270,"content":"Excellent instruction.  Clear directions.  Encouraging and inviting. Brent, thank you for your attention to detail and presenting such thorough demos.  I have learned a lot very quickly.","rating":5.0,"created":"2022-06-15T13:47:30-07:00","modified":"2022-06-17T16:05:33-07:00","user_modified":"2022-06-15T13:51:45-07:00","user":{"_class":"user","title":"Rebecca J Westberg","name":"Rebecca J","display_name":"Rebecca J Westberg","image_50x50":"https://img-c.udemycdn.com/user/50x50/anonymous_3.png","initials":"RW","tracking_id":"RDs8g3BjQUq3V9sQVaHYEA","public_display_name":"Rebecca J W."},"response":null,"content_html":"<p>Excellent instruction.  Clear directions.  Encouraging and inviting. Brent, thank you for your attention to detail and presenting such thorough demos.  I have learned a lot very quickly.</p>","created_formatted_with_time_since":"2 months ago"},{"_class":"course_review","id":109884054,"content":"A fantastic course. The explanation are so easy to understand and follow. I have learnt and understood exactly what it takes to draw through the well explained and well demonstrated lectures.","rating":5.0,"created":"2022-03-18T02:17:47-07:00","modified":"2022-04-08T23:14:42-07:00","user_modified":"2022-04-08T23:14:42-07:00","user":{"_class":"user","title":"Karen","name":"Karen","display_name":"Karen","image_50x50":"https://img-c.udemycdn.com/user/50x50/anonymous_3.png","initials":"K","tracking_id":"AUntngbiQLCPLivj1lUyfA","public_display_name":"Karen"},"response":null,"content_html":"<p>A fantastic course. The explanation are so easy to understand and follow. I have learnt and understood exactly what it takes to draw through the well explained and well demonstrated lectures.</p>","created_formatted_with_time_since":"5 months ago"},{"_class":"course_review","id":116314036,"content":"I wanted something to get me back into art, specifically by going back to basics. This course did that and made the basics interesting. Thanks Brent.","rating":5.0,"created":"2022-06-13T14:39:05-07:00","modified":"2022-06-15T16:08:23-07:00","user_modified":"2022-06-13T14:41:55-07:00","user":{"_class":"user","title":"Elizabeth D'Aste","name":"Elizabeth","display_name":"Elizabeth D'Aste","image_50x50":"https://img-c.udemycdn.com/user/50x50/anonymous_3.png","initials":"ED","tracking_id":"cHULfF4aS5Oe_hiOeWu5bQ","public_display_name":"Elizabeth D."},"response":null,"content_html":"<p>I wanted something to get me back into art, specifically by going back to basics. This course did that and made the basics interesting. Thanks Brent.</p>","created_formatted_with_time_since":"2 months ago"},{"_class":"course_review","id":120028058,"content":"I loved this course. Not only the content is high quality and shows you how to learn drawing, the quality of the videos themselves is the best seen so far in online training. The only thing I miss is the sound of the pencil on the paper.","rating":5.0,"created":"2022-07-30T14:12:49-07:00","modified":"2022-07-31T16:05:22-07:00","user_modified":"2022-07-30T14:12:49-07:00","user":{"_class":"user","title":"Nathalie Ramis","name":"Nathalie","display_name":"Nathalie Ramis","image_50x50":"https://img-c.udemycdn.com/user/50x50/anonymous_3.png","initials":"NR","tracking_id":"RZxwzTFcQ5WiZKsPczjG-g","public_display_name":"Nathalie R."},"response":null,"content_html":"<p>I loved this course. Not only the content is high quality and shows you how to learn drawing, the quality of the videos themselves is the best seen so far in online training. The only thing I miss is the sound of the pencil on the paper.</p>","created_formatted_with_time_since":"a month ago"},{"_class":"course_review","id":121021994,"content":"Making progress slowly; but its great to start with basic skills rather than trying to do even simple drawings.","rating":5.0,"created":"2022-08-12T03:05:28-07:00","modified":"2022-08-13T16:10:34-07:00","user_modified":"2022-08-12T03:07:55-07:00","user":{"_class":"user","title":"David Alexander","name":"David","display_name":"David Alexander","image_50x50":"https://img-c.udemycdn.com/user/50x50/anonymous_3.png","initials":"DA","tracking_id":"sYwCul_zTM67KbPZrPfyfA","public_display_name":"David A."},"response":null,"content_html":"<p>Making progress slowly; but its great to start with basic skills rather than trying to do even simple drawings.</p>","created_formatted_with_time_since":"3 weeks ago"},{"_class":"course_review","id":117102048,"content":"Outstanding in everyway. I find myself using the practice steps from this course everyday. Highly recommended to lay a foundation that you can build on. I have purchased all 7 of the Art & Science of Drawing and look forward to further developing my drawing skills.","rating":5.0,"created":"2022-06-23T11:24:08-07:00","modified":"2022-06-24T16:08:14-07:00","user_modified":"2022-06-23T11:28:52-07:00","user":{"_class":"user","title":"Rob Silvey","name":"Rob","display_name":"Rob Silvey","image_50x50":"https://img-c.udemycdn.com/user/50x50/anonymous_3.png","initials":"RS","tracking_id":"KnNLa12sQWuW3nef-RB3Uw","public_display_name":"Rob S."},"response":null,"content_html":"<p>Outstanding in everyway. I find myself using the practice steps from this course everyday. Highly recommended to lay a foundation that you can build on. I have purchased all 7 of the Art & Science of Drawing and look forward to further developing my drawing skills.</p>","created_formatted_with_time_since":"2 months ago"},{"_class":"course_review","id":117946812,"content":"This was exactly what I was looking for! The instructions are detailed but not overwhelmingly so. The pacing is superb, I never felt bored or that it was moving too fast. I will definitely watch this course more than once.","rating":5.0,"created":"2022-07-04T11:07:17-07:00","modified":"2022-07-05T16:15:55-07:00","user_modified":"2022-07-04T11:07:17-07:00","user":{"_class":"user","title":"Dallas","name":"Dallas","display_name":"Dallas","image_50x50":"https://img-c.udemycdn.com/user/50x50/anonymous_3.png","initials":"D","tracking_id":"v8yVsP_PT_K_zwKbh_DNxg","public_display_name":"Dallas"},"response":null,"content_html":"<p>This was exactly what I was looking for! The instructions are detailed but not overwhelmingly so. The pacing is superb, I never felt bored or that it was moving too fast. I will definitely watch this course more than once.</p>","created_formatted_with_time_since":"2 months ago"},{"_class":"course_review","id":111974462,"content":"So glad I chose this course. Brent is a great teacher.  Very easy to follow and take in.  My drawing techniques have gone from 4 to 8 in a few lessons.  By the time I have finished this course I know I will have achieved my goal to 10 and will be able to draw anything I like, at last.  Thank you Brent.","rating":5.0,"created":"2022-04-16T09:07:36-07:00","modified":"2022-04-17T16:07:40-07:00","user_modified":"2022-04-17T10:57:33-07:00","user":{"_class":"user","title":"Shawdian Uttley","name":"Shawdian","display_name":"Shawdian Uttley","image_50x50":"https://img-c.udemycdn.com/user/50x50/69677388_518a_2.jpg","initials":"SU","tracking_id":"xUtpAlF3Q4yItkJgekOTVQ","public_display_name":"Shawdian U."},"response":null,"content_html":"<p>So glad I chose this course. Brent is a great teacher.  Very easy to follow and take in.  My drawing techniques have gone from 4 to 8 in a few lessons.  By the time I have finished this course I know I will have achieved my goal to 10 and will be able to draw anything I like, at last.  Thank you Brent.</p>","created_formatted_with_time_since":"4 months ago"},{"_class":"course_review","id":115337108,"content":"The course is amazing! I am a total beginner in drawing and this course gave me a lot of info about how to improve myself! I will definitely enroll in the rest of the courses!","rating":5.0,"created":"2022-05-31T13:48:02-07:00","modified":"2022-06-02T21:10:58-07:00","user_modified":"2022-05-31T13:50:14-07:00","user":{"_class":"user","title":"Todor Kostov","name":"Todor","display_name":"Todor Kostov","image_50x50":"https://img-c.udemycdn.com/user/50x50/anonymous_3.png","initials":"TK","tracking_id":"jCWaKJ4GQzGTOMzwWaVM5w","public_display_name":"Todor K."},"response":null,"content_html":"<p>The course is amazing! I am a total beginner in drawing and this course gave me a lot of info about how to improve myself! I will definitely enroll in the rest of the courses!</p>","created_formatted_with_time_since":"3 months ago"},{"_class":"course_review","id":115651592,"content":"It’s really good. He is patient, clear, and concise - explaining with necessary detail but no more.","rating":5.0,"created":"2022-06-04T21:53:46-07:00","modified":"2022-06-05T16:05:59-07:00","user_modified":"2022-06-04T21:53:46-07:00","user":{"_class":"user","title":"Mark Hary","name":"Mark","display_name":"Mark Hary","image_50x50":"https://img-c.udemycdn.com/user/50x50/66263096_396a_2.jpg","initials":"MH","tracking_id":"4o3deqfHRGO7WHrtMm6JQQ","public_display_name":"Mark H."},"response":null,"content_html":"<p>It’s really good. He is patient, clear, and concise - explaining with necessary detail but no more.</p>","created_formatted_with_time_since":"2 months ago"}]}