{"count":1068,"next":"https://www.udemy.com/api-2.0/courses/1047436/reviews/?courseId=1047436&fields%5Bcourse_review%5D=%40default%2Cresponse%2Ccontent_html%2Ccreated_formatted_with_time_since&fields%5Bcourse_review_response%5D=%40min%2Cuser%2Ccontent_html%2Ccreated_formatted_with_time_since&fields%5Buser%5D=%40min%2Cimage_50x50%2Cinitials%2Cpublic_display_name%2Ctracking_id&is_text_review=1&ordering=course_review_score__rank%2C-created&page=2","previous":null,"results":[{"_class":"course_review","id":120956314,"content":"Rich is a super teacher. He explained everything very good. The course is motivating and the excercises are apropriate for the particular subject without being boring. \nI learned a lot and the learning speed in the course is excellent. Rich has chosen a perfect depth of the new skills he explained in every section. There is never too less or the too much.\nI came from another course that i did not end, because the practices did not fit me, it was to boring. But different people are for different courses. Give Rich a try. It is worth it.\nNow i have to begin part 2. Im looking forward to this.\n\n[sorry for mistakes in this text. im not in english native speaker :) ]","rating":5.0,"created":"2022-08-11T06:48:41-07:00","modified":"2022-08-12T16:12:16-07:00","user_modified":"2022-08-11T07:01:58-07:00","user":{"_class":"user","title":"Chris","name":"Chris","display_name":"Chris","image_50x50":"https://img-c.udemycdn.com/user/50x50/anonymous_3.png","initials":"C","tracking_id":"4dZ0u9mWQuKxuU2vIE8-ZQ","public_display_name":"Chris"},"response":null,"content_html":"<p>Rich is a super teacher. He explained everything very good. The course is motivating and the excercises are apropriate for the particular subject without being boring. <br>I learned a lot and the learning speed in the course is excellent. Rich has chosen a perfect depth of the new skills he explained in every section. There is never too less or the too much.<br>I came from another course that i did not end, because the practices did not fit me, it was to boring. But different people are for different courses. Give Rich a try. It is worth it.<br>Now i have to begin part 2. Im looking forward to this.</p>\n\n<p>[sorry for mistakes in this text. im not in english native speaker :) ]</p>","created_formatted_with_time_since":"3 weeks ago"},{"_class":"course_review","id":119074188,"content":"Other teachers have made me feel not good enough for making mistakes or for not falling in line with precise instructions immediately. Rich makes me feel like I'm okay to make mistakes and my modest beginnings are good enough for a start.","rating":4.0,"created":"2022-07-18T21:02:27-07:00","modified":"2022-07-19T16:13:34-07:00","user_modified":"2022-07-18T21:03:40-07:00","user":{"_class":"user","title":"Jonathan Harmon","name":"Jonathan","display_name":"Jonathan Harmon","image_50x50":"https://img-c.udemycdn.com/user/50x50/anonymous_3.png","initials":"JH","tracking_id":"jRgHbkI-RRqa9CTPz7W_kQ","public_display_name":"Jonathan H."},"response":null,"content_html":"<p>Other teachers have made me feel not good enough for making mistakes or for not falling in line with precise instructions immediately. Rich makes me feel like I'm okay to make mistakes and my modest beginnings are good enough for a start.</p>","created_formatted_with_time_since":"a month ago"},{"_class":"course_review","id":117040832,"content":"Me pareció muy entretenido, enseña muchas cosas básicas y tiene muchos ejercicios que son muy entretenidos para practicar","rating":5.0,"created":"2022-06-22T20:12:39-07:00","modified":"2022-06-23T16:15:51-07:00","user_modified":"2022-06-22T20:13:53-07:00","user":{"_class":"user","title":"Katia Alcántara Sánchez","name":"Katia","display_name":"Katia Alcántara Sánchez","image_50x50":"https://img-c.udemycdn.com/user/50x50/anonymous_3.png","initials":"KA","tracking_id":"QxfOoUUAQ1uwSbwRMzcoAQ","public_display_name":"Katia A."},"response":null,"content_html":"<p>Me pareció muy entretenido, enseña muchas cosas básicas y tiene muchos ejercicios que son muy entretenidos para practicar</p>","created_formatted_with_time_since":"2 months ago"},{"_class":"course_review","id":115515870,"content":"great for the beginner with detailed easy explanations and plenty of opportunity to practice the exercises","rating":5.0,"created":"2022-06-02T15:53:58-07:00","modified":"2022-06-03T16:09:42-07:00","user_modified":"2022-06-02T15:55:00-07:00","user":{"_class":"user","title":"George McKenna","name":"George","display_name":"George McKenna","image_50x50":"https://img-c.udemycdn.com/user/50x50/anonymous_3.png","initials":"GM","tracking_id":"H9qwAgl5SM2k8xbEJqY8Fw","public_display_name":"George M."},"response":null,"content_html":"<p>great for the beginner with detailed easy explanations and plenty of opportunity to practice the exercises</p>","created_formatted_with_time_since":"3 months ago"},{"_class":"course_review","id":114329658,"content":"I am pleased with this course. It was exactly what I have been looking for and exactly what I was told it would be. I liked it very much and I'm looking forward to the next courses and learn more about drawing!","rating":4.0,"created":"2022-05-18T23:59:44-07:00","modified":"2022-05-19T16:05:42-07:00","user_modified":"2022-05-19T00:01:33-07:00","user":{"_class":"user","title":"Philip Pelzer","name":"Philip","display_name":"Philip Pelzer","image_50x50":"https://img-c.udemycdn.com/user/50x50/anonymous_3.png","initials":"PP","tracking_id":"yMDTVqUNRQqpqwVbDtr1zQ","public_display_name":"Philip P."},"response":null,"content_html":"<p>I am pleased with this course. It was exactly what I have been looking for and exactly what I was told it would be. I liked it very much and I'm looking forward to the next courses and learn more about drawing!</p>","created_formatted_with_time_since":"3 months ago"},{"_class":"course_review","id":112980544,"content":"I'd prefer more structure in lectures. Sometimes I had a feeling that instructor doesn't know what he is going to talk about. And there times when the teacher is like \"oh, look, I made a mistake, ha-ha, you see I can make mistakes too\". It's fine first 2-3 times, but then it just becomes annoying.\nBut I guess that for some people his style of teaching is more suitable.","rating":3.5,"created":"2022-04-30T09:32:08-07:00","modified":"2022-05-01T16:08:59-07:00","user_modified":"2022-04-30T09:48:40-07:00","user":{"_class":"user","title":"Olga","name":"Olga","display_name":"Olga","image_50x50":"https://img-c.udemycdn.com/user/50x50/anonymous_3.png","initials":"O","tracking_id":"QmnZ8MHMTO-OFc14IIt1eg","public_display_name":"Olga"},"response":null,"content_html":"<p>I'd prefer more structure in lectures. Sometimes I had a feeling that instructor doesn't know what he is going to talk about. And there times when the teacher is like \"oh, look, I made a mistake, ha-ha, you see I can make mistakes too\". It's fine first 2-3 times, but then it just becomes annoying.<br>But I guess that for some people his style of teaching is more suitable.</p>","created_formatted_with_time_since":"4 months ago"},{"_class":"course_review","id":108693818,"content":"I never had a good art teacher in my whole life. I love the foundations provided in this course, pretty helpful. Thanks!","rating":5.0,"created":"2022-03-02T04:49:57-08:00","modified":"2022-03-03T21:18:32-08:00","user_modified":"2022-03-02T04:51:30-08:00","user":{"_class":"user","title":"Ruqaya Saif","name":"Ruqaya","display_name":"Ruqaya Saif","image_50x50":"https://img-c.udemycdn.com/user/50x50/anonymous_3.png","initials":"RS","tracking_id":"66MKK-bBTIGGdzdZaT-4_Q","public_display_name":"Ruqaya S."},"response":null,"content_html":"<p>I never had a good art teacher in my whole life. I love the foundations provided in this course, pretty helpful. Thanks!</p>","created_formatted_with_time_since":"6 months ago"},{"_class":"course_review","id":112082052,"content":"Very useful for beginners, easy to follow and understand the lessons in simple explanations for those who feel intimidated by drawing but would like to hone their skills and become better artists right from start. Enough opportunities to practise sketching and drawing lines, basic forms and organic shapes. This course really makes you comfortable as a total beginner to improve your skills from zero. You build confidence with simplicity. I needed this course as a total beginner and I'm really happy to have signed up for it.","rating":5.0,"created":"2022-04-18T07:00:21-07:00","modified":"2022-04-19T16:20:22-07:00","user_modified":"2022-04-18T07:12:29-07:00","user":{"_class":"user","title":"David Archvadze","name":"David","display_name":"David Archvadze","image_50x50":"https://img-c.udemycdn.com/user/50x50/anonymous_3.png","initials":"DA","tracking_id":"EqWq_h_GQt60pbv0ExLI8w","public_display_name":"David A."},"response":null,"content_html":"<p>Very useful for beginners, easy to follow and understand the lessons in simple explanations for those who feel intimidated by drawing but would like to hone their skills and become better artists right from start. Enough opportunities to practise sketching and drawing lines, basic forms and organic shapes. This course really makes you comfortable as a total beginner to improve your skills from zero. You build confidence with simplicity. I needed this course as a total beginner and I'm really happy to have signed up for it.</p>","created_formatted_with_time_since":"4 months ago"},{"_class":"course_review","id":110092526,"content":"Excellent course, highly recommended","rating":5.0,"created":"2022-03-21T09:35:35-07:00","modified":"2022-03-22T16:06:12-07:00","user_modified":"2022-03-21T09:38:57-07:00","user":{"_class":"user","title":"Ronit Shina","name":"Ronit","display_name":"Ronit Shina","image_50x50":"https://img-c.udemycdn.com/user/50x50/anonymous_3.png","initials":"RS","tracking_id":"Wn4LIlh-QV2g2iyTSoT3wg","public_display_name":"Ronit S."},"response":null,"content_html":"<p>Excellent course, highly recommended</p>","created_formatted_with_time_since":"5 months ago"},{"_class":"course_review","id":115071868,"content":"I have learned so much from the instructor in a linear way where I can really track progress. This is exactly what I was looking for as an adult with no drawing skills but a desire to improve!","rating":5.0,"created":"2022-05-27T22:30:09-07:00","modified":"2022-06-24T22:39:27-07:00","user_modified":"2022-06-24T22:39:27-07:00","user":{"_class":"user","title":"Adam Parker","name":"Adam","display_name":"Adam Parker","image_50x50":"https://img-c.udemycdn.com/user/50x50/anonymous_3.png","initials":"AP","tracking_id":"JNPBe6chQrezClE9v-D1cw","public_display_name":"Adam P."},"response":null,"content_html":"<p>I have learned so much from the instructor in a linear way where I can really track progress. This is exactly what I was looking for as an adult with no drawing skills but a desire to improve!</p>","created_formatted_with_time_since":"3 months ago"},{"_class":"course_review","id":121317408,"content":"Very friendly for beginners :), the instructor is awesome and a great motivator as well.","rating":5.0,"created":"2022-08-16T10:46:40-07:00","modified":"2022-08-26T13:58:09-07:00","user_modified":"2022-08-26T13:58:09-07:00","user":{"_class":"user","title":"Museme Amudala","name":"Museme","display_name":"Museme Amudala","image_50x50":"https://img-c.udemycdn.com/user/50x50/anonymous_3.png","initials":"MA","tracking_id":"1z2-j6xIQyOE_dUiFzJtiw","public_display_name":"Museme A."},"response":null,"content_html":"<p>Very friendly for beginners :), the instructor is awesome and a great motivator as well.</p>","created_formatted_with_time_since":"2 weeks ago"},{"_class":"course_review","id":114781102,"content":"I was expecting more information with real time drawing and not using digital tools to teach.The instructor says it’s a traditional course but doesn’t use any traditional tool to demonstrate any assignment.The section on shadow doesn’t explain anything else other than caste shadow.There we’re so many unsatisfactory moments through the lessons, not worthy of my time and money.I am sorry that I spend my money on this course.Too much waste of time………","rating":2.0,"created":"2022-05-24T14:25:27-07:00","modified":"2022-05-26T16:08:46-07:00","user_modified":"2022-05-24T14:29:06-07:00","user":{"_class":"user","title":"Shalini Pachauli","name":"Shalini","display_name":"Shalini Pachauli","image_50x50":"https://img-c.udemycdn.com/user/50x50/anonymous_3.png","initials":"SP","tracking_id":"vXenW5fZQhKZXTe6a_NKXw","public_display_name":"Shalini P."},"response":null,"content_html":"<p>I was expecting more information with real time drawing and not using digital tools to teach.The instructor says it’s a traditional course but doesn’t use any traditional tool to demonstrate any assignment.The section on shadow doesn’t explain anything else other than caste shadow.There we’re so many unsatisfactory moments through the lessons, not worthy of my time and money.I am sorry that I spend my money on this course.Too much waste of time………</p>","created_formatted_with_time_since":"3 months ago"}]}