{"count":2560,"next":"https://www.udemy.com/api-2.0/courses/1047846/reviews/?courseId=1047846&fields%5Bcourse_review%5D=%40default%2Cresponse%2Ccontent_html%2Ccreated_formatted_with_time_since&fields%5Bcourse_review_response%5D=%40min%2Cuser%2Ccontent_html%2Ccreated_formatted_with_time_since&fields%5Buser%5D=%40min%2Cimage_50x50%2Cinitials%2Cpublic_display_name%2Ctracking_id&is_text_review=1&ordering=course_review_score__rank%2C-created&page=2","previous":null,"results":[{"_class":"course_review","id":119915784,"content":"Sometimes the concepts have NOT been explained clearly in the course.  The course flow can be organized in a better way rather than jumping among different topics.","rating":2.5,"created":"2022-07-28T23:47:30-07:00","modified":"2022-07-29T16:06:01-07:00","user_modified":"2022-07-28T23:49:03-07:00","user":{"_class":"user","title":"Judy Tse Sheng Wang","name":"Judy Tse Sheng","display_name":"Judy Tse Sheng Wang","image_50x50":"https://img-c.udemycdn.com/user/50x50/anonymous_3.png","initials":"JW","tracking_id":"MRxBDlKyTrSpXnlvQTxhSw","public_display_name":"Judy Tse Sheng W."},"response":null,"content_html":"<p>Sometimes the concepts have NOT been explained clearly in the course.  The course flow can be organized in a better way rather than jumping among different topics.</p>","created_formatted_with_time_since":"a month ago"},{"_class":"course_review","id":118627012,"content":"The content is very broad and useful. Although I was preparing just for the cloud practitioner certification, I watched all sections. The vast majority of videos were very understandable and I had no issues with them.\n\nThe reason why I gave 4 stars instead of 5 is that some videos are a bit outdated (AWS console got some UI updates and following steps in videos/labs was not always easy) and could be structured better (there were cases when in one section I saw a video part two and in the next one there were the first part; besides, in the last section most videos are duplicated from previous sections, putting them in a separate category would be much better)","rating":4.0,"created":"2022-07-13T01:40:30-07:00","modified":"2022-07-14T16:06:15-07:00","user_modified":"2022-07-13T01:45:32-07:00","user":{"_class":"user","title":"Dima Zuien","name":"Dima","display_name":"Dima Zuien","image_50x50":"https://img-c.udemycdn.com/user/50x50/102918297_862b_2.jpg","initials":"DZ","tracking_id":"iWJ3ukttTs2OcJgd4zrDTA","public_display_name":"Dima Z."},"response":null,"content_html":"<p>The content is very broad and useful. Although I was preparing just for the cloud practitioner certification, I watched all sections. The vast majority of videos were very understandable and I had no issues with them.</p>\n\n<p>The reason why I gave 4 stars instead of 5 is that some videos are a bit outdated (AWS console got some UI updates and following steps in videos/labs was not always easy) and could be structured better (there were cases when in one section I saw a video part two and in the next one there were the first part; besides, in the last section most videos are duplicated from previous sections, putting them in a separate category would be much better)</p>","created_formatted_with_time_since":"a month ago"},{"_class":"course_review","id":117394758,"content":"Took the sample certification test, reviewed the things I didn't know, then passed the exam first try.","rating":5.0,"created":"2022-06-27T14:19:18-07:00","modified":"2022-07-07T15:05:32-07:00","user_modified":"2022-07-07T15:05:32-07:00","user":{"_class":"user","title":"Gregory Tyler","name":"Gregory","display_name":"Gregory Tyler","image_50x50":"https://img-c.udemycdn.com/user/50x50/anonymous_3.png","initials":"GT","tracking_id":"AXq_bbb_Sn2TPDaOjLLIww","public_display_name":"Gregory T."},"response":null,"content_html":"<p>Took the sample certification test, reviewed the things I didn't know, then passed the exam first try.</p>","created_formatted_with_time_since":"2 months ago"},{"_class":"course_review","id":115425780,"content":"Some parts need to be updated, especially a couple of the more advanced labs. Otherwise, a very comprehensive and easy to grasp course.","rating":4.0,"created":"2022-06-01T14:14:58-07:00","modified":"2022-06-03T16:06:45-07:00","user_modified":"2022-06-01T14:15:36-07:00","user":{"_class":"user","title":"Brian Petty","name":"Brian","display_name":"Brian Petty","image_50x50":"https://img-c.udemycdn.com/user/50x50/26493004_ec8e.jpg","initials":"BP","tracking_id":"dxA-8hxkTeCAxNEDZjtrVw","public_display_name":"Brian P."},"response":null,"content_html":"<p>Some parts need to be updated, especially a couple of the more advanced labs. Otherwise, a very comprehensive and easy to grasp course.</p>","created_formatted_with_time_since":"3 months ago"},{"_class":"course_review","id":113171702,"content":"I am still going through the course videos and so far from what I have learnt this course is not just designed for passing an exam. It gives you real live examples and reasons as well as  explanations. The instructor aim is to make you learn what is required on the job and the concepts needed along the way. I have done  previous course already but decided to learn from another instructor .I can say have not regretted buying this course!\nI will recommend it to any one!","rating":5.0,"created":"2022-05-03T09:59:00-07:00","modified":"2022-05-12T09:04:53-07:00","user_modified":"2022-05-12T09:04:53-07:00","user":{"_class":"user","title":"Michael Gyekye","name":"Michael","display_name":"Michael Gyekye","image_50x50":"https://img-c.udemycdn.com/user/50x50/anonymous_3.png","initials":"MG","tracking_id":"CIeAx-h5QbSwIHK6R5z9bw","public_display_name":"Michael G."},"response":null,"content_html":"<p>I am still going through the course videos and so far from what I have learnt this course is not just designed for passing an exam. It gives you real live examples and reasons as well as  explanations. The instructor aim is to make you learn what is required on the job and the concepts needed along the way. I have done  previous course already but decided to learn from another instructor .I can say have not regretted buying this course!<br>I will recommend it to any one!</p>","created_formatted_with_time_since":"4 months ago"},{"_class":"course_review","id":112417392,"content":"hands on lab are very helpful and useful.","rating":5.0,"created":"2022-04-22T07:52:20-07:00","modified":"2022-05-23T07:18:02-07:00","user_modified":"2022-05-23T07:18:02-07:00","user":{"_class":"user","title":"Jighjigh Gberbo","name":"Jighjigh","display_name":"Jighjigh Gberbo","image_50x50":"https://img-c.udemycdn.com/user/50x50/anonymous_3.png","initials":"JG","tracking_id":"GgsR7ruxSBmIu6AJ3rxTfg","public_display_name":"Jighjigh G."},"response":null,"content_html":"<p>hands on lab are very helpful and useful.</p>","created_formatted_with_time_since":"4 months ago"},{"_class":"course_review","id":118258138,"content":"Not up to date for AWS SAA; it's probably good for AWS CCP","rating":3.0,"created":"2022-07-07T22:14:09-07:00","modified":"2022-07-08T16:12:26-07:00","user_modified":"2022-07-07T22:16:22-07:00","user":{"_class":"user","title":"Rajeev Patel","name":"Rajeev","display_name":"Rajeev Patel","image_50x50":"https://img-c.udemycdn.com/user/50x50/anonymous_3.png","initials":"RP","tracking_id":"WeMp-spnRaWM_yN2y_xA6A","public_display_name":"Rajeev P."},"response":null,"content_html":"<p>Not up to date for AWS SAA; it's probably good for AWS CCP</p>","created_formatted_with_time_since":"a month ago"},{"_class":"course_review","id":119429866,"content":"A Very Nice Explanation \nEspecially the Lab sessions were very understandable..","rating":4.0,"created":"2022-07-23T02:31:53-07:00","modified":"2022-07-24T16:06:03-07:00","user_modified":"2022-07-23T02:32:37-07:00","user":{"_class":"user","title":"Rakesh Gunja","name":"Rakesh","display_name":"Rakesh Gunja","image_50x50":"https://img-c.udemycdn.com/user/50x50/anonymous_3.png","initials":"RG","tracking_id":"M-z9N7w_SbWlkGtuY6m1YA","public_display_name":"Rakesh G."},"response":null,"content_html":"<p>A Very Nice Explanation <br>Especially the Lab sessions were very understandable..</p>","created_formatted_with_time_since":"a month ago"},{"_class":"course_review","id":111156452,"content":"It would help to give regular feedback on how far from the certification test the level of detail for the current section is.","rating":4.0,"created":"2022-04-04T20:50:07-07:00","modified":"2022-05-11T07:35:02-07:00","user_modified":"2022-05-11T07:35:02-07:00","user":{"_class":"user","title":"Louis Steyn","name":"Louis","display_name":"Louis Steyn","image_50x50":"https://img-c.udemycdn.com/user/50x50/anonymous_3.png","initials":"LS","tracking_id":"DCT_RA1pS5mhRJpwAcLxEA","public_display_name":"Louis S."},"response":null,"content_html":"<p>It would help to give regular feedback on how far from the certification test the level of detail for the current section is.</p>","created_formatted_with_time_since":"5 months ago"},{"_class":"course_review","id":120028628,"content":"nm mn n        nm mnbmbmbmb","rating":4.0,"created":"2022-07-30T14:28:48-07:00","modified":"2022-07-31T16:05:22-07:00","user_modified":"2022-07-31T01:30:00-07:00","user":{"_class":"user","title":"Mahadeo Daware","name":"Mahadeo","display_name":"Mahadeo Daware","image_50x50":"https://img-c.udemycdn.com/user/50x50/anonymous_3.png","initials":"MD","tracking_id":"Zo1gq53ESUKLWOKIQgWx4w","public_display_name":"Mahadeo D."},"response":null,"content_html":"<p>nm mn n        nm mnbmbmbmb</p>","created_formatted_with_time_since":"a month ago"},{"_class":"course_review","id":105513700,"content":"This is an old course and talks about the services back in 2017. But if you are just here for the information, go for it. However, if you want to pass the exam in 2022 or onwards, buy the latest and updated versions.","rating":3.5,"created":"2022-01-20T08:50:30-08:00","modified":"2022-01-21T15:06:06-08:00","user_modified":"2022-01-20T08:51:10-08:00","user":{"_class":"user","title":"Umer Farooq","name":"Umer","display_name":"Umer Farooq","image_50x50":"https://img-c.udemycdn.com/user/50x50/35077400_1f5f.jpg","initials":"UF","tracking_id":"cAKjaIhPTf65TiaD2lZpZQ","public_display_name":"Umer F."},"response":null,"content_html":"<p>This is an old course and talks about the services back in 2017. But if you are just here for the information, go for it. However, if you want to pass the exam in 2022 or onwards, buy the latest and updated versions.</p>","created_formatted_with_time_since":"7 months ago"},{"_class":"course_review","id":101885658,"content":"Covers a lot. It over prepares you which is not a bad thing. If you UNDERSTAND (emphasis on understand) what he is teaching, you should do well on the exams. Of course, try your hands on practice questions too before the exam.","rating":5.0,"created":"2021-12-05T20:22:31-08:00","modified":"2021-12-06T15:03:12-08:00","user_modified":"2021-12-05T20:24:59-08:00","user":{"_class":"user","title":"Adedapo Adeniyi","name":"Adedapo","display_name":"Adedapo Adeniyi","image_50x50":"https://img-c.udemycdn.com/user/50x50/anonymous_3.png","initials":"AA","tracking_id":"cBnzaFtXRDWuVaZktP9QYw","public_display_name":"Adedapo A."},"response":null,"content_html":"<p>Covers a lot. It over prepares you which is not a bad thing. If you UNDERSTAND (emphasis on understand) what he is teaching, you should do well on the exams. Of course, try your hands on practice questions too before the exam.</p>","created_formatted_with_time_since":"9 months ago"}]}