{"count":554,"next":"https://www.udemy.com/api-2.0/courses/109880/reviews/?courseId=109880&fields%5Bcourse_review%5D=%40default%2Cresponse%2Ccontent_html%2Ccreated_formatted_with_time_since&fields%5Bcourse_review_response%5D=%40min%2Cuser%2Ccontent_html%2Ccreated_formatted_with_time_since&fields%5Buser%5D=%40min%2Cimage_50x50%2Cinitials%2Cpublic_display_name%2Ctracking_id&is_text_review=1&ordering=course_review_score__rank%2C-created&page=2","previous":null,"results":[{"_class":"course_review","id":122298880,"content":"A great way to learn more about excel except that it will be better if you could provide a downloadable presentation wherein we can go back from time to time to review and analyze. Another thing is, the sound is poor.","rating":4.0,"created":"2022-08-28T23:13:31-07:00","modified":"2022-08-29T16:21:07-07:00","user_modified":"2022-08-28T23:17:56-07:00","user":{"_class":"user","title":"Norabel A. Balitaan","name":"Norabel A.","display_name":"Norabel A. Balitaan","image_50x50":"https://img-c.udemycdn.com/user/50x50/anonymous_3.png","initials":"NB","tracking_id":"5xfjtlS0RiS5sba39Kd8TQ","public_display_name":"Norabel A. B."},"response":null,"content_html":"<p>A great way to learn more about excel except that it will be better if you could provide a downloadable presentation wherein we can go back from time to time to review and analyze. Another thing is, the sound is poor.</p>","created_formatted_with_time_since":"4 days ago"},{"_class":"course_review","id":121689178,"content":"Watching the guy work while he was talking and showing us stuff was a great\nway to see processes and remember them later. With the ability to pause, I could also stop and update some of my existing spreadsheets.","rating":4.5,"created":"2022-08-21T12:39:18-07:00","modified":"2022-08-23T16:07:43-07:00","user_modified":"2022-08-21T12:40:26-07:00","user":{"_class":"user","title":"Allan Howard","name":"Allan","display_name":"Allan Howard","image_50x50":"https://img-c.udemycdn.com/user/50x50/anonymous_3.png","initials":"AH","tracking_id":"cGQxt3RTSB6LomepUQ6Fjg","public_display_name":"Allan H."},"response":null,"content_html":"<p>Watching the guy work while he was talking and showing us stuff was a great<br>way to see processes and remember them later. With the ability to pause, I could also stop and update some of my existing spreadsheets.</p>","created_formatted_with_time_since":"a week ago"},{"_class":"course_review","id":120709762,"content":"Lots of info. Like the sorting button. Information is good. But batting averages is something I am not sure I care about so I think I am having to pay more attention to figure out other ways to apply the information.","rating":5.0,"created":"2022-08-08T11:20:57-07:00","modified":"2022-08-09T16:14:25-07:00","user_modified":"2022-08-09T05:09:32-07:00","user":{"_class":"user","title":"Vonney Northrop","name":"Vonney","display_name":"Vonney Northrop","image_50x50":"https://img-c.udemycdn.com/user/50x50/anonymous_3.png","initials":"VN","tracking_id":"0s3jFOAQRUCMyO3lnMlKKw","public_display_name":"Vonney N."},"response":null,"content_html":"<p>Lots of info. Like the sorting button. Information is good. But batting averages is something I am not sure I care about so I think I am having to pay more attention to figure out other ways to apply the information.</p>","created_formatted_with_time_since":"3 weeks ago"},{"_class":"course_review","id":117490184,"content":"It wouldn't been nice to have had the sheets provided, so that I wouldn't have to manually type in the data in the cells in order to do what was shown","rating":3.0,"created":"2022-06-28T13:07:16-07:00","modified":"2022-06-29T16:10:53-07:00","user_modified":"2022-06-28T13:08:07-07:00","user":{"_class":"user","title":"Jennie Purcell","name":"Jennie","display_name":"Jennie Purcell","image_50x50":"https://img-c.udemycdn.com/user/50x50/anonymous_3.png","initials":"JP","tracking_id":"DilAVxecT16Kx_60-WhBhQ","public_display_name":"Jennie P."},"response":null,"content_html":"<p>It wouldn't been nice to have had the sheets provided, so that I wouldn't have to manually type in the data in the cells in order to do what was shown</p>","created_formatted_with_time_since":"2 months ago"},{"_class":"course_review","id":116018440,"content":"I like the course very much, it helps to de-dust basics, it seems a little outdated for never versions of excel, and I have a bit problem with audio volume, could you make it a bit louder?:) Overall, great course, thanks a bunch:)","rating":5.0,"created":"2022-06-09T06:16:41-07:00","modified":"2022-06-10T16:09:27-07:00","user_modified":"2022-06-10T05:20:03-07:00","user":{"_class":"user","title":"Urszula Filipowicz-Zgud","name":"Urszula","display_name":"Urszula Filipowicz-Zgud","image_50x50":"https://img-c.udemycdn.com/user/50x50/anonymous_3.png","initials":"UF","tracking_id":"t8RxxtNbSwi_AwMT86fJqA","public_display_name":"Urszula F."},"response":null,"content_html":"<p>I like the course very much, it helps to de-dust basics, it seems a little outdated for never versions of excel, and I have a bit problem with audio volume, could you make it a bit louder?:) Overall, great course, thanks a bunch:)</p>","created_formatted_with_time_since":"2 months ago"},{"_class":"course_review","id":120055508,"content":"Amazing. If u provide the summary note of each class, it will be very useful. But the sound is very low in many clips","rating":5.0,"created":"2022-07-31T04:54:11-07:00","modified":"2022-08-01T16:07:28-07:00","user_modified":"2022-08-01T05:53:52-07:00","user":{"_class":"user","title":"Abduraheem Pazhedath","name":"Abduraheem","display_name":"Abduraheem Pazhedath","image_50x50":"https://img-c.udemycdn.com/user/50x50/anonymous_3.png","initials":"AP","tracking_id":"Qo1sWFsmS_io2WcKGEQPsw","public_display_name":"Abduraheem P."},"response":null,"content_html":"<p>Amazing. If u provide the summary note of each class, it will be very useful. But the sound is very low in many clips</p>","created_formatted_with_time_since":"a month ago"},{"_class":"course_review","id":116443332,"content":"Shortcuts to excel formula is missing in majoriety. for example- Pivot AlTDPP is short cut but every time it is going on function keys to explain.","rating":3.0,"created":"2022-06-15T03:23:59-07:00","modified":"2022-06-17T16:07:09-07:00","user_modified":"2022-06-15T03:25:16-07:00","user":{"_class":"user","title":"Rahul Kumar","name":"Rahul","display_name":"Rahul Kumar","image_50x50":"https://img-c.udemycdn.com/user/50x50/anonymous_3.png","initials":"RK","tracking_id":"zEky16GZTz2dKgdoCoJ8iw","public_display_name":"Rahul K."},"response":null,"content_html":"<p>Shortcuts to excel formula is missing in majoriety. for example- Pivot AlTDPP is short cut but every time it is going on function keys to explain.</p>","created_formatted_with_time_since":"2 months ago"},{"_class":"course_review","id":116387198,"content":"This is an excellent series for those who have been timid about learning Excel - raising my hand!","rating":5.0,"created":"2022-06-14T10:34:45-07:00","modified":"2022-06-16T16:08:07-07:00","user_modified":"2022-06-15T13:37:12-07:00","user":{"_class":"user","title":"Christina Green","name":"Christina","display_name":"Christina Green","image_50x50":"https://img-c.udemycdn.com/user/50x50/anonymous_3.png","initials":"CG","tracking_id":"3wXqa74bRTyKVb_B4vXt4g","public_display_name":"Christina G."},"response":null,"content_html":"<p>This is an excellent series for those who have been timid about learning Excel - raising my hand!</p>","created_formatted_with_time_since":"2 months ago"},{"_class":"course_review","id":118538288,"content":"very informative and can be used on my daily excel report, thank you.","rating":3.5,"created":"2022-07-12T02:34:55-07:00","modified":"2022-07-13T16:08:59-07:00","user_modified":"2022-07-12T02:35:25-07:00","user":{"_class":"user","title":"Thelma MUSTERA","name":"Thelma","display_name":"Thelma MUSTERA","image_50x50":"https://img-c.udemycdn.com/user/50x50/anonymous_3.png","initials":"TM","tracking_id":"W3sRDTcTTK-5mQxhoxlOOw","public_display_name":"Thelma M."},"response":null,"content_html":"<p>very informative and can be used on my daily excel report, thank you.</p>","created_formatted_with_time_since":"a month ago"},{"_class":"course_review","id":114746716,"content":"I am really glad that i enrolled myself for this course ,the overall content and explanation is fantastic ,presentation i quiet fascinating .fully satisfied","rating":5.0,"created":"2022-05-24T07:18:51-07:00","modified":"2022-05-26T16:08:26-07:00","user_modified":"2022-05-25T09:35:57-07:00","user":{"_class":"user","title":"Aadika Kaul","name":"Aadika","display_name":"Aadika Kaul","image_50x50":"https://img-c.udemycdn.com/user/50x50/anonymous_3.png","initials":"AK","tracking_id":"repujMYLSkuuYMofDU4pyQ","public_display_name":"Aadika K."},"response":null,"content_html":"<p>I am really glad that i enrolled myself for this course ,the overall content and explanation is fantastic ,presentation i quiet fascinating .fully satisfied</p>","created_formatted_with_time_since":"3 months ago"},{"_class":"course_review","id":117015970,"content":"poor sound quality. It is too quiet to hear,  I have to adjust the volume all the way up. after a few minutes it gets loud, then i turn it down. Then it is too soft again. time is spent over playing with the volume rather than learning.","rating":2.0,"created":"2022-06-22T11:46:16-07:00","modified":"2022-06-23T16:19:08-07:00","user_modified":"2022-06-22T13:36:55-07:00","user":{"_class":"user","title":"Heather Pope","name":"Heather","display_name":"Heather Pope","image_50x50":"https://img-c.udemycdn.com/user/50x50/anonymous_3.png","initials":"HP","tracking_id":"shydZ5-HTR-0y5zI7yBTng","public_display_name":"Heather P."},"response":null,"content_html":"<p>poor sound quality. It is too quiet to hear,  I have to adjust the volume all the way up. after a few minutes it gets loud, then i turn it down. Then it is too soft again. time is spent over playing with the volume rather than learning.</p>","created_formatted_with_time_since":"2 months ago"},{"_class":"course_review","id":118459786,"content":"I know absolutely nothing on excel and this is giving me some insight on how to better use excel. Thanks","rating":4.5,"created":"2022-07-11T05:35:17-07:00","modified":"2022-07-18T06:29:27-07:00","user_modified":"2022-07-18T06:29:27-07:00","user":{"_class":"user","title":"Dalynn Turner","name":"Dalynn","display_name":"Dalynn Turner","image_50x50":"https://img-c.udemycdn.com/user/50x50/anonymous_3.png","initials":"DT","tracking_id":"FTv4BDSFRwy5gwXciRJlxA","public_display_name":"Dalynn T."},"response":null,"content_html":"<p>I know absolutely nothing on excel and this is giving me some insight on how to better use excel. Thanks</p>","created_formatted_with_time_since":"a month ago"}]}