{"count":654,"next":"https://www.udemy.com/api-2.0/courses/1102458/reviews/?courseId=1102458&fields%5Bcourse_review%5D=%40default%2Cresponse%2Ccontent_html%2Ccreated_formatted_with_time_since&fields%5Bcourse_review_response%5D=%40min%2Cuser%2Ccontent_html%2Ccreated_formatted_with_time_since&fields%5Buser%5D=%40min%2Cimage_50x50%2Cinitials%2Cpublic_display_name%2Ctracking_id&is_text_review=1&ordering=course_review_score__rank%2C-created&page=2","previous":null,"results":[{"_class":"course_review","id":122448150,"content":"Covers material in great detail, but speed is a bit too slow. Some of the test questions cannot be answered because the material is covered in a later chapter - that is annoying because I thought it was my mistake because I missed an important part of the lecture. Also some test questions are asked multiple times within the same test.","rating":4.0,"created":"2022-08-30T08:37:52-07:00","modified":"2022-08-31T16:12:23-07:00","user_modified":"2022-08-30T08:41:22-07:00","user":{"_class":"user","title":"Jan Kaufmann","name":"Jan","display_name":"Jan Kaufmann","image_50x50":"https://img-c.udemycdn.com/user/50x50/anonymous_3.png","initials":"JK","tracking_id":"EtvUrOXuR966XcxluJ7szA","public_display_name":"Jan K."},"response":null,"content_html":"<p>Covers material in great detail, but speed is a bit too slow. Some of the test questions cannot be answered because the material is covered in a later chapter - that is annoying because I thought it was my mistake because I missed an important part of the lecture. Also some test questions are asked multiple times within the same test.</p>","created_formatted_with_time_since":"3 days ago"},{"_class":"course_review","id":122165156,"content":"Good comprehensive content but supporting documentation is basic at best.  Also, locks down video (DRM) so no screen shots or notes can be generated during the course.  I now will sign up for another Udemy,  Pluralsight, CloudGuru class or maybe retake this 30 hours course in segments based on test performances -- and generate notes as I go along again.","rating":3.0,"created":"2022-08-26T17:38:28-07:00","modified":"2022-08-27T16:06:25-07:00","user_modified":"2022-08-26T17:41:12-07:00","user":{"_class":"user","title":"Jeff Babler","name":"Jeff","display_name":"Jeff Babler","image_50x50":"https://img-c.udemycdn.com/user/50x50/anonymous_3.png","initials":"JB","tracking_id":"iV7KvfDmSFq_hhyMLHkvgg","public_display_name":"Jeff B."},"response":null,"content_html":"<p>Good comprehensive content but supporting documentation is basic at best.  Also, locks down video (DRM) so no screen shots or notes can be generated during the course.  I now will sign up for another Udemy,  Pluralsight, CloudGuru class or maybe retake this 30 hours course in segments based on test performances -- and generate notes as I go along again.</p>","created_formatted_with_time_since":"6 days ago"},{"_class":"course_review","id":120084030,"content":"I have learned a lot of new topics and concepts, Zeal Vora is a great instructor, I really recommend this training 100% percent, It is a production environmental focus training, I hope Zeal continue creating AWS great material like this training, thanks Zeal!","rating":5.0,"created":"2022-07-31T14:47:47-07:00","modified":"2022-08-01T16:10:19-07:00","user_modified":"2022-07-31T14:50:59-07:00","user":{"_class":"user","title":"Juan F Goncalves E","name":"Juan F Goncalves","display_name":"Juan F Goncalves E","image_50x50":"https://img-c.udemycdn.com/user/50x50/anonymous_3.png","initials":"JE","tracking_id":"6RjSfGPvRCCax2DAqviSMQ","public_display_name":"Juan F Goncalves E."},"response":null,"content_html":"<p>I have learned a lot of new topics and concepts, Zeal Vora is a great instructor, I really recommend this training 100% percent, It is a production environmental focus training, I hope Zeal continue creating AWS great material like this training, thanks Zeal!</p>","created_formatted_with_time_since":"a month ago"},{"_class":"course_review","id":115612430,"content":"this course is amazing,  zeal explanations and deep diving helped  me a lot  even with questions that are not included in this course or any online dumps that i found. just passed the exam yesterday on first attempt.","rating":5.0,"created":"2022-06-04T03:37:09-07:00","modified":"2022-09-01T00:58:27-07:00","user_modified":"2022-09-01T00:58:27-07:00","user":{"_class":"user","title":"Ofir Lustigman","name":"Ofir","display_name":"Ofir Lustigman","image_50x50":"https://img-c.udemycdn.com/user/50x50/anonymous_3.png","initials":"OL","tracking_id":"CtcA2sjKTa66uYRfU407dg","public_display_name":"Ofir L."},"response":null,"content_html":"<p>this course is amazing,  zeal explanations and deep diving helped  me a lot  even with questions that are not included in this course or any online dumps that i found. just passed the exam yesterday on first attempt.</p>","created_formatted_with_time_since":"3 months ago"},{"_class":"course_review","id":115025336,"content":"I cleared the exam today, I must say I only used this course and documentation. Thank you for the detailed content.","rating":5.0,"created":"2022-05-27T05:57:00-07:00","modified":"2022-05-29T16:05:19-07:00","user_modified":"2022-05-27T06:00:17-07:00","user":{"_class":"user","title":"Olympas","name":"Olympas","display_name":"Olympas","image_50x50":"https://img-c.udemycdn.com/user/50x50/anonymous_3.png","initials":"O","tracking_id":"KnKr6sZiTMydvBXdhiCBtQ","public_display_name":"Olympas"},"response":null,"content_html":"<p>I cleared the exam today, I must say I only used this course and documentation. Thank you for the detailed content.</p>","created_formatted_with_time_since":"3 months ago"},{"_class":"course_review","id":113229250,"content":"I took my exam today, passed it at first attempt.\n\nThank you soooooooo much Zeal, one of the most beautiful course that I have ever attended.","rating":4.5,"created":"2022-05-04T05:18:32-07:00","modified":"2022-05-05T16:07:36-07:00","user_modified":"2022-05-04T05:21:44-07:00","user":{"_class":"user","title":"Enrico Valsecchi","name":"Enrico","display_name":"Enrico Valsecchi","image_50x50":"https://img-c.udemycdn.com/user/50x50/anonymous_3.png","initials":"EV","tracking_id":"ULnX7QZdQbmkZbbv0SHriw","public_display_name":"Enrico V."},"response":null,"content_html":"<p>I took my exam today, passed it at first attempt.</p>\n\n<p>Thank you soooooooo much Zeal, one of the most beautiful course that I have ever attended.</p>","created_formatted_with_time_since":"4 months ago"},{"_class":"course_review","id":122333892,"content":"I left with a feeling that some of the concepts are just touched upon and not completely covered in depth with.","rating":3.5,"created":"2022-08-29T06:50:27-07:00","modified":"2022-08-31T16:09:03-07:00","user_modified":"2022-08-29T06:53:12-07:00","user":{"_class":"user","title":"PADMAVATI Tirumala","name":"PADMAVATI","display_name":"PADMAVATI Tirumala","image_50x50":"https://img-c.udemycdn.com/user/50x50/anonymous_3.png","initials":"PT","tracking_id":"qejzhQA2Q5qyNTgYAgtPUA","public_display_name":"PADMAVATI T."},"response":null,"content_html":"<p>I left with a feeling that some of the concepts are just touched upon and not completely covered in depth with.</p>","created_formatted_with_time_since":"4 days ago"},{"_class":"course_review","id":118940038,"content":"Great course, I highly recommend it to anyone who is interested in AWS Security.","rating":5.0,"created":"2022-07-17T05:25:44-07:00","modified":"2022-07-18T16:08:45-07:00","user_modified":"2022-07-17T05:26:48-07:00","user":{"_class":"user","title":"Kaida Mbabela","name":"Kaida","display_name":"Kaida Mbabela","image_50x50":"https://img-c.udemycdn.com/user/50x50/anonymous_3.png","initials":"KM","tracking_id":"ZETLXyuqSvC_QbUdthqgcg","public_display_name":"Kaida M."},"response":null,"content_html":"<p>Great course, I highly recommend it to anyone who is interested in AWS Security.</p>","created_formatted_with_time_since":"a month ago"},{"_class":"course_review","id":106849180,"content":"I cleared the exam a couple of weeks ago - thank God!\n\nZeal's course was instrumental!  He has done a good job covering the necessary topics and details.  \n\nKind regards,","rating":5.0,"created":"2022-02-05T12:29:57-08:00","modified":"2022-02-25T17:38:49-08:00","user_modified":"2022-02-25T17:38:49-08:00","user":{"_class":"user","title":"Zain Rehan","name":"Zain","display_name":"Zain Rehan","image_50x50":"https://img-c.udemycdn.com/user/50x50/anonymous_3.png","initials":"ZR","tracking_id":"TPUvJOX1TPSkmFfinhgFJg","public_display_name":"Zain R."},"response":null,"content_html":"<p>I cleared the exam a couple of weeks ago - thank God!</p>\n\n<p>Zeal's course was instrumental!  He has done a good job covering the necessary topics and details.  </p>\n\n<p>Kind regards,</p>","created_formatted_with_time_since":"6 months ago"},{"_class":"course_review","id":118036812,"content":"I completed the exam today. Thank Zeal.","rating":5.0,"created":"2022-07-05T10:16:56-07:00","modified":"2022-07-06T16:06:58-07:00","user_modified":"2022-07-05T10:17:30-07:00","user":{"_class":"user","title":"Vinayagam Shanmugam","name":"Vinayagam","display_name":"Vinayagam Shanmugam","image_50x50":"https://img-c.udemycdn.com/user/50x50/anonymous_3.png","initials":"VS","tracking_id":"FsFckDgjT-a-5-v01G9_3w","public_display_name":"Vinayagam S."},"response":null,"content_html":"<p>I completed the exam today. Thank Zeal.</p>","created_formatted_with_time_since":"a month ago"},{"_class":"course_review","id":113441818,"content":"Good course. Very thorough. If you've passed other pro-level AWS exams a lot of it will be remedial. Granted, you kind of need to go through every video to get all the tips for the exam. Def helped me pass.","rating":5.0,"created":"2022-05-06T21:58:43-07:00","modified":"2022-05-07T16:09:06-07:00","user_modified":"2022-05-06T22:00:25-07:00","user":{"_class":"user","title":"Ryan Wendel","name":"Ryan","display_name":"Ryan Wendel","image_50x50":"https://img-c.udemycdn.com/user/50x50/anonymous_3.png","initials":"RW","tracking_id":"Oyvb-cfCSNuOhVE24ODUAg","public_display_name":"Ryan W."},"response":null,"content_html":"<p>Good course. Very thorough. If you've passed other pro-level AWS exams a lot of it will be remedial. Granted, you kind of need to go through every video to get all the tips for the exam. Def helped me pass.</p>","created_formatted_with_time_since":"3 months ago"},{"_class":"course_review","id":111598710,"content":"I have attended couple of courses from Zeal. He is a true subject matter expert (SME). With lot of hands on and labs, ample anecdotes from his past experience, quick and easy analogy, demoing both positive and negative scenarios help to grasp even the complex technology quite easily and quickly. His courses not only helped me to pass the exam, but also made me a good cloud professional at my work. Whenever I come across any doubt or hurdle at my work, I revise his lesson on that topic, and it solves almost everything. Thank you Zeal for keeping my zeal high. Wish you all the best.","rating":5.0,"created":"2022-04-11T03:04:50-07:00","modified":"2022-04-30T01:16:12-07:00","user_modified":"2022-04-30T01:16:12-07:00","user":{"_class":"user","title":"","name":"","display_name":"Sandeep Koar","image_50x50":"https://img-c.udemycdn.com/user/50x50/102993093_558a.jpg","initials":"","tracking_id":"uU4CU-H5QkiGLgwxbRLusQ","public_display_name":"Udemy User"},"response":null,"content_html":"<p>I have attended couple of courses from Zeal. He is a true subject matter expert (SME). With lot of hands on and labs, ample anecdotes from his past experience, quick and easy analogy, demoing both positive and negative scenarios help to grasp even the complex technology quite easily and quickly. His courses not only helped me to pass the exam, but also made me a good cloud professional at my work. Whenever I come across any doubt or hurdle at my work, I revise his lesson on that topic, and it solves almost everything. Thank you Zeal for keeping my zeal high. Wish you all the best.</p>","created_formatted_with_time_since":"4 months ago"}]}