{"count":310,"next":"https://www.udemy.com/api-2.0/courses/1135330/reviews/?courseId=1135330&fields%5Bcourse_review%5D=%40default%2Cresponse%2Ccontent_html%2Ccreated_formatted_with_time_since&fields%5Bcourse_review_response%5D=%40min%2Cuser%2Ccontent_html%2Ccreated_formatted_with_time_since&fields%5Buser%5D=%40min%2Cimage_50x50%2Cinitials%2Cpublic_display_name%2Ctracking_id&is_text_review=1&ordering=course_review_score__rank%2C-created&page=2","previous":null,"results":[{"_class":"course_review","id":122212606,"content":"It is one of the best courses for AWS SAA, After trying with many instructors in Udemy, I found Chandra's course on AWS SAA is master piece, Course consists of real time scenarios with Labs, It is recommended to every students who are aspiring to be AWS SAA, Further in the explanations or crisp with deep explanations, Most importantly he is not in hurry while teaching each topic, It is amazing course, I am taking exam in September 30th 2022","rating":5.0,"created":"2022-08-27T12:25:41-07:00","modified":"2022-08-28T16:08:30-07:00","user_modified":"2022-08-27T23:01:58-07:00","user":{"_class":"user","title":"Keerthivas Raja","name":"Keerthivas","display_name":"Keerthivas Raja","image_50x50":"https://img-c.udemycdn.com/user/50x50/anonymous_3.png","initials":"KR","tracking_id":"avSnkE8sTYWOcQqrP_7dqg","public_display_name":"Keerthivas R."},"response":{"_class":"course_review_response","id":10110108,"content":"Thank you, Keerthivas, for your kind review! Glad you liked the content and explanation!","created":"2022-08-29T12:12:47-07:00","modified":"2022-08-29T12:12:47-07:00","user":{"_class":"user","title":"Chandra Lingam","name":"Chandra","display_name":"Chandra Lingam","image_50x50":"https://img-c.udemycdn.com/user/50x50/22006946_909d_11.jpg","initials":"CL","tracking_id":"d6_Md6R0R5WIr9v6EoeUgA","public_display_name":"Chandra L."},"content_html":"<p>Thank you, Keerthivas, for your kind review! Glad you liked the content and explanation!</p>","created_formatted_with_time_since":"4 days ago"},"content_html":"<p>It is one of the best courses for AWS SAA, After trying with many instructors in Udemy, I found Chandra's course on AWS SAA is master piece, Course consists of real time scenarios with Labs, It is recommended to every students who are aspiring to be AWS SAA, Further in the explanations or crisp with deep explanations, Most importantly he is not in hurry while teaching each topic, It is amazing course, I am taking exam in September 30th 2022</p>","created_formatted_with_time_since":"6 days ago"},{"_class":"course_review","id":122210044,"content":"Step  by step and very easy to understand all the complex concepts such Subnet, NAT, IGW, Security Group.","rating":5.0,"created":"2022-08-27T11:26:44-07:00","modified":"2022-08-28T16:08:30-07:00","user_modified":"2022-08-27T11:27:44-07:00","user":{"_class":"user","title":"Vijay Kumar","name":"Vijay","display_name":"Vijay Kumar","image_50x50":"https://img-c.udemycdn.com/user/50x50/anonymous_3.png","initials":"VK","tracking_id":"PgGOVcc7SMifauYsJYPe4Q","public_display_name":"Vijay K."},"response":{"_class":"course_review_response","id":10110398,"content":"Awesome! Happy Learning!","created":"2022-08-29T14:22:22-07:00","modified":"2022-08-29T14:22:22-07:00","user":{"_class":"user","title":"Chandra Lingam","name":"Chandra","display_name":"Chandra Lingam","image_50x50":"https://img-c.udemycdn.com/user/50x50/22006946_909d_11.jpg","initials":"CL","tracking_id":"d6_Md6R0R5WIr9v6EoeUgA","public_display_name":"Chandra L."},"content_html":"<p>Awesome! Happy Learning!</p>","created_formatted_with_time_since":"4 days ago"},"content_html":"<p>Step  by step and very easy to understand all the complex concepts such Subnet, NAT, IGW, Security Group.</p>","created_formatted_with_time_since":"6 days ago"},{"_class":"course_review","id":118890876,"content":"It is a good match. Unfortunately a little bit too hard too follow smoothly as a lot of acronyms are used without spelling them out.","rating":4.0,"created":"2022-07-16T06:11:34-07:00","modified":"2022-07-24T05:32:58-07:00","user_modified":"2022-07-24T05:32:58-07:00","user":{"_class":"user","title":"Paul Andersson","name":"Paul","display_name":"Paul Andersson","image_50x50":"https://img-c.udemycdn.com/user/50x50/anonymous_3.png","initials":"PA","tracking_id":"L66M1V3DThqZu_9N-_xmmg","public_display_name":"Paul A."},"response":{"_class":"course_review_response","id":9929332,"content":"Hi Paul,\n\nCould you please let me know the terminologies and approximate lecture where it was introduced? I would be happy to take a look. Also, feel free to use the course Q&A forum for interactive discussion and learning! I will be happy to assist! Lot of folks use the course forum when they have questions or need clarity on a topic.\n\nBest\n\nChandra\nCloud Wave LLC","created":"2022-07-24T06:43:37-07:00","modified":"2022-07-24T18:05:55-07:00","user":{"_class":"user","title":"Chandra Lingam","name":"Chandra","display_name":"Chandra Lingam","image_50x50":"https://img-c.udemycdn.com/user/50x50/22006946_909d_11.jpg","initials":"CL","tracking_id":"d6_Md6R0R5WIr9v6EoeUgA","public_display_name":"Chandra L."},"content_html":"<p>Hi Paul,</p>\n\n<p>Could you please let me know the terminologies and approximate lecture where it was introduced? I would be happy to take a look. Also, feel free to use the course Q&A forum for interactive discussion and learning! I will be happy to assist! Lot of folks use the course forum when they have questions or need clarity on a topic.</p>\n\n<p>Best</p>\n\n<p>Chandra<br>Cloud Wave LLC</p>","created_formatted_with_time_since":"a month ago"},"content_html":"<p>It is a good match. Unfortunately a little bit too hard too follow smoothly as a lot of acronyms are used without spelling them out.</p>","created_formatted_with_time_since":"a month ago"},{"_class":"course_review","id":118768714,"content":"Very good your course Chandra Lingam!\n\nI am from Brazil.","rating":5.0,"created":"2022-07-14T12:04:59-07:00","modified":"2022-07-15T16:11:22-07:00","user_modified":"2022-07-14T12:07:21-07:00","user":{"_class":"user","title":"Fernando de Sena Fonseca","name":"Fernando","display_name":"Fernando de Sena Fonseca","image_50x50":"https://img-c.udemycdn.com/user/50x50/anonymous_3.png","initials":"FD","tracking_id":"dlbcndhzSZeJFPFBj6HnKw","public_display_name":"Fernando D."},"response":{"_class":"course_review_response","id":9892634,"content":"Hi Fernando - Thank you and nice meeting you! Glad you liked the material!\n\nChandra","created":"2022-07-16T11:45:31-07:00","modified":"2022-07-16T11:45:31-07:00","user":{"_class":"user","title":"Chandra Lingam","name":"Chandra","display_name":"Chandra Lingam","image_50x50":"https://img-c.udemycdn.com/user/50x50/22006946_909d_11.jpg","initials":"CL","tracking_id":"d6_Md6R0R5WIr9v6EoeUgA","public_display_name":"Chandra L."},"content_html":"<p>Hi Fernando - Thank you and nice meeting you! Glad you liked the material!</p>\n\n<p>Chandra</p>","created_formatted_with_time_since":"a month ago"},"content_html":"<p>Very good your course Chandra Lingam!</p>\n\n<p>I am from Brazil.</p>","created_formatted_with_time_since":"a month ago"},{"_class":"course_review","id":118365900,"content":"it is a good match for me and hope to explore it to the fullness","rating":4.0,"created":"2022-07-09T15:21:36-07:00","modified":"2022-07-26T02:54:12-07:00","user_modified":"2022-07-26T02:54:12-07:00","user":{"_class":"user","title":"ambrose aiwerioghene","name":"ambrose","display_name":"ambrose aiwerioghene","image_50x50":"https://img-c.udemycdn.com/user/50x50/anonymous_3.png","initials":"AA","tracking_id":"CRDTnvGyTeqf53duqp9CZA","public_display_name":"ambrose A."},"response":{"_class":"course_review_response","id":9941342,"content":"Glad to hear! If you have any questions or need clarification, please use course Q&A forum and we will happy to assist!\nChandra","created":"2022-07-26T13:35:35-07:00","modified":"2022-07-26T13:35:35-07:00","user":{"_class":"user","title":"Chandra Lingam","name":"Chandra","display_name":"Chandra Lingam","image_50x50":"https://img-c.udemycdn.com/user/50x50/22006946_909d_11.jpg","initials":"CL","tracking_id":"d6_Md6R0R5WIr9v6EoeUgA","public_display_name":"Chandra L."},"content_html":"<p>Glad to hear! If you have any questions or need clarification, please use course Q&A forum and we will happy to assist!<br>Chandra</p>","created_formatted_with_time_since":"a month ago"},"content_html":"<p>it is a good match for me and hope to explore it to the fullness</p>","created_formatted_with_time_since":"a month ago"},{"_class":"course_review","id":112402470,"content":"Its good","rating":3.0,"created":"2022-04-22T04:05:25-07:00","modified":"2022-04-23T16:06:15-07:00","user_modified":"2022-04-22T04:05:58-07:00","user":{"_class":"user","title":"Shaik Safira","name":"Shaik","display_name":"Shaik Safira","image_50x50":"https://img-c.udemycdn.com/user/50x50/anonymous_3.png","initials":"SS","tracking_id":"if6d3XYdRmirNsiWVsa8bA","public_display_name":"Shaik S."},"response":null,"content_html":"<p>Its good</p>","created_formatted_with_time_since":"4 months ago"},{"_class":"course_review","id":114243936,"content":"As a complete beginner to AWS, this course is really easy to understand while also reinforcing basic networking concepts.","rating":5.0,"created":"2022-05-18T01:35:32-07:00","modified":"2022-05-19T16:07:30-07:00","user_modified":"2022-05-18T01:36:08-07:00","user":{"_class":"user","title":"Umaima Ribeiro","name":"Umaima","display_name":"Umaima Ribeiro","image_50x50":"https://img-c.udemycdn.com/user/50x50/anonymous_3.png","initials":"UR","tracking_id":"hc1OxCU_QO6IoM3FNVEgGw","public_display_name":"Umaima R."},"response":{"_class":"course_review_response","id":9596278,"content":"Happy to hear, Umaima!","created":"2022-05-19T18:29:27-07:00","modified":"2022-05-19T18:29:27-07:00","user":{"_class":"user","title":"Chandra Lingam","name":"Chandra","display_name":"Chandra Lingam","image_50x50":"https://img-c.udemycdn.com/user/50x50/22006946_909d_11.jpg","initials":"CL","tracking_id":"d6_Md6R0R5WIr9v6EoeUgA","public_display_name":"Chandra L."},"content_html":"<p>Happy to hear, Umaima!</p>","created_formatted_with_time_since":"3 months ago"},"content_html":"<p>As a complete beginner to AWS, this course is really easy to understand while also reinforcing basic networking concepts.</p>","created_formatted_with_time_since":"3 months ago"},{"_class":"course_review","id":118771206,"content":"This course is nicely laid out.  The topics are covered in a very logical manner.","rating":4.5,"created":"2022-07-14T12:30:30-07:00","modified":"2022-09-01T13:17:54-07:00","user_modified":"2022-09-01T13:17:54-07:00","user":{"_class":"user","title":"Brian Embly","name":"Brian","display_name":"Brian Embly","image_50x50":"https://img-c.udemycdn.com/user/50x50/anonymous_3.png","initials":"BE","tracking_id":"kjiLhT8iT4OefZKPUBK2fA","public_display_name":"Brian E."},"response":null,"content_html":"<p>This course is nicely laid out.  The topics are covered in a very logical manner.</p>","created_formatted_with_time_since":"a month ago"},{"_class":"course_review","id":122082422,"content":"great course.","rating":5.0,"created":"2022-08-25T19:48:42-07:00","modified":"2022-08-26T16:05:46-07:00","user_modified":"2022-08-25T19:48:51-07:00","user":{"_class":"user","title":"Ulhas Sonule","name":"Ulhas","display_name":"Ulhas Sonule","image_50x50":"https://img-c.udemycdn.com/user/50x50/anonymous_3.png","initials":"US","tracking_id":"KGG6JcgZScOIS-3bzQ3fwg","public_display_name":"Ulhas S."},"response":null,"content_html":"<p>great course.</p>","created_formatted_with_time_since":"a week ago"},{"_class":"course_review","id":121223290,"content":"concepts are explained in a clear manner. Amazing work","rating":5.0,"created":"2022-08-15T10:29:33-07:00","modified":"2022-08-16T16:06:16-07:00","user_modified":"2022-08-15T10:30:15-07:00","user":{"_class":"user","title":"Faiz Shaik","name":"Faiz","display_name":"Faiz Shaik","image_50x50":"https://img-c.udemycdn.com/user/50x50/anonymous_3.png","initials":"FS","tracking_id":"IIBO1ca6Sny72N4R4q90eQ","public_display_name":"Faiz S."},"response":null,"content_html":"<p>concepts are explained in a clear manner. Amazing work</p>","created_formatted_with_time_since":"2 weeks ago"},{"_class":"course_review","id":121282326,"content":"So far the pace and the content is very good, looking forward.","rating":4.0,"created":"2022-08-16T03:31:40-07:00","modified":"2022-08-18T16:08:11-07:00","user_modified":"2022-08-16T03:32:06-07:00","user":{"_class":"user","title":"Shailesh Suman","name":"Shailesh","display_name":"Shailesh Suman","image_50x50":"https://img-c.udemycdn.com/user/50x50/anonymous_3.png","initials":"SS","tracking_id":"IAtO3pj2QWOp85K-VDUZ1A","public_display_name":"Shailesh S."},"response":null,"content_html":"<p>So far the pace and the content is very good, looking forward.</p>","created_formatted_with_time_since":"2 weeks ago"},{"_class":"course_review","id":100542381,"content":"Instructor has excellent knowledge in AWS, even a new comer can gain knowledge in AWS by watching the tutorials.","rating":5.0,"created":"2021-11-18T22:34:52-08:00","modified":"2021-11-20T05:42:42-08:00","user_modified":"2021-11-20T05:42:42-08:00","user":{"_class":"user","title":"M Praveen Kumar","name":"M Praveen","display_name":"M Praveen Kumar","image_50x50":"https://img-c.udemycdn.com/user/50x50/anonymous_3.png","initials":"MK","tracking_id":"PmB0dltkQyKXy_UUoYQb8w","public_display_name":"M Praveen K."},"response":null,"content_html":"<p>Instructor has excellent knowledge in AWS, even a new comer can gain knowledge in AWS by watching the tutorials.</p>","created_formatted_with_time_since":"9 months ago"}]}