{"count":769,"next":"https://www.udemy.com/api-2.0/courses/11475/reviews/?courseId=11475&fields%5Bcourse_review%5D=%40default%2Cresponse%2Ccontent_html%2Ccreated_formatted_with_time_since&fields%5Bcourse_review_response%5D=%40min%2Cuser%2Ccontent_html%2Ccreated_formatted_with_time_since&fields%5Buser%5D=%40min%2Cimage_50x50%2Cinitials%2Cpublic_display_name%2Ctracking_id&is_text_review=1&ordering=course_review_score__rank%2C-created&page=2","previous":null,"results":[{"_class":"course_review","id":121974296,"content":"I started out really enjoying this course until I got to lesson 10, the most basic explanation possible on Div and Span with an advanced \"submit\" assignment which appears to require knowledge of nested divs, divs within divs, to create a 3x2 grid of pictures with text.  The link to an XML clue didn't work. If you want us to see an example, you should provide a link to FrameworkTV.com. I posted a question to Q/A, saving this assignment for later while I work ahead.","rating":2.5,"created":"2022-08-24T14:49:41-07:00","modified":"2022-08-31T07:58:04-07:00","user_modified":"2022-08-31T07:58:04-07:00","user":{"_class":"user","title":"Frederick A. Risler","name":"Frederick A.","display_name":"Frederick A. Risler","image_50x50":"https://img-c.udemycdn.com/user/50x50/anonymous_3.png","initials":"FR","tracking_id":"78cmItyURdOtjLemzDrz3A","public_display_name":"Frederick A. R."},"response":null,"content_html":"<p>I started out really enjoying this course until I got to lesson 10, the most basic explanation possible on Div and Span with an advanced \"submit\" assignment which appears to require knowledge of nested divs, divs within divs, to create a 3x2 grid of pictures with text.  The link to an XML clue didn't work. If you want us to see an example, you should provide a link to FrameworkTV.com. I posted a question to Q/A, saving this assignment for later while I work ahead.</p>","created_formatted_with_time_since":"a week ago"},{"_class":"course_review","id":121881880,"content":"The training is very detailed and so far though it's still early to tell but it's really refreshing and exciting considering i had no idea about coding.","rating":5.0,"created":"2022-08-23T16:28:46-07:00","modified":"2022-08-24T16:17:48-07:00","user_modified":"2022-08-23T16:30:09-07:00","user":{"_class":"user","title":"Oqua Edim Ntoe","name":"Oqua Edim","display_name":"Oqua Edim Ntoe","image_50x50":"https://img-c.udemycdn.com/user/50x50/anonymous_3.png","initials":"ON","tracking_id":"5NHu2xiURgqXz_ZelEAKjg","public_display_name":"Oqua Edim N."},"response":null,"content_html":"<p>The training is very detailed and so far though it's still early to tell but it's really refreshing and exciting considering i had no idea about coding.</p>","created_formatted_with_time_since":"a week ago"},{"_class":"course_review","id":120445794,"content":"The course material was well presented, and easy to work along with the lessons.  The only thing that made it difficult was that files names had no extensions, so in windows trying to figure out the file type was at times challenging.","rating":4.5,"created":"2022-08-04T12:53:56-07:00","modified":"2022-08-05T16:09:42-07:00","user_modified":"2022-08-04T12:56:18-07:00","user":{"_class":"user","title":"Dean Webster","name":"Dean","display_name":"Dean Webster","image_50x50":"https://img-c.udemycdn.com/user/50x50/683048_9f70_2.jpg","initials":"DW","tracking_id":"3YBsx9JaTvudOCoXY4iizQ","public_display_name":"Dean W."},"response":null,"content_html":"<p>The course material was well presented, and easy to work along with the lessons.  The only thing that made it difficult was that files names had no extensions, so in windows trying to figure out the file type was at times challenging.</p>","created_formatted_with_time_since":"4 weeks ago"},{"_class":"course_review","id":114352134,"content":"Good explanation & writing coding and explaining & showing out   .how to use in different manner . very good explanation","rating":5.0,"created":"2022-05-19T05:21:01-07:00","modified":"2022-06-12T23:11:14-07:00","user_modified":"2022-06-12T23:11:14-07:00","user":{"_class":"user","title":"Thuppada vineetha","name":"Thuppada","display_name":"Thuppada vineetha","image_50x50":"https://img-c.udemycdn.com/user/50x50/anonymous_3.png","initials":"TV","tracking_id":"J3jbL3-PRruH6-szaDYLfg","public_display_name":"Thuppada V."},"response":{"_class":"course_review_response","id":9726740,"content":"Thank you for enrolling Thuppada in the Become a Certified HTML, CSS, JavaScript Web Developer Course.  Thank you very much for a perfect 5 STAR Review!","created":"2022-06-14T16:20:22-07:00","modified":"2022-06-14T16:20:22-07:00","user":{"_class":"user","title":"Tech Learning Network","name":"Tech Learning","display_name":"Tech Learning Network","image_50x50":"https://img-c.udemycdn.com/user/50x50/11439_12bd_13.jpg","initials":"TN","tracking_id":"ZNAmyfbZRVqnT2rxFlrV4Q","public_display_name":"Tech Learning N."},"content_html":"<p>Thank you for enrolling Thuppada in the Become a Certified HTML, CSS, JavaScript Web Developer Course.  Thank you very much for a perfect 5 STAR Review!</p>","created_formatted_with_time_since":"2 months ago"},"content_html":"<p>Good explanation & writing coding and explaining & showing out   .how to use in different manner . very good explanation</p>","created_formatted_with_time_since":"3 months ago"},{"_class":"course_review","id":113694312,"content":"it's getting interesting","rating":5.0,"created":"2022-05-10T13:45:16-07:00","modified":"2022-08-12T13:47:17-07:00","user_modified":"2022-08-12T13:47:17-07:00","user":{"_class":"user","title":"Andrews Marfoh","name":"Andrews","display_name":"Andrews Marfoh","image_50x50":"https://img-c.udemycdn.com/user/50x50/anonymous_3.png","initials":"AM","tracking_id":"LJjT9T3gStqurtbjXdIciw","public_display_name":"Andrews M."},"response":null,"content_html":"<p>it's getting interesting</p>","created_formatted_with_time_since":"3 months ago"},{"_class":"course_review","id":110137940,"content":"Yeah This course just fits with me , I didn't know how to write simple HTML code , i was able to write complex code in C++ , Java languages but I was scared of learning HTML language beacuse i had seen some code and they all were huge lengthy so i always doubted myself but this course had helped me overcome my fear of these languages.","rating":4.5,"created":"2022-03-22T00:36:24-07:00","modified":"2022-03-23T16:05:35-07:00","user_modified":"2022-03-22T00:38:48-07:00","user":{"_class":"user","title":"20it121 NESH ROCHWANI","name":"20it121 NESH","display_name":"20it121 NESH ROCHWANI","image_50x50":"https://img-c.udemycdn.com/user/50x50/anonymous_3.png","initials":"2R","tracking_id":"ZDa03-ucT7mtBFbLYoOa7g","public_display_name":"20it121 NESH R."},"response":null,"content_html":"<p>Yeah This course just fits with me , I didn't know how to write simple HTML code , i was able to write complex code in C++ , Java languages but I was scared of learning HTML language beacuse i had seen some code and they all were huge lengthy so i always doubted myself but this course had helped me overcome my fear of these languages.</p>","created_formatted_with_time_since":"5 months ago"},{"_class":"course_review","id":119380674,"content":"Congratulations to myself! I finished the course with lot of knowledge acquired from it. I will repeat the entire course from the Beginning to familiarized more of its techniques.","rating":5.0,"created":"2022-07-22T04:31:19-07:00","modified":"2022-07-23T16:05:15-07:00","user_modified":"2022-07-22T04:42:01-07:00","user":{"_class":"user","title":"Joselito De Guzman","name":"Joselito","display_name":"Joselito De Guzman","image_50x50":"https://img-c.udemycdn.com/user/50x50/anonymous_3.png","initials":"JD","tracking_id":"7Uz46q_2Sz6pfeOj2JLvdA","public_display_name":"Joselito D."},"response":null,"content_html":"<p>Congratulations to myself! I finished the course with lot of knowledge acquired from it. I will repeat the entire course from the Beginning to familiarized more of its techniques.</p>","created_formatted_with_time_since":"a month ago"},{"_class":"course_review","id":115379246,"content":"Course offers certificate which should be removed from advertisement because instructor is not active and does not grade assignments as uploaded to Dropbox, assignments are not updated and has broken links and there is no way that I see to contact anyone about it.","rating":2.0,"created":"2022-06-01T03:28:19-07:00","modified":"2022-06-03T16:06:47-07:00","user_modified":"2022-06-01T03:30:27-07:00","user":{"_class":"user","title":"April","name":"April","display_name":"April","image_50x50":"https://img-c.udemycdn.com/user/50x50/anonymous_3.png","initials":"A","tracking_id":"OdUZ5VPUS5GsovGSkKSxDA","public_display_name":"April"},"response":null,"content_html":"<p>Course offers certificate which should be removed from advertisement because instructor is not active and does not grade assignments as uploaded to Dropbox, assignments are not updated and has broken links and there is no way that I see to contact anyone about it.</p>","created_formatted_with_time_since":"3 months ago"},{"_class":"course_review","id":114846526,"content":"ive been impressed with my own understanding even,i would like to know evevrything all at once but i understand it almost impossible but this has given me a real boost to studying and learning more","rating":4.0,"created":"2022-05-25T07:38:09-07:00","modified":"2022-05-26T16:09:02-07:00","user_modified":"2022-05-25T07:40:19-07:00","user":{"_class":"user","title":"Ezenwa Agbanusi","name":"Ezenwa","display_name":"Ezenwa Agbanusi","image_50x50":"https://img-c.udemycdn.com/user/50x50/195720996_35d5.jpg","initials":"EA","tracking_id":"JrQ-ISBLREmO_Cvv5C64iQ","public_display_name":"Ezenwa A."},"response":null,"content_html":"<p>ive been impressed with my own understanding even,i would like to know evevrything all at once but i understand it almost impossible but this has given me a real boost to studying and learning more</p>","created_formatted_with_time_since":"3 months ago"},{"_class":"course_review","id":113586292,"content":"It's been a great experience so far and I'm looking forward to becoming a great front-end-developer","rating":4.0,"created":"2022-05-09T08:53:07-07:00","modified":"2022-05-10T16:13:19-07:00","user_modified":"2022-05-09T08:54:13-07:00","user":{"_class":"user","title":"Jeremiah Omokaro","name":"Jeremiah","display_name":"Jeremiah Omokaro","image_50x50":"https://img-c.udemycdn.com/user/50x50/anonymous_3.png","initials":"JO","tracking_id":"ahb6w32tTRq2OO72jXrCPA","public_display_name":"Jeremiah O."},"response":null,"content_html":"<p>It's been a great experience so far and I'm looking forward to becoming a great front-end-developer</p>","created_formatted_with_time_since":"3 months ago"},{"_class":"course_review","id":108692146,"content":"Great lectures and exercises! There is no references for supplementary reading though which is the only draw back.","rating":4.5,"created":"2022-03-02T04:26:53-08:00","modified":"2022-03-03T21:18:33-08:00","user_modified":"2022-03-02T04:29:41-08:00","user":{"_class":"user","title":"Bjarke Bitsch Berg","name":"Bjarke Bitsch","display_name":"Bjarke Bitsch Berg","image_50x50":"https://img-c.udemycdn.com/user/50x50/anonymous_3.png","initials":"BB","tracking_id":"q0WoCoYIQWm9s6pxqpUfuA","public_display_name":"Bjarke Bitsch B."},"response":{"_class":"course_review_response","id":9243062,"content":"Thank you for enrolling Bjarke in the Become a Certified HTML, CSS, JavaScript Web Developer Course.  Thanks for taking the time to do the review for this course.","created":"2022-03-09T10:44:26-08:00","modified":"2022-03-09T10:44:26-08:00","user":{"_class":"user","title":"Tech Learning Network","name":"Tech Learning","display_name":"Tech Learning Network","image_50x50":"https://img-c.udemycdn.com/user/50x50/11439_12bd_13.jpg","initials":"TN","tracking_id":"ZNAmyfbZRVqnT2rxFlrV4Q","public_display_name":"Tech Learning N."},"content_html":"<p>Thank you for enrolling Bjarke in the Become a Certified HTML, CSS, JavaScript Web Developer Course.  Thanks for taking the time to do the review for this course.</p>","created_formatted_with_time_since":"5 months ago"},"content_html":"<p>Great lectures and exercises! There is no references for supplementary reading though which is the only draw back.</p>","created_formatted_with_time_since":"6 months ago"},{"_class":"course_review","id":118648140,"content":"Mijn eerste ervaring is goed, uitleg helder. Nieuwe updates van de software kan er voor zorgen dat bepaalde opties ergens anders te vinden zijn. Maar dat is prima te doen.","rating":4.5,"created":"2022-07-13T06:16:32-07:00","modified":"2022-07-14T16:06:14-07:00","user_modified":"2022-07-13T06:18:18-07:00","user":{"_class":"user","title":"Robin van den Belt","name":"Robin van den","display_name":"Robin van den Belt","image_50x50":"https://img-c.udemycdn.com/user/50x50/anonymous_3.png","initials":"RB","tracking_id":"-FNZPkCkQHGoLuu7L6QNJg","public_display_name":"Robin van den B."},"response":null,"content_html":"<p>Mijn eerste ervaring is goed, uitleg helder. Nieuwe updates van de software kan er voor zorgen dat bepaalde opties ergens anders te vinden zijn. Maar dat is prima te doen.</p>","created_formatted_with_time_since":"a month ago"}]}