{"count":407,"next":"https://www.udemy.com/api-2.0/courses/1162310/reviews/?courseId=1162310&fields%5Bcourse_review%5D=%40default%2Cresponse%2Ccontent_html%2Ccreated_formatted_with_time_since&fields%5Bcourse_review_response%5D=%40min%2Cuser%2Ccontent_html%2Ccreated_formatted_with_time_since&fields%5Buser%5D=%40min%2Cimage_50x50%2Cinitials%2Cpublic_display_name%2Ctracking_id&is_text_review=1&ordering=course_review_score__rank%2C-created&page=2","previous":null,"results":[{"_class":"course_review","id":122265322,"content":"Today cleared my exam, these practice exams helped me a lot. I took this one as a review course.I can say everyone should to take this course as review the core concepts and integration of services.","rating":5.0,"created":"2022-08-28T10:48:47-07:00","modified":"2022-08-29T16:23:17-07:00","user_modified":"2022-08-28T10:58:05-07:00","user":{"_class":"user","title":"Krishna Pulipaka","name":"Krishna","display_name":"Krishna Pulipaka","image_50x50":"https://img-c.udemycdn.com/user/50x50/anonymous_3.png","initials":"KP","tracking_id":"BDqu7ODgSguCvFLWm0PNcw","public_display_name":"Krishna P."},"response":{"_class":"course_review_response","id":10115668,"content":"Congratulations, Krishna! I am very happy for you!","created":"2022-08-30T09:42:47-07:00","modified":"2022-08-30T09:42:47-07:00","user":{"_class":"user","title":"Chandra Lingam","name":"Chandra","display_name":"Chandra Lingam","image_50x50":"https://img-c.udemycdn.com/user/50x50/22006946_909d_11.jpg","initials":"CL","tracking_id":"epCRezj8Qm6kdDsg1ssFtg","public_display_name":"Chandra L."},"content_html":"<p>Congratulations, Krishna! I am very happy for you!</p>","created_formatted_with_time_since":"3 days ago"},"content_html":"<p>Today cleared my exam, these practice exams helped me a lot. I took this one as a review course.I can say everyone should to take this course as review the core concepts and integration of services.</p>","created_formatted_with_time_since":"5 days ago"},{"_class":"course_review","id":121924986,"content":"I passed the SA C02 exam and this course helped me a lot to get better understanding","rating":5.0,"created":"2022-08-24T04:31:41-07:00","modified":"2022-08-25T16:10:31-07:00","user_modified":"2022-08-24T04:32:27-07:00","user":{"_class":"user","title":"Abinash Jena","name":"Abinash","display_name":"Abinash Jena","image_50x50":"https://img-c.udemycdn.com/user/50x50/anonymous_3.png","initials":"AJ","tracking_id":"SVKIsVGnTGSumCMxyJPSrA","public_display_name":"Abinash J."},"response":{"_class":"course_review_response","id":10089364,"content":"Congratulations, Abinash!","created":"2022-08-25T23:35:12-07:00","modified":"2022-08-25T23:35:12-07:00","user":{"_class":"user","title":"Chandra Lingam","name":"Chandra","display_name":"Chandra Lingam","image_50x50":"https://img-c.udemycdn.com/user/50x50/22006946_909d_11.jpg","initials":"CL","tracking_id":"epCRezj8Qm6kdDsg1ssFtg","public_display_name":"Chandra L."},"content_html":"<p>Congratulations, Abinash!</p>","created_formatted_with_time_since":"a week ago"},"content_html":"<p>I passed the SA C02 exam and this course helped me a lot to get better understanding</p>","created_formatted_with_time_since":"a week ago"},{"_class":"course_review","id":107576766,"content":"I like the clarifications related to networking concepts. It provides a deeper insight. Although other topics are also very clear and understandable.","rating":4.5,"created":"2022-02-15T09:50:36-08:00","modified":"2022-02-16T15:09:13-08:00","user_modified":"2022-02-15T09:51:44-08:00","user":{"_class":"user","title":"Manish","name":"Manish","display_name":"Manish","image_50x50":"https://img-c.udemycdn.com/user/50x50/anonymous_3.png","initials":"M","tracking_id":"TtLkv5s7TRqaxZDjTGyAvg","public_display_name":"Manish"},"response":null,"content_html":"<p>I like the clarifications related to networking concepts. It provides a deeper insight. Although other topics are also very clear and understandable.</p>","created_formatted_with_time_since":"6 months ago"},{"_class":"course_review","id":104419872,"content":"very descriptive and coverage too good.","rating":4.5,"created":"2022-01-07T19:36:41-08:00","modified":"2022-01-08T15:03:11-08:00","user_modified":"2022-01-07T19:37:03-08:00","user":{"_class":"user","title":"Bibhudutta Patra","name":"Bibhudutta","display_name":"Bibhudutta Patra","image_50x50":"https://img-c.udemycdn.com/user/50x50/anonymous_3.png","initials":"BP","tracking_id":"CVcA0XemSduhuUeBSL91-g","public_display_name":"Bibhudutta P."},"response":{"_class":"course_review_response","id":8924862,"content":"Glad to hear! Thank you!","created":"2022-01-10T07:09:56-08:00","modified":"2022-01-10T07:09:56-08:00","user":{"_class":"user","title":"Chandra Lingam","name":"Chandra","display_name":"Chandra Lingam","image_50x50":"https://img-c.udemycdn.com/user/50x50/22006946_909d_11.jpg","initials":"CL","tracking_id":"epCRezj8Qm6kdDsg1ssFtg","public_display_name":"Chandra L."},"content_html":"<p>Glad to hear! Thank you!</p>","created_formatted_with_time_since":"7 months ago"},"content_html":"<p>very descriptive and coverage too good.</p>","created_formatted_with_time_since":"7 months ago"},{"_class":"course_review","id":65803300,"content":"I have passed the AWS Solution Architect Associate exam yesterday. After practicing with the set of questions here, and going through the slides it was pretty easy to pass the exam. \nThe PDF materials were a good documents to go through in the last minute before taking the exams.","rating":3.5,"created":"2020-09-07T20:45:53-07:00","modified":"2020-09-08T08:04:00-07:00","user_modified":"2020-09-07T20:48:51-07:00","user":{"_class":"user","title":"Sivasankar Kandasamy","name":"Sivasankar","display_name":"Sivasankar Kandasamy","image_50x50":"https://img-c.udemycdn.com/user/50x50/anonymous_3.png","initials":"SK","tracking_id":"Uvj6h2YGSQ6jTgH53lL32A","public_display_name":"Sivasankar K."},"response":{"_class":"course_review_response","id":6038984,"content":"Congratulations on your certification!  But why only 3 stars if the course helped you pass?","created":"2020-09-08T08:15:18-07:00","modified":"2020-09-08T08:15:18-07:00","user":{"_class":"user","title":"Chandra Lingam","name":"Chandra","display_name":"Chandra Lingam","image_50x50":"https://img-c.udemycdn.com/user/50x50/22006946_909d_11.jpg","initials":"CL","tracking_id":"epCRezj8Qm6kdDsg1ssFtg","public_display_name":"Chandra L."},"content_html":"<p>Congratulations on your certification!  But why only 3 stars if the course helped you pass?</p>","created_formatted_with_time_since":"a year ago"},"content_html":"<p>I have passed the AWS Solution Architect Associate exam yesterday. After practicing with the set of questions here, and going through the slides it was pretty easy to pass the exam. <br>The PDF materials were a good documents to go through in the last minute before taking the exams.</p>","created_formatted_with_time_since":"a year ago"},{"_class":"course_review","id":110949944,"content":"This was the best out of the 5 online courses I took.\nEveryone in my group is now starting with this course.","rating":5.0,"created":"2022-04-01T09:48:44-07:00","modified":"2022-04-02T16:04:01-07:00","user_modified":"2022-04-01T09:50:35-07:00","user":{"_class":"user","title":"James Rogers","name":"James","display_name":"James Rogers","image_50x50":"https://img-c.udemycdn.com/user/50x50/anonymous_3.png","initials":"JR","tracking_id":"1ynESNJGS9yt0gRs7E3frQ","public_display_name":"James R."},"response":null,"content_html":"<p>This was the best out of the 5 online courses I took.<br>Everyone in my group is now starting with this course.</p>","created_formatted_with_time_since":"5 months ago"},{"_class":"course_review","id":119510678,"content":"Very clear explanation for beginners","rating":5.0,"created":"2022-07-24T12:51:23-07:00","modified":"2022-07-26T16:27:59-07:00","user_modified":"2022-07-24T12:52:00-07:00","user":{"_class":"user","title":"Akila Farwin","name":"Akila","display_name":"Akila Farwin","image_50x50":"https://img-c.udemycdn.com/user/50x50/116007534_1985.jpg","initials":"AF","tracking_id":"tF67-hTlRWOwSV40qSVg8g","public_display_name":"Akila F."},"response":null,"content_html":"<p>Very clear explanation for beginners</p>","created_formatted_with_time_since":"a month ago"},{"_class":"course_review","id":109460076,"content":"really important stuff that I did not get through the SAA-CO2 courses of Udemy. thank you Chandra","rating":5.0,"created":"2022-03-12T12:42:24-08:00","modified":"2022-03-23T21:22:06-07:00","user_modified":"2022-03-23T21:22:06-07:00","user":{"_class":"user","title":"Fahim Rahiq","name":"Fahim","display_name":"Fahim Rahiq","image_50x50":"https://img-c.udemycdn.com/user/50x50/102232894_4dc0.jpg","initials":"FR","tracking_id":"Xv4zD6DhRrej5I_vBkQiSQ","public_display_name":"Fahim R."},"response":{"_class":"course_review_response","id":9314994,"content":"Glad to hear! Thank you, Fahim!","created":"2022-03-24T03:00:16-07:00","modified":"2022-03-24T03:00:16-07:00","user":{"_class":"user","title":"Chandra Lingam","name":"Chandra","display_name":"Chandra Lingam","image_50x50":"https://img-c.udemycdn.com/user/50x50/22006946_909d_11.jpg","initials":"CL","tracking_id":"epCRezj8Qm6kdDsg1ssFtg","public_display_name":"Chandra L."},"content_html":"<p>Glad to hear! Thank you, Fahim!</p>","created_formatted_with_time_since":"5 months ago"},"content_html":"<p>really important stuff that I did not get through the SAA-CO2 courses of Udemy. thank you Chandra</p>","created_formatted_with_time_since":"5 months ago"},{"_class":"course_review","id":103778724,"content":"amazing information and very useful","rating":5.0,"created":"2022-01-01T07:01:16-08:00","modified":"2022-01-06T23:03:17-08:00","user_modified":"2022-01-06T23:03:17-08:00","user":{"_class":"user","title":"Anil Dhiman","name":"Anil","display_name":"Anil Dhiman","image_50x50":"https://img-c.udemycdn.com/user/50x50/anonymous_3.png","initials":"AD","tracking_id":"5OtCK3SeT0SC3IkJojd1nw","public_display_name":"Anil D."},"response":null,"content_html":"<p>amazing information and very useful</p>","created_formatted_with_time_since":"8 months ago"},{"_class":"course_review","id":101255910,"content":"The topics are explained in detail and easy to understand, thank you.","rating":5.0,"created":"2021-11-28T03:39:41-08:00","modified":"2021-11-29T15:07:24-08:00","user_modified":"2021-11-28T03:40:59-08:00","user":{"_class":"user","title":"Thangadurai Shekar","name":"Thangadurai","display_name":"Thangadurai Shekar","image_50x50":"https://img-c.udemycdn.com/user/50x50/anonymous_3.png","initials":"TS","tracking_id":"DcmGCHf5TCO8zteIeRepSw","public_display_name":"Thangadurai S."},"response":null,"content_html":"<p>The topics are explained in detail and easy to understand, thank you.</p>","created_formatted_with_time_since":"9 months ago"},{"_class":"course_review","id":102659422,"content":"Absolutely awesome course!","rating":5.0,"created":"2021-12-16T02:42:57-08:00","modified":"2021-12-17T15:05:06-08:00","user_modified":"2021-12-16T02:43:15-08:00","user":{"_class":"user","title":"Ashok parekh","name":"Ashok","display_name":"Ashok parekh","image_50x50":"https://img-c.udemycdn.com/user/50x50/anonymous_3.png","initials":"AP","tracking_id":"wRT6qDsNT3C_-CHvHfpZSQ","public_display_name":"Ashok P."},"response":null,"content_html":"<p>Absolutely awesome course!</p>","created_formatted_with_time_since":"8 months ago"},{"_class":"course_review","id":117930588,"content":"excellent explanation!","rating":5.0,"created":"2022-07-04T07:27:03-07:00","modified":"2022-07-05T16:15:56-07:00","user_modified":"2022-07-04T07:27:28-07:00","user":{"_class":"user","title":"SATYABRATA BURMAN","name":"SATYABRATA","display_name":"SATYABRATA BURMAN","image_50x50":"https://img-c.udemycdn.com/user/50x50/anonymous_3.png","initials":"SB","tracking_id":"klqlUd0xT-iGQvoTRnaxAw","public_display_name":"SATYABRATA B."},"response":null,"content_html":"<p>excellent explanation!</p>","created_formatted_with_time_since":"2 months ago"}]}