{"count":105,"next":"https://www.udemy.com/api-2.0/courses/1198532/reviews/?courseId=1198532&fields%5Bcourse_review%5D=%40default%2Cresponse%2Ccontent_html%2Ccreated_formatted_with_time_since&fields%5Bcourse_review_response%5D=%40min%2Cuser%2Ccontent_html%2Ccreated_formatted_with_time_since&fields%5Buser%5D=%40min%2Cimage_50x50%2Cinitials%2Cpublic_display_name%2Ctracking_id&is_text_review=1&ordering=course_review_score__rank%2C-created&page=2","previous":null,"results":[{"_class":"course_review","id":121974868,"content":"Very Good","rating":4.5,"created":"2022-08-24T15:01:33-07:00","modified":"2022-08-25T16:07:08-07:00","user_modified":"2022-08-24T15:01:42-07:00","user":{"_class":"user","title":"Jeetendra Singh","name":"Jeetendra","display_name":"Jeetendra Singh","image_50x50":"https://img-c.udemycdn.com/user/50x50/anonymous_3.png","initials":"JS","tracking_id":"CUUCY4EiRgajLCjtEGk6Ww","public_display_name":"Jeetendra S."},"response":null,"content_html":"<p>Very Good</p>","created_formatted_with_time_since":"a week ago"},{"_class":"course_review","id":119925308,"content":"Very thorough explanation of all concepts with numerous examples and alternatives of implementation products within aws. Labs to further ensure understanding.. Great!","rating":4.5,"created":"2022-07-29T02:17:38-07:00","modified":"2022-08-01T06:40:02-07:00","user_modified":"2022-08-01T06:40:02-07:00","user":{"_class":"user","title":"Paul Andersson","name":"Paul","display_name":"Paul Andersson","image_50x50":"https://img-c.udemycdn.com/user/50x50/anonymous_3.png","initials":"PA","tracking_id":"guEUHjGBSz6CxTk322_2iQ","public_display_name":"Paul A."},"response":{"_class":"course_review_response","id":9978626,"content":"Happy to hear, Paul! Glad you liked the coverage and topics!","created":"2022-08-02T09:14:09-07:00","modified":"2022-08-02T09:14:09-07:00","user":{"_class":"user","title":"Chandra Lingam","name":"Chandra","display_name":"Chandra Lingam","image_50x50":"https://img-c.udemycdn.com/user/50x50/22006946_909d_11.jpg","initials":"CL","tracking_id":"mS_i4LIMQIGsVZTC3X_GPg","public_display_name":"Chandra L."},"content_html":"<p>Happy to hear, Paul! Glad you liked the coverage and topics!</p>","created_formatted_with_time_since":"a month ago"},"content_html":"<p>Very thorough explanation of all concepts with numerous examples and alternatives of implementation products within aws. Labs to further ensure understanding.. Great!</p>","created_formatted_with_time_since":"a month ago"},{"_class":"course_review","id":110596492,"content":"Very nice content and very nicely explained","rating":5.0,"created":"2022-03-28T07:47:56-07:00","modified":"2022-03-30T10:27:50-07:00","user_modified":"2022-03-30T10:27:50-07:00","user":{"_class":"user","title":"Nihar Chopdar","name":"Nihar","display_name":"Nihar Chopdar","image_50x50":"https://img-c.udemycdn.com/user/50x50/anonymous_3.png","initials":"NC","tracking_id":"JqZ_76A9RVKjlLx8Ji0z0g","public_display_name":"Nihar C."},"response":null,"content_html":"<p>Very nice content and very nicely explained</p>","created_formatted_with_time_since":"5 months ago"},{"_class":"course_review","id":100826952,"content":"Instructor has excellent knowledge in the topic.","rating":5.0,"created":"2021-11-22T23:09:01-08:00","modified":"2021-11-24T06:15:11-08:00","user_modified":"2021-11-24T06:15:11-08:00","user":{"_class":"user","title":"M Praveen Kumar","name":"M Praveen","display_name":"M Praveen Kumar","image_50x50":"https://img-c.udemycdn.com/user/50x50/anonymous_3.png","initials":"MK","tracking_id":"ebzFOo5_QzWYUbhSrZ5UEQ","public_display_name":"M Praveen K."},"response":null,"content_html":"<p>Instructor has excellent knowledge in the topic.</p>","created_formatted_with_time_since":"9 months ago"},{"_class":"course_review","id":97102766,"content":"I am glad to inform that I passed the AWS solutions architect associate yesterday. I scored 84%.\n\nThanks so much Chandra for your wonderful course!!\n\nThis is THE BEST one stop course. Instructor explains each topic in great details, it helps to understand the scenario first then introduces concepts followed by demo. Eventually we get the knowledge and experience. Responses to questions on lab/lecture are near real time.\n\nApart from academic learning, I was able to bridge the gaps through study group a unique interactive by Chandra. This forum gives support and knowledge sharing platform.\n\nYour approach towards Cloud architect has really motivated me and am looking forward to continue the journey and take it to next level.\n\nThanks\nPramod","rating":5.0,"created":"2021-10-04T18:32:09-07:00","modified":"2021-11-08T04:07:18-08:00","user_modified":"2021-11-08T04:07:18-08:00","user":{"_class":"user","title":"Pramod Kumar Kondapally","name":"Pramod Kumar","display_name":"Pramod Kumar Kondapally","image_50x50":"https://img-c.udemycdn.com/user/50x50/anonymous_3.png","initials":"PK","tracking_id":"LJOqZ1hiRXKXanxyXsWXBg","public_display_name":"Pramod Kumar K."},"response":null,"content_html":"<p>I am glad to inform that I passed the AWS solutions architect associate yesterday. I scored 84%.</p>\n\n<p>Thanks so much Chandra for your wonderful course!!</p>\n\n<p>This is THE BEST one stop course. Instructor explains each topic in great details, it helps to understand the scenario first then introduces concepts followed by demo. Eventually we get the knowledge and experience. Responses to questions on lab/lecture are near real time.</p>\n\n<p>Apart from academic learning, I was able to bridge the gaps through study group a unique interactive by Chandra. This forum gives support and knowledge sharing platform.</p>\n\n<p>Your approach towards Cloud architect has really motivated me and am looking forward to continue the journey and take it to next level.</p>\n\n<p>Thanks<br>Pramod</p>","created_formatted_with_time_since":"11 months ago"},{"_class":"course_review","id":120779448,"content":"so far so good. explanation is clear and simple to understand","rating":4.0,"created":"2022-08-09T06:57:33-07:00","modified":"2022-09-01T17:21:37-07:00","user_modified":"2022-09-01T17:21:37-07:00","user":{"_class":"user","title":"ambrose aiwerioghene","name":"ambrose","display_name":"ambrose aiwerioghene","image_50x50":"https://img-c.udemycdn.com/user/50x50/anonymous_3.png","initials":"AA","tracking_id":"rxwwWISiRlCtxuJnjDEfLA","public_display_name":"ambrose A."},"response":null,"content_html":"<p>so far so good. explanation is clear and simple to understand</p>","created_formatted_with_time_since":"3 weeks ago"},{"_class":"course_review","id":109912334,"content":"Explanation of the aws resources are great","rating":5.0,"created":"2022-03-18T10:12:57-07:00","modified":"2022-03-20T16:04:14-07:00","user_modified":"2022-03-18T10:13:27-07:00","user":{"_class":"user","title":"Abhiram","name":"Abhiram","display_name":"Abhiram","image_50x50":"https://img-c.udemycdn.com/user/50x50/anonymous_3.png","initials":"A","tracking_id":"sJ38L6UdRYW2ULCoHTWeJw","public_display_name":"Abhiram"},"response":null,"content_html":"<p>Explanation of the aws resources are great</p>","created_formatted_with_time_since":"5 months ago"},{"_class":"course_review","id":95485921,"content":"I am happy to announce that I successfully passed the AWS SAA exam. Could not have been possible without this course. This course is the best I found over Udemy (as I pursued other courses as well). Chandra's approach taken to educate about AWS SAA is very structured and logical and has the right level of details with good questionnaire which was pretty close to the actual exam. I recommend the students to complete the part 1&2 along with the exam module as well which is more crisp and pretty similar to the real exam. Thank you very much Chandra for helping me pass the exam through these courses.","rating":5.0,"created":"2021-09-15T02:51:12-07:00","modified":"2021-09-20T05:07:17-07:00","user_modified":"2021-09-20T05:07:17-07:00","user":{"_class":"user","title":"Dharani Kumar Kannappa","name":"Dharani Kumar","display_name":"Dharani Kumar Kannappa","image_50x50":"https://img-c.udemycdn.com/user/50x50/anonymous_3.png","initials":"DK","tracking_id":"W4WTkwvsTm-an6Hd8JKwXw","public_display_name":"Dharani Kumar K."},"response":null,"content_html":"<p>I am happy to announce that I successfully passed the AWS SAA exam. Could not have been possible without this course. This course is the best I found over Udemy (as I pursued other courses as well). Chandra's approach taken to educate about AWS SAA is very structured and logical and has the right level of details with good questionnaire which was pretty close to the actual exam. I recommend the students to complete the part 1&2 along with the exam module as well which is more crisp and pretty similar to the real exam. Thank you very much Chandra for helping me pass the exam through these courses.</p>","created_formatted_with_time_since":"11 months ago"},{"_class":"course_review","id":102865716,"content":"I highly recommend taking Chandra's courses, both this and his AWS Security course.  He is very thorough.  Listen to his Youtube videos as well.","rating":5.0,"created":"2021-12-19T14:53:18-08:00","modified":"2021-12-20T15:07:30-08:00","user_modified":"2021-12-19T14:54:04-08:00","user":{"_class":"user","title":"James Weiss","name":"James","display_name":"James Weiss","image_50x50":"https://img-c.udemycdn.com/user/50x50/anonymous_3.png","initials":"JW","tracking_id":"Pkaklx8kSFyzImrGrO0fDw","public_display_name":"James W."},"response":null,"content_html":"<p>I highly recommend taking Chandra's courses, both this and his AWS Security course.  He is very thorough.  Listen to his Youtube videos as well.</p>","created_formatted_with_time_since":"8 months ago"},{"_class":"course_review","id":94685892,"content":"It is a awesome AWS SAA training course by Chandra.","rating":5.0,"created":"2021-09-05T05:04:36-07:00","modified":"2021-09-06T16:06:06-07:00","user_modified":"2021-09-05T05:05:23-07:00","user":{"_class":"user","title":"N.V. Anantha Narayan","name":"N.V. Anantha","display_name":"N.V. Anantha Narayan","image_50x50":"https://img-c.udemycdn.com/user/50x50/anonymous_3.png","initials":"NN","tracking_id":"75L3P48qSrav_sgVlqaxlA","public_display_name":"N.V. Anantha N."},"response":null,"content_html":"<p>It is a awesome AWS SAA training course by Chandra.</p>","created_formatted_with_time_since":"12 months ago"},{"_class":"course_review","id":11611402,"content":"Another good course from Chandra, following on from part 1. Again, there is plenty of detail and background into why things are the way they are and how they work, which gives a good grounding into a solid understanding.  Missing a couple of big services such as Elastic Beanstalk and API Gateway but once these are in, there's no faulting it.","rating":5.0,"created":"2017-12-05T14:07:02-08:00","modified":"2018-05-22T15:19:21-07:00","user_modified":"2018-02-23T12:25:58-08:00","user":{"_class":"user","title":"Alex Davis","name":"Alex","display_name":"Alex Davis","image_50x50":"https://img-c.udemycdn.com/user/50x50/anonymous_3.png","initials":"AD","tracking_id":"ikf-DbC5QwGkpXkNo7Cv4Q","public_display_name":"Alex D."},"response":null,"content_html":"<p>Another good course from Chandra, following on from part 1. Again, there is plenty of detail and background into why things are the way they are and how they work, which gives a good grounding into a solid understanding.  Missing a couple of big services such as Elastic Beanstalk and API Gateway but once these are in, there's no faulting it.</p>","created_formatted_with_time_since":"4 years ago"},{"_class":"course_review","id":43950326,"content":"Thanks a lot Chandra for the awesome AWS certification courses. I had no knowledge of AWS when I bought your courses back in late 2019. After 2-3 months of rigorous preparation,  I mustered the courage and took the test(SAA-C01) last week(03/09/20) and scored 940/1000. All credit goes to you. I appreciate the quickness and frequency at which you update your courses to keep up with what's happening on the AWS side and the clarity and simplicity in all your presentations/videos. Without the courses, I think, it would have taken me more time to prepare and appear for the test. Thank you not just for the courses and the score but also for making me feel like an expert in most of the AWS services and best practices.","rating":5.0,"created":"2020-01-18T19:22:45-08:00","modified":"2020-03-17T17:49:07-07:00","user_modified":"2020-03-17T17:49:07-07:00","user":{"_class":"user","title":"Ravi Alavandar","name":"Ravi","display_name":"Ravi Alavandar","image_50x50":"https://img-c.udemycdn.com/user/50x50/anonymous_3.png","initials":"RA","tracking_id":"o5s3BKjnS02Lur0Dh0yp7g","public_display_name":"Ravi A."},"response":null,"content_html":"<p>Thanks a lot Chandra for the awesome AWS certification courses. I had no knowledge of AWS when I bought your courses back in late 2019. After 2-3 months of rigorous preparation,  I mustered the courage and took the test(SAA-C01) last week(03/09/20) and scored 940/1000. All credit goes to you. I appreciate the quickness and frequency at which you update your courses to keep up with what's happening on the AWS side and the clarity and simplicity in all your presentations/videos. Without the courses, I think, it would have taken me more time to prepare and appear for the test. Thank you not just for the courses and the score but also for making me feel like an expert in most of the AWS services and best practices.</p>","created_formatted_with_time_since":"2 years ago"}]}