{"count":378,"next":"https://www.udemy.com/api-2.0/courses/1236626/reviews/?courseId=1236626&fields%5Bcourse_review%5D=%40default%2Cresponse%2Ccontent_html%2Ccreated_formatted_with_time_since&fields%5Bcourse_review_response%5D=%40min%2Cuser%2Ccontent_html%2Ccreated_formatted_with_time_since&fields%5Buser%5D=%40min%2Cimage_50x50%2Cinitials%2Cpublic_display_name%2Ctracking_id&is_text_review=1&ordering=course_review_score__rank%2C-created&page=2","previous":null,"results":[{"_class":"course_review","id":121798014,"content":"The questions are good, they cover a wide range of topics but I found them too easy. Not sure if we would see actual exams this easy.","rating":3.5,"created":"2022-08-22T21:23:59-07:00","modified":"2022-08-23T16:08:01-07:00","user_modified":"2022-08-22T21:24:55-07:00","user":{"_class":"user","title":"BABUN DEY","name":"BABUN","display_name":"BABUN DEY","image_50x50":"https://img-b.udemycdn.com/user/50x50/160536864_0bfb.jpg","initials":"BD","tracking_id":"tSm2-8R7QRucjtObE2UBdw","public_display_name":"BABUN D."},"response":null,"content_html":"<p>The questions are good, they cover a wide range of topics but I found them too easy. Not sure if we would see actual exams this easy.</p>","created_formatted_with_time_since":"a week ago"},{"_class":"course_review","id":121481828,"content":"Liked the way instructor organized and presented the content. Feels great.","rating":5.0,"created":"2022-08-18T06:51:43-07:00","modified":"2022-08-24T00:42:30-07:00","user_modified":"2022-08-24T00:42:30-07:00","user":{"_class":"user","title":"Rohit Sonaje","name":"Rohit","display_name":"Rohit Sonaje","image_50x50":"https://img-b.udemycdn.com/user/50x50/anonymous_3.png","initials":"RS","tracking_id":"FeW_u64aTPmLXvToygGBUQ","public_display_name":"Rohit S."},"response":null,"content_html":"<p>Liked the way instructor organized and presented the content. Feels great.</p>","created_formatted_with_time_since":"2 weeks ago"},{"_class":"course_review","id":117321220,"content":"Concepts are explained in clear and precise manner, along with Labs.","rating":4.0,"created":"2022-06-26T23:02:15-07:00","modified":"2022-06-29T19:03:18-07:00","user_modified":"2022-06-29T19:03:18-07:00","user":{"_class":"user","title":"Bharpur Singh","name":"Bharpur","display_name":"Bharpur Singh","image_50x50":"https://img-b.udemycdn.com/user/50x50/anonymous_3.png","initials":"BS","tracking_id":"DFChQlgNQ-qsrRg98IyIpg","public_display_name":"Bharpur S."},"response":null,"content_html":"<p>Concepts are explained in clear and precise manner, along with Labs.</p>","created_formatted_with_time_since":"2 months ago"},{"_class":"course_review","id":112176568,"content":"Great a lot of knowledge in a short space of time","rating":5.0,"created":"2022-04-19T09:25:56-07:00","modified":"2022-04-20T16:10:41-07:00","user_modified":"2022-04-19T09:26:23-07:00","user":{"_class":"user","title":"Greg Bennett","name":"Greg","display_name":"Greg Bennett","image_50x50":"https://img-b.udemycdn.com/user/50x50/anonymous_3.png","initials":"GB","tracking_id":"ICjC87boTPqSBm0uIWRaiw","public_display_name":"Greg B."},"response":null,"content_html":"<p>Great a lot of knowledge in a short space of time</p>","created_formatted_with_time_since":"4 months ago"},{"_class":"course_review","id":111903848,"content":"Very good course and presentation .","rating":4.5,"created":"2022-04-15T02:12:57-07:00","modified":"2022-05-03T03:48:09-07:00","user_modified":"2022-05-03T03:48:09-07:00","user":{"_class":"user","title":"Nitin Antony","name":"Nitin","display_name":"Nitin Antony","image_50x50":"https://img-b.udemycdn.com/user/50x50/anonymous_3.png","initials":"NA","tracking_id":"-lmcus3kRaiwSFYWDm_cKQ","public_display_name":"Nitin A."},"response":null,"content_html":"<p>Very good course and presentation .</p>","created_formatted_with_time_since":"4 months ago"},{"_class":"course_review","id":118335056,"content":"Very detailed and easy to understand sessions","rating":5.0,"created":"2022-07-09T01:53:51-07:00","modified":"2022-07-27T19:24:17-07:00","user_modified":"2022-07-27T19:24:17-07:00","user":{"_class":"user","title":"Amit Jasoria","name":"Amit Jasoria","display_name":"Amit Jasoria","image_50x50":"https://img-b.udemycdn.com/user/50x50/anonymous_3.png","initials":"A","tracking_id":"k2jHnHwHRu-xL7PnoBAIgg","public_display_name":"Amit Jasoria"},"response":null,"content_html":"<p>Very detailed and easy to understand sessions</p>","created_formatted_with_time_since":"a month ago"},{"_class":"course_review","id":114932376,"content":"He cares about our learning.","rating":5.0,"created":"2022-05-26T05:45:00-07:00","modified":"2022-06-01T11:57:26-07:00","user_modified":"2022-06-01T11:57:26-07:00","user":{"_class":"user","title":"Jeff Kohan","name":"Jeff","display_name":"Jeff Kohan","image_50x50":"https://img-b.udemycdn.com/user/50x50/anonymous_3.png","initials":"JK","tracking_id":"fWHtGb2oRiOCH8vBvWK6lQ","public_display_name":"Jeff K."},"response":null,"content_html":"<p>He cares about our learning.</p>","created_formatted_with_time_since":"3 months ago"},{"_class":"course_review","id":109665638,"content":"Yes. The trainer explained the concepts very slowly and in beautiful manner.","rating":5.0,"created":"2022-03-15T08:02:04-07:00","modified":"2022-03-17T07:42:19-07:00","user_modified":"2022-03-17T07:42:19-07:00","user":{"_class":"user","title":"Girish Mekalke","name":"Girish","display_name":"Girish Mekalke","image_50x50":"https://img-b.udemycdn.com/user/50x50/anonymous_3.png","initials":"GM","tracking_id":"mwhZkSGYT5uT1q7-I4FRig","public_display_name":"Girish M."},"response":null,"content_html":"<p>Yes. The trainer explained the concepts very slowly and in beautiful manner.</p>","created_formatted_with_time_since":"5 months ago"},{"_class":"course_review","id":103005328,"content":"Really appreciate how the course material builds up gradually from basics and reviews key concepts in context as they are used later.","rating":4.5,"created":"2021-12-21T08:09:08-08:00","modified":"2021-12-30T09:03:27-08:00","user_modified":"2021-12-30T09:03:27-08:00","user":{"_class":"user","title":"","name":"","display_name":"Stephen Williard","image_50x50":"https://img-b.udemycdn.com/user/50x50/anonymous_3.png","initials":"","tracking_id":"9SplCSUHQ6epM7d96Od6JA","public_display_name":"Udemy User"},"response":null,"content_html":"<p>Really appreciate how the course material builds up gradually from basics and reviews key concepts in context as they are used later.</p>","created_formatted_with_time_since":"8 months ago"},{"_class":"course_review","id":100368760,"content":"Good start.  I've taken multiple AWS related courses so I'm interested in how this develops","rating":5.0,"created":"2021-11-16T13:16:11-08:00","modified":"2021-11-25T17:50:41-08:00","user_modified":"2021-11-25T17:50:41-08:00","user":{"_class":"user","title":"Dwayne Davis","name":"Dwayne","display_name":"Dwayne Davis","image_50x50":"https://img-b.udemycdn.com/user/50x50/129100960_a58f.jpg","initials":"DD","tracking_id":"XNYWI8QzQtWT1aoNme3frQ","public_display_name":"Dwayne D."},"response":null,"content_html":"<p>Good start.  I've taken multiple AWS related courses so I'm interested in how this develops</p>","created_formatted_with_time_since":"9 months ago"},{"_class":"course_review","id":117509414,"content":"So far so good.  Thank you","rating":5.0,"created":"2022-06-28T19:37:46-07:00","modified":"2022-06-29T16:10:52-07:00","user_modified":"2022-06-28T19:38:00-07:00","user":{"_class":"user","title":"Azizul Khan","name":"Azizul","display_name":"Azizul Khan","image_50x50":"https://img-b.udemycdn.com/user/50x50/anonymous_3.png","initials":"AK","tracking_id":"KCSL3HjGSCy-aIOVuIihYg","public_display_name":"Azizul K."},"response":null,"content_html":"<p>So far so good.  Thank you</p>","created_formatted_with_time_since":"2 months ago"},{"_class":"course_review","id":111398466,"content":"the teaching is perfect. good job thank you","rating":5.0,"created":"2022-04-07T15:08:14-07:00","modified":"2022-04-11T00:50:02-07:00","user_modified":"2022-04-07T15:09:06-07:00","user":{"_class":"user","title":"Adetunji Adedokun","name":"Adetunji","display_name":"Adetunji Adedokun","image_50x50":"https://img-b.udemycdn.com/user/50x50/anonymous_3.png","initials":"AA","tracking_id":"UwtHFxGNTxWXfBfE9ZSrUg","public_display_name":"Adetunji A."},"response":null,"content_html":"<p>the teaching is perfect. good job thank you</p>","created_formatted_with_time_since":"4 months ago"}]}