{"count":526,"next":"https://www.udemy.com/api-2.0/courses/1258298/reviews/?courseId=1258298&fields%5Bcourse_review%5D=%40default%2Cresponse%2Ccontent_html%2Ccreated_formatted_with_time_since&fields%5Bcourse_review_response%5D=%40min%2Cuser%2Ccontent_html%2Ccreated_formatted_with_time_since&fields%5Buser%5D=%40min%2Cimage_50x50%2Cinitials%2Cpublic_display_name%2Ctracking_id&is_text_review=1&ordering=course_review_score__rank%2C-created&page=2","previous":null,"results":[{"_class":"course_review","id":118976240,"content":"Useful information about data analytics and has been presented well by the instructor.","rating":4.5,"created":"2022-07-17T20:06:28-07:00","modified":"2022-07-18T16:05:15-07:00","user_modified":"2022-07-17T20:06:41-07:00","user":{"_class":"user","title":"Neeraj Pandey","name":"Neeraj","display_name":"Neeraj Pandey","image_50x50":"https://img-c.udemycdn.com/user/50x50/anonymous_3.png","initials":"NP","tracking_id":"42IlXZIHTjuLIR6YZTPtIg","public_display_name":"Neeraj P."},"response":null,"content_html":"<p>Useful information about data analytics and has been presented well by the instructor.</p>","created_formatted_with_time_since":"a month ago"},{"_class":"course_review","id":118047874,"content":"This course offers an acceptable overview of many data science tools on real data. If you're looking for a beginner's primer on the material, this course may be for you. If you're used to Indian English, then the teacher's voice shouldn't be an issue. What could be improved is focusing on and diving deeper into data. There were some lectures that focused on importing, for example, data from the Boston real estate area, manipulating it a bit and the lecture ended. Then, in the lecture immediately after, the data the teacher was using as an example was chemical compositions of glass; the video after that bounced to another set of data; eventually, we returned to the Boston data, then shot off to recurring sets of data. The teacher is quite knowledgeable in the material and the processes; I felt that she could have taken a set of data and used it longer from start to finish. \n\nAs I said, this is a good start. Take notes of key terms and concepts and use this video as a platform into other courses on those key terms and concepts. \n\nNevertheless, a big thanks to the instructor for taking the time to put together this course.","rating":3.0,"created":"2022-07-05T12:44:33-07:00","modified":"2022-07-06T16:11:29-07:00","user_modified":"2022-07-05T12:50:58-07:00","user":{"_class":"user","title":"Julius Grocholski","name":"Julius","display_name":"Julius Grocholski","image_50x50":"https://img-c.udemycdn.com/user/50x50/anonymous_3.png","initials":"JG","tracking_id":"diqg5hCwRdO3arww6UVdwA","public_display_name":"Julius G."},"response":null,"content_html":"<p>This course offers an acceptable overview of many data science tools on real data. If you're looking for a beginner's primer on the material, this course may be for you. If you're used to Indian English, then the teacher's voice shouldn't be an issue. What could be improved is focusing on and diving deeper into data. There were some lectures that focused on importing, for example, data from the Boston real estate area, manipulating it a bit and the lecture ended. Then, in the lecture immediately after, the data the teacher was using as an example was chemical compositions of glass; the video after that bounced to another set of data; eventually, we returned to the Boston data, then shot off to recurring sets of data. The teacher is quite knowledgeable in the material and the processes; I felt that she could have taken a set of data and used it longer from start to finish. </p>\n\n<p>As I said, this is a good start. Take notes of key terms and concepts and use this video as a platform into other courses on those key terms and concepts. </p>\n\n<p>Nevertheless, a big thanks to the instructor for taking the time to put together this course.</p>","created_formatted_with_time_since":"a month ago"},{"_class":"course_review","id":117310292,"content":"An excellent course for training with Python for Data Analytics, especially useful  for beginners.","rating":5.0,"created":"2022-06-26T19:09:00-07:00","modified":"2022-07-04T22:31:22-07:00","user_modified":"2022-07-04T22:31:22-07:00","user":{"_class":"user","title":"Sweta Verma","name":"Sweta","display_name":"Sweta Verma","image_50x50":"https://img-c.udemycdn.com/user/50x50/anonymous_3.png","initials":"SV","tracking_id":"x6imweR7Qmu5u1_6D_XGaA","public_display_name":"Sweta V."},"response":null,"content_html":"<p>An excellent course for training with Python for Data Analytics, especially useful  for beginners.</p>","created_formatted_with_time_since":"2 months ago"},{"_class":"course_review","id":117138606,"content":"The instructor has brilliantly brought out the importance of various tools for data analytics. Her knowledge of the subject is impressive.","rating":5.0,"created":"2022-06-24T00:40:26-07:00","modified":"2022-06-25T16:07:26-07:00","user_modified":"2022-06-24T00:42:15-07:00","user":{"_class":"user","title":"Rajesh Sharma","name":"Rajesh","display_name":"Rajesh Sharma","image_50x50":"https://img-c.udemycdn.com/user/50x50/anonymous_3.png","initials":"RS","tracking_id":"Ar2NCkkfTC-diHPxWY8wzQ","public_display_name":"Rajesh S."},"response":null,"content_html":"<p>The instructor has brilliantly brought out the importance of various tools for data analytics. Her knowledge of the subject is impressive.</p>","created_formatted_with_time_since":"2 months ago"},{"_class":"course_review","id":100993614,"content":"The course on data analysis with Python contains valuable and important information which is also easy to grasp by beginners. The instructor has ideally structured her lectures in the course. Her knowledge of the subject is impeccable.","rating":4.5,"created":"2021-11-24T17:48:37-08:00","modified":"2021-11-25T15:04:48-08:00","user_modified":"2021-11-24T17:52:34-08:00","user":{"_class":"user","title":"Sangeeta Rani","name":"Sangeeta","display_name":"Sangeeta Rani","image_50x50":"https://img-c.udemycdn.com/user/50x50/anonymous_3.png","initials":"SR","tracking_id":"iThYel_5SM2QWHoePAXzjw","public_display_name":"Sangeeta R."},"response":null,"content_html":"<p>The course on data analysis with Python contains valuable and important information which is also easy to grasp by beginners. The instructor has ideally structured her lectures in the course. Her knowledge of the subject is impeccable.</p>","created_formatted_with_time_since":"9 months ago"},{"_class":"course_review","id":114736714,"content":"The course contains useful information about data analytics and has been presented well by the instructor.","rating":5.0,"created":"2022-05-24T05:29:26-07:00","modified":"2022-05-26T16:08:26-07:00","user_modified":"2022-05-24T18:38:45-07:00","user":{"_class":"user","title":"Raj Sagar","name":"Raj","display_name":"Raj Sagar","image_50x50":"https://img-c.udemycdn.com/user/50x50/anonymous_3.png","initials":"RS","tracking_id":"IQCCAFggQN26PFnvzf9B0w","public_display_name":"Raj S."},"response":null,"content_html":"<p>The course contains useful information about data analytics and has been presented well by the instructor.</p>","created_formatted_with_time_since":"3 months ago"},{"_class":"course_review","id":114805548,"content":"Would give -1\n\nThe worst part is Statistics. Doesn't seem that author has full understanding on what is she talking about. \n\nThere is emphasis on how this course is so much better than all the others since it concentrates on real data. Then when she apply some basic stats on that real data - it doesn't make any sense. I.e. tables full of mean with same values (can't attach the screenshot unfortunately). Author skips explanation of what is the meaning of parameters. I.e. just saying and thats alpha, but what is a meaning of alpha?!!!\n\nAlso those facebook pop up notification on videos are just unprofessional","rating":1.0,"created":"2022-05-24T22:56:39-07:00","modified":"2022-05-26T16:09:04-07:00","user_modified":"2022-05-24T23:01:47-07:00","user":{"_class":"user","title":"Ilya","name":"Ilya","display_name":"Ilya","image_50x50":"https://img-c.udemycdn.com/user/50x50/anonymous_3.png","initials":"I","tracking_id":"UrF-N6n9RbqePdlnQwy5vA","public_display_name":"Ilya"},"response":null,"content_html":"<p>Would give -1</p>\n\n<p>The worst part is Statistics. Doesn't seem that author has full understanding on what is she talking about. </p>\n\n<p>There is emphasis on how this course is so much better than all the others since it concentrates on real data. Then when she apply some basic stats on that real data - it doesn't make any sense. I.e. tables full of mean with same values (can't attach the screenshot unfortunately). Author skips explanation of what is the meaning of parameters. I.e. just saying and thats alpha, but what is a meaning of alpha?!!!</p>\n\n<p>Also those facebook pop up notification on videos are just unprofessional</p>","created_formatted_with_time_since":"3 months ago"},{"_class":"course_review","id":111100426,"content":"The instructor has brilliantly explained Python as an effective tool for data science training and data analysis.","rating":5.0,"created":"2022-04-04T04:36:18-07:00","modified":"2022-04-05T16:05:42-07:00","user_modified":"2022-04-04T04:38:46-07:00","user":{"_class":"user","title":"Anonymized User","name":"Anonymized","display_name":"Anonymized User","image_50x50":"https://img-c.udemycdn.com/user/50x50/anonymous_3.png","initials":"AU","tracking_id":"6HcMtA6kT9GAMDV1B6T_Mg","public_display_name":"Anonymized U."},"response":null,"content_html":"<p>The instructor has brilliantly explained Python as an effective tool for data science training and data analysis.</p>","created_formatted_with_time_since":"5 months ago"},{"_class":"course_review","id":111241786,"content":"The course has vast potential for practical applications. ideal use of Python for data analysis.","rating":5.0,"created":"2022-04-05T20:08:39-07:00","modified":"2022-04-13T21:12:48-07:00","user_modified":"2022-04-13T21:12:48-07:00","user":{"_class":"user","title":"Anonymized User","name":"Anonymized","display_name":"Anonymized User","image_50x50":"https://img-c.udemycdn.com/user/50x50/anonymous_3.png","initials":"AU","tracking_id":"xNpVXsSrSOWIV93kpUbU8Q","public_display_name":"Anonymized U."},"response":null,"content_html":"<p>The course has vast potential for practical applications. ideal use of Python for data analysis.</p>","created_formatted_with_time_since":"4 months ago"},{"_class":"course_review","id":112891804,"content":"the course contents and lectures have been organized in a professional way to help everyone. I really like it.","rating":5.0,"created":"2022-04-29T01:19:35-07:00","modified":"2022-05-11T05:13:14-07:00","user_modified":"2022-05-11T05:13:14-07:00","user":{"_class":"user","title":"","name":"","display_name":"Peter Marfo","image_50x50":"https://img-c.udemycdn.com/user/50x50/anonymous_3.png","initials":"","tracking_id":"T_CJGBn2SmiroS1WacDv-Q","public_display_name":"Udemy User"},"response":null,"content_html":"<p>the course contents and lectures have been organized in a professional way to help everyone. I really like it.</p>","created_formatted_with_time_since":"4 months ago"},{"_class":"course_review","id":106543140,"content":"Hand-on course for me. I hope to enhance the quality of my work significantly. The instructor is superb in her presentation.","rating":5.0,"created":"2022-02-01T20:12:42-08:00","modified":"2022-02-23T20:33:26-08:00","user_modified":"2022-02-23T20:33:26-08:00","user":{"_class":"user","title":"Ramakrishna Ray","name":"Ramakrishna","display_name":"Ramakrishna Ray","image_50x50":"https://img-c.udemycdn.com/user/50x50/anonymous_3.png","initials":"RR","tracking_id":"ak4G_ydATj2AeIHLHPHeGA","public_display_name":"Ramakrishna R."},"response":null,"content_html":"<p>Hand-on course for me. I hope to enhance the quality of my work significantly. The instructor is superb in her presentation.</p>","created_formatted_with_time_since":"7 months ago"},{"_class":"course_review","id":112496924,"content":"I find this course is very good of subject ie Complete Data Science with Python and get a lot of knowledge","rating":5.0,"created":"2022-04-23T20:52:26-07:00","modified":"2022-05-07T20:27:44-07:00","user_modified":"2022-05-07T20:27:44-07:00","user":{"_class":"user","title":"Anonymized User","name":"Anonymized","display_name":"Anonymized User","image_50x50":"https://img-c.udemycdn.com/user/50x50/anonymous_3.png","initials":"AU","tracking_id":"KkjjO7PzSu-uAF7yP_5rUw","public_display_name":"Anonymized U."},"response":null,"content_html":"<p>I find this course is very good of subject ie Complete Data Science with Python and get a lot of knowledge</p>","created_formatted_with_time_since":"4 months ago"}]}