{"count":228,"next":"https://www.udemy.com/api-2.0/courses/1328072/reviews/?courseId=1328072&fields%5Bcourse_review%5D=%40default%2Cresponse%2Ccontent_html%2Ccreated_formatted_with_time_since&fields%5Bcourse_review_response%5D=%40min%2Cuser%2Ccontent_html%2Ccreated_formatted_with_time_since&fields%5Buser%5D=%40min%2Cimage_50x50%2Cinitials%2Cpublic_display_name%2Ctracking_id&is_text_review=1&ordering=course_review_score__rank%2C-created&page=2","previous":null,"results":[{"_class":"course_review","id":121664316,"content":"Some of the exam questions contained poor grammar, including missing 'full stops' everywhere, and on one occasion an IPv4 IP address containing only 3 octets.","rating":2.5,"created":"2022-08-21T04:05:22-07:00","modified":"2022-08-23T16:08:26-07:00","user_modified":"2022-08-21T04:07:21-07:00","user":{"_class":"user","title":"Alyas Gul","name":"Alyas","display_name":"Alyas Gul","image_50x50":"https://img-c.udemycdn.com/user/50x50/anonymous_3.png","initials":"AG","tracking_id":"VqlXOVL2RAmAgE56Y303YQ","public_display_name":"Alyas G."},"response":null,"content_html":"<p>Some of the exam questions contained poor grammar, including missing 'full stops' everywhere, and on one occasion an IPv4 IP address containing only 3 octets.</p>","created_formatted_with_time_since":"a week ago"},{"_class":"course_review","id":112456842,"content":"good experience","rating":4.5,"created":"2022-04-23T00:48:29-07:00","modified":"2022-04-24T16:07:09-07:00","user_modified":"2022-04-23T00:49:03-07:00","user":{"_class":"user","title":"Naveen Yadav","name":"Naveen","display_name":"Naveen Yadav","image_50x50":"https://img-c.udemycdn.com/user/50x50/anonymous_3.png","initials":"NY","tracking_id":"yDOuOm4lSHy1-ItXL6PHdg","public_display_name":"Naveen Y."},"response":null,"content_html":"<p>good experience</p>","created_formatted_with_time_since":"4 months ago"},{"_class":"course_review","id":111268394,"content":"Very good course with quick demos almost for every topic. Thank you Zeal !!","rating":4.5,"created":"2022-04-06T03:49:40-07:00","modified":"2022-04-07T16:04:32-07:00","user_modified":"2022-04-06T03:50:21-07:00","user":{"_class":"user","title":"","name":"","display_name":"Biplab Ghosh","image_50x50":"https://img-c.udemycdn.com/user/50x50/anonymous_3.png","initials":"","tracking_id":"LMQgBGmMQFyy7a471gc19g","public_display_name":"Udemy User"},"response":null,"content_html":"<p>Very good course with quick demos almost for every topic. Thank you Zeal !!</p>","created_formatted_with_time_since":"4 months ago"},{"_class":"course_review","id":107738030,"content":"He is one of the best instructors out of 57,000 Udemy instructors. The content is well organized and focused on practical situations. I enjoyed the course and learned a lot from it.","rating":5.0,"created":"2022-02-17T08:05:13-08:00","modified":"2022-04-18T13:56:39-07:00","user_modified":"2022-04-18T13:56:39-07:00","user":{"_class":"user","title":"Koroush lotfazar","name":"Koroush","display_name":"Koroush lotfazar","image_50x50":"https://img-c.udemycdn.com/user/50x50/anonymous_3.png","initials":"KL","tracking_id":"-l_I0PdnSO6FVOpg3RWtwQ","public_display_name":"Koroush L."},"response":null,"content_html":"<p>He is one of the best instructors out of 57,000 Udemy instructors. The content is well organized and focused on practical situations. I enjoyed the course and learned a lot from it.</p>","created_formatted_with_time_since":"6 months ago"},{"_class":"course_review","id":106625610,"content":"Zeal makes understanding AWS a breeze. The courses are very well explained and the practical hands on explanation makes the subject well understood.","rating":5.0,"created":"2022-02-02T15:41:55-08:00","modified":"2022-02-09T22:12:25-08:00","user_modified":"2022-02-09T22:12:25-08:00","user":{"_class":"user","title":"Anonymized User","name":"Anonymized","display_name":"Anonymized User","image_50x50":"https://img-c.udemycdn.com/user/50x50/anonymous_3.png","initials":"AU","tracking_id":"rZHvEO4uSban1c9yGqpM4w","public_display_name":"Anonymized U."},"response":null,"content_html":"<p>Zeal makes understanding AWS a breeze. The courses are very well explained and the practical hands on explanation makes the subject well understood.</p>","created_formatted_with_time_since":"7 months ago"},{"_class":"course_review","id":106113618,"content":"Had a great time learning and exploring with zeal. i recommend people who want to learn AWS to consider buying this course for its detailed content, simple explanation, and industry  based use case discussion. keep up the good work team.","rating":5.0,"created":"2022-01-27T11:46:47-08:00","modified":"2022-01-28T15:07:34-08:00","user_modified":"2022-01-27T11:49:07-08:00","user":{"_class":"user","title":"Binit Rai","name":"Binit","display_name":"Binit Rai","image_50x50":"https://img-c.udemycdn.com/user/50x50/anonymous_3.png","initials":"BR","tracking_id":"rXNLePudTNGKJoGpMiOj0A","public_display_name":"Binit R."},"response":null,"content_html":"<p>Had a great time learning and exploring with zeal. i recommend people who want to learn AWS to consider buying this course for its detailed content, simple explanation, and industry  based use case discussion. keep up the good work team.</p>","created_formatted_with_time_since":"7 months ago"},{"_class":"course_review","id":117282828,"content":"more picture to explain how much we spend for small business on AWS per month compare with other services","rating":2.5,"created":"2022-06-26T07:58:26-07:00","modified":"2022-07-14T00:35:07-07:00","user_modified":"2022-07-14T00:35:07-07:00","user":{"_class":"user","title":"Sarawhkai","name":"Sarawhkai","display_name":"Sarawhkai","image_50x50":"https://img-c.udemycdn.com/user/50x50/anonymous_3.png","initials":"S","tracking_id":"sN4pjg28QHSZrNe0nKwXUg","public_display_name":"Sarawhkai"},"response":null,"content_html":"<p>more picture to explain how much we spend for small business on AWS per month compare with other services</p>","created_formatted_with_time_since":"2 months ago"},{"_class":"course_review","id":107611076,"content":"Thanks for providing valuable contents","rating":5.0,"created":"2022-02-15T21:34:46-08:00","modified":"2022-02-16T15:05:00-08:00","user_modified":"2022-02-15T21:35:50-08:00","user":{"_class":"user","title":"","name":"","display_name":"Sanu Anand","image_50x50":"https://img-c.udemycdn.com/user/50x50/anonymous_3.png","initials":"","tracking_id":"V_OVFEMGS5yfFqGivVV4qg","public_display_name":"Udemy User"},"response":null,"content_html":"<p>Thanks for providing valuable contents</p>","created_formatted_with_time_since":"6 months ago"},{"_class":"course_review","id":117859554,"content":"Given nice explanation of each topic.","rating":5.0,"created":"2022-07-03T08:14:59-07:00","modified":"2022-07-05T16:07:11-07:00","user_modified":"2022-07-03T08:16:02-07:00","user":{"_class":"user","title":"Bharat Dabhade","name":"Bharat","display_name":"Bharat Dabhade","image_50x50":"https://img-c.udemycdn.com/user/50x50/anonymous_3.png","initials":"BD","tracking_id":"Tea5Vrj1QVWRXzlHBODO6w","public_display_name":"Bharat D."},"response":null,"content_html":"<p>Given nice explanation of each topic.</p>","created_formatted_with_time_since":"2 months ago"},{"_class":"course_review","id":109582736,"content":"Excellent content delivery.","rating":5.0,"created":"2022-03-14T09:24:54-07:00","modified":"2022-03-17T01:45:56-07:00","user_modified":"2022-03-17T01:45:56-07:00","user":{"_class":"user","title":"Kumar Ramalingam","name":"Kumar","display_name":"Kumar Ramalingam","image_50x50":"https://img-c.udemycdn.com/user/50x50/anonymous_3.png","initials":"KR","tracking_id":"SELMfqjdSji2fss_XzN_zQ","public_display_name":"Kumar R."},"response":null,"content_html":"<p>Excellent content delivery.</p>","created_formatted_with_time_since":"5 months ago"},{"_class":"course_review","id":103045908,"content":"The contents are well explained and easy to understand!","rating":5.0,"created":"2021-12-21T21:22:59-08:00","modified":"2021-12-23T15:06:34-08:00","user_modified":"2021-12-21T21:23:27-08:00","user":{"_class":"user","title":"Suman Chakraborty","name":"Suman","display_name":"Suman Chakraborty","image_50x50":"https://img-c.udemycdn.com/user/50x50/anonymous_3.png","initials":"SC","tracking_id":"IQjRkGjOS5iNNuGoVTzvKw","public_display_name":"Suman C."},"response":null,"content_html":"<p>The contents are well explained and easy to understand!</p>","created_formatted_with_time_since":"8 months ago"},{"_class":"course_review","id":113911000,"content":"very good \nusefully explanation","rating":5.0,"created":"2022-05-13T05:09:23-07:00","modified":"2022-05-14T16:10:51-07:00","user_modified":"2022-05-13T05:10:49-07:00","user":{"_class":"user","title":"Thippabathini Deva","name":"Thippabathini","display_name":"Thippabathini Deva","image_50x50":"https://img-c.udemycdn.com/user/50x50/anonymous_3.png","initials":"TD","tracking_id":"Cv0WRvjTQSS8Pfl8bp57rA","public_display_name":"Thippabathini D."},"response":null,"content_html":"<p>very good <br>usefully explanation</p>","created_formatted_with_time_since":"3 months ago"}]}