{"count":2390,"next":"https://www.udemy.com/api-2.0/courses/1360446/reviews/?courseId=1360446&fields%5Bcourse_review%5D=%40default%2Cresponse%2Ccontent_html%2Ccreated_formatted_with_time_since&fields%5Bcourse_review_response%5D=%40min%2Cuser%2Ccontent_html%2Ccreated_formatted_with_time_since&fields%5Buser%5D=%40min%2Cimage_50x50%2Cinitials%2Cpublic_display_name%2Ctracking_id&is_text_review=1&ordering=course_review_score__rank%2C-created&page=2","previous":null,"results":[{"_class":"course_review","id":121678942,"content":"All is well!\nVery simple & conceptual to learn in one shot","rating":5.0,"created":"2022-08-21T08:59:34-07:00","modified":"2022-08-23T16:07:43-07:00","user_modified":"2022-08-21T09:00:07-07:00","user":{"_class":"user","title":"RUPESH BANSAL","name":"RUPESH","display_name":"RUPESH BANSAL","image_50x50":"https://img-c.udemycdn.com/user/50x50/anonymous_3.png","initials":"RB","tracking_id":"A62ENxzSSmWqNnlCpNwV9w","public_display_name":"RUPESH B."},"response":null,"content_html":"<p>All is well!<br>Very simple & conceptual to learn in one shot</p>","created_formatted_with_time_since":"a week ago"},{"_class":"course_review","id":119909622,"content":"Content and presentation by Zeal was very good and information.","rating":5.0,"created":"2022-07-28T22:02:42-07:00","modified":"2022-07-29T16:06:01-07:00","user_modified":"2022-07-28T22:03:10-07:00","user":{"_class":"user","title":"Mukesh Kumar","name":"Mukesh","display_name":"Mukesh Kumar","image_50x50":"https://img-c.udemycdn.com/user/50x50/anonymous_3.png","initials":"MK","tracking_id":"QvLVlt-gRC2HXJ-IpLweNA","public_display_name":"Mukesh K."},"response":null,"content_html":"<p>Content and presentation by Zeal was very good and information.</p>","created_formatted_with_time_since":"a month ago"},{"_class":"course_review","id":119613556,"content":"So many services available!!! Great instructor! I think some topics are mixed and could be better arranged for continuity, I found similar/same topics in sections where we were trying to understand something else.. Also even there are no prerequisites, it is great if you have Linux experience due to all the demos, I'm more a windows user and even I understood the concepts, it would be better to see in the environment I am familiar with. Some few topics were not as detail as expected or were described to fast (maybe were not as essential for thee Exam). Even so, it was fun to learn with Zeal (many great real life examples) and very complete and clear.","rating":4.5,"created":"2022-07-25T18:34:05-07:00","modified":"2022-07-26T16:26:55-07:00","user_modified":"2022-07-25T18:48:34-07:00","user":{"_class":"user","title":"Gerardo Leon Fuentes","name":"Gerardo","display_name":"Gerardo Leon Fuentes","image_50x50":"https://img-c.udemycdn.com/user/50x50/anonymous_3.png","initials":"GL","tracking_id":"I0I00hi8TEW7882hl73Azg","public_display_name":"Gerardo L."},"response":null,"content_html":"<p>So many services available!!! Great instructor! I think some topics are mixed and could be better arranged for continuity, I found similar/same topics in sections where we were trying to understand something else.. Also even there are no prerequisites, it is great if you have Linux experience due to all the demos, I'm more a windows user and even I understood the concepts, it would be better to see in the environment I am familiar with. Some few topics were not as detail as expected or were described to fast (maybe were not as essential for thee Exam). Even so, it was fun to learn with Zeal (many great real life examples) and very complete and clear.</p>","created_formatted_with_time_since":"a month ago"},{"_class":"course_review","id":118119706,"content":"Overall very good for people who don't know much about AWS. It was very basic, but the notes were sufficient for me to understand it well and pass the exam.","rating":4.5,"created":"2022-07-06T07:44:40-07:00","modified":"2022-07-08T16:14:02-07:00","user_modified":"2022-07-06T07:45:45-07:00","user":{"_class":"user","title":"Matthew D. Erwin","name":"Matthew D.","display_name":"Matthew D. Erwin","image_50x50":"https://img-c.udemycdn.com/user/50x50/anonymous_3.png","initials":"ME","tracking_id":"61WzXJY2S7Su8HR5G5NT4Q","public_display_name":"Matthew D. E."},"response":null,"content_html":"<p>Overall very good for people who don't know much about AWS. It was very basic, but the notes were sufficient for me to understand it well and pass the exam.</p>","created_formatted_with_time_since":"a month ago"},{"_class":"course_review","id":114213684,"content":"Excellent course covering all topics in great detail. Tend to get lost by the time you reach the end of the course. So would help if there are few short quizzes at the end of important videos to assess the understanding till that point.","rating":3.5,"created":"2022-05-17T15:31:30-07:00","modified":"2022-05-18T23:08:28-07:00","user_modified":"2022-05-17T15:34:43-07:00","user":{"_class":"user","title":"Sankar K","name":"Sankar","display_name":"Sankar K","image_50x50":"https://img-c.udemycdn.com/user/50x50/anonymous_3.png","initials":"SK","tracking_id":"hulSAb4ARMKlWnO0WboRrw","public_display_name":"Sankar K."},"response":null,"content_html":"<p>Excellent course covering all topics in great detail. Tend to get lost by the time you reach the end of the course. So would help if there are few short quizzes at the end of important videos to assess the understanding till that point.</p>","created_formatted_with_time_since":"3 months ago"},{"_class":"course_review","id":120381572,"content":"Need to keep the course updated with latest services and offering from amazon. Otherwise fantastic content.","rating":4.0,"created":"2022-08-03T22:36:34-07:00","modified":"2022-08-05T16:08:04-07:00","user_modified":"2022-08-03T22:36:58-07:00","user":{"_class":"user","title":"Karthik Lakshminarayanan","name":"Karthik","display_name":"Karthik Lakshminarayanan","image_50x50":"https://img-c.udemycdn.com/user/50x50/anonymous_3.png","initials":"KL","tracking_id":"oL_S6DMKQ9SKrclUtCWpVA","public_display_name":"Karthik L."},"response":null,"content_html":"<p>Need to keep the course updated with latest services and offering from amazon. Otherwise fantastic content.</p>","created_formatted_with_time_since":"4 weeks ago"},{"_class":"course_review","id":114232252,"content":"Thanks a lot for the course, I've pass the exam.\nBut there's a lack of topics that must be clarified more (IMHO, there're questions about):\n1. The container part should be described much better, the difference between Fargate and ECS, what's ECR.\n2. Difference between Site-to-Site VPN, VPN Client and Direct connect.\n3. Agility vs Elasticity.\n4. All Code* Services.\n5. X-Ray, Glue, License Manager.\n6. What's displayed on the user's credential page.","rating":4.0,"created":"2022-05-17T22:44:18-07:00","modified":"2022-05-18T23:10:45-07:00","user_modified":"2022-05-18T10:59:25-07:00","user":{"_class":"user","title":"Valery Mikheenko","name":"Valery","display_name":"Valery Mikheenko","image_50x50":"https://img-c.udemycdn.com/user/50x50/anonymous_3.png","initials":"VM","tracking_id":"eIguc9MDTf6oTN1kFNZJ4Q","public_display_name":"Valery M."},"response":null,"content_html":"<p>Thanks a lot for the course, I've pass the exam.<br>But there's a lack of topics that must be clarified more (IMHO, there're questions about):<br>1. The container part should be described much better, the difference between Fargate and ECS, what's ECR.<br>2. Difference between Site-to-Site VPN, VPN Client and Direct connect.<br>3. Agility vs Elasticity.<br>4. All Code* Services.<br>5. X-Ray, Glue, License Manager.<br>6. What's displayed on the user's credential page.</p>","created_formatted_with_time_since":"3 months ago"},{"_class":"course_review","id":109888082,"content":"Good lecture however I think there should be waaaaaay more updates eg. EMR, Neptune, ECS, Clustering, Glue, SWF, HSM, Kinesis, Reserved Instances, SWF, ITSM tools etc were missing and had to research these services/resources on my own all of which are repeat questions in the past exam questions. This course needs to be rendered obsolete or immensely updated in order to pass exams in 2022","rating":2.5,"created":"2022-03-18T04:00:08-07:00","modified":"2022-03-24T04:18:32-07:00","user_modified":"2022-03-24T04:18:32-07:00","user":{"_class":"user","title":"Lola Johnson","name":"Lola","display_name":"Lola Johnson","image_50x50":"https://img-c.udemycdn.com/user/50x50/anonymous_3.png","initials":"LJ","tracking_id":"AzVvhe1dTKCgjdeCTPbjqA","public_display_name":"Lola J."},"response":{"_class":"course_review_response","id":9429264,"content":"Hello Lola\n\nAll of the services which you have mentioned have already been added in the course in the latest update. When a new service is introduced in the exams, it takes us a week or two to record new videos and upload them to the course. But rest assured, everything gets updated to the course in short time.","created":"2022-04-17T06:41:37-07:00","modified":"2022-04-17T06:41:37-07:00","user":{"_class":"user","title":"Zeal Vora","name":"Zeal","display_name":"Zeal Vora","image_50x50":"https://img-c.udemycdn.com/user/50x50/2025260_e5f5_2.jpg","initials":"ZV","tracking_id":"xRfgNrjvTn2omC6IUfQASQ","public_display_name":"Zeal V."},"content_html":"<p>Hello Lola</p>\n\n<p>All of the services which you have mentioned have already been added in the course in the latest update. When a new service is introduced in the exams, it takes us a week or two to record new videos and upload them to the course. But rest assured, everything gets updated to the course in short time.</p>","created_formatted_with_time_since":"4 months ago"},"content_html":"<p>Good lecture however I think there should be waaaaaay more updates eg. EMR, Neptune, ECS, Clustering, Glue, SWF, HSM, Kinesis, Reserved Instances, SWF, ITSM tools etc were missing and had to research these services/resources on my own all of which are repeat questions in the past exam questions. This course needs to be rendered obsolete or immensely updated in order to pass exams in 2022</p>","created_formatted_with_time_since":"5 months ago"},{"_class":"course_review","id":120298050,"content":"Learning this Course  is very much Interesting and superb explanation by Instructor.","rating":4.5,"created":"2022-08-03T01:07:48-07:00","modified":"2022-08-11T12:20:34-07:00","user_modified":"2022-08-11T12:20:34-07:00","user":{"_class":"user","title":"","name":"","display_name":"Rathankumar Gemanjyothi","image_50x50":"https://img-c.udemycdn.com/user/50x50/174397186_a9a3.jpg","initials":"","tracking_id":"B2HPC5JiT-erMsAh2-ySGw","public_display_name":"Udemy User"},"response":null,"content_html":"<p>Learning this Course  is very much Interesting and superb explanation by Instructor.</p>","created_formatted_with_time_since":"a month ago"},{"_class":"course_review","id":115962456,"content":"the final exam prep questions are good, but are not included in  the overall course duration","rating":4.0,"created":"2022-06-08T13:08:35-07:00","modified":"2022-06-09T16:12:54-07:00","user_modified":"2022-06-08T13:09:55-07:00","user":{"_class":"user","title":"Andrew Tyler","name":"Andrew","display_name":"Andrew Tyler","image_50x50":"https://img-c.udemycdn.com/user/50x50/anonymous_3.png","initials":"AT","tracking_id":"e6N9_zoTS-amt_CcbAGDVg","public_display_name":"Andrew T."},"response":null,"content_html":"<p>the final exam prep questions are good, but are not included in  the overall course duration</p>","created_formatted_with_time_since":"2 months ago"},{"_class":"course_review","id":120122452,"content":"The learning provided complete AWS Services understanding.","rating":4.5,"created":"2022-08-01T04:01:34-07:00","modified":"2022-08-02T16:09:44-07:00","user_modified":"2022-08-01T04:03:17-07:00","user":{"_class":"user","title":"Anil Kumar Chintalapalli","name":"Anil Kumar","display_name":"Anil Kumar Chintalapalli","image_50x50":"https://img-c.udemycdn.com/user/50x50/anonymous_3.png","initials":"AC","tracking_id":"5CKc67YESSC8ZPwcYTd9OA","public_display_name":"Anil Kumar C."},"response":null,"content_html":"<p>The learning provided complete AWS Services understanding.</p>","created_formatted_with_time_since":"a month ago"},{"_class":"course_review","id":111362060,"content":"Excellent course. Very detailed and well presented. I would highly recommend it to anyone preparing for the AWS Certified Cloud Practitioner  exam.","rating":4.5,"created":"2022-04-07T06:12:10-07:00","modified":"2022-04-11T00:51:35-07:00","user_modified":"2022-04-07T06:13:28-07:00","user":{"_class":"user","title":"Anthony Quinn","name":"Anthony","display_name":"Anthony Quinn","image_50x50":"https://img-c.udemycdn.com/user/50x50/anonymous_3.png","initials":"AQ","tracking_id":"bRX1dE2VR4iDkoHqZSYNUQ","public_display_name":"Anthony Q."},"response":null,"content_html":"<p>Excellent course. Very detailed and well presented. I would highly recommend it to anyone preparing for the AWS Certified Cloud Practitioner  exam.</p>","created_formatted_with_time_since":"4 months ago"}]}