{"count":1111,"next":"https://www.udemy.com/api-2.0/courses/137230/reviews/?courseId=137230&fields%5Bcourse_review%5D=%40default%2Cresponse%2Ccontent_html%2Ccreated_formatted_with_time_since&fields%5Bcourse_review_response%5D=%40min%2Cuser%2Ccontent_html%2Ccreated_formatted_with_time_since&fields%5Buser%5D=%40min%2Cimage_50x50%2Cinitials%2Cpublic_display_name%2Ctracking_id&is_text_review=1&ordering=course_review_score__rank%2C-created&page=2","previous":null,"results":[{"_class":"course_review","id":118898194,"content":"Best drawing course. Totally recommend it.","rating":4.5,"created":"2022-07-16T08:43:11-07:00","modified":"2022-07-17T16:07:55-07:00","user_modified":"2022-07-16T08:44:06-07:00","user":{"_class":"user","title":"Stephanie Weinert","name":"Stephanie","display_name":"Stephanie Weinert","image_50x50":"https://img-c.udemycdn.com/user/50x50/anonymous_3.png","initials":"SW","tracking_id":"GIAxSZOeSfertouHu7dmag","public_display_name":"Stephanie W."},"response":null,"content_html":"<p>Best drawing course. Totally recommend it.</p>","created_formatted_with_time_since":"a month ago"},{"_class":"course_review","id":117230202,"content":"a go to foundational course that teaches everything one needs to know. simple and not too complicated.","rating":5.0,"created":"2022-06-25T07:54:10-07:00","modified":"2022-06-26T16:08:32-07:00","user_modified":"2022-06-25T07:54:46-07:00","user":{"_class":"user","title":"Shruthy V","name":"Shruthy","display_name":"Shruthy V","image_50x50":"https://img-c.udemycdn.com/user/50x50/117842316_82e4.jpg","initials":"SV","tracking_id":"JIfwXhRyTgW7Ecw9mODXRA","public_display_name":"Shruthy V."},"response":null,"content_html":"<p>a go to foundational course that teaches everything one needs to know. simple and not too complicated.</p>","created_formatted_with_time_since":"2 months ago"},{"_class":"course_review","id":114291118,"content":"Great demonstrations of one and two point perspective.","rating":4.0,"created":"2022-05-18T11:19:30-07:00","modified":"2022-05-22T13:46:25-07:00","user_modified":"2022-05-22T13:46:25-07:00","user":{"_class":"user","title":"Ann Morris","name":"Ann","display_name":"Ann Morris","image_50x50":"https://img-c.udemycdn.com/user/50x50/anonymous_3.png","initials":"AM","tracking_id":"PHk__-f1QNOSbvGveNErrQ","public_display_name":"Ann M."},"response":null,"content_html":"<p>Great demonstrations of one and two point perspective.</p>","created_formatted_with_time_since":"3 months ago"},{"_class":"course_review","id":113759932,"content":"In the introduction for the course it says you get to draw two boats, a rose and a landscape as well as a ladybird and an owl. I only got to draw a lady bird and an owl so I feel disappointed with it.","rating":2.5,"created":"2022-05-11T08:12:48-07:00","modified":"2022-05-12T16:13:23-07:00","user_modified":"2022-05-11T08:12:48-07:00","user":{"_class":"user","title":"van Breda","name":"van","display_name":"van Breda","image_50x50":"https://img-c.udemycdn.com/user/50x50/anonymous_3.png","initials":"VB","tracking_id":"8qXTcKR3RLmrXt5vvRbCUg","public_display_name":"van B."},"response":null,"content_html":"<p>In the introduction for the course it says you get to draw two boats, a rose and a landscape as well as a ladybird and an owl. I only got to draw a lady bird and an owl so I feel disappointed with it.</p>","created_formatted_with_time_since":"3 months ago"},{"_class":"course_review","id":113273280,"content":"better than my expectations. very pleased. the author is highly skilled and very good narrator. love his presentation. thanks a lot","rating":5.0,"created":"2022-05-04T18:07:45-07:00","modified":"2022-05-05T16:08:11-07:00","user_modified":"2022-05-04T18:58:17-07:00","user":{"_class":"user","title":"Rakesh Kapoor","name":"Rakesh","display_name":"Rakesh Kapoor","image_50x50":"https://img-c.udemycdn.com/user/50x50/anonymous_3.png","initials":"RK","tracking_id":"AmVmrH9TTm6JkpOrbc3T8w","public_display_name":"Rakesh K."},"response":null,"content_html":"<p>better than my expectations. very pleased. the author is highly skilled and very good narrator. love his presentation. thanks a lot</p>","created_formatted_with_time_since":"4 months ago"},{"_class":"course_review","id":111656198,"content":"Matt covered all the basics of drawing in a very clear way .  I really appreciate how he narrates while he is doing the drawing.  He is an excellent teacher.","rating":5.0,"created":"2022-04-11T19:14:57-07:00","modified":"2022-04-12T16:07:05-07:00","user_modified":"2022-04-11T19:14:57-07:00","user":{"_class":"user","title":"Mary Jo Maynard","name":"Mary Jo","display_name":"Mary Jo Maynard","image_50x50":"https://img-c.udemycdn.com/user/50x50/anonymous_3.png","initials":"MM","tracking_id":"1BdinpiCRx6ZdLuVSbYigw","public_display_name":"Mary Jo M."},"response":null,"content_html":"<p>Matt covered all the basics of drawing in a very clear way .  I really appreciate how he narrates while he is doing the drawing.  He is an excellent teacher.</p>","created_formatted_with_time_since":"4 months ago"},{"_class":"course_review","id":112440694,"content":"Matt is an excellent teacher - very talented and his detailed, clear and concise lessons are a joy to watch and practice.","rating":5.0,"created":"2022-04-22T14:52:06-07:00","modified":"2022-04-23T16:08:05-07:00","user_modified":"2022-04-22T15:46:52-07:00","user":{"_class":"user","title":"Anna Jean Franklin","name":"Anna Jean","display_name":"Anna Jean Franklin","image_50x50":"https://img-c.udemycdn.com/user/50x50/31456070_c404.jpg","initials":"AF","tracking_id":"K7vbvwCJRNGEVVSzV7Gtlg","public_display_name":"Anna Jean F."},"response":null,"content_html":"<p>Matt is an excellent teacher - very talented and his detailed, clear and concise lessons are a joy to watch and practice.</p>","created_formatted_with_time_since":"4 months ago"},{"_class":"course_review","id":117147532,"content":"Yes, this course is a good match for me. It is so beautifully basic from the beginning even I can understand it and how I will be able use it","rating":5.0,"created":"2022-06-24T02:57:24-07:00","modified":"2022-06-25T16:07:26-07:00","user_modified":"2022-06-24T02:58:48-07:00","user":{"_class":"user","title":"Diana Davis","name":"Diana","display_name":"Diana Davis","image_50x50":"https://img-c.udemycdn.com/user/50x50/anonymous_3.png","initials":"DD","tracking_id":"3cK57EM9SfuEnvk9pzRwag","public_display_name":"Diana D."},"response":null,"content_html":"<p>Yes, this course is a good match for me. It is so beautifully basic from the beginning even I can understand it and how I will be able use it</p>","created_formatted_with_time_since":"2 months ago"},{"_class":"course_review","id":121815974,"content":"This is useful stuff, I like it. I like how right away, you get good tips. Certainly a good purchase.","rating":5.0,"created":"2022-08-23T01:55:03-07:00","modified":"2022-08-24T16:22:03-07:00","user_modified":"2022-08-23T01:56:31-07:00","user":{"_class":"user","title":"Cathy Wheaton","name":"Cathy","display_name":"Cathy Wheaton","image_50x50":"https://img-c.udemycdn.com/user/50x50/anonymous_3.png","initials":"CW","tracking_id":"TQ0DqJiqR2KDVgYfovbweQ","public_display_name":"Cathy W."},"response":null,"content_html":"<p>This is useful stuff, I like it. I like how right away, you get good tips. Certainly a good purchase.</p>","created_formatted_with_time_since":"a week ago"},{"_class":"course_review","id":116340874,"content":"Very well explained and demonstrated","rating":5.0,"created":"2022-06-14T00:24:47-07:00","modified":"2022-06-16T16:05:22-07:00","user_modified":"2022-06-14T00:24:47-07:00","user":{"_class":"user","title":"Karen","name":"Karen","display_name":"Karen","image_50x50":"https://img-c.udemycdn.com/user/50x50/anonymous_3.png","initials":"K","tracking_id":"iZDROyooSFyYcO36zuhEFw","public_display_name":"Karen"},"response":null,"content_html":"<p>Very well explained and demonstrated</p>","created_formatted_with_time_since":"2 months ago"},{"_class":"course_review","id":104472090,"content":"it was a good match for me \n I was able to grasp and understand the concepts.  i was doing some of this but did not know the reason why it worked.","rating":5.0,"created":"2022-01-08T11:30:49-08:00","modified":"2022-01-09T15:05:55-08:00","user_modified":"2022-01-08T20:43:47-08:00","user":{"_class":"user","title":"Mary Gibbens","name":"Mary","display_name":"Mary Gibbens","image_50x50":"https://img-c.udemycdn.com/user/50x50/anonymous_3.png","initials":"MG","tracking_id":"ckhpYzuNQnqm8zY1J_OYwQ","public_display_name":"Mary G."},"response":null,"content_html":"<p>it was a good match for me <br> I was able to grasp and understand the concepts.  i was doing some of this but did not know the reason why it worked.</p>","created_formatted_with_time_since":"7 months ago"},{"_class":"course_review","id":112020584,"content":"Desperately needed this basic information.","rating":5.0,"created":"2022-04-17T08:22:22-07:00","modified":"2022-04-29T06:30:47-07:00","user_modified":"2022-04-29T06:30:47-07:00","user":{"_class":"user","title":"John G Roberts","name":"John G","display_name":"John G Roberts","image_50x50":"https://img-c.udemycdn.com/user/50x50/anonymous_3.png","initials":"JR","tracking_id":"GFGSDrboQQqHGfl9CTrNhw","public_display_name":"John G R."},"response":null,"content_html":"<p>Desperately needed this basic information.</p>","created_formatted_with_time_since":"4 months ago"}]}