{"count":268,"next":"https://www.udemy.com/api-2.0/courses/1425762/reviews/?courseId=1425762&fields%5Bcourse_review%5D=%40default%2Cresponse%2Ccontent_html%2Ccreated_formatted_with_time_since&fields%5Bcourse_review_response%5D=%40min%2Cuser%2Ccontent_html%2Ccreated_formatted_with_time_since&fields%5Buser%5D=%40min%2Cimage_50x50%2Cinitials%2Cpublic_display_name%2Ctracking_id&is_text_review=1&ordering=course_review_score__rank%2C-created&page=2","previous":null,"results":[{"_class":"course_review","id":122318120,"content":"Surely all old accumulated videos need change with additional content. ?","rating":1.0,"created":"2022-08-29T03:49:56-07:00","modified":"2022-08-31T16:09:04-07:00","user_modified":"2022-08-29T03:53:19-07:00","user":{"_class":"user","title":"Goutam Choudhury","name":"Goutam","display_name":"Goutam Choudhury","image_50x50":"https://img-b.udemycdn.com/user/50x50/anonymous_3.png","initials":"GC","tracking_id":"4QL4XgueQCSLahNtJQ6UBw","public_display_name":"Goutam C."},"response":null,"content_html":"<p>Surely all old accumulated videos need change with additional content. ?</p>","created_formatted_with_time_since":"4 days ago"},{"_class":"course_review","id":117171968,"content":"I liked the pedagogy zeal followed, first demonstrate the usage of the service followed by practical.","rating":5.0,"created":"2022-06-24T08:31:54-07:00","modified":"2022-06-25T16:08:41-07:00","user_modified":"2022-06-24T08:35:04-07:00","user":{"_class":"user","title":"구우 라","name":"구우","display_name":"구우 라","image_50x50":"https://img-b.udemycdn.com/user/50x50/anonymous_3.png","initials":"","tracking_id":"1NpOYaoMRduYrLI07GNKOQ","public_display_name":"구우"},"response":null,"content_html":"<p>I liked the pedagogy zeal followed, first demonstrate the usage of the service followed by practical.</p>","created_formatted_with_time_since":"2 months ago"},{"_class":"course_review","id":116665250,"content":"Good","rating":4.5,"created":"2022-06-17T20:02:27-07:00","modified":"2022-06-19T16:08:39-07:00","user_modified":"2022-06-17T20:02:33-07:00","user":{"_class":"user","title":"","name":"","display_name":"Vasudev Bhavikatti","image_50x50":"https://img-b.udemycdn.com/user/50x50/anonymous_3.png","initials":"","tracking_id":"nBVoo4u9TmyAlwEA_vh2lw","public_display_name":"Udemy User"},"response":null,"content_html":"<p>Good</p>","created_formatted_with_time_since":"2 months ago"},{"_class":"course_review","id":107254986,"content":"Update: Great course in all - Helped me pass my exam yesterday\n\nVery clear in explaining concepts, lecture is thorough followed by hands on to enforce what was explained in lecture.  A good well packaged course so far. Would certainly recommend for students preparing for AWS Solution Architect - Professional certification\n\nUpdate : Domain2 - This is all over the place without any direction. This section looks more like collection of modules from other courses. Though still provides useful information, it lacks structure. Not sure if it will help with Certification exam.\n\nUpdate: Domain3 : Looks a bit outdated, this section talks about sending a USB drive to AWS, which has been discontinued for a while, Rest looks good with demonstrations\n\nUpdate Domain4: Good information on EC2 types, which is  usually  mentioned as footnotes, Zeal takes time to explain the finer points and reinforces with demonstration.","rating":5.0,"created":"2022-02-10T11:02:51-08:00","modified":"2022-03-12T07:45:38-08:00","user_modified":"2022-03-12T07:45:38-08:00","user":{"_class":"user","title":"Sridhar Satyanarayan","name":"Sridhar","display_name":"Sridhar Satyanarayan","image_50x50":"https://img-b.udemycdn.com/user/50x50/anonymous_3.png","initials":"SS","tracking_id":"6L2QoYrgTZen9eZtjJe8NA","public_display_name":"Sridhar S."},"response":null,"content_html":"<p>Update: Great course in all - Helped me pass my exam yesterday</p>\n\n<p>Very clear in explaining concepts, lecture is thorough followed by hands on to enforce what was explained in lecture.  A good well packaged course so far. Would certainly recommend for students preparing for AWS Solution Architect - Professional certification</p>\n\n<p>Update : Domain2 - This is all over the place without any direction. This section looks more like collection of modules from other courses. Though still provides useful information, it lacks structure. Not sure if it will help with Certification exam.</p>\n\n<p>Update: Domain3 : Looks a bit outdated, this section talks about sending a USB drive to AWS, which has been discontinued for a while, Rest looks good with demonstrations</p>\n\n<p>Update Domain4: Good information on EC2 types, which is  usually  mentioned as footnotes, Zeal takes time to explain the finer points and reinforces with demonstration.</p>","created_formatted_with_time_since":"6 months ago"},{"_class":"course_review","id":104343008,"content":"Informative and detailed explanation , can reduce the video timing","rating":4.0,"created":"2022-01-07T01:07:10-08:00","modified":"2022-01-08T15:03:17-08:00","user_modified":"2022-01-07T01:07:41-08:00","user":{"_class":"user","title":"","name":"","display_name":"Nisha Sheshadarivenugopal","image_50x50":"https://img-b.udemycdn.com/user/50x50/anonymous_3.png","initials":"","tracking_id":"ekNBXD0WT_yf5vkLsqq6QA","public_display_name":"Udemy User"},"response":null,"content_html":"<p>Informative and detailed explanation , can reduce the video timing</p>","created_formatted_with_time_since":"7 months ago"},{"_class":"course_review","id":101332432,"content":"SA Pro covers huge number of AWS services. Zeal does an excellent job of explaining them as use case scenarios and that helped me a lot in passing (recertifying) this exam. Thank you.","rating":5.0,"created":"2021-11-29T02:12:13-08:00","modified":"2021-11-30T15:05:26-08:00","user_modified":"2021-11-29T02:15:00-08:00","user":{"_class":"user","title":"Pras","name":"Pras","display_name":"Pras","image_50x50":"https://img-b.udemycdn.com/user/50x50/anonymous_3.png","initials":"P","tracking_id":"l1uY8kyaTdu7NW1v1bw5Jg","public_display_name":"Pras"},"response":null,"content_html":"<p>SA Pro covers huge number of AWS services. Zeal does an excellent job of explaining them as use case scenarios and that helped me a lot in passing (recertifying) this exam. Thank you.</p>","created_formatted_with_time_since":"9 months ago"},{"_class":"course_review","id":113987408,"content":"very well explained. great course","rating":5.0,"created":"2022-05-14T12:28:31-07:00","modified":"2022-06-03T21:46:20-07:00","user_modified":"2022-06-03T21:46:20-07:00","user":{"_class":"user","title":"Ramesh Raghavan","name":"Ramesh","display_name":"Ramesh Raghavan","image_50x50":"https://img-b.udemycdn.com/user/50x50/anonymous_3.png","initials":"RR","tracking_id":"p5a9GwFIT46e9SPZ3G6VuQ","public_display_name":"Ramesh R."},"response":null,"content_html":"<p>very well explained. great course</p>","created_formatted_with_time_since":"3 months ago"},{"_class":"course_review","id":108733494,"content":"Good course...","rating":5.0,"created":"2022-03-02T14:40:00-08:00","modified":"2022-03-03T21:21:07-08:00","user_modified":"2022-03-02T14:40:11-08:00","user":{"_class":"user","title":"Karunakaran Palanichamy","name":"Karunakaran","display_name":"Karunakaran Palanichamy","image_50x50":"https://img-b.udemycdn.com/user/50x50/anonymous_3.png","initials":"KP","tracking_id":"ZTKJI0IjRSiy-hFyv_x7DQ","public_display_name":"Karunakaran P."},"response":null,"content_html":"<p>Good course...</p>","created_formatted_with_time_since":"6 months ago"},{"_class":"course_review","id":117231078,"content":"Ok presentation and grammar, but the social media call to action at the end of every segment is already getting on my nerves.","rating":3.0,"created":"2022-06-25T08:12:07-07:00","modified":"2022-06-26T16:08:32-07:00","user_modified":"2022-06-25T08:13:03-07:00","user":{"_class":"user","title":"Nick Disiere","name":"Nick","display_name":"Nick Disiere","image_50x50":"https://img-b.udemycdn.com/user/50x50/anonymous_3.png","initials":"ND","tracking_id":"ZTK3ZQIySFqRo00fCMw2tA","public_display_name":"Nick D."},"response":null,"content_html":"<p>Ok presentation and grammar, but the social media call to action at the end of every segment is already getting on my nerves.</p>","created_formatted_with_time_since":"2 months ago"},{"_class":"course_review","id":115108730,"content":"too elementary to be anywhere close to being an AWS SAP course.","rating":1.5,"created":"2022-05-28T13:43:57-07:00","modified":"2022-05-29T16:04:48-07:00","user_modified":"2022-05-29T05:35:37-07:00","user":{"_class":"user","title":"Kaushik Gangopadhyay","name":"Kaushik","display_name":"Kaushik Gangopadhyay","image_50x50":"https://img-b.udemycdn.com/user/50x50/anonymous_3.png","initials":"KG","tracking_id":"pdufMcoJRnOfNn2wREQ2Mg","public_display_name":"Kaushik G."},"response":null,"content_html":"<p>too elementary to be anywhere close to being an AWS SAP course.</p>","created_formatted_with_time_since":"3 months ago"},{"_class":"course_review","id":104449106,"content":"well explained and informative","rating":5.0,"created":"2022-01-08T05:45:31-08:00","modified":"2022-07-08T21:20:42-07:00","user_modified":"2022-07-08T21:20:42-07:00","user":{"_class":"user","title":"Ravi Mudgil","name":"Ravi","display_name":"Ravi Mudgil","image_50x50":"https://img-b.udemycdn.com/user/50x50/anonymous_3.png","initials":"RM","tracking_id":"R80zmE5bS7mY405kuCyAYw","public_display_name":"Ravi M."},"response":null,"content_html":"<p>well explained and informative</p>","created_formatted_with_time_since":"7 months ago"},{"_class":"course_review","id":105591672,"content":"So far going very good","rating":5.0,"created":"2022-01-21T06:11:28-08:00","modified":"2022-01-22T15:04:58-08:00","user_modified":"2022-01-22T06:23:40-08:00","user":{"_class":"user","title":"Anthony Reddy Thumma","name":"Anthony Reddy","display_name":"Anthony Reddy Thumma","image_50x50":"https://img-b.udemycdn.com/user/50x50/anonymous_3.png","initials":"AT","tracking_id":"-KXkQRW4TAm-e78hMfYjAA","public_display_name":"Anthony Reddy T."},"response":null,"content_html":"<p>So far going very good</p>","created_formatted_with_time_since":"7 months ago"}]}