{"count":357,"next":"https://www.udemy.com/api-2.0/courses/1477998/reviews/?courseId=1477998&fields%5Bcourse_review%5D=%40default%2Cresponse%2Ccontent_html%2Ccreated_formatted_with_time_since&fields%5Bcourse_review_response%5D=%40min%2Cuser%2Ccontent_html%2Ccreated_formatted_with_time_since&fields%5Buser%5D=%40min%2Cimage_50x50%2Cinitials%2Cpublic_display_name%2Ctracking_id&is_text_review=1&ordering=course_review_score__rank%2C-created&page=2","previous":null,"results":[{"_class":"course_review","id":122358896,"content":"Good explanation but the course is outdated. Still on the old layout.","rating":3.0,"created":"2022-08-29T11:27:45-07:00","modified":"2022-08-31T16:10:49-07:00","user_modified":"2022-08-29T14:12:40-07:00","user":{"_class":"user","title":"Hisham Ali","name":"Hisham","display_name":"Hisham Ali","image_50x50":"https://img-c.udemycdn.com/user/50x50/anonymous_3.png","initials":"HA","tracking_id":"3i4tidFWT46YSOipld9DgA","public_display_name":"Hisham A."},"response":null,"content_html":"<p>Good explanation but the course is outdated. Still on the old layout.</p>","created_formatted_with_time_since":"4 days ago"},{"_class":"course_review","id":117246280,"content":"Excellent level of information and structured","rating":5.0,"created":"2022-06-25T14:12:07-07:00","modified":"2022-06-26T16:08:31-07:00","user_modified":"2022-06-25T14:12:44-07:00","user":{"_class":"user","title":"INDHUMATHI Sathishkumar","name":"INDHUMATHI","display_name":"INDHUMATHI Sathishkumar","image_50x50":"https://img-c.udemycdn.com/user/50x50/anonymous_3.png","initials":"IS","tracking_id":"4YpJ2D3FShS_q6BQ4P8_2w","public_display_name":"INDHUMATHI S."},"response":null,"content_html":"<p>Excellent level of information and structured</p>","created_formatted_with_time_since":"2 months ago"},{"_class":"course_review","id":112491844,"content":"Nice Lectures to start carrier in AWS.","rating":5.0,"created":"2022-04-23T17:10:45-07:00","modified":"2022-04-24T16:07:48-07:00","user_modified":"2022-04-23T17:11:21-07:00","user":{"_class":"user","title":"Anuj Kumar","name":"Anuj","display_name":"Anuj Kumar","image_50x50":"https://img-c.udemycdn.com/user/50x50/anonymous_3.png","initials":"AK","tracking_id":"ehrxcBy0QCmoVo6B7s8S4Q","public_display_name":"Anuj K."},"response":null,"content_html":"<p>Nice Lectures to start carrier in AWS.</p>","created_formatted_with_time_since":"4 months ago"},{"_class":"course_review","id":111821170,"content":"very nice material","rating":4.5,"created":"2022-04-13T20:37:15-07:00","modified":"2022-04-14T16:01:31-07:00","user_modified":"2022-04-13T20:37:39-07:00","user":{"_class":"user","title":"Kankana Biswas","name":"Kankana","display_name":"Kankana Biswas","image_50x50":"https://img-c.udemycdn.com/user/50x50/anonymous_3.png","initials":"KB","tracking_id":"ghGVFg-pRlW3CJzmAKDL0w","public_display_name":"Kankana B."},"response":null,"content_html":"<p>very nice material</p>","created_formatted_with_time_since":"4 months ago"},{"_class":"course_review","id":105989282,"content":"It was really good, I have started the course with zero knowledge in AWS, but now I am ready for the certification","rating":4.0,"created":"2022-01-26T05:57:42-08:00","modified":"2022-01-27T15:04:25-08:00","user_modified":"2022-01-26T05:58:22-08:00","user":{"_class":"user","title":"Jayabharathiperumal Perumal","name":"Jayabharathiperumal","display_name":"Jayabharathiperumal Perumal","image_50x50":"https://img-c.udemycdn.com/user/50x50/anonymous_3.png","initials":"JP","tracking_id":"SUQsXjMvRWqUnEk578fF6Q","public_display_name":"Jayabharathiperumal P."},"response":null,"content_html":"<p>It was really good, I have started the course with zero knowledge in AWS, but now I am ready for the certification</p>","created_formatted_with_time_since":"7 months ago"},{"_class":"course_review","id":115277940,"content":"Always good to see you over lecture..... :)","rating":5.0,"created":"2022-05-31T01:04:40-07:00","modified":"2022-06-02T21:12:32-07:00","user_modified":"2022-06-02T05:14:22-07:00","user":{"_class":"user","title":"Sandeep Sharma","name":"Sandeep","display_name":"Sandeep Sharma","image_50x50":"https://img-c.udemycdn.com/user/50x50/anonymous_3.png","initials":"SS","tracking_id":"no2kPvqOSlmDvCTm0O9j-g","public_display_name":"Sandeep S."},"response":null,"content_html":"<p>Always good to see you over lecture..... :)</p>","created_formatted_with_time_since":"3 months ago"},{"_class":"course_review","id":115233282,"content":"Demasiadas preguntas","rating":2.5,"created":"2022-05-30T10:56:42-07:00","modified":"2022-06-02T21:12:14-07:00","user_modified":"2022-05-30T10:56:50-07:00","user":{"_class":"user","title":"Dolores Andrea Fraire Gonzalez","name":"Dolores Andrea Fraire","display_name":"Dolores Andrea Fraire Gonzalez","image_50x50":"https://img-c.udemycdn.com/user/50x50/anonymous_3.png","initials":"DG","tracking_id":"XvvnlOC6SMWoRXE2NXQT1Q","public_display_name":"Dolores Andrea Fraire G."},"response":null,"content_html":"<p>Demasiadas preguntas</p>","created_formatted_with_time_since":"3 months ago"},{"_class":"course_review","id":118484232,"content":"Wonderfull","rating":5.0,"created":"2022-07-11T10:39:21-07:00","modified":"2022-07-12T16:08:51-07:00","user_modified":"2022-07-11T10:39:30-07:00","user":{"_class":"user","title":"CHINTA SANDEEP KUMAR","name":"CHINTA SANDEEP","display_name":"CHINTA SANDEEP KUMAR","image_50x50":"https://img-c.udemycdn.com/user/50x50/anonymous_3.png","initials":"CK","tracking_id":"c7tjwVZ1QfizHGvLO0Qp-w","public_display_name":"CHINTA SANDEEP K."},"response":null,"content_html":"<p>Wonderfull</p>","created_formatted_with_time_since":"a month ago"},{"_class":"course_review","id":105181028,"content":"The course was ok, but please ask the tutor not use use \"go ahead\" that often.","rating":2.5,"created":"2022-01-16T23:24:32-08:00","modified":"2022-01-17T15:06:12-08:00","user_modified":"2022-01-16T23:25:46-08:00","user":{"_class":"user","title":"Niklas Heidloff","name":"Niklas","display_name":"Niklas Heidloff","image_50x50":"https://img-c.udemycdn.com/user/50x50/anonymous_3.png","initials":"NH","tracking_id":"3bEUrLzPQjG1mP-PlS1_LQ","public_display_name":"Niklas H."},"response":null,"content_html":"<p>The course was ok, but please ask the tutor not use use \"go ahead\" that often.</p>","created_formatted_with_time_since":"7 months ago"},{"_class":"course_review","id":106838976,"content":"This is an excellent course.  Alan R. is an excellent teacher.","rating":5.0,"created":"2022-02-05T08:58:30-08:00","modified":"2022-03-08T05:07:21-08:00","user_modified":"2022-03-08T05:07:21-08:00","user":{"_class":"user","title":"Kenneth Lynch","name":"Kenneth","display_name":"Kenneth Lynch","image_50x50":"https://img-c.udemycdn.com/user/50x50/anonymous_3.png","initials":"KL","tracking_id":"m_C-vrJ7TfyDql0qXZ9Biw","public_display_name":"Kenneth L."},"response":null,"content_html":"<p>This is an excellent course.  Alan R. is an excellent teacher.</p>","created_formatted_with_time_since":"6 months ago"},{"_class":"course_review","id":118488798,"content":"great teacher","rating":5.0,"created":"2022-07-11T11:39:48-07:00","modified":"2022-07-12T16:08:51-07:00","user_modified":"2022-07-11T11:39:57-07:00","user":{"_class":"user","title":"Olabisi Meryl","name":"Olabisi","display_name":"Olabisi Meryl","image_50x50":"https://img-c.udemycdn.com/user/50x50/anonymous_3.png","initials":"OM","tracking_id":"IU04FUh_RX-aOJMlODVC0w","public_display_name":"Olabisi M."},"response":null,"content_html":"<p>great teacher</p>","created_formatted_with_time_since":"a month ago"},{"_class":"course_review","id":109472104,"content":"Good match! So far very good!","rating":5.0,"created":"2022-03-12T19:58:59-08:00","modified":"2022-03-13T16:06:35-07:00","user_modified":"2022-03-12T19:59:21-08:00","user":{"_class":"user","title":"Jyoti Reddy","name":"Jyoti","display_name":"Jyoti Reddy","image_50x50":"https://img-c.udemycdn.com/user/50x50/anonymous_3.png","initials":"JR","tracking_id":"n1DiYIHyQhOAMki9KyjMEQ","public_display_name":"Jyoti R."},"response":null,"content_html":"<p>Good match! So far very good!</p>","created_formatted_with_time_since":"5 months ago"}]}