{"count":136,"next":"https://www.udemy.com/api-2.0/courses/1581742/reviews/?courseId=1581742&fields%5Bcourse_review%5D=%40default%2Cresponse%2Ccontent_html%2Ccreated_formatted_with_time_since&fields%5Bcourse_review_response%5D=%40min%2Cuser%2Ccontent_html%2Ccreated_formatted_with_time_since&fields%5Buser%5D=%40min%2Cimage_50x50%2Cinitials%2Cpublic_display_name%2Ctracking_id&is_text_review=1&ordering=course_review_score__rank%2C-created&page=2","previous":null,"results":[{"_class":"course_review","id":116720780,"content":"deserve more than 5 stars.  good course and very good way to explain","rating":5.0,"created":"2022-06-18T23:43:56-07:00","modified":"2022-06-20T16:06:57-07:00","user_modified":"2022-06-18T23:45:45-07:00","user":{"_class":"user","title":"Amir Riaz","name":"Amir","display_name":"Amir Riaz","image_50x50":"https://img-c.udemycdn.com/user/50x50/anonymous_3.png","initials":"AR","tracking_id":"2di0VsBIQaSuaJxmU6O_nA","public_display_name":"Amir R."},"response":null,"content_html":"<p>deserve more than 5 stars.  good course and very good way to explain</p>","created_formatted_with_time_since":"2 months ago"},{"_class":"course_review","id":113971154,"content":"It could be better. Concept are delivered very well but it could be more precise. Sometimes I felt things are  fast.","rating":3.0,"created":"2022-05-14T05:47:35-07:00","modified":"2022-05-15T16:05:47-07:00","user_modified":"2022-05-14T05:48:50-07:00","user":{"_class":"user","title":"","name":"","display_name":"Vaneet Gupta","image_50x50":"https://img-c.udemycdn.com/user/50x50/anonymous_3.png","initials":"","tracking_id":"1yW2dCKbT3u7hoabqOxkcw","public_display_name":"Udemy User"},"response":null,"content_html":"<p>It could be better. Concept are delivered very well but it could be more precise. Sometimes I felt things are  fast.</p>","created_formatted_with_time_since":"3 months ago"},{"_class":"course_review","id":109781902,"content":"good lecture","rating":4.0,"created":"2022-03-16T16:59:39-07:00","modified":"2022-03-17T16:09:20-07:00","user_modified":"2022-03-16T16:59:59-07:00","user":{"_class":"user","title":"Stanley Mbeng Eyong","name":"Stanley Mbeng","display_name":"Stanley Mbeng Eyong","image_50x50":"https://img-c.udemycdn.com/user/50x50/anonymous_3.png","initials":"SE","tracking_id":"LpO3UR7hQJqBJjIB73QOQg","public_display_name":"Stanley Mbeng E."},"response":null,"content_html":"<p>good lecture</p>","created_formatted_with_time_since":"5 months ago"},{"_class":"course_review","id":106903184,"content":"Zeal always give real life analogies which helps to instil the difficult concepts easy to grasp & remember. Overall the course was structured very well with good exam prep section highlighting the key scenarios often asked in exams. It actually helps to revise such huge course.","rating":5.0,"created":"2022-02-06T10:28:44-08:00","modified":"2022-02-07T15:06:42-08:00","user_modified":"2022-02-06T10:33:44-08:00","user":{"_class":"user","title":"Anupam Bhattacharya","name":"Anupam","display_name":"Anupam Bhattacharya","image_50x50":"https://img-c.udemycdn.com/user/50x50/anonymous_3.png","initials":"AB","tracking_id":"Uj1dIjoKQCyeYlQPbBIZYA","public_display_name":"Anupam B."},"response":null,"content_html":"<p>Zeal always give real life analogies which helps to instil the difficult concepts easy to grasp & remember. Overall the course was structured very well with good exam prep section highlighting the key scenarios often asked in exams. It actually helps to revise such huge course.</p>","created_formatted_with_time_since":"6 months ago"},{"_class":"course_review","id":106126658,"content":"I would highly recommend Zeal for his thoroughness in teaching AWS networking, security and architecture.  Even if you've taken another course, purchasing his is worth it even just for the last section in each with over an hour of final prep advice covering lots of things you'll encounter on the exams.","rating":5.0,"created":"2022-01-27T15:23:26-08:00","modified":"2022-02-27T14:56:34-08:00","user_modified":"2022-02-27T14:56:34-08:00","user":{"_class":"user","title":"James Weiss","name":"James","display_name":"James Weiss","image_50x50":"https://img-c.udemycdn.com/user/50x50/anonymous_3.png","initials":"JW","tracking_id":"tc3tbYUwR0-Won-6a7yLAw","public_display_name":"James W."},"response":null,"content_html":"<p>I would highly recommend Zeal for his thoroughness in teaching AWS networking, security and architecture.  Even if you've taken another course, purchasing his is worth it even just for the last section in each with over an hour of final prep advice covering lots of things you'll encounter on the exams.</p>","created_formatted_with_time_since":"7 months ago"},{"_class":"course_review","id":100526919,"content":"very good nice explanations with awesome example . You wont get bored :)","rating":4.0,"created":"2021-11-18T15:18:42-08:00","modified":"2021-11-19T15:08:58-08:00","user_modified":"2021-11-18T15:19:22-08:00","user":{"_class":"user","title":"ashok reddy k","name":"ashok","display_name":"ashok reddy k","image_50x50":"https://img-c.udemycdn.com/user/50x50/anonymous_3.png","initials":"AR","tracking_id":"_H-SxwxCQ1-DoZBJ_RI9kw","public_display_name":"ashok R."},"response":null,"content_html":"<p>very good nice explanations with awesome example . You wont get bored :)</p>","created_formatted_with_time_since":"9 months ago"},{"_class":"course_review","id":119229490,"content":"Crisp and clear","rating":5.0,"created":"2022-07-20T10:05:33-07:00","modified":"2022-08-30T22:25:18-07:00","user_modified":"2022-08-30T22:25:18-07:00","user":{"_class":"user","title":"Rajarajan B","name":"Rajarajan","display_name":"Rajarajan B","image_50x50":"https://img-c.udemycdn.com/user/50x50/anonymous_3.png","initials":"RB","tracking_id":"dxQZEjbNRnm22uNI6STbrA","public_display_name":"Rajarajan B."},"response":null,"content_html":"<p>Crisp and clear</p>","created_formatted_with_time_since":"a month ago"},{"_class":"course_review","id":119443778,"content":"Nice course","rating":5.0,"created":"2022-07-23T07:52:34-07:00","modified":"2022-07-27T16:01:07-07:00","user_modified":"2022-07-27T16:01:07-07:00","user":{"_class":"user","title":"Lokesh Chaithanya Kami Chengala Reddygari","name":"Lokesh Chaithanya","display_name":"Lokesh Chaithanya Kami Chengala Reddygari","image_50x50":"https://img-c.udemycdn.com/user/50x50/anonymous_3.png","initials":"LK","tracking_id":"pgj5RPj_QnSCYkC4RZGV4w","public_display_name":"Lokesh Chaithanya K."},"response":null,"content_html":"<p>Nice course</p>","created_formatted_with_time_since":"a month ago"},{"_class":"course_review","id":116092890,"content":"excellent knowledge and simplest way of explaining things, thnx zeil.","rating":5.0,"created":"2022-06-10T04:11:08-07:00","modified":"2022-06-11T16:08:11-07:00","user_modified":"2022-06-10T04:11:34-07:00","user":{"_class":"user","title":"Sohail Shaikh","name":"Sohail","display_name":"Sohail Shaikh","image_50x50":"https://img-c.udemycdn.com/user/50x50/anonymous_3.png","initials":"SS","tracking_id":"KRMlo9O-Qy-i71Cf-aHVuQ","public_display_name":"Sohail S."},"response":null,"content_html":"<p>excellent knowledge and simplest way of explaining things, thnx zeil.</p>","created_formatted_with_time_since":"2 months ago"},{"_class":"course_review","id":120383450,"content":"gooood","rating":5.0,"created":"2022-08-03T23:07:40-07:00","modified":"2022-08-16T22:08:15-07:00","user_modified":"2022-08-16T22:08:15-07:00","user":{"_class":"user","title":"Almog Guri","name":"Almog","display_name":"Almog Guri","image_50x50":"https://img-c.udemycdn.com/user/50x50/anonymous_3.png","initials":"AG","tracking_id":"Y-Ww-IvYQWy4ekoSQgesBQ","public_display_name":"Almog G."},"response":null,"content_html":"<p>gooood</p>","created_formatted_with_time_since":"4 weeks ago"},{"_class":"course_review","id":108002030,"content":"Zeal is the a fantastic instructor!  Love how meticulous he is in explaining things","rating":5.0,"created":"2022-02-21T08:24:51-08:00","modified":"2022-02-22T15:09:19-08:00","user_modified":"2022-02-21T08:25:09-08:00","user":{"_class":"user","title":"Tom Dybicz","name":"Tom","display_name":"Tom Dybicz","image_50x50":"https://img-c.udemycdn.com/user/50x50/anonymous_3.png","initials":"TD","tracking_id":"9jbMy8nMQ5a5sE3nKKKANA","public_display_name":"Tom D."},"response":null,"content_html":"<p>Zeal is the a fantastic instructor!  Love how meticulous he is in explaining things</p>","created_formatted_with_time_since":"6 months ago"},{"_class":"course_review","id":117206552,"content":"xlnt","rating":5.0,"created":"2022-06-24T22:03:08-07:00","modified":"2022-07-27T00:07:19-07:00","user_modified":"2022-07-27T00:07:19-07:00","user":{"_class":"user","title":"Arafath Ali M","name":"Arafath","display_name":"Arafath Ali M","image_50x50":"https://img-c.udemycdn.com/user/50x50/111744968_9d6a_2.jpg","initials":"AA","tracking_id":"S8VF0SkRQHu7ds1eEghYSA","public_display_name":"Arafath A."},"response":null,"content_html":"<p>xlnt</p>","created_formatted_with_time_since":"2 months ago"}]}