{"count":2808,"next":"https://www.udemy.com/api-2.0/courses/164058/reviews/?courseId=164058&fields%5Bcourse_review%5D=%40default%2Cresponse%2Ccontent_html%2Ccreated_formatted_with_time_since&fields%5Bcourse_review_response%5D=%40min%2Cuser%2Ccontent_html%2Ccreated_formatted_with_time_since&fields%5Buser%5D=%40min%2Cimage_50x50%2Cinitials%2Cpublic_display_name%2Ctracking_id&is_text_review=1&ordering=course_review_score__rank%2C-created&page=2","previous":null,"results":[{"_class":"course_review","id":121963118,"content":"This is a great course covering everything from the basics to advanced topics!  \n\nI definitely learned a lot and have been able to apply the learnings toward building complex Excel applications that are being used by large groups within our enterprise.","rating":5.0,"created":"2022-08-24T11:58:38-07:00","modified":"2022-08-25T16:07:08-07:00","user_modified":"2022-08-24T12:02:07-07:00","user":{"_class":"user","title":"Russell Lait","name":"Russell","display_name":"Russell Lait","image_50x50":"https://img-c.udemycdn.com/user/50x50/anonymous_3.png","initials":"RL","tracking_id":"ZReBGbhGR2WpgXVM_wE78Q","public_display_name":"Russell L."},"response":null,"content_html":"<p>This is a great course covering everything from the basics to advanced topics!  </p>\n\n<p>I definitely learned a lot and have been able to apply the learnings toward building complex Excel applications that are being used by large groups within our enterprise.</p>","created_formatted_with_time_since":"a week ago"},{"_class":"course_review","id":120768678,"content":"Courses content are awesome, purposeful and easy to digest. Dan brings a lot of positive energy which makes him really interactive and entertaining to listen to, which definitely helped a lot during the some of the challenging parts of the course. Dan might be the best instructor I have found here on Udemy yet. I would definitely recommend the course for a non-VBA user like me!","rating":5.0,"created":"2022-08-09T04:45:34-07:00","modified":"2022-08-10T16:08:09-07:00","user_modified":"2022-08-09T04:45:34-07:00","user":{"_class":"user","title":"N K","name":"N","display_name":"N K","image_50x50":"https://img-c.udemycdn.com/user/50x50/anonymous_3.png","initials":"NK","tracking_id":"sSPJiKnEThGinKkxCyRtmQ","public_display_name":"N K."},"response":null,"content_html":"<p>Courses content are awesome, purposeful and easy to digest. Dan brings a lot of positive energy which makes him really interactive and entertaining to listen to, which definitely helped a lot during the some of the challenging parts of the course. Dan might be the best instructor I have found here on Udemy yet. I would definitely recommend the course for a non-VBA user like me!</p>","created_formatted_with_time_since":"3 weeks ago"},{"_class":"course_review","id":120577920,"content":"This is a perfect course, where you'll get a new pack of skills for a industry applications, for me this was a PERFECT COURSE, able to make dynamic reports, searching applications, wonderful course, BUT i really want to know what is the next step, the next course.","rating":5.0,"created":"2022-08-06T11:28:29-07:00","modified":"2022-08-07T16:07:56-07:00","user_modified":"2022-08-06T11:30:55-07:00","user":{"_class":"user","title":"Erick Rodrigo García Hernández","name":"Erick Rodrigo García","display_name":"Erick Rodrigo García Hernández","image_50x50":"https://img-c.udemycdn.com/user/50x50/anonymous_3.png","initials":"EH","tracking_id":"Qaxf7uWNSDCyMXZdQLwl6w","public_display_name":"Erick Rodrigo García H."},"response":null,"content_html":"<p>This is a perfect course, where you'll get a new pack of skills for a industry applications, for me this was a PERFECT COURSE, able to make dynamic reports, searching applications, wonderful course, BUT i really want to know what is the next step, the next course.</p>","created_formatted_with_time_since":"3 weeks ago"},{"_class":"course_review","id":120568142,"content":"An excellent course with very practical and easy-to-follow explanations. Highly recommended.","rating":4.5,"created":"2022-08-06T07:45:32-07:00","modified":"2022-08-07T16:07:56-07:00","user_modified":"2022-08-06T07:54:05-07:00","user":{"_class":"user","title":"Bright Asamoah","name":"Bright","display_name":"Bright Asamoah","image_50x50":"https://img-c.udemycdn.com/user/50x50/17814748_f5e3.jpg","initials":"BA","tracking_id":"vhAbUgUbTYSb2LAcW9KZpQ","public_display_name":"Bright A."},"response":null,"content_html":"<p>An excellent course with very practical and easy-to-follow explanations. Highly recommended.</p>","created_formatted_with_time_since":"3 weeks ago"},{"_class":"course_review","id":112927722,"content":"There is a lot of content in this course with detailed explanations on complex functions. Still, there was no discussion on any practical use of say a fortune 500 company using this in their business because they wouldn't do that. They would contract with say Oracle or IBM because their systems have expanded capacity as well as continuity built into that kind of investment. I am glad for the few things I have taken away to be useful, but still am not sure what I can do with the rest. Lastly, I need to mention the instructor is very good at explaining the concepts.","rating":3.0,"created":"2022-04-29T10:22:47-07:00","modified":"2022-04-30T16:06:08-07:00","user_modified":"2022-04-29T10:26:51-07:00","user":{"_class":"user","title":"Richard Mayfield","name":"Richard","display_name":"Richard Mayfield","image_50x50":"https://img-c.udemycdn.com/user/50x50/anonymous_3.png","initials":"RM","tracking_id":"ipkIZu9RQdKwgp42N9OfmA","public_display_name":"Richard M."},"response":null,"content_html":"<p>There is a lot of content in this course with detailed explanations on complex functions. Still, there was no discussion on any practical use of say a fortune 500 company using this in their business because they wouldn't do that. They would contract with say Oracle or IBM because their systems have expanded capacity as well as continuity built into that kind of investment. I am glad for the few things I have taken away to be useful, but still am not sure what I can do with the rest. Lastly, I need to mention the instructor is very good at explaining the concepts.</p>","created_formatted_with_time_since":"4 months ago"},{"_class":"course_review","id":110635250,"content":"Quite good. However he DOES give us exercises sometimes that I can't figure out, only to find out his solution contains things we have not gone over at all yet. That is very frustrating. Its happened multiple times, most notably with vlookup. We were just expected to have previous knowledge of this function I guess? But there were other ones too. \n\nIt's not a bad course though, I'm learning a lot and I still recommend it\n\nEdit: So I just finished the course.\nSome more complaints I had were it would be nice to have more exercises later in the course. Especially the last Section, that's the best way to solidify the learnings he taught us. \nI also would have liked to know how to create or update charts with VBA, but I think if I searched for some online tutorials I probably wouldn't be too lost figuring it out.\nAlso I did almost the entire course with captions (no audio), they could be a bit better.. a lot of it didn't make any sense, a lot of times I was just guessing what he was saying.\nOverall I feel like it was well worth the money for this course, I feel like I could actually go into work and design some interesting things. \nGlad I purchased the course, thanks for teaching me. Thumbs up","rating":4.0,"created":"2022-03-28T20:03:54-07:00","modified":"2022-07-02T15:22:27-07:00","user_modified":"2022-07-02T15:22:27-07:00","user":{"_class":"user","title":"Lindsay LaPlante","name":"Lindsay","display_name":"Lindsay LaPlante","image_50x50":"https://img-c.udemycdn.com/user/50x50/anonymous_3.png","initials":"LL","tracking_id":"Gp8U8CnJT3qv0t9jTQimFg","public_display_name":"Lindsay L."},"response":null,"content_html":"<p>Quite good. However he DOES give us exercises sometimes that I can't figure out, only to find out his solution contains things we have not gone over at all yet. That is very frustrating. Its happened multiple times, most notably with vlookup. We were just expected to have previous knowledge of this function I guess? But there were other ones too. </p>\n\n<p>It's not a bad course though, I'm learning a lot and I still recommend it</p>\n\n<p>Edit: So I just finished the course.<br>Some more complaints I had were it would be nice to have more exercises later in the course. Especially the last Section, that's the best way to solidify the learnings he taught us. <br>I also would have liked to know how to create or update charts with VBA, but I think if I searched for some online tutorials I probably wouldn't be too lost figuring it out.<br>Also I did almost the entire course with captions (no audio), they could be a bit better.. a lot of it didn't make any sense, a lot of times I was just guessing what he was saying.<br>Overall I feel like it was well worth the money for this course, I feel like I could actually go into work and design some interesting things. <br>Glad I purchased the course, thanks for teaching me. Thumbs up</p>","created_formatted_with_time_since":"5 months ago"},{"_class":"course_review","id":118068012,"content":"Really interesting and he goes step by step so you can really understand the concepts and practice along.","rating":5.0,"created":"2022-07-05T19:40:16-07:00","modified":"2022-07-06T16:11:28-07:00","user_modified":"2022-07-05T19:40:58-07:00","user":{"_class":"user","title":"Matheus Osorio Garabosky","name":"Matheus","display_name":"Matheus Osorio Garabosky","image_50x50":"https://img-c.udemycdn.com/user/50x50/anonymous_3.png","initials":"MO","tracking_id":"h319SoEcThC7HDAcoAIicA","public_display_name":"Matheus O."},"response":null,"content_html":"<p>Really interesting and he goes step by step so you can really understand the concepts and practice along.</p>","created_formatted_with_time_since":"a month ago"},{"_class":"course_review","id":113232132,"content":"Yes course is very good I am enjoying it - first ever experience so I am not quite trouble shooting yet - but this is a great introduction for me to lay down the foundations.","rating":5.0,"created":"2022-05-04T06:00:40-07:00","modified":"2022-07-18T06:01:20-07:00","user_modified":"2022-07-18T06:01:20-07:00","user":{"_class":"user","title":"Benjamin Pallett","name":"Benjamin","display_name":"Benjamin Pallett","image_50x50":"https://img-c.udemycdn.com/user/50x50/anonymous_3.png","initials":"BP","tracking_id":"3SqYy8tMTpKr9U18s9FPWw","public_display_name":"Benjamin P."},"response":null,"content_html":"<p>Yes course is very good I am enjoying it - first ever experience so I am not quite trouble shooting yet - but this is a great introduction for me to lay down the foundations.</p>","created_formatted_with_time_since":"4 months ago"},{"_class":"course_review","id":113859946,"content":"Top quality course. Although I did find the parts on ActiveX Controls and Userforms a bit long.","rating":5.0,"created":"2022-05-12T11:25:02-07:00","modified":"2022-05-13T16:10:37-07:00","user_modified":"2022-05-12T11:25:57-07:00","user":{"_class":"user","title":"Jordan Walsh","name":"Jordan","display_name":"Jordan Walsh","image_50x50":"https://img-c.udemycdn.com/user/50x50/anonymous_3.png","initials":"JW","tracking_id":"5FaXAkLDThGbl9KKM9K9aw","public_display_name":"Jordan W."},"response":null,"content_html":"<p>Top quality course. Although I did find the parts on ActiveX Controls and Userforms a bit long.</p>","created_formatted_with_time_since":"3 months ago"},{"_class":"course_review","id":121296276,"content":"Generally good content but Dan needs to consider his Students more.  Of course some people will struggle to learn programming but this course would be a lot shorter - and better - if he did not assume his Students were at primary school and/or incredibly stupid.  For example, even at lesson 25 (or so) he still informs everyone to type a space after 'sub'.","rating":3.0,"created":"2022-08-16T06:34:24-07:00","modified":"2022-08-18T16:08:10-07:00","user_modified":"2022-08-16T06:39:30-07:00","user":{"_class":"user","title":"Mick McHugh","name":"Mick","display_name":"Mick McHugh","image_50x50":"https://img-c.udemycdn.com/user/50x50/anonymous_3.png","initials":"MM","tracking_id":"Esa8OvF6Te6I3fhl4Y7ctQ","public_display_name":"Mick M."},"response":null,"content_html":"<p>Generally good content but Dan needs to consider his Students more.  Of course some people will struggle to learn programming but this course would be a lot shorter - and better - if he did not assume his Students were at primary school and/or incredibly stupid.  For example, even at lesson 25 (or so) he still informs everyone to type a space after 'sub'.</p>","created_formatted_with_time_since":"2 weeks ago"},{"_class":"course_review","id":112449362,"content":"Halfway through and loving it! I have already been able to use things learned so far to improve communication and info tracking in my company and the boss is truly taking notice!\n\nI can't wait to see what I can do with the rest of this powerful class!","rating":5.0,"created":"2022-04-22T20:13:35-07:00","modified":"2022-05-12T21:27:05-07:00","user_modified":"2022-05-12T21:27:05-07:00","user":{"_class":"user","title":"Sherman Burruss","name":"Sherman","display_name":"Sherman Burruss","image_50x50":"https://img-c.udemycdn.com/user/50x50/anonymous_3.png","initials":"SB","tracking_id":"aU2XVwhNRlCkfXK8P8gzEQ","public_display_name":"Sherman B."},"response":null,"content_html":"<p>Halfway through and loving it! I have already been able to use things learned so far to improve communication and info tracking in my company and the boss is truly taking notice!</p>\n\n<p>I can't wait to see what I can do with the rest of this powerful class!</p>","created_formatted_with_time_since":"4 months ago"},{"_class":"course_review","id":112652036,"content":"He is very nice teacher \nI learnt much from him \nthanks Dan thank you so much...............","rating":5.0,"created":"2022-04-26T03:49:11-07:00","modified":"2022-08-04T01:28:37-07:00","user_modified":"2022-08-04T01:28:37-07:00","user":{"_class":"user","title":"ILYAS .S KADER","name":"ILYAS","display_name":"ILYAS .S KADER","image_50x50":"https://img-c.udemycdn.com/user/50x50/anonymous_3.png","initials":"I.","tracking_id":"XygS8849RRCpclQju6qJRQ","public_display_name":"ILYAS .."},"response":null,"content_html":"<p>He is very nice teacher <br>I learnt much from him <br>thanks Dan thank you so much...............</p>","created_formatted_with_time_since":"4 months ago"}]}