{"count":170,"next":"https://www.udemy.com/api-2.0/courses/185916/reviews/?courseId=185916&fields%5Bcourse_review%5D=%40default%2Cresponse%2Ccontent_html%2Ccreated_formatted_with_time_since&fields%5Bcourse_review_response%5D=%40min%2Cuser%2Ccontent_html%2Ccreated_formatted_with_time_since&fields%5Buser%5D=%40min%2Cimage_50x50%2Cinitials%2Cpublic_display_name%2Ctracking_id&is_text_review=1&ordering=course_review_score__rank%2C-created&page=2","previous":null,"results":[{"_class":"course_review","id":122478446,"content":"This course was able to refresh some Excel skills I haven't used in a while and will expedite the process in creating products going forward.  Thank you!","rating":5.0,"created":"2022-08-30T15:11:42-07:00","modified":"2022-08-31T16:12:21-07:00","user_modified":"2022-08-30T15:13:12-07:00","user":{"_class":"user","title":"Jack Johnston","name":"Jack","display_name":"Jack Johnston","image_50x50":"https://img-c.udemycdn.com/user/50x50/anonymous_3.png","initials":"JJ","tracking_id":"jLBHenRzTa23kJxMe_L8Hg","public_display_name":"Jack J."},"response":null,"content_html":"<p>This course was able to refresh some Excel skills I haven't used in a while and will expedite the process in creating products going forward.  Thank you!</p>","created_formatted_with_time_since":"3 days ago"},{"_class":"course_review","id":120165660,"content":"there are no practice resources for the user to use","rating":3.0,"created":"2022-08-01T13:25:27-07:00","modified":"2022-08-02T16:09:50-07:00","user_modified":"2022-08-01T13:25:54-07:00","user":{"_class":"user","title":"Beverly Acheampong Boateng","name":"Beverly Acheampong","display_name":"Beverly Acheampong Boateng","image_50x50":"https://img-c.udemycdn.com/user/50x50/anonymous_3.png","initials":"BB","tracking_id":"Qmchxo7RQL-M4Y4iFmKTIw","public_display_name":"Beverly Acheampong B."},"response":null,"content_html":"<p>there are no practice resources for the user to use</p>","created_formatted_with_time_since":"a month ago"},{"_class":"course_review","id":119688694,"content":"So far good match, i just wish there was a way to save the video for future reference.","rating":4.5,"created":"2022-07-26T11:59:17-07:00","modified":"2022-07-27T16:18:04-07:00","user_modified":"2022-07-26T12:02:03-07:00","user":{"_class":"user","title":"Nancy Perrigin","name":"Nancy","display_name":"Nancy Perrigin","image_50x50":"https://img-c.udemycdn.com/user/50x50/anonymous_3.png","initials":"NP","tracking_id":"6IjDPowPTNexJTAGbsKB3A","public_display_name":"Nancy P."},"response":null,"content_html":"<p>So far good match, i just wish there was a way to save the video for future reference.</p>","created_formatted_with_time_since":"a month ago"},{"_class":"course_review","id":119260226,"content":"Really useful tips and pointers on using Microsoft Excel for data analysis.","rating":5.0,"created":"2022-07-20T19:21:59-07:00","modified":"2022-07-22T16:17:48-07:00","user_modified":"2022-07-20T19:22:50-07:00","user":{"_class":"user","title":"Michael Macknight","name":"Michael","display_name":"Michael Macknight","image_50x50":"https://img-c.udemycdn.com/user/50x50/156095616_a3d2.jpg","initials":"MM","tracking_id":"YswPT7OmSx2TQX9T71CCZg","public_display_name":"Michael M."},"response":null,"content_html":"<p>Really useful tips and pointers on using Microsoft Excel for data analysis.</p>","created_formatted_with_time_since":"a month ago"},{"_class":"course_review","id":109120202,"content":"sangat membantu dan menarik , menambah pengetahuan saya dalam melakukan pengolahan data menggunakan Excel","rating":4.5,"created":"2022-03-08T03:39:54-08:00","modified":"2022-03-09T15:04:17-08:00","user_modified":"2022-03-08T03:40:55-08:00","user":{"_class":"user","title":"Anonymized User","name":"Anonymized","display_name":"Anonymized User","image_50x50":"https://img-c.udemycdn.com/user/50x50/anonymous_3.png","initials":"AU","tracking_id":"0ycm1wM1Sma7Gnek20rXeA","public_display_name":"Anonymized U."},"response":null,"content_html":"<p>sangat membantu dan menarik , menambah pengetahuan saya dalam melakukan pengolahan data menggunakan Excel</p>","created_formatted_with_time_since":"5 months ago"},{"_class":"course_review","id":118715134,"content":"Good content and knowledge gets improved.","rating":5.0,"created":"2022-07-14T00:21:32-07:00","modified":"2022-07-15T16:07:58-07:00","user_modified":"2022-07-14T00:22:01-07:00","user":{"_class":"user","title":"Rohit Goenka","name":"Rohit","display_name":"Rohit Goenka","image_50x50":"https://img-c.udemycdn.com/user/50x50/anonymous_3.png","initials":"RG","tracking_id":"K9l6OQ_dQCuPxa0QKrvllg","public_display_name":"Rohit G."},"response":null,"content_html":"<p>Good content and knowledge gets improved.</p>","created_formatted_with_time_since":"a month ago"},{"_class":"course_review","id":119892874,"content":"Very descriptive!","rating":5.0,"created":"2022-07-28T15:17:20-07:00","modified":"2022-07-29T16:06:02-07:00","user_modified":"2022-07-28T15:17:35-07:00","user":{"_class":"user","title":"Ricardo Cota","name":"Ricardo","display_name":"Ricardo Cota","image_50x50":"https://img-c.udemycdn.com/user/50x50/anonymous_3.png","initials":"RC","tracking_id":"4uavkNvySZuIeVXTPQnSsQ","public_display_name":"Ricardo C."},"response":null,"content_html":"<p>Very descriptive!</p>","created_formatted_with_time_since":"a month ago"},{"_class":"course_review","id":107050058,"content":"Amazing, concise and clearly explained.","rating":4.0,"created":"2022-02-08T03:29:44-08:00","modified":"2022-02-10T15:01:54-08:00","user_modified":"2022-02-08T03:30:09-08:00","user":{"_class":"user","title":"","name":"","display_name":"Bonoloditshego","image_50x50":"https://img-c.udemycdn.com/user/50x50/anonymous_3.png","initials":"","tracking_id":"Gi3xYKyxT8243xXBiGDNlQ","public_display_name":"Udemy User"},"response":null,"content_html":"<p>Amazing, concise and clearly explained.</p>","created_formatted_with_time_since":"6 months ago"},{"_class":"course_review","id":112968468,"content":"It is not updated , also does not show how to do things on Mac.","rating":3.5,"created":"2022-04-30T04:47:55-07:00","modified":"2022-05-01T16:09:00-07:00","user_modified":"2022-04-30T04:48:19-07:00","user":{"_class":"user","title":"Olamiji Onikate-amosu","name":"Olamiji","display_name":"Olamiji Onikate-amosu","image_50x50":"https://img-c.udemycdn.com/user/50x50/anonymous_3.png","initials":"OO","tracking_id":"lHdygFMuTcqelSBSM9G9_A","public_display_name":"Olamiji O."},"response":null,"content_html":"<p>It is not updated , also does not show how to do things on Mac.</p>","created_formatted_with_time_since":"4 months ago"},{"_class":"course_review","id":108781108,"content":"Keep It Up Very good materials","rating":4.5,"created":"2022-03-03T05:15:02-08:00","modified":"2022-03-04T15:09:20-08:00","user_modified":"2022-03-03T05:15:17-08:00","user":{"_class":"user","title":"Arvin Pañgan","name":"Arvin","display_name":"Arvin Pañgan","image_50x50":"https://img-c.udemycdn.com/user/50x50/anonymous_3.png","initials":"AP","tracking_id":"kBbZ6rWoSAmPc-IrN_R0tQ","public_display_name":"Arvin P."},"response":null,"content_html":"<p>Keep It Up Very good materials</p>","created_formatted_with_time_since":"6 months ago"},{"_class":"course_review","id":113938190,"content":"wish I had files to work with","rating":3.0,"created":"2022-05-13T12:29:46-07:00","modified":"2022-05-14T16:10:50-07:00","user_modified":"2022-05-13T12:30:11-07:00","user":{"_class":"user","title":"Helen Abraham","name":"Helen","display_name":"Helen Abraham","image_50x50":"https://img-c.udemycdn.com/user/50x50/anonymous_3.png","initials":"HA","tracking_id":"NnVPqGlOSiG5dlEejiUUnQ","public_display_name":"Helen A."},"response":null,"content_html":"<p>wish I had files to work with</p>","created_formatted_with_time_since":"3 months ago"},{"_class":"course_review","id":112170620,"content":"Great expereince","rating":5.0,"created":"2022-04-19T08:02:23-07:00","modified":"2022-04-20T16:10:41-07:00","user_modified":"2022-04-19T08:02:32-07:00","user":{"_class":"user","title":"Sutapa Paul","name":"Sutapa","display_name":"Sutapa Paul","image_50x50":"https://img-c.udemycdn.com/user/50x50/anonymous_3.png","initials":"SP","tracking_id":"qixB8dLxTySANvZJfVJCoQ","public_display_name":"Sutapa P."},"response":null,"content_html":"<p>Great expereince</p>","created_formatted_with_time_since":"4 months ago"}]}