{"count":1396,"next":"https://www.udemy.com/api-2.0/courses/19332/reviews/?courseId=19332&fields%5Bcourse_review%5D=%40default%2Cresponse%2Ccontent_html%2Ccreated_formatted_with_time_since&fields%5Bcourse_review_response%5D=%40min%2Cuser%2Ccontent_html%2Ccreated_formatted_with_time_since&fields%5Buser%5D=%40min%2Cimage_50x50%2Cinitials%2Cpublic_display_name%2Ctracking_id&is_text_review=1&ordering=course_review_score__rank%2C-created&page=2","previous":null,"results":[{"_class":"course_review","id":121469626,"content":"I enjoyed the taking the course.\nIt is really informative and i learnt a lot.\nThe only problem I have is trying to understand the next topics because they are not tailored with the previous topics.\nIn general I enjoyed the course.\nThank you Kalob!","rating":4.5,"created":"2022-08-18T04:15:50-07:00","modified":"2022-08-19T16:09:49-07:00","user_modified":"2022-08-18T04:20:05-07:00","user":{"_class":"user","title":"Wilson Oluwatomisin Michael-Efenaire","name":"Wilson Oluwatomisin","display_name":"Wilson Oluwatomisin Michael-Efenaire","image_50x50":"https://img-c.udemycdn.com/user/50x50/181948484_6b75.jpg","initials":"WM","tracking_id":"HaH0zxZ0QF-c3x7pPOw4tw","public_display_name":"Wilson Oluwatomisin M."},"response":null,"content_html":"<p>I enjoyed the taking the course.<br>It is really informative and i learnt a lot.<br>The only problem I have is trying to understand the next topics because they are not tailored with the previous topics.<br>In general I enjoyed the course.<br>Thank you Kalob!</p>","created_formatted_with_time_since":"2 weeks ago"},{"_class":"course_review","id":120986362,"content":"Fantastic instructor, always energetic and keeps content interesting","rating":5.0,"created":"2022-08-11T14:05:31-07:00","modified":"2022-08-12T16:12:15-07:00","user_modified":"2022-08-11T14:06:02-07:00","user":{"_class":"user","title":"Liam Mcilwee","name":"Liam","display_name":"Liam Mcilwee","image_50x50":"https://img-c.udemycdn.com/user/50x50/anonymous_3.png","initials":"LM","tracking_id":"TQyBQfPhTbezMkeKCgSa9w","public_display_name":"Liam M."},"response":null,"content_html":"<p>Fantastic instructor, always energetic and keeps content interesting</p>","created_formatted_with_time_since":"3 weeks ago"},{"_class":"course_review","id":117860972,"content":"It was a good match for me. It was definitively a challenge, but I am happy that I made it to the end.","rating":5.0,"created":"2022-07-03T08:45:49-07:00","modified":"2022-07-05T16:07:11-07:00","user_modified":"2022-07-03T08:46:34-07:00","user":{"_class":"user","title":"Andrea Dybendal","name":"Andrea","display_name":"Andrea Dybendal","image_50x50":"https://img-c.udemycdn.com/user/50x50/188719456_d322_2.jpg","initials":"AD","tracking_id":"JeyZZVtjRTeavnYKsSL-Qg","public_display_name":"Andrea D."},"response":null,"content_html":"<p>It was a good match for me. It was definitively a challenge, but I am happy that I made it to the end.</p>","created_formatted_with_time_since":"2 months ago"},{"_class":"course_review","id":113061938,"content":"If you are looking to become a web developer, this is not the place. You learn some stuff about HTML and CSS, and then you are expected to just nod along as the instructor uses frameworks that are not comprehensive, explained or functional. That's right, folks. They just don't work. Not even on the resources files.","rating":1.0,"created":"2022-05-02T00:37:36-07:00","modified":"2022-05-26T01:24:55-07:00","user_modified":"2022-05-26T01:24:55-07:00","user":{"_class":"user","title":"Konstantinos Koletsis","name":"Konstantinos","display_name":"Konstantinos Koletsis","image_50x50":"https://img-c.udemycdn.com/user/50x50/anonymous_3.png","initials":"KK","tracking_id":"wtwvBR8XSjm2R6HTeBcakg","public_display_name":"Konstantinos K."},"response":null,"content_html":"<p>If you are looking to become a web developer, this is not the place. You learn some stuff about HTML and CSS, and then you are expected to just nod along as the instructor uses frameworks that are not comprehensive, explained or functional. That's right, folks. They just don't work. Not even on the resources files.</p>","created_formatted_with_time_since":"4 months ago"},{"_class":"course_review","id":108597014,"content":"I'm really enjoying this course ,though Git is really painful to use but over all this course is very helpful  for old and new developers .Thank You for creating this course. = )","rating":5.0,"created":"2022-03-01T02:13:46-08:00","modified":"2022-06-07T05:34:10-07:00","user_modified":"2022-06-07T05:34:10-07:00","user":{"_class":"user","title":"Khaled Wahba","name":"Khaled","display_name":"Khaled Wahba","image_50x50":"https://img-c.udemycdn.com/user/50x50/anonymous_3.png","initials":"KW","tracking_id":"0cCKreq1RuOX6sXZd6khhA","public_display_name":"Khaled W."},"response":null,"content_html":"<p>I'm really enjoying this course ,though Git is really painful to use but over all this course is very helpful  for old and new developers .Thank You for creating this course. = )</p>","created_formatted_with_time_since":"6 months ago"},{"_class":"course_review","id":114867416,"content":"It's a great course to becoming a web developer. I'd recommend the course to anyone.","rating":4.0,"created":"2022-05-25T11:54:27-07:00","modified":"2022-08-04T14:42:50-07:00","user_modified":"2022-08-04T14:42:50-07:00","user":{"_class":"user","title":"Williams Ajayi Balogun","name":"Williams Ajayi","display_name":"Williams Ajayi Balogun","image_50x50":"https://img-c.udemycdn.com/user/50x50/anonymous_3.png","initials":"WB","tracking_id":"ex-ifQxbQGWwnZHKd9Lufw","public_display_name":"Williams Ajayi B."},"response":null,"content_html":"<p>It's a great course to becoming a web developer. I'd recommend the course to anyone.</p>","created_formatted_with_time_since":"3 months ago"},{"_class":"course_review","id":117407492,"content":"On 15% progress but I'm loving the process. I had been self-teaching and having this course sharpens my knowledge. Very precise and understandable instructor. Though I learned some basics before, I never skipped topic as each topic can makes me relearn and unlearn some learnings I have before. I am planning to take another course after this. Thank you Sir Kalob :)","rating":5.0,"created":"2022-06-27T18:45:16-07:00","modified":"2022-06-28T16:08:07-07:00","user_modified":"2022-06-27T18:49:29-07:00","user":{"_class":"user","title":"Catherine Kate Arbiol","name":"Catherine Kate","display_name":"Catherine Kate Arbiol","image_50x50":"https://img-c.udemycdn.com/user/50x50/anonymous_3.png","initials":"CA","tracking_id":"2pxYR56LTBKIqARD-EziSw","public_display_name":"Catherine Kate A."},"response":null,"content_html":"<p>On 15% progress but I'm loving the process. I had been self-teaching and having this course sharpens my knowledge. Very precise and understandable instructor. Though I learned some basics before, I never skipped topic as each topic can makes me relearn and unlearn some learnings I have before. I am planning to take another course after this. Thank you Sir Kalob :)</p>","created_formatted_with_time_since":"2 months ago"},{"_class":"course_review","id":119917696,"content":"Its the best web developer course","rating":5.0,"created":"2022-07-29T00:16:25-07:00","modified":"2022-08-23T07:04:23-07:00","user_modified":"2022-08-23T07:04:23-07:00","user":{"_class":"user","title":"Mulenga Harris Mundia","name":"Mulenga Harris","display_name":"Mulenga Harris Mundia","image_50x50":"https://img-c.udemycdn.com/user/50x50/anonymous_3.png","initials":"MM","tracking_id":"Tp_-443OQ-W27GjiduJKTw","public_display_name":"Mulenga Harris M."},"response":null,"content_html":"<p>Its the best web developer course</p>","created_formatted_with_time_since":"a month ago"},{"_class":"course_review","id":113430628,"content":"this course has been awesome so far, I'm loving it","rating":5.0,"created":"2022-05-06T15:20:00-07:00","modified":"2022-08-12T03:36:54-07:00","user_modified":"2022-08-12T03:36:54-07:00","user":{"_class":"user","title":"Oloruntele Nurudeen","name":"Oloruntele","display_name":"Oloruntele Nurudeen","image_50x50":"https://img-c.udemycdn.com/user/50x50/56769912_4258.jpg","initials":"ON","tracking_id":"-qh6XWTERXSwxilaV_NbbA","public_display_name":"Oloruntele N."},"response":null,"content_html":"<p>this course has been awesome so far, I'm loving it</p>","created_formatted_with_time_since":"3 months ago"},{"_class":"course_review","id":114263996,"content":"Great learning & concepts about Html,css, git, api, python. Lot’s of practice work. Great courses for all. Extraordinary effort by kalob. Much appreciated.","rating":5.0,"created":"2022-05-18T06:03:04-07:00","modified":"2022-07-20T11:58:58-07:00","user_modified":"2022-07-20T11:58:58-07:00","user":{"_class":"user","title":"Bhakti Patel","name":"Bhakti","display_name":"Bhakti Patel","image_50x50":"https://img-c.udemycdn.com/user/50x50/anonymous_3.png","initials":"BP","tracking_id":"wMaT50q0RaO9CH4Jxy2Tsw","public_display_name":"Bhakti P."},"response":null,"content_html":"<p>Great learning & concepts about Html,css, git, api, python. Lot’s of practice work. Great courses for all. Extraordinary effort by kalob. Much appreciated.</p>","created_formatted_with_time_since":"3 months ago"},{"_class":"course_review","id":117590536,"content":"I learned more things and this is a Great course","rating":5.0,"created":"2022-06-29T13:14:20-07:00","modified":"2022-08-07T23:47:51-07:00","user_modified":"2022-08-07T23:47:51-07:00","user":{"_class":"user","title":"Hewage Adithya Rosayru","name":"Hewage Adithya","display_name":"Hewage Adithya Rosayru","image_50x50":"https://img-c.udemycdn.com/user/50x50/anonymous_3.png","initials":"HR","tracking_id":"gly309CBRbGPIWpi2xW5lA","public_display_name":"Hewage Adithya R."},"response":null,"content_html":"<p>I learned more things and this is a Great course</p>","created_formatted_with_time_since":"2 months ago"},{"_class":"course_review","id":105537254,"content":"Kursus ini sangat lengkap dan detail..sejauh ini disetiap langkah saya menemukan semua yang saya butuhkan untuk pengembangan web. Saya tidak sabar untuk segera bisa menyelesaikan sisa kursus ini dan kemudian mempraktekannya.","rating":5.0,"created":"2022-01-20T13:55:24-08:00","modified":"2022-05-16T07:04:11-07:00","user_modified":"2022-05-16T07:04:11-07:00","user":{"_class":"user","title":"I Wayan Sugata","name":"I Wayan","display_name":"I Wayan Sugata","image_50x50":"https://img-c.udemycdn.com/user/50x50/anonymous_3.png","initials":"IS","tracking_id":"kpYw8kd4QVaT5zeWJXTEgw","public_display_name":"I Wayan S."},"response":null,"content_html":"<p>Kursus ini sangat lengkap dan detail..sejauh ini disetiap langkah saya menemukan semua yang saya butuhkan untuk pengembangan web. Saya tidak sabar untuk segera bisa menyelesaikan sisa kursus ini dan kemudian mempraktekannya.</p>","created_formatted_with_time_since":"7 months ago"}]}