{"count":450,"next":"https://www.udemy.com/api-2.0/courses/31535/reviews/?courseId=31535&fields%5Bcourse_review%5D=%40default%2Cresponse%2Ccontent_html%2Ccreated_formatted_with_time_since&fields%5Bcourse_review_response%5D=%40min%2Cuser%2Ccontent_html%2Ccreated_formatted_with_time_since&fields%5Buser%5D=%40min%2Cimage_50x50%2Cinitials%2Cpublic_display_name%2Ctracking_id&is_text_review=1&ordering=course_review_score__rank%2C-created&page=2","previous":null,"results":[{"_class":"course_review","id":122317608,"content":"yes easily explained","rating":4.5,"created":"2022-08-29T03:44:04-07:00","modified":"2022-08-31T16:09:04-07:00","user_modified":"2022-08-29T03:44:20-07:00","user":{"_class":"user","title":"Nisha Mydeo","name":"Nisha","display_name":"Nisha Mydeo","image_50x50":"https://img-c.udemycdn.com/user/50x50/anonymous_3.png","initials":"NM","tracking_id":"83y60KpgTKyvGy0TTkAxNg","public_display_name":"Nisha M."},"response":null,"content_html":"<p>yes easily explained</p>","created_formatted_with_time_since":"4 days ago"},{"_class":"course_review","id":121922142,"content":"NOT REALLY","rating":4.0,"created":"2022-08-24T03:55:59-07:00","modified":"2022-08-25T16:10:32-07:00","user_modified":"2022-08-24T03:56:49-07:00","user":{"_class":"user","title":"Robin Justine Jacobs","name":"Robin Justine","display_name":"Robin Justine Jacobs","image_50x50":"https://img-c.udemycdn.com/user/50x50/anonymous_3.png","initials":"RJ","tracking_id":"2F7OdSCSQmm5VioIU6ps0g","public_display_name":"Robin Justine J."},"response":null,"content_html":"<p>NOT REALLY</p>","created_formatted_with_time_since":"a week ago"},{"_class":"course_review","id":121330058,"content":"Information is clear and easily understood. the examples used makes it very easy to understand what was explained. The narrator has a good tone and clear speech.","rating":5.0,"created":"2022-08-16T13:44:16-07:00","modified":"2022-08-19T07:19:27-07:00","user_modified":"2022-08-19T07:19:27-07:00","user":{"_class":"user","title":"Andrew Hopwood","name":"Andrew","display_name":"Andrew Hopwood","image_50x50":"https://img-c.udemycdn.com/user/50x50/anonymous_3.png","initials":"AH","tracking_id":"GEcaCVSJTJ6rmu1G3Dl11A","public_display_name":"Andrew H."},"response":null,"content_html":"<p>Information is clear and easily understood. the examples used makes it very easy to understand what was explained. The narrator has a good tone and clear speech.</p>","created_formatted_with_time_since":"2 weeks ago"},{"_class":"course_review","id":121132578,"content":"Knowledge Course","rating":5.0,"created":"2022-08-14T02:34:58-07:00","modified":"2022-08-15T16:10:15-07:00","user_modified":"2022-08-15T04:59:25-07:00","user":{"_class":"user","title":"Rahil Jain","name":"Rahil","display_name":"Rahil Jain","image_50x50":"https://img-c.udemycdn.com/user/50x50/anonymous_3.png","initials":"RJ","tracking_id":"YS3liU4XQF6G9P9g1wpOIA","public_display_name":"Rahil J."},"response":null,"content_html":"<p>Knowledge Course</p>","created_formatted_with_time_since":"2 weeks ago"},{"_class":"course_review","id":120998078,"content":"Great instructor. His teaching method is very detailed. He explains each method that can be used in sequential order.","rating":5.0,"created":"2022-08-11T19:20:00-07:00","modified":"2022-08-20T13:35:08-07:00","user_modified":"2022-08-20T13:35:08-07:00","user":{"_class":"user","title":"Marcus Hill Jr","name":"Marcus","display_name":"Marcus Hill Jr","image_50x50":"https://img-c.udemycdn.com/user/50x50/anonymous_3.png","initials":"MH","tracking_id":"53UWiGAvREK7hAstG5kP6Q","public_display_name":"Marcus H."},"response":null,"content_html":"<p>Great instructor. His teaching method is very detailed. He explains each method that can be used in sequential order.</p>","created_formatted_with_time_since":"3 weeks ago"},{"_class":"course_review","id":108198940,"content":"I want my money back!","rating":1.0,"created":"2022-02-23T10:42:25-08:00","modified":"2022-02-24T15:06:13-08:00","user_modified":"2022-02-23T10:42:38-08:00","user":{"_class":"user","title":"Jane Blevins","name":"Jane","display_name":"Jane Blevins","image_50x50":"https://img-c.udemycdn.com/user/50x50/anonymous_3.png","initials":"JB","tracking_id":"lXMXdyCyT5mprvj8-zpHqQ","public_display_name":"Jane B."},"response":null,"content_html":"<p>I want my money back!</p>","created_formatted_with_time_since":"6 months ago"},{"_class":"course_review","id":110513428,"content":"Explaining very fluently and plainly.","rating":5.0,"created":"2022-03-27T02:19:28-07:00","modified":"2022-04-04T03:37:22-07:00","user_modified":"2022-04-04T03:37:22-07:00","user":{"_class":"user","title":"Emin Vahid","name":"Emin","display_name":"Emin Vahid","image_50x50":"https://img-c.udemycdn.com/user/50x50/anonymous_3.png","initials":"EV","tracking_id":"ZLZJNGeUQ8uOYeYek3iIQg","public_display_name":"Emin V."},"response":null,"content_html":"<p>Explaining very fluently and plainly.</p>","created_formatted_with_time_since":"5 months ago"},{"_class":"course_review","id":122370386,"content":"It is very good.","rating":5.0,"created":"2022-08-29T13:45:49-07:00","modified":"2022-08-31T16:10:48-07:00","user_modified":"2022-08-31T09:22:19-07:00","user":{"_class":"user","title":"Fhedzi Khwathelani Justice","name":"Fhedzi Khwathelani","display_name":"Fhedzi Khwathelani Justice","image_50x50":"https://img-c.udemycdn.com/user/50x50/anonymous_3.png","initials":"FJ","tracking_id":"oURl0T6rSYeMJKADZ1CldQ","public_display_name":"Fhedzi Khwathelani J."},"response":null,"content_html":"<p>It is very good.</p>","created_formatted_with_time_since":"4 days ago"},{"_class":"course_review","id":120511852,"content":"Understanding bout short cuts very helpful","rating":5.0,"created":"2022-08-05T08:14:02-07:00","modified":"2022-08-06T16:09:51-07:00","user_modified":"2022-08-05T08:15:15-07:00","user":{"_class":"user","title":"Grace Brady","name":"Grace","display_name":"Grace Brady","image_50x50":"https://img-c.udemycdn.com/user/50x50/anonymous_3.png","initials":"GB","tracking_id":"HBN2IypKT-6KZXdGi3iqzw","public_display_name":"Grace B."},"response":null,"content_html":"<p>Understanding bout short cuts very helpful</p>","created_formatted_with_time_since":"4 weeks ago"},{"_class":"course_review","id":116756194,"content":"Yes very easy to follow and understand.","rating":5.0,"created":"2022-06-19T14:29:27-07:00","modified":"2022-06-21T16:07:22-07:00","user_modified":"2022-06-19T14:29:51-07:00","user":{"_class":"user","title":"Hayley Lyons","name":"Hayley","display_name":"Hayley Lyons","image_50x50":"https://img-c.udemycdn.com/user/50x50/anonymous_3.png","initials":"HL","tracking_id":"UHI7815LTCWhCzOkTblc1A","public_display_name":"Hayley L."},"response":null,"content_html":"<p>Yes very easy to follow and understand.</p>","created_formatted_with_time_since":"2 months ago"},{"_class":"course_review","id":119234476,"content":"i am actually learning a lot","rating":5.0,"created":"2022-07-20T11:07:17-07:00","modified":"2022-07-22T16:17:49-07:00","user_modified":"2022-07-20T11:08:07-07:00","user":{"_class":"user","title":"Mchazeleni Phumlani Sithole","name":"Mchazeleni Phumlani","display_name":"Mchazeleni Phumlani Sithole","image_50x50":"https://img-c.udemycdn.com/user/50x50/anonymous_3.png","initials":"MS","tracking_id":"f7IiRY7QRVSh0pmp7hRdIg","public_display_name":"Mchazeleni Phumlani S."},"response":null,"content_html":"<p>i am actually learning a lot</p>","created_formatted_with_time_since":"a month ago"},{"_class":"course_review","id":120654654,"content":"its good","rating":4.0,"created":"2022-08-07T22:57:54-07:00","modified":"2022-08-08T16:03:45-07:00","user_modified":"2022-08-07T22:58:03-07:00","user":{"_class":"user","title":"Zebb Wilson","name":"Zebb","display_name":"Zebb Wilson","image_50x50":"https://img-c.udemycdn.com/user/50x50/anonymous_3.png","initials":"ZW","tracking_id":"vypITIlLRxqJk4KnGFnddQ","public_display_name":"Zebb W."},"response":null,"content_html":"<p>its good</p>","created_formatted_with_time_since":"3 weeks ago"}]}