{"count":345,"next":"https://www.udemy.com/api-2.0/courses/358948/reviews/?courseId=358948&fields%5Bcourse_review%5D=%40default%2Cresponse%2Ccontent_html%2Ccreated_formatted_with_time_since&fields%5Bcourse_review_response%5D=%40min%2Cuser%2Ccontent_html%2Ccreated_formatted_with_time_since&fields%5Buser%5D=%40min%2Cimage_50x50%2Cinitials%2Cpublic_display_name%2Ctracking_id&is_text_review=1&ordering=course_review_score__rank%2C-created&page=2","previous":null,"results":[{"_class":"course_review","id":119512064,"content":"This format is easy to follow, easy to revisit, and fun to learn for starters like me.","rating":5.0,"created":"2022-07-24T13:25:46-07:00","modified":"2022-07-26T16:27:58-07:00","user_modified":"2022-07-24T13:26:19-07:00","user":{"_class":"user","title":"Garret Baird","name":"Garret","display_name":"Garret Baird","image_50x50":"https://img-c.udemycdn.com/user/50x50/anonymous_3.png","initials":"GB","tracking_id":"zuBrPHgeRLSJq_oq3v31MA","public_display_name":"Garret B."},"response":null,"content_html":"<p>This format is easy to follow, easy to revisit, and fun to learn for starters like me.</p>","created_formatted_with_time_since":"a month ago"},{"_class":"course_review","id":112853936,"content":"I found this course to be great at covering the basics on a surface level in understanding on the textbook meaning of each of these fundamentals, however I was disappointed at how short/brief each section was covered. Given the cost of this course I'd hoped each subject would have more in-depth examples and, ultimately, more learning tools/drawing prompts to make the course more engaging, but found it to have less substance as the course went on. The warm-up activity in the beginning of this course was fantastic- it would be great if more exercises like that one were added, along with more visual examples of painted work.","rating":3.0,"created":"2022-04-28T11:50:17-07:00","modified":"2022-04-30T16:06:55-07:00","user_modified":"2022-04-28T12:09:24-07:00","user":{"_class":"user","title":"Takeisha Ball","name":"Takeisha","display_name":"Takeisha Ball","image_50x50":"https://img-c.udemycdn.com/user/50x50/anonymous_3.png","initials":"TB","tracking_id":"Pykzug5YQkWjqqOwaN53BA","public_display_name":"Takeisha B."},"response":null,"content_html":"<p>I found this course to be great at covering the basics on a surface level in understanding on the textbook meaning of each of these fundamentals, however I was disappointed at how short/brief each section was covered. Given the cost of this course I'd hoped each subject would have more in-depth examples and, ultimately, more learning tools/drawing prompts to make the course more engaging, but found it to have less substance as the course went on. The warm-up activity in the beginning of this course was fantastic- it would be great if more exercises like that one were added, along with more visual examples of painted work.</p>","created_formatted_with_time_since":"4 months ago"},{"_class":"course_review","id":110464062,"content":"Was unsure what I would learn in an hour but have a greater appreciation for the basics needed for a good piece of art. Would have liked some more visual examples now and then but otherwise very useful.","rating":4.0,"created":"2022-03-26T01:28:33-07:00","modified":"2022-03-27T16:04:30-07:00","user_modified":"2022-03-26T01:29:49-07:00","user":{"_class":"user","title":"Katie Jackson","name":"Katie","display_name":"Katie Jackson","image_50x50":"https://img-c.udemycdn.com/user/50x50/anonymous_3.png","initials":"KJ","tracking_id":"As-mDSr9RJyEkVd48heavg","public_display_name":"Katie J."},"response":null,"content_html":"<p>Was unsure what I would learn in an hour but have a greater appreciation for the basics needed for a good piece of art. Would have liked some more visual examples now and then but otherwise very useful.</p>","created_formatted_with_time_since":"5 months ago"},{"_class":"course_review","id":110426588,"content":"This course provides the needed foundational techniques to really improve one's artwork. I'm looking forward to applying my newfound skills!","rating":5.0,"created":"2022-03-25T08:42:02-07:00","modified":"2022-03-26T16:05:22-07:00","user_modified":"2022-03-25T08:49:28-07:00","user":{"_class":"user","title":"Wanda Stewart","name":"Wanda","display_name":"Wanda Stewart","image_50x50":"https://img-c.udemycdn.com/user/50x50/anonymous_3.png","initials":"WS","tracking_id":"I-_mZMcwTHSIe53fc63bSw","public_display_name":"Wanda S."},"response":null,"content_html":"<p>This course provides the needed foundational techniques to really improve one's artwork. I'm looking forward to applying my newfound skills!</p>","created_formatted_with_time_since":"5 months ago"},{"_class":"course_review","id":106107002,"content":"The course was informative and relatively easy to follow and understand. I've managed to gain a deeper understanding of concepts that were previously known to me while also learning about many new things.","rating":4.0,"created":"2022-01-27T10:19:37-08:00","modified":"2022-01-28T15:07:34-08:00","user_modified":"2022-01-27T10:23:54-08:00","user":{"_class":"user","title":"Aura Sil","name":"Aura","display_name":"Aura Sil","image_50x50":"https://img-c.udemycdn.com/user/50x50/anonymous_3.png","initials":"AS","tracking_id":"O8IK2tuuRx2Yg0RpM6ycLA","public_display_name":"Aura S."},"response":null,"content_html":"<p>The course was informative and relatively easy to follow and understand. I've managed to gain a deeper understanding of concepts that were previously known to me while also learning about many new things.</p>","created_formatted_with_time_since":"7 months ago"},{"_class":"course_review","id":116921438,"content":"It’s the same content as in the Character Animation Course","rating":1.0,"created":"2022-06-21T11:42:55-07:00","modified":"2022-06-22T16:09:01-07:00","user_modified":"2022-06-21T11:43:39-07:00","user":{"_class":"user","title":"Marcela Iannini","name":"Marcela","display_name":"Marcela Iannini","image_50x50":"https://img-c.udemycdn.com/user/50x50/anonymous_3.png","initials":"MI","tracking_id":"vqGo9t7HTiOf3717AeK9kA","public_display_name":"Marcela I."},"response":null,"content_html":"<p>It’s the same content as in the Character Animation Course</p>","created_formatted_with_time_since":"2 months ago"},{"_class":"course_review","id":108996732,"content":"I’m enjoying it, but I’m not very far in yet. I have experience drawing, but I’ve gotten out of the habit, so I’d like to develop my skills.","rating":4.0,"created":"2022-03-06T16:17:49-08:00","modified":"2022-03-07T22:07:01-08:00","user_modified":"2022-03-06T16:17:49-08:00","user":{"_class":"user","title":"Anne Watman","name":"Anne","display_name":"Anne Watman","image_50x50":"https://img-c.udemycdn.com/user/50x50/anonymous_3.png","initials":"AW","tracking_id":"bUfHyuVUS_WViTVMjiPv-g","public_display_name":"Anne W."},"response":null,"content_html":"<p>I’m enjoying it, but I’m not very far in yet. I have experience drawing, but I’ve gotten out of the habit, so I’d like to develop my skills.</p>","created_formatted_with_time_since":"5 months ago"},{"_class":"course_review","id":109428342,"content":"it was quite informative  and interesting.","rating":4.0,"created":"2022-03-12T00:23:15-08:00","modified":"2022-03-13T16:06:37-07:00","user_modified":"2022-03-12T00:23:40-08:00","user":{"_class":"user","title":"Herlin Rai Rathor","name":"Herlin","display_name":"Herlin Rai Rathor","image_50x50":"https://img-c.udemycdn.com/user/50x50/189252110_e6db.jpg","initials":"HR","tracking_id":"XNDTTUJtR8anPokE56iqTw","public_display_name":"Herlin R."},"response":null,"content_html":"<p>it was quite informative  and interesting.</p>","created_formatted_with_time_since":"5 months ago"},{"_class":"course_review","id":108871404,"content":"Solid road map to a future in art making.","rating":5.0,"created":"2022-03-04T08:05:29-08:00","modified":"2022-03-05T15:06:02-08:00","user_modified":"2022-03-04T08:06:05-08:00","user":{"_class":"user","title":"Jawbklnx","name":"Jawbklnx","display_name":"Jawbklnx","image_50x50":"https://img-c.udemycdn.com/user/50x50/anonymous_3.png","initials":"J","tracking_id":"KruOT9WJTYKrTzyQ4iEjQw","public_display_name":"Jawbklnx"},"response":null,"content_html":"<p>Solid road map to a future in art making.</p>","created_formatted_with_time_since":"6 months ago"},{"_class":"course_review","id":106716256,"content":"So far it is an excellent course for me. I always started with detail. Only the last few months - reading through art books - I relized","rating":5.0,"created":"2022-02-03T14:43:34-08:00","modified":"2022-02-04T15:06:16-08:00","user_modified":"2022-02-03T14:46:44-08:00","user":{"_class":"user","title":"Yudit Eszterhazy-Mieczyslaw","name":"Yudit","display_name":"Yudit Eszterhazy-Mieczyslaw","image_50x50":"https://img-c.udemycdn.com/user/50x50/anonymous_3.png","initials":"YE","tracking_id":"pol2MHIaSGCECEIZVUohug","public_display_name":"Yudit E."},"response":null,"content_html":"<p>So far it is an excellent course for me. I always started with detail. Only the last few months - reading through art books - I relized</p>","created_formatted_with_time_since":"7 months ago"},{"_class":"course_review","id":114500394,"content":"Good start. !","rating":3.5,"created":"2022-05-21T03:20:49-07:00","modified":"2022-05-22T16:09:16-07:00","user_modified":"2022-05-21T03:21:03-07:00","user":{"_class":"user","title":"Bernard van der Woude","name":"Bernard","display_name":"Bernard van der Woude","image_50x50":"https://img-c.udemycdn.com/user/50x50/anonymous_3.png","initials":"BV","tracking_id":"Fod8c5xWR7Gkb0xI5Kkoqg","public_display_name":"Bernard V."},"response":null,"content_html":"<p>Good start. !</p>","created_formatted_with_time_since":"3 months ago"},{"_class":"course_review","id":103851126,"content":"Because of this interruption!","rating":2.0,"created":"2022-01-02T10:26:47-08:00","modified":"2022-01-03T15:06:16-08:00","user_modified":"2022-01-02T10:26:47-08:00","user":{"_class":"user","title":"Deborah Carter","name":"Deborah","display_name":"Deborah Carter","image_50x50":"https://img-c.udemycdn.com/user/50x50/anonymous_3.png","initials":"DC","tracking_id":"s7MEsooQQdeDfzspaN-byQ","public_display_name":"Deborah C."},"response":null,"content_html":"<p>Because of this interruption!</p>","created_formatted_with_time_since":"8 months ago"}]}