{"count":10000,"next":"https://www.udemy.com/api-2.0/courses/364426/reviews/?courseId=364426&fields%5Bcourse_review%5D=%40default%2Cresponse%2Ccontent_html%2Ccreated_formatted_with_time_since&fields%5Bcourse_review_response%5D=%40min%2Cuser%2Ccontent_html%2Ccreated_formatted_with_time_since&fields%5Buser%5D=%40min%2Cimage_50x50%2Cinitials%2Cpublic_display_name%2Ctracking_id&is_text_review=1&ordering=course_review_score__rank%2C-created&page=2","previous":null,"results":[{"_class":"course_review","id":119227848,"content":"The course was terrific, Anthony explains every topic in a straightforward way. Thank you so much!","rating":5.0,"created":"2022-07-20T09:44:21-07:00","modified":"2022-07-22T16:17:05-07:00","user_modified":"2022-07-20T09:47:52-07:00","user":{"_class":"user","title":"Marwin Pineda","name":"Marwin","display_name":"Marwin Pineda","image_50x50":"https://img-b.udemycdn.com/user/50x50/anonymous_3.png","initials":"MP","tracking_id":"U61l4AzESaaXqBGWrL3OKw","public_display_name":"Marwin P."},"response":null,"content_html":"<p>The course was terrific, Anthony explains every topic in a straightforward way. Thank you so much!</p>","created_formatted_with_time_since":"a month ago"},{"_class":"course_review","id":118363258,"content":"This is an essential course BEFORE trying to learn other JS libraries and frameworks like React or Angular! Excellent content. Great teaching style. Effective examples! HIGHLY RECOMMEND!! The course needs a little updating but still worth your time and effort (I took this course in July of 2022)","rating":5.0,"created":"2022-07-09T13:51:11-07:00","modified":"2022-07-10T16:07:15-07:00","user_modified":"2022-07-09T13:54:44-07:00","user":{"_class":"user","title":"Kelly Ranger","name":"Kelly","display_name":"Kelly Ranger","image_50x50":"https://img-b.udemycdn.com/user/50x50/anonymous_3.png","initials":"KR","tracking_id":"rIvEhgRLQnKsiPo7os8o_A","public_display_name":"Kelly R."},"response":null,"content_html":"<p>This is an essential course BEFORE trying to learn other JS libraries and frameworks like React or Angular! Excellent content. Great teaching style. Effective examples! HIGHLY RECOMMEND!! The course needs a little updating but still worth your time and effort (I took this course in July of 2022)</p>","created_formatted_with_time_since":"a month ago"},{"_class":"course_review","id":118121606,"content":"Loved this course, and would have been a no-brainer recommendation if I had taken this several years ago. Unfortunately, the course has not been updated as well as it should have been in terms of ES6 content. There are a few ES6 lectures, but they are not of the same high quality as the rest of the series. Personally, I was really excited for the Promises/Async/Await section but it was a huge let-down and left me even more confused than before. The rest of the course is wonderful and a must-watch, however.","rating":4.5,"created":"2022-07-06T08:04:58-07:00","modified":"2022-07-08T16:14:01-07:00","user_modified":"2022-07-06T08:12:41-07:00","user":{"_class":"user","title":"SQ Shaik","name":"SQ","display_name":"SQ Shaik","image_50x50":"https://img-b.udemycdn.com/user/50x50/anonymous_3.png","initials":"SS","tracking_id":"ab6FBJNgQy2zvGhGPImegg","public_display_name":"SQ S."},"response":null,"content_html":"<p>Loved this course, and would have been a no-brainer recommendation if I had taken this several years ago. Unfortunately, the course has not been updated as well as it should have been in terms of ES6 content. There are a few ES6 lectures, but they are not of the same high quality as the rest of the series. Personally, I was really excited for the Promises/Async/Await section but it was a huge let-down and left me even more confused than before. The rest of the course is wonderful and a must-watch, however.</p>","created_formatted_with_time_since":"a month ago"},{"_class":"course_review","id":117112062,"content":"Great course, definitely recommend!\nThe course delivery was indeed very good for me, I found it really engaging to follow and the author demonstrated a very good mastery of the subjects.\nI took it to catch up with 'weird' parts of JS because I was coming from other strongly typed programming languages and the result was above my expectation.","rating":5.0,"created":"2022-06-23T15:06:18-07:00","modified":"2022-06-24T16:08:13-07:00","user_modified":"2022-06-23T15:22:56-07:00","user":{"_class":"user","title":"Jaime Teyller","name":"Jaime","display_name":"Jaime Teyller","image_50x50":"https://img-b.udemycdn.com/user/50x50/anonymous_3.png","initials":"JT","tracking_id":"x2te-214RpaUK1MUZWsbmw","public_display_name":"Jaime T."},"response":null,"content_html":"<p>Great course, definitely recommend!<br>The course delivery was indeed very good for me, I found it really engaging to follow and the author demonstrated a very good mastery of the subjects.<br>I took it to catch up with 'weird' parts of JS because I was coming from other strongly typed programming languages and the result was above my expectation.</p>","created_formatted_with_time_since":"2 months ago"},{"_class":"course_review","id":116091226,"content":"Bester Grundlagenkurs zum Thema. Habe ihn nach ein paar Jahren zum zweiten Mal gesehen und bin wieder neu begeistert.","rating":5.0,"created":"2022-06-10T03:42:30-07:00","modified":"2022-06-11T16:08:11-07:00","user_modified":"2022-06-10T03:45:08-07:00","user":{"_class":"user","title":"Markus Lommer","name":"Markus","display_name":"Markus Lommer","image_50x50":"https://img-b.udemycdn.com/user/50x50/anonymous_3.png","initials":"ML","tracking_id":"la5IK5uPQWqb5BtPsaXVAQ","public_display_name":"Markus L."},"response":null,"content_html":"<p>Bester Grundlagenkurs zum Thema. Habe ihn nach ein paar Jahren zum zweiten Mal gesehen und bin wieder neu begeistert.</p>","created_formatted_with_time_since":"2 months ago"},{"_class":"course_review","id":119210494,"content":"An excellent deep dive into the JavaScript language, but is rather dated now. More focus on ES6 features would have been useful","rating":3.5,"created":"2022-07-20T06:24:22-07:00","modified":"2022-07-22T16:17:06-07:00","user_modified":"2022-07-20T06:25:13-07:00","user":{"_class":"user","title":"Aaron Odedra","name":"Aaron","display_name":"Aaron Odedra","image_50x50":"https://img-b.udemycdn.com/user/50x50/anonymous_3.png","initials":"AO","tracking_id":"Zx5AooexSPmHOqFFgm0giw","public_display_name":"Aaron O."},"response":null,"content_html":"<p>An excellent deep dive into the JavaScript language, but is rather dated now. More focus on ES6 features would have been useful</p>","created_formatted_with_time_since":"a month ago"},{"_class":"course_review","id":122495180,"content":"This course is packed full of important information. The instructor is awesome, the content is invaluable - highly recommend!!","rating":5.0,"created":"2022-08-30T20:52:11-07:00","modified":"2022-08-31T16:12:20-07:00","user_modified":"2022-08-30T21:00:00-07:00","user":{"_class":"user","title":"Shane Tanberg","name":"Shane","display_name":"Shane Tanberg","image_50x50":"https://img-b.udemycdn.com/user/50x50/anonymous_3.png","initials":"ST","tracking_id":"hJNVcGtLS9msHXhyXkehcA","public_display_name":"Shane T."},"response":null,"content_html":"<p>This course is packed full of important information. The instructor is awesome, the content is invaluable - highly recommend!!</p>","created_formatted_with_time_since":"2 days ago"},{"_class":"course_review","id":113919788,"content":"Insgesamt sehr guter Kurs, ist aber schon etwas in die Jahre gekommen.","rating":3.5,"created":"2022-05-13T07:18:39-07:00","modified":"2022-05-14T16:10:51-07:00","user_modified":"2022-05-13T07:19:03-07:00","user":{"_class":"user","title":"Sybit GmbH","name":"Sybit","display_name":"Sybit GmbH","image_50x50":"https://img-b.udemycdn.com/user/50x50/anonymous_3.png","initials":"SG","tracking_id":"EXvcwcngT3asgBPfISK6Qw","public_display_name":"Sybit G."},"response":null,"content_html":"<p>Insgesamt sehr guter Kurs, ist aber schon etwas in die Jahre gekommen.</p>","created_formatted_with_time_since":"3 months ago"},{"_class":"course_review","id":121089720,"content":"The only JavaScript course on Udemy that will actually help you understand the core of JavaScript language. Just like understanding the workings of JVM helps you become better at Java, understanding CLR makes you a better C# programmer, similarly understanding JavaScript runtime will definitely make you a better JavaScript programmer. Note that this course is not about web development, or DOM, etc. this is about JavaScript, the language.","rating":5.0,"created":"2022-08-13T04:46:49-07:00","modified":"2022-08-14T16:07:40-07:00","user_modified":"2022-08-13T04:56:16-07:00","user":{"_class":"user","title":"Kumar Chandresh","name":"Kumar","display_name":"Kumar Chandresh","image_50x50":"https://img-b.udemycdn.com/user/50x50/51713626_1f5f.jpg","initials":"KC","tracking_id":"yZz7bbiESGqDYoodC9dG4w","public_display_name":"Kumar C."},"response":null,"content_html":"<p>The only JavaScript course on Udemy that will actually help you understand the core of JavaScript language. Just like understanding the workings of JVM helps you become better at Java, understanding CLR makes you a better C# programmer, similarly understanding JavaScript runtime will definitely make you a better JavaScript programmer. Note that this course is not about web development, or DOM, etc. this is about JavaScript, the language.</p>","created_formatted_with_time_since":"2 weeks ago"},{"_class":"course_review","id":117714926,"content":"Best on earth to understand Javascript","rating":5.0,"created":"2022-06-30T22:28:01-07:00","modified":"2022-07-01T16:13:01-07:00","user_modified":"2022-06-30T22:28:01-07:00","user":{"_class":"user","title":"Abdul Ali","name":"Abdul","display_name":"Abdul Ali","image_50x50":"https://img-b.udemycdn.com/user/50x50/anonymous_3.png","initials":"AA","tracking_id":"GvJIkHvCRnOMQfEWYAuQnw","public_display_name":"Abdul A."},"response":null,"content_html":"<p>Best on earth to understand Javascript</p>","created_formatted_with_time_since":"2 months ago"},{"_class":"course_review","id":118717326,"content":"Great course to understand the advance part in production code and also the explanation of closures, prototypal inheritance, IIFE , and other stuff is the best.","rating":5.0,"created":"2022-07-14T00:52:35-07:00","modified":"2022-07-15T16:07:58-07:00","user_modified":"2022-07-14T00:54:29-07:00","user":{"_class":"user","title":"Utkarsh Chaudhary","name":"Utkarsh","display_name":"Utkarsh Chaudhary","image_50x50":"https://img-b.udemycdn.com/user/50x50/anonymous_3.png","initials":"UC","tracking_id":"3LbF5TjFT9i7ashERmYxHA","public_display_name":"Utkarsh C."},"response":null,"content_html":"<p>Great course to understand the advance part in production code and also the explanation of closures, prototypal inheritance, IIFE , and other stuff is the best.</p>","created_formatted_with_time_since":"a month ago"},{"_class":"course_review","id":114394610,"content":"Took this following the HTML and CSS course, both really help provide a great, thorough explanation of the concepts behind them!","rating":5.0,"created":"2022-05-19T15:16:52-07:00","modified":"2022-05-20T16:10:45-07:00","user_modified":"2022-05-19T15:18:12-07:00","user":{"_class":"user","title":"Christine Johnson","name":"Christine","display_name":"Christine Johnson","image_50x50":"https://img-b.udemycdn.com/user/50x50/anonymous_3.png","initials":"CJ","tracking_id":"HiWBBPxbQhCBCWNOyD-anw","public_display_name":"Christine J."},"response":null,"content_html":"<p>Took this following the HTML and CSS course, both really help provide a great, thorough explanation of the concepts behind them!</p>","created_formatted_with_time_since":"3 months ago"}]}