{"count":364,"next":"https://www.udemy.com/api-2.0/courses/369662/reviews/?courseId=369662&fields%5Bcourse_review%5D=%40default%2Cresponse%2Ccontent_html%2Ccreated_formatted_with_time_since&fields%5Bcourse_review_response%5D=%40min%2Cuser%2Ccontent_html%2Ccreated_formatted_with_time_since&fields%5Buser%5D=%40min%2Cimage_50x50%2Cinitials%2Cpublic_display_name%2Ctracking_id&is_text_review=1&ordering=course_review_score__rank%2C-created&page=2","previous":null,"results":[{"_class":"course_review","id":120342862,"content":"Kurs güzel ve açıklayıcı,eğer ingilizce biliyorsanız.Ama ingilizceyi az bilenler için türkçe altyazı yok,onu söyleyebilirim.","rating":5.0,"created":"2022-08-03T10:16:34-07:00","modified":"2022-08-05T16:08:06-07:00","user_modified":"2022-08-03T10:18:30-07:00","user":{"_class":"user","title":"Mari̇a","name":"Mari̇a","display_name":"Mari̇a","image_50x50":"https://img-c.udemycdn.com/user/50x50/anonymous_3.png","initials":"M","tracking_id":"lpA9rUkUS-uw6TyZQwwB2w","public_display_name":"Mari̇a"},"response":null,"content_html":"<p>Kurs güzel ve açıklayıcı,eğer ingilizce biliyorsanız.Ama ingilizceyi az bilenler için türkçe altyazı yok,onu söyleyebilirim.</p>","created_formatted_with_time_since":"a month ago"},{"_class":"course_review","id":118905572,"content":"Excellent course! Very thorough. You can tell Evan took his time to put the most valuable content together. A few sections are slightly outdated due to the progress in technology and the ever changing industry, but the underlying principles remain the same.  I think this course delivers on its promise: most viewers should be able to start their agency after taking this course, but keep in mind that the amount of work required and the difficulty involved will be substantial.","rating":4.5,"created":"2022-07-16T11:25:31-07:00","modified":"2022-07-17T16:07:55-07:00","user_modified":"2022-07-16T11:31:13-07:00","user":{"_class":"user","title":"Maxim Vallee","name":"Maxim","display_name":"Maxim Vallee","image_50x50":"https://img-c.udemycdn.com/user/50x50/anonymous_3.png","initials":"MV","tracking_id":"FopkDnabSAChYBWE4ZKJRw","public_display_name":"Maxim V."},"response":null,"content_html":"<p>Excellent course! Very thorough. You can tell Evan took his time to put the most valuable content together. A few sections are slightly outdated due to the progress in technology and the ever changing industry, but the underlying principles remain the same.  I think this course delivers on its promise: most viewers should be able to start their agency after taking this course, but keep in mind that the amount of work required and the difficulty involved will be substantial.</p>","created_formatted_with_time_since":"a month ago"},{"_class":"course_review","id":115669394,"content":"Amazing","rating":5.0,"created":"2022-06-05T05:45:29-07:00","modified":"2022-06-06T16:14:42-07:00","user_modified":"2022-06-05T05:45:29-07:00","user":{"_class":"user","title":"Mykhaylo Tomvach","name":"Mykhaylo","display_name":"Mykhaylo Tomvach","image_50x50":"https://img-c.udemycdn.com/user/50x50/anonymous_3.png","initials":"MT","tracking_id":"PRT0JQ2uTD2WVonEyirqQA","public_display_name":"Mykhaylo T."},"response":null,"content_html":"<p>Amazing</p>","created_formatted_with_time_since":"2 months ago"},{"_class":"course_review","id":111762486,"content":"Great course if you want to learn how to run a web development business","rating":5.0,"created":"2022-04-13T02:54:54-07:00","modified":"2022-04-14T16:02:06-07:00","user_modified":"2022-04-13T02:55:48-07:00","user":{"_class":"user","title":"Darren Jewell","name":"Darren","display_name":"Darren Jewell","image_50x50":"https://img-c.udemycdn.com/user/50x50/819660_a2c9_2.jpg","initials":"DJ","tracking_id":"pxCC7aRAT4Wd3wWm3lAGiA","public_display_name":"Darren J."},"response":null,"content_html":"<p>Great course if you want to learn how to run a web development business</p>","created_formatted_with_time_since":"4 months ago"},{"_class":"course_review","id":12752314,"content":"This is more for people who don't have any business experience. Basic foundation. Needs checklist processes like the \"wireframes\". Just common wireframes","rating":2.5,"created":"2018-01-14T21:30:36-08:00","modified":"2018-05-22T15:20:38-07:00","user_modified":"2018-01-15T07:34:28-08:00","user":{"_class":"user","title":"Ryan Quintana","name":"Ryan","display_name":"Ryan Quintana","image_50x50":"https://img-c.udemycdn.com/user/50x50/anonymous_3.png","initials":"RQ","tracking_id":"p5xG-DTUQ5GHUqfj3IdwwA","public_display_name":"Ryan Q."},"response":null,"content_html":"<p>This is more for people who don't have any business experience. Basic foundation. Needs checklist processes like the \"wireframes\". Just common wireframes</p>","created_formatted_with_time_since":"4 years ago"},{"_class":"course_review","id":110626156,"content":"So far, so good!","rating":4.0,"created":"2022-03-28T16:08:50-07:00","modified":"2022-03-29T16:09:14-07:00","user_modified":"2022-03-28T16:09:06-07:00","user":{"_class":"user","title":"Joseph Menard","name":"Joseph","display_name":"Joseph Menard","image_50x50":"https://img-c.udemycdn.com/user/50x50/anonymous_3.png","initials":"JM","tracking_id":"E0MQ_So1T8KB5p6KOjB5PQ","public_display_name":"Joseph M."},"response":null,"content_html":"<p>So far, so good!</p>","created_formatted_with_time_since":"5 months ago"},{"_class":"course_review","id":95805717,"content":"claro, conciso y muy profesional","rating":5.0,"created":"2021-09-19T06:33:06-07:00","modified":"2021-09-20T16:06:23-07:00","user_modified":"2021-09-19T06:33:34-07:00","user":{"_class":"user","title":"Angelina Gomes","name":"Angelina","display_name":"Angelina Gomes","image_50x50":"https://img-c.udemycdn.com/user/50x50/anonymous_3.png","initials":"AG","tracking_id":"-mjDEJbnSQKK2s2eRVeSFA","public_display_name":"Angelina G."},"response":null,"content_html":"<p>claro, conciso y muy profesional</p>","created_formatted_with_time_since":"11 months ago"},{"_class":"course_review","id":36370198,"content":"Great things that I  have learnt so far. This course has opened my eyes.\nAlthough some reference or websites are no longer the same in 2019.","rating":4.0,"created":"2019-08-27T06:07:18-07:00","modified":"2019-10-22T03:44:31-07:00","user_modified":"2019-10-22T03:44:31-07:00","user":{"_class":"user","title":"Nancy Soyo","name":"Nancy","display_name":"Nancy Soyo","image_50x50":"https://img-c.udemycdn.com/user/50x50/anonymous_3.png","initials":"NS","tracking_id":"h6dnr0UETKWOQqlYMMuwMg","public_display_name":"Nancy S."},"response":null,"content_html":"<p>Great things that I  have learnt so far. This course has opened my eyes.<br>Although some reference or websites are no longer the same in 2019.</p>","created_formatted_with_time_since":"3 years ago"},{"_class":"course_review","id":18452760,"content":"I found the information useful and applicable. and Evan's presentation style is casual yet engaging.","rating":5.0,"created":"2018-07-08T13:06:32-07:00","modified":"2018-07-08T20:01:25-07:00","user_modified":"2018-07-08T13:08:17-07:00","user":{"_class":"user","title":"Jesse Davis","name":"Jesse","display_name":"Jesse Davis","image_50x50":"https://img-c.udemycdn.com/user/50x50/731379_f692.jpg","initials":"JD","tracking_id":"Kj9H9XWFR4qp0ARqao6fxQ","public_display_name":"Jesse D."},"response":null,"content_html":"<p>I found the information useful and applicable. and Evan's presentation style is casual yet engaging.</p>","created_formatted_with_time_since":"4 years ago"},{"_class":"course_review","id":6957012,"content":"I liked your course. This gave me insights not only about the Web Development Business but also about the modern day principles of Marketing, Project Management and Work Culture.","rating":4.5,"created":"2017-05-16T09:46:02-07:00","modified":"2017-06-07T15:39:56-07:00","user_modified":"2017-06-07T15:39:56-07:00","user":{"_class":"user","title":"Biplab Gautam","name":"Biplab","display_name":"Biplab Gautam","image_50x50":"https://img-c.udemycdn.com/user/50x50/anonymous_3.png","initials":"BG","tracking_id":"ZZUVpYOGTymhkGyRG2pw2g","public_display_name":"Biplab G."},"response":null,"content_html":"<p>I liked your course. This gave me insights not only about the Web Development Business but also about the modern day principles of Marketing, Project Management and Work Culture.</p>","created_formatted_with_time_since":"5 years ago"},{"_class":"course_review","id":21789450,"content":"The course was excellent. I have taken a few of Evan's courses and he never fails to impress me with the material covered and most importantly the real life application of concepts covered.\n\nAfter finishing this course I really feel I can set up my own web development business and be off to the races.\n\nThanks man, you rock!","rating":5.0,"created":"2018-10-11T06:09:27-07:00","modified":"2018-10-18T02:35:48-07:00","user_modified":"2018-10-18T02:35:48-07:00","user":{"_class":"user","title":"Obiajulu Nwosa","name":"Obiajulu","display_name":"Obiajulu Nwosa","image_50x50":"https://img-c.udemycdn.com/user/50x50/anonymous_3.png","initials":"ON","tracking_id":"-bQq6VPzRwiMF2bL8aXXrA","public_display_name":"Obiajulu N."},"response":{"_class":"course_review_response","id":1896188,"content":"Thanks Obiajulu!","created":"2018-10-20T16:43:55-07:00","modified":"2018-10-20T16:43:55-07:00","user":{"_class":"user","title":"Evan Kimbrell","name":"Evan","display_name":"Evan Kimbrell","image_50x50":"https://img-c.udemycdn.com/user/50x50/18187_dbc6_6.jpg","initials":"EK","tracking_id":"c9B7r9_sScy2wmX4GFaIsw","public_display_name":"Evan K."},"content_html":"<p>Thanks Obiajulu!</p>","created_formatted_with_time_since":"3 years ago"},"content_html":"<p>The course was excellent. I have taken a few of Evan's courses and he never fails to impress me with the material covered and most importantly the real life application of concepts covered.</p>\n\n<p>After finishing this course I really feel I can set up my own web development business and be off to the races.</p>\n\n<p>Thanks man, you rock!</p>","created_formatted_with_time_since":"3 years ago"},{"_class":"course_review","id":15575884,"content":"It has been encoraging to start a web programming company. However it is time to start and learn more as it will run.\n\nThanks for sharing your experience.","rating":4.0,"created":"2018-04-12T18:55:21-07:00","modified":"2018-05-22T15:25:01-07:00","user_modified":"2018-04-13T07:30:09-07:00","user":{"_class":"user","title":"Nixon Vega","name":"Nixon","display_name":"Nixon Vega","image_50x50":"https://img-c.udemycdn.com/user/50x50/23336290_b773.jpg","initials":"NV","tracking_id":"CY3z3UOQRzazBv1zRF_Wvw","public_display_name":"Nixon V."},"response":null,"content_html":"<p>It has been encoraging to start a web programming company. However it is time to start and learn more as it will run.</p>\n\n<p>Thanks for sharing your experience.</p>","created_formatted_with_time_since":"4 years ago"}]}