{"count":372,"next":"https://www.udemy.com/api-2.0/courses/382394/reviews/?courseId=382394&fields%5Bcourse_review%5D=%40default%2Cresponse%2Ccontent_html%2Ccreated_formatted_with_time_since&fields%5Bcourse_review_response%5D=%40min%2Cuser%2Ccontent_html%2Ccreated_formatted_with_time_since&fields%5Buser%5D=%40min%2Cimage_50x50%2Cinitials%2Cpublic_display_name%2Ctracking_id&is_text_review=1&ordering=course_review_score__rank%2C-created&page=2","previous":null,"results":[{"_class":"course_review","id":118407060,"content":"Die Meinung zu sagen ist wichtig","rating":4.0,"created":"2022-07-10T11:28:11-07:00","modified":"2022-07-11T16:10:59-07:00","user_modified":"2022-07-10T11:28:11-07:00","user":{"_class":"user","title":"Oliver Wachter","name":"Oliver","display_name":"Oliver Wachter","image_50x50":"https://img-c.udemycdn.com/user/50x50/anonymous_3.png","initials":"OW","tracking_id":"mhkXq1N5SIukXcycfpiwbw","public_display_name":"Oliver W."},"response":null,"content_html":"<p>Die Meinung zu sagen ist wichtig</p>","created_formatted_with_time_since":"a month ago"},{"_class":"course_review","id":118237006,"content":"Instructor doesn’t explain things thoroughly enough (for example when discussing grip)","rating":2.0,"created":"2022-07-07T13:39:14-07:00","modified":"2022-07-08T16:11:14-07:00","user_modified":"2022-07-07T13:39:14-07:00","user":{"_class":"user","title":"Nann Parrett","name":"Nann","display_name":"Nann Parrett","image_50x50":"https://img-c.udemycdn.com/user/50x50/anonymous_3.png","initials":"NP","tracking_id":"kGiwqAhdTduCm4EYJ7dOkQ","public_display_name":"Nann P."},"response":null,"content_html":"<p>Instructor doesn’t explain things thoroughly enough (for example when discussing grip)</p>","created_formatted_with_time_since":"a month ago"},{"_class":"course_review","id":115213750,"content":"I guess so","rating":4.0,"created":"2022-05-30T06:40:14-07:00","modified":"2022-06-02T21:12:15-07:00","user_modified":"2022-05-30T06:40:31-07:00","user":{"_class":"user","title":"Suvrata Samant","name":"Suvrata","display_name":"Suvrata Samant","image_50x50":"https://img-c.udemycdn.com/user/50x50/anonymous_3.png","initials":"SS","tracking_id":"yhFX8ruASUavuOq9xa7RqQ","public_display_name":"Suvrata S."},"response":null,"content_html":"<p>I guess so</p>","created_formatted_with_time_since":"3 months ago"},{"_class":"course_review","id":110020752,"content":"It’s showing me so much and I hope when I’m done with this i will be amazing","rating":5.0,"created":"2022-03-20T10:07:24-07:00","modified":"2022-03-21T16:07:51-07:00","user_modified":"2022-03-20T10:07:24-07:00","user":{"_class":"user","title":"Michael Gomeringer","name":"Michael","display_name":"Michael Gomeringer","image_50x50":"https://img-c.udemycdn.com/user/50x50/anonymous_3.png","initials":"MG","tracking_id":"pt5BxXu5SZyz4hgGLFrt5g","public_display_name":"Michael G."},"response":null,"content_html":"<p>It’s showing me so much and I hope when I’m done with this i will be amazing</p>","created_formatted_with_time_since":"5 months ago"},{"_class":"course_review","id":104525470,"content":"I loved the way in which he explained.","rating":5.0,"created":"2022-01-09T07:05:42-08:00","modified":"2022-01-10T15:05:20-08:00","user_modified":"2022-01-09T07:06:35-08:00","user":{"_class":"user","title":"Karla Trautmann","name":"Karla","display_name":"Karla Trautmann","image_50x50":"https://img-c.udemycdn.com/user/50x50/anonymous_3.png","initials":"KT","tracking_id":"R7pKTSEPTtS7EJCr9x80RA","public_display_name":"Karla T."},"response":null,"content_html":"<p>I loved the way in which he explained.</p>","created_formatted_with_time_since":"7 months ago"},{"_class":"course_review","id":116228626,"content":"helped me to realise what I wanted and what I didn't want.","rating":3.5,"created":"2022-06-12T14:01:04-07:00","modified":"2022-06-14T16:09:29-07:00","user_modified":"2022-06-12T14:01:30-07:00","user":{"_class":"user","title":"John Winstone","name":"John","display_name":"John Winstone","image_50x50":"https://img-c.udemycdn.com/user/50x50/anonymous_3.png","initials":"JW","tracking_id":"5bZKB380RZ2j5sMnD9eynA","public_display_name":"John W."},"response":null,"content_html":"<p>helped me to realise what I wanted and what I didn't want.</p>","created_formatted_with_time_since":"2 months ago"},{"_class":"course_review","id":102536756,"content":"Info was good, but often too brief leaving one wanting more information about how. Visual sketching examples were all speeded up which takes away from watching how the instructor does something.","rating":2.5,"created":"2021-12-14T11:54:51-08:00","modified":"2021-12-15T15:05:44-08:00","user_modified":"2021-12-14T11:55:54-08:00","user":{"_class":"user","title":"Ken Aaron","name":"Ken","display_name":"Ken Aaron","image_50x50":"https://img-c.udemycdn.com/user/50x50/anonymous_3.png","initials":"KA","tracking_id":"-zCNH1IURFGcYpXp_5CrQg","public_display_name":"Ken A."},"response":null,"content_html":"<p>Info was good, but often too brief leaving one wanting more information about how. Visual sketching examples were all speeded up which takes away from watching how the instructor does something.</p>","created_formatted_with_time_since":"8 months ago"},{"_class":"course_review","id":109176734,"content":"So far, only so far, it is stuff i have known. I AM ONLY AN ELEVEN YEAR OLD! I've been sketching for about a year now and i find this pretty beginner","rating":2.5,"created":"2022-03-08T19:02:51-08:00","modified":"2022-03-09T15:07:40-08:00","user_modified":"2022-03-08T19:04:17-08:00","user":{"_class":"user","title":"Jude Matero","name":"Jude","display_name":"Jude Matero","image_50x50":"https://img-c.udemycdn.com/user/50x50/anonymous_3.png","initials":"JM","tracking_id":"sBEYChEAQFejdukBHLSA7g","public_display_name":"Jude M."},"response":null,"content_html":"<p>So far, only so far, it is stuff i have known. I AM ONLY AN ELEVEN YEAR OLD! I've been sketching for about a year now and i find this pretty beginner</p>","created_formatted_with_time_since":"5 months ago"},{"_class":"course_review","id":105406008,"content":"Great pace , detailed without being boring","rating":5.0,"created":"2022-01-19T06:57:34-08:00","modified":"2022-01-20T15:08:51-08:00","user_modified":"2022-01-19T06:57:34-08:00","user":{"_class":"user","title":"Paul Haskell","name":"Paul","display_name":"Paul Haskell","image_50x50":"https://img-c.udemycdn.com/user/50x50/anonymous_3.png","initials":"PH","tracking_id":"-6B3li3vQtWaKTli-MN-xA","public_display_name":"Paul H."},"response":null,"content_html":"<p>Great pace , detailed without being boring</p>","created_formatted_with_time_since":"7 months ago"},{"_class":"course_review","id":105163698,"content":"Love the layout and how easy to follow along.","rating":5.0,"created":"2022-01-16T16:58:50-08:00","modified":"2022-01-18T15:02:01-08:00","user_modified":"2022-01-16T16:58:50-08:00","user":{"_class":"user","title":"Abigail Rodriguez","name":"Abigail","display_name":"Abigail Rodriguez","image_50x50":"https://img-c.udemycdn.com/user/50x50/anonymous_3.png","initials":"AR","tracking_id":"o8nBPTVfQHCeQpsHa_2fHw","public_display_name":"Abigail R."},"response":null,"content_html":"<p>Love the layout and how easy to follow along.</p>","created_formatted_with_time_since":"7 months ago"},{"_class":"course_review","id":97286040,"content":"Thanks Robin for the effort. I approve this course and is good for my learning. Each technique made me better at the drawing. Thank you very much and I wish you the best. Bye.","rating":5.0,"created":"2021-10-06T22:10:41-07:00","modified":"2021-10-07T16:07:23-07:00","user_modified":"2021-10-06T22:10:41-07:00","user":{"_class":"user","title":"Shadrach Samuel","name":"Shadrach","display_name":"Shadrach Samuel","image_50x50":"https://img-c.udemycdn.com/user/50x50/anonymous_3.png","initials":"SS","tracking_id":"K0nwkgQpRNe3chJImp8G_g","public_display_name":"Shadrach S."},"response":null,"content_html":"<p>Thanks Robin for the effort. I approve this course and is good for my learning. Each technique made me better at the drawing. Thank you very much and I wish you the best. Bye.</p>","created_formatted_with_time_since":"11 months ago"},{"_class":"course_review","id":97345286,"content":"I learned a lot of things that can help me with sketching going forward. Thank you very much","rating":5.0,"created":"2021-10-07T12:06:24-07:00","modified":"2021-10-08T16:07:58-07:00","user_modified":"2021-10-07T12:07:08-07:00","user":{"_class":"user","title":"Pamela M Marine","name":"Pamela M","display_name":"Pamela M Marine","image_50x50":"https://img-c.udemycdn.com/user/50x50/anonymous_3.png","initials":"PM","tracking_id":"--9PSGbQS76KSuCg-gDClw","public_display_name":"Pamela M M."},"response":null,"content_html":"<p>I learned a lot of things that can help me with sketching going forward. Thank you very much</p>","created_formatted_with_time_since":"11 months ago"}]}