{"count":814,"next":"https://www.udemy.com/api-2.0/courses/39292/reviews/?courseId=39292&fields%5Bcourse_review%5D=%40default%2Cresponse%2Ccontent_html%2Ccreated_formatted_with_time_since&fields%5Bcourse_review_response%5D=%40min%2Cuser%2Ccontent_html%2Ccreated_formatted_with_time_since&fields%5Buser%5D=%40min%2Cimage_50x50%2Cinitials%2Cpublic_display_name%2Ctracking_id&is_text_review=1&ordering=course_review_score__rank%2C-created&page=2","previous":null,"results":[{"_class":"course_review","id":120646396,"content":"It is a very good training. This is also the 1st training, that I've completed 100%","rating":5.0,"created":"2022-08-07T19:44:50-07:00","modified":"2022-08-08T16:09:17-07:00","user_modified":"2022-08-07T19:45:11-07:00","user":{"_class":"user","title":"Jayadevan Prabhakaran","name":"Jayadevan","display_name":"Jayadevan Prabhakaran","image_50x50":"https://img-c.udemycdn.com/user/50x50/anonymous_3.png","initials":"JP","tracking_id":"g6cA1h0QT0-UVlQA2QBjCg","public_display_name":"Jayadevan P."},"response":null,"content_html":"<p>It is a very good training. This is also the 1st training, that I've completed 100%</p>","created_formatted_with_time_since":"3 weeks ago"},{"_class":"course_review","id":119216978,"content":"its really awesome i just loved and enjoyed every class its really fun","rating":5.0,"created":"2022-07-20T07:34:41-07:00","modified":"2022-07-22T16:17:06-07:00","user_modified":"2022-07-20T07:35:45-07:00","user":{"_class":"user","title":"Deepikaa.N","name":"Deepikaa.N","display_name":"Deepikaa.N","image_50x50":"https://img-c.udemycdn.com/user/50x50/anonymous_3.png","initials":"D","tracking_id":"4_6SKZMfTWGHus1F0hy_vw","public_display_name":"Deepikaa.N"},"response":null,"content_html":"<p>its really awesome i just loved and enjoyed every class its really fun</p>","created_formatted_with_time_since":"a month ago"},{"_class":"course_review","id":117843274,"content":"Love this flash fill and the ease with which it was explained is amazing. The function was made so interesting while learning. Now I am loving this function.","rating":5.0,"created":"2022-07-03T01:50:55-07:00","modified":"2022-07-05T16:07:11-07:00","user_modified":"2022-07-03T01:51:57-07:00","user":{"_class":"user","title":"Debaroti","name":"Debaroti","display_name":"Debaroti","image_50x50":"https://img-c.udemycdn.com/user/50x50/anonymous_3.png","initials":"D","tracking_id":"5jLsBy4wTeet0JcAJIja3Q","public_display_name":"Debaroti"},"response":null,"content_html":"<p>Love this flash fill and the ease with which it was explained is amazing. The function was made so interesting while learning. Now I am loving this function.</p>","created_formatted_with_time_since":"2 months ago"},{"_class":"course_review","id":115030598,"content":"The course is good and it is what i expected.\nthough i couldn't open the working files","rating":4.0,"created":"2022-05-27T07:02:19-07:00","modified":"2022-05-29T16:05:19-07:00","user_modified":"2022-05-27T07:04:23-07:00","user":{"_class":"user","title":"Attah Dickson Jonah","name":"Attah Dickson","display_name":"Attah Dickson Jonah","image_50x50":"https://img-c.udemycdn.com/user/50x50/anonymous_3.png","initials":"AJ","tracking_id":"VUXnJg5CRS6pebNYqd2eAg","public_display_name":"Attah Dickson J."},"response":null,"content_html":"<p>The course is good and it is what i expected.<br>though i couldn't open the working files</p>","created_formatted_with_time_since":"3 months ago"},{"_class":"course_review","id":112672450,"content":"Language choice would be a plus point if available . moreover , the practice files should be of different data and not the same data that trainer demonstrates in the course.","rating":3.5,"created":"2022-04-26T08:18:07-07:00","modified":"2022-04-27T15:14:01-07:00","user_modified":"2022-04-26T08:20:19-07:00","user":{"_class":"user","title":"Himanshu verma","name":"Himanshu","display_name":"Himanshu verma","image_50x50":"https://img-c.udemycdn.com/user/50x50/anonymous_3.png","initials":"HV","tracking_id":"gKixtaG2RjGEBWnhnYiVYA","public_display_name":"Himanshu V."},"response":null,"content_html":"<p>Language choice would be a plus point if available . moreover , the practice files should be of different data and not the same data that trainer demonstrates in the course.</p>","created_formatted_with_time_since":"4 months ago"},{"_class":"course_review","id":111513398,"content":"I see the content to be easy to understand. And this course has a decent pace. We have been working on Excel but this course truly helps us explore functions & more that would help us be time-efficient at work. I would recommend this training course to graduates who are about to start their careers & every employee who works on Excel but knows very little about its functionality.","rating":4.5,"created":"2022-04-09T11:36:38-07:00","modified":"2022-04-15T07:11:27-07:00","user_modified":"2022-04-15T07:11:27-07:00","user":{"_class":"user","title":"Shravya Githika Bondada","name":"Shravya Githika","display_name":"Shravya Githika Bondada","image_50x50":"https://img-c.udemycdn.com/user/50x50/anonymous_3.png","initials":"SB","tracking_id":"iua5aMIURGyVOQe_skj_dw","public_display_name":"Shravya Githika B."},"response":null,"content_html":"<p>I see the content to be easy to understand. And this course has a decent pace. We have been working on Excel but this course truly helps us explore functions & more that would help us be time-efficient at work. I would recommend this training course to graduates who are about to start their careers & every employee who works on Excel but knows very little about its functionality.</p>","created_formatted_with_time_since":"4 months ago"},{"_class":"course_review","id":120958150,"content":"Yes, I enjoy the way it is explained in the presentation.","rating":3.5,"created":"2022-08-11T07:12:16-07:00","modified":"2022-08-12T16:12:16-07:00","user_modified":"2022-08-11T07:14:42-07:00","user":{"_class":"user","title":"Vasko Stojanov","name":"Vasko","display_name":"Vasko Stojanov","image_50x50":"https://img-c.udemycdn.com/user/50x50/anonymous_3.png","initials":"VS","tracking_id":"IqfFrlkaSXWagL3b8gxZUA","public_display_name":"Vasko S."},"response":null,"content_html":"<p>Yes, I enjoy the way it is explained in the presentation.</p>","created_formatted_with_time_since":"3 weeks ago"},{"_class":"course_review","id":122351056,"content":"very lengthy videos, it could be small and more understandable.","rating":3.0,"created":"2022-08-29T09:55:23-07:00","modified":"2022-08-31T16:10:50-07:00","user_modified":"2022-08-29T09:56:24-07:00","user":{"_class":"user","title":"Tarannum","name":"Tarannum","display_name":"Tarannum","image_50x50":"https://img-c.udemycdn.com/user/50x50/anonymous_3.png","initials":"T","tracking_id":"SfGfgfHTTxGsy2cNR69i_g","public_display_name":"Tarannum"},"response":null,"content_html":"<p>very lengthy videos, it could be small and more understandable.</p>","created_formatted_with_time_since":"4 days ago"},{"_class":"course_review","id":116688528,"content":"I can learn everything about exel thanks..............","rating":5.0,"created":"2022-06-18T07:18:37-07:00","modified":"2022-06-20T16:08:16-07:00","user_modified":"2022-06-18T07:19:23-07:00","user":{"_class":"user","title":"Kapildev Mandal","name":"Kapildev","display_name":"Kapildev Mandal","image_50x50":"https://img-c.udemycdn.com/user/50x50/anonymous_3.png","initials":"KM","tracking_id":"yiDLzl05Sr6kV36GQ_Jtcw","public_display_name":"Kapildev M."},"response":null,"content_html":"<p>I can learn everything about exel thanks..............</p>","created_formatted_with_time_since":"2 months ago"},{"_class":"course_review","id":115733686,"content":"Not able to access resources.","rating":3.5,"created":"2022-06-06T04:17:34-07:00","modified":"2022-06-10T21:39:03-07:00","user_modified":"2022-06-10T21:39:03-07:00","user":{"_class":"user","title":"Preethi Suresh","name":"Preethi","display_name":"Preethi Suresh","image_50x50":"https://img-c.udemycdn.com/user/50x50/anonymous_3.png","initials":"PS","tracking_id":"X94Ha7N1RuKCelQs7P6ONA","public_display_name":"Preethi S."},"response":null,"content_html":"<p>Not able to access resources.</p>","created_formatted_with_time_since":"2 months ago"},{"_class":"course_review","id":113590252,"content":"Clear instructions, good knowledge and very easy to understand. Enjoying it so far and it’s given me a lot of new tips and tricks to work with excel. Amazing!","rating":5.0,"created":"2022-05-09T09:49:54-07:00","modified":"2022-05-10T16:08:39-07:00","user_modified":"2022-05-09T09:49:54-07:00","user":{"_class":"user","title":"Anshika Goyal","name":"Anshika","display_name":"Anshika Goyal","image_50x50":"https://img-c.udemycdn.com/user/50x50/anonymous_3.png","initials":"AG","tracking_id":"YdJB9KKDTeigVkwlwtnS1Q","public_display_name":"Anshika G."},"response":null,"content_html":"<p>Clear instructions, good knowledge and very easy to understand. Enjoying it so far and it’s given me a lot of new tips and tricks to work with excel. Amazing!</p>","created_formatted_with_time_since":"3 months ago"},{"_class":"course_review","id":116053018,"content":"Yes, really enjoying it so far","rating":5.0,"created":"2022-06-09T14:16:52-07:00","modified":"2022-06-20T12:42:59-07:00","user_modified":"2022-06-20T12:42:59-07:00","user":{"_class":"user","title":"James McEneaney","name":"James","display_name":"James McEneaney","image_50x50":"https://img-c.udemycdn.com/user/50x50/anonymous_3.png","initials":"JM","tracking_id":"ZAln3IWoRMyW4auy8aMeHw","public_display_name":"James M."},"response":null,"content_html":"<p>Yes, really enjoying it so far</p>","created_formatted_with_time_since":"2 months ago"}]}