{"count":570,"next":"https://www.udemy.com/api-2.0/courses/394676/reviews/?courseId=394676&fields%5Bcourse_review%5D=%40default%2Cresponse%2Ccontent_html%2Ccreated_formatted_with_time_since&fields%5Bcourse_review_response%5D=%40min%2Cuser%2Ccontent_html%2Ccreated_formatted_with_time_since&fields%5Buser%5D=%40min%2Cimage_50x50%2Cinitials%2Cpublic_display_name%2Ctracking_id&is_text_review=1&ordering=course_review_score__rank%2C-created&page=2","previous":null,"results":[{"_class":"course_review","id":121693318,"content":"Sometimes confusing but was able to clarify. Good job nonetheless.","rating":3.0,"created":"2022-08-21T14:29:16-07:00","modified":"2022-08-23T16:07:43-07:00","user_modified":"2022-08-21T14:29:57-07:00","user":{"_class":"user","title":"Asif Henry","name":"Asif","display_name":"Asif Henry","image_50x50":"https://img-b.udemycdn.com/user/50x50/anonymous_3.png","initials":"AH","tracking_id":"yhQPUW4_RiaeE9mrAr_7lA","public_display_name":"Asif H."},"response":null,"content_html":"<p>Sometimes confusing but was able to clarify. Good job nonetheless.</p>","created_formatted_with_time_since":"a week ago"},{"_class":"course_review","id":121070096,"content":"the course is specialized so that we learn ourselves deeply,simple and easy","rating":4.0,"created":"2022-08-12T18:04:38-07:00","modified":"2022-08-13T16:10:32-07:00","user_modified":"2022-08-12T18:05:50-07:00","user":{"_class":"user","title":"M.S.Swaroop","name":"M.S.Swaroop","display_name":"M.S.Swaroop","image_50x50":"https://img-b.udemycdn.com/user/50x50/anonymous_3.png","initials":"M","tracking_id":"DYJhP_oLTAK_bhp33Ao0jw","public_display_name":"M.S.Swaroop"},"response":null,"content_html":"<p>the course is specialized so that we learn ourselves deeply,simple and easy</p>","created_formatted_with_time_since":"2 weeks ago"},{"_class":"course_review","id":117325042,"content":"In depth concepts of python have been clearly explained. Good chemistry between student and instructor. Fantastic course. Completed every vid and had lot of fun","rating":5.0,"created":"2022-06-26T23:56:18-07:00","modified":"2022-06-27T16:08:00-07:00","user_modified":"2022-06-26T23:57:17-07:00","user":{"_class":"user","title":"Saurish Reddy","name":"Saurish","display_name":"Saurish Reddy","image_50x50":"https://img-b.udemycdn.com/user/50x50/anonymous_3.png","initials":"SR","tracking_id":"KY92WKp1RBOhgmakdMTwyg","public_display_name":"Saurish R."},"response":null,"content_html":"<p>In depth concepts of python have been clearly explained. Good chemistry between student and instructor. Fantastic course. Completed every vid and had lot of fun</p>","created_formatted_with_time_since":"2 months ago"},{"_class":"course_review","id":115373418,"content":"i can't say as i have not taken that many classes yet but so far it is good.\nedited( so yeah it was a journey for me many things happen but i am glad they did and also grateful to the person who is guiding me and thanks udemy for these courses really appreciate it !!!)","rating":5.0,"created":"2022-06-01T01:59:01-07:00","modified":"2022-06-21T06:30:28-07:00","user_modified":"2022-06-21T06:30:28-07:00","user":{"_class":"user","title":"Shiristi","name":"Shiristi","display_name":"Shiristi","image_50x50":"https://img-b.udemycdn.com/user/50x50/anonymous_3.png","initials":"S","tracking_id":"5qYS82GqTTmoelCRVUZN4w","public_display_name":"Shiristi"},"response":null,"content_html":"<p>i can't say as i have not taken that many classes yet but so far it is good.<br>edited( so yeah it was a journey for me many things happen but i am glad they did and also grateful to the person who is guiding me and thanks udemy for these courses really appreciate it !!!)</p>","created_formatted_with_time_since":"3 months ago"},{"_class":"course_review","id":112278244,"content":"teacher is good and direct, though not prompt at responding to questions and enquiries","rating":4.0,"created":"2022-04-20T12:57:31-07:00","modified":"2022-06-28T10:17:51-07:00","user_modified":"2022-06-28T10:17:51-07:00","user":{"_class":"user","title":"Ejeshi Godsgift","name":"Ejeshi","display_name":"Ejeshi Godsgift","image_50x50":"https://img-b.udemycdn.com/user/50x50/anonymous_3.png","initials":"EG","tracking_id":"bTzR44ycTf-OLXg0djPekA","public_display_name":"Ejeshi G."},"response":null,"content_html":"<p>teacher is good and direct, though not prompt at responding to questions and enquiries</p>","created_formatted_with_time_since":"4 months ago"},{"_class":"course_review","id":116203786,"content":"The contents are good for getting a good idea about Python. But it's little bit outdated. Instructor is good. But the sound quality can be improved. Please try to update the content. The course is almost 5 - 6 years old. So, think before purchasing.","rating":3.0,"created":"2022-06-12T04:03:57-07:00","modified":"2022-06-14T16:09:31-07:00","user_modified":"2022-06-12T04:07:20-07:00","user":{"_class":"user","title":"Sreelakshmi Anilkumar","name":"Sreelakshmi","display_name":"Sreelakshmi Anilkumar","image_50x50":"https://img-b.udemycdn.com/user/50x50/anonymous_3.png","initials":"SA","tracking_id":"9V67D7djTxytxgRISv247g","public_display_name":"Sreelakshmi A."},"response":null,"content_html":"<p>The contents are good for getting a good idea about Python. But it's little bit outdated. Instructor is good. But the sound quality can be improved. Please try to update the content. The course is almost 5 - 6 years old. So, think before purchasing.</p>","created_formatted_with_time_since":"2 months ago"},{"_class":"course_review","id":120660704,"content":"I took this course with Python 3.10 utilizing PyCharm as an IDE, so some of the information is a little dated.  With that being said, good basics are covered to where figuring out your solution isn't anything too difficult.  This course was definitely incredibly helpful in taking a bigger plunge into Python.","rating":3.5,"created":"2022-08-08T00:29:47-07:00","modified":"2022-08-09T16:09:48-07:00","user_modified":"2022-08-08T00:31:41-07:00","user":{"_class":"user","title":"Matthew E Gunn","name":"Matthew E","display_name":"Matthew E Gunn","image_50x50":"https://img-b.udemycdn.com/user/50x50/anonymous_3.png","initials":"MG","tracking_id":"4vccng6YQmmCcKqQV53JPg","public_display_name":"Matthew E G."},"response":null,"content_html":"<p>I took this course with Python 3.10 utilizing PyCharm as an IDE, so some of the information is a little dated.  With that being said, good basics are covered to where figuring out your solution isn't anything too difficult.  This course was definitely incredibly helpful in taking a bigger plunge into Python.</p>","created_formatted_with_time_since":"3 weeks ago"},{"_class":"course_review","id":121665038,"content":"not from the basic .many small but very irritating error comes and i was not able to find the solution in a week also . so it is not satisfying. educator should at least disscuss about all that possible errors.","rating":2.0,"created":"2022-08-21T04:23:44-07:00","modified":"2022-09-01T18:49:08-07:00","user_modified":"2022-09-01T18:49:08-07:00","user":{"_class":"user","title":"Shyam Kumar","name":"Shyam","display_name":"Shyam Kumar","image_50x50":"https://img-b.udemycdn.com/user/50x50/anonymous_3.png","initials":"SK","tracking_id":"rW4HiftARxqLbyxFuT-ZBA","public_display_name":"Shyam K."},"response":null,"content_html":"<p>not from the basic .many small but very irritating error comes and i was not able to find the solution in a week also . so it is not satisfying. educator should at least disscuss about all that possible errors.</p>","created_formatted_with_time_since":"a week ago"},{"_class":"course_review","id":112944250,"content":"Left mouse pointer on text frequently\nRecording setup picked up heavy key strikes making listening difficult.\n\nSolved problems well as they came.\nCovered many functions of python and seemed knowledgeable.","rating":3.5,"created":"2022-04-29T15:46:09-07:00","modified":"2022-04-30T16:05:23-07:00","user_modified":"2022-04-29T15:48:23-07:00","user":{"_class":"user","title":"Bill Reichert","name":"Bill","display_name":"Bill Reichert","image_50x50":"https://img-b.udemycdn.com/user/50x50/anonymous_3.png","initials":"BR","tracking_id":"feRUgiq2SdWrKxn_vbUpLQ","public_display_name":"Bill R."},"response":null,"content_html":"<p>Left mouse pointer on text frequently<br>Recording setup picked up heavy key strikes making listening difficult.</p>\n\n<p>Solved problems well as they came.<br>Covered many functions of python and seemed knowledgeable.</p>","created_formatted_with_time_since":"4 months ago"},{"_class":"course_review","id":117853574,"content":"I am still making my way through the course. However, I like the structure and the pace as well as the pdf exercises. I was learning by watching youtube but it is nice having a structured lesson that gradually progresses in difficulty. It's also nice having a certificate as a way to validate what I've learned to others.","rating":5.0,"created":"2022-07-03T06:08:01-07:00","modified":"2022-07-20T13:31:26-07:00","user_modified":"2022-07-20T13:31:26-07:00","user":{"_class":"user","title":"Todd Gustafson","name":"Todd","display_name":"Todd Gustafson","image_50x50":"https://img-b.udemycdn.com/user/50x50/anonymous_3.png","initials":"TG","tracking_id":"HFEsgYeyTrmBlRCwP1pCnw","public_display_name":"Todd G."},"response":null,"content_html":"<p>I am still making my way through the course. However, I like the structure and the pace as well as the pdf exercises. I was learning by watching youtube but it is nice having a structured lesson that gradually progresses in difficulty. It's also nice having a certificate as a way to validate what I've learned to others.</p>","created_formatted_with_time_since":"2 months ago"},{"_class":"course_review","id":119497912,"content":"As this course is old now so the codes we take from websites are not there as the websites are updated so please update this course.","rating":4.5,"created":"2022-07-24T08:39:22-07:00","modified":"2022-08-08T08:31:33-07:00","user_modified":"2022-08-08T08:31:33-07:00","user":{"_class":"user","title":"Rahul The All Rounder","name":"Rahul","display_name":"Rahul The All Rounder","image_50x50":"https://img-b.udemycdn.com/user/50x50/anonymous_3.png","initials":"RT","tracking_id":"GHIbsttXTL2jVmyB-lohvA","public_display_name":"Rahul T."},"response":null,"content_html":"<p>As this course is old now so the codes we take from websites are not there as the websites are updated so please update this course.</p>","created_formatted_with_time_since":"a month ago"},{"_class":"course_review","id":119370966,"content":"The course was amazing . Learned a lot new things.","rating":4.5,"created":"2022-07-22T01:59:02-07:00","modified":"2022-07-23T16:05:16-07:00","user_modified":"2022-07-22T01:59:28-07:00","user":{"_class":"user","title":"Ritesh Amar Sahu","name":"Ritesh Amar","display_name":"Ritesh Amar Sahu","image_50x50":"https://img-b.udemycdn.com/user/50x50/anonymous_3.png","initials":"RS","tracking_id":"4S_Nm86HSY2oPqyhrLR83Q","public_display_name":"Ritesh Amar S."},"response":null,"content_html":"<p>The course was amazing . Learned a lot new things.</p>","created_formatted_with_time_since":"a month ago"}]}