{
  "count": 2347,
  "next": "https://www.udemy.com/api-2.0/courses/396876/reviews/?courseId=396876&fields%5Bcourse_review%5D=%40default%2Cresponse%2Ccontent_html%2Ccreated_formatted_with_time_since&fields%5Bcourse_review_response%5D=%40min%2Cuser%2Ccontent_html%2Ccreated_formatted_with_time_since&fields%5Buser%5D=%40min%2Cimage_50x50%2Cinitials%2Cpublic_display_name%2Ctracking_id&is_text_review=1&ordering=course_review_score__rank%2C-created&page=2",
  "previous": null,
  "results": [
    {
      "_class": "course_review",
      "id": 121048250,
      "content": "His voice in each video can either be audible or barely audible. If it was consistent then it would be fine, but I have to keep adjusting the volume.",
      "rating": 2.5,
      "created": "2022-08-12T09:47:32-07:00",
      "modified": "2022-08-13T16:10:33-07:00",
      "user_modified": "2022-08-12T09:48:50-07:00",
      "user": {
        "_class": "user",
        "title": "Bryan Pham",
        "name": "Bryan",
        "display_name": "Bryan Pham",
        "image_50x50": "https://img-c.udemycdn.com/user/50x50/anonymous_3.png",
        "initials": "BP",
        "tracking_id": "rI2Zf6OYQJaxfivUHmWwOQ",
        "public_display_name": "Bryan P."
      },
      "response": null,
      "content_html": "<p>His voice in each video can either be audible or barely audible. If it was consistent then it would be fine, but I have to keep adjusting the volume.</p>",
      "created_formatted_with_time_since": "3 weeks ago"
    },
    {
      "_class": "course_review",
      "id": 120945340,
      "content": "I found the course to be amazing, the instructor was clear and easy to follow. The instructions were easily available and covered almost every thing I could have asked for. The Q&A section was helpful as well. One negative aspect was that it did not exhaust all the topic especially from the data visualization were matplotlib did not even have a section.",
      "rating": 4.0,
      "created": "2022-08-11T04:10:15-07:00",
      "modified": "2022-08-12T16:06:45-07:00",
      "user_modified": "2022-08-11T04:13:21-07:00",
      "user": {
        "_class": "user",
        "title": "Redon Deliu",
        "name": "Redon",
        "display_name": "Redon Deliu",
        "image_50x50": "https://img-c.udemycdn.com/user/50x50/anonymous_3.png",
        "initials": "RD",
        "tracking_id": "G4CWF0aUSduAYDM11bJynQ",
        "public_display_name": "Redon D."
      },
      "response": null,
      "content_html": "<p>I found the course to be amazing, the instructor was clear and easy to follow. The instructions were easily available and covered almost every thing I could have asked for. The Q&A section was helpful as well. One negative aspect was that it did not exhaust all the topic especially from the data visualization were matplotlib did not even have a section.</p>",
      "created_formatted_with_time_since": "3 weeks ago"
    },
    {
      "_class": "course_review",
      "id": 116082176,
      "content": "course is good but please update these course because many of the  code which is being used has been updated and some of the code doesn't work because of updating please mention these kind of thing while purchase because if you provide a updated course with 500 i thing you sale will boost up may be you ca raise price around 1500 rs  we can spend that much of money for knowledge",
      "rating": 5.0,
      "created": "2022-06-10T01:19:13-07:00",
      "modified": "2022-07-06T09:42:24-07:00",
      "user_modified": "2022-07-06T09:42:24-07:00",
      "user": {
        "_class": "user",
        "title": "Tanishq",
        "name": "Tanishq",
        "display_name": "Tanishq",
        "image_50x50": "https://img-c.udemycdn.com/user/50x50/anonymous_3.png",
        "initials": "T",
        "tracking_id": "rxgpugN6RueABlUAywE1hQ",
        "public_display_name": "Tanishq"
      },
      "response": null,
      "content_html": "<p>course is good but please update these course because many of the  code which is being used has been updated and some of the code doesn't work because of updating please mention these kind of thing while purchase because if you provide a updated course with 500 i thing you sale will boost up may be you ca raise price around 1500 rs  we can spend that much of money for knowledge</p>",
      "created_formatted_with_time_since": "2 months ago"
    },
    {
      "_class": "course_review",
      "id": 115296680,
      "content": "Instructor was very clear and knowledgeable. I was able to understand all the concepts and apply them. The course was a little outdated but I was still able to get almost everything to work.",
      "rating": 5.0,
      "created": "2022-05-31T05:23:17-07:00",
      "modified": "2022-06-02T21:12:31-07:00",
      "user_modified": "2022-05-31T05:24:52-07:00",
      "user": {
        "_class": "user",
        "title": "Jerell Smith",
        "name": "Jerell",
        "display_name": "Jerell Smith",
        "image_50x50": "https://img-c.udemycdn.com/user/50x50/anonymous_3.png",
        "initials": "JS",
        "tracking_id": "aWZRSGHDRwaqMfhI9xpo3Q",
        "public_display_name": "Jerell S."
      },
      "response": null,
      "content_html": "<p>Instructor was very clear and knowledgeable. I was able to understand all the concepts and apply them. The course was a little outdated but I was still able to get almost everything to work.</p>",
      "created_formatted_with_time_since": "3 months ago"
    },
    {
      "_class": "course_review",
      "id": 111249980,
      "content": "Really enjoyed the course, being a total beginner it really set a good foundation.",
      "rating": 4.5,
      "created": "2022-04-05T22:58:50-07:00",
      "modified": "2022-04-06T16:07:32-07:00",
      "user_modified": "2022-04-05T22:59:49-07:00",
      "user": {
        "_class": "user",
        "title": "Sechaba Magatikele",
        "name": "Sechaba",
        "display_name": "Sechaba Magatikele",
        "image_50x50": "https://img-c.udemycdn.com/user/50x50/anonymous_3.png",
        "initials": "SM",
        "tracking_id": "XvsLG_6KRW2vr-SnWyhWsQ",
        "public_display_name": "Sechaba M."
      },
      "response": null,
      "content_html": "<p>Really enjoyed the course, being a total beginner it really set a good foundation.</p>",
      "created_formatted_with_time_since": "4 months ago"
    },
    {
      "_class": "course_review",
      "id": 120160382,
      "content": "Felt like many code parts / concepts were skimmed over with no explanation whatsoever - I understand that many concepts were previously explained or encouraged to further explore by yourself, however some code parts should've been atleast explained to some degree. Big fan of Jose in general from this other courses, I think he's a great tutor",
      "rating": 2.0,
      "created": "2022-08-01T12:10:05-07:00",
      "modified": "2022-08-02T16:09:50-07:00",
      "user_modified": "2022-08-01T12:11:38-07:00",
      "user": {
        "_class": "user",
        "title": "Mouayad Masalkhi",
        "name": "Mouayad",
        "display_name": "Mouayad Masalkhi",
        "image_50x50": "https://img-c.udemycdn.com/user/50x50/anonymous_3.png",
        "initials": "MM",
        "tracking_id": "mG5a9a_KQMmuTZrubemGiw",
        "public_display_name": "Mouayad M."
      },
      "response": null,
      "content_html": "<p>Felt like many code parts / concepts were skimmed over with no explanation whatsoever - I understand that many concepts were previously explained or encouraged to further explore by yourself, however some code parts should've been atleast explained to some degree. Big fan of Jose in general from this other courses, I think he's a great tutor</p>",
      "created_formatted_with_time_since": "a month ago"
    },
    {
      "_class": "course_review",
      "id": 120823346,
      "content": "Awesome teacher! I'm enjoying the presented course material and learning a lot. Thank you Jose !!!!!",
      "rating": 5.0,
      "created": "2022-08-09T17:29:38-07:00",
      "modified": "2022-08-27T11:21:30-07:00",
      "user_modified": "2022-08-27T11:21:30-07:00",
      "user": {
        "_class": "user",
        "title": "Justin Mabiala",
        "name": "Justin",
        "display_name": "Justin Mabiala",
        "image_50x50": "https://img-c.udemycdn.com/user/50x50/anonymous_3.png",
        "initials": "JM",
        "tracking_id": "OMxlwNMBQx6WR83GoHIjrQ",
        "public_display_name": "Justin M."
      },
      "response": null,
      "content_html": "<p>Awesome teacher! I'm enjoying the presented course material and learning a lot. Thank you Jose !!!!!</p>",
      "created_formatted_with_time_since": "3 weeks ago"
    },
    {
      "_class": "course_review",
      "id": 119986350,
      "content": "I haven't  even finished the course actually, but I must commend its so so amazing and its worth it.",
      "rating": 5.0,
      "created": "2022-07-29T21:07:13-07:00",
      "modified": "2022-08-11T15:23:43-07:00",
      "user_modified": "2022-08-11T15:23:43-07:00",
      "user": {
        "_class": "user",
        "title": "Ferdinand Imeka",
        "name": "Ferdinand",
        "display_name": "Ferdinand Imeka",
        "image_50x50": "https://img-c.udemycdn.com/user/50x50/anonymous_3.png",
        "initials": "FI",
        "tracking_id": "6biwsihwTvi6eqTM_dD8_Q",
        "public_display_name": "Ferdinand I."
      },
      "response": null,
      "content_html": "<p>I haven't  even finished the course actually, but I must commend its so so amazing and its worth it.</p>",
      "created_formatted_with_time_since": "a month ago"
    },
    {
      "_class": "course_review",
      "id": 114392712,
      "content": "Very dry lectures, he talks about code without explaining what each means. Plus a lot of the code is out of date and invalid. There are also loads of typos in the Jupyter Notebook that just make the course seem sloppy. Would definitely not recommend buying this one in 2022.",
      "rating": 1.0,
      "created": "2022-05-19T14:34:20-07:00",
      "modified": "2022-07-08T14:13:39-07:00",
      "user_modified": "2022-07-08T14:13:39-07:00",
      "user": {
        "_class": "user",
        "title": "Nathan Kwan",
        "name": "Nathan",
        "display_name": "Nathan Kwan",
        "image_50x50": "https://img-c.udemycdn.com/user/50x50/anonymous_3.png",
        "initials": "NK",
        "tracking_id": "QlUFF_xLTXmhdy7BZtfilw",
        "public_display_name": "Nathan K."
      },
      "response": null,
      "content_html": "<p>Very dry lectures, he talks about code without explaining what each means. Plus a lot of the code is out of date and invalid. There are also loads of typos in the Jupyter Notebook that just make the course seem sloppy. Would definitely not recommend buying this one in 2022.</p>",
      "created_formatted_with_time_since": "3 months ago"
    },
    {
      "_class": "course_review",
      "id": 114770042,
      "content": "Lots of codes relate to Python2 and it has been very difficult to search constantly search for the replacement for the deprecated commands",
      "rating": 3.0,
      "created": "2022-05-24T11:53:53-07:00",
      "modified": "2022-05-26T16:08:47-07:00",
      "user_modified": "2022-05-24T11:54:30-07:00",
      "user": {
        "_class": "user",
        "title": "Bhuvana Raghuraman",
        "name": "Bhuvana",
        "display_name": "Bhuvana Raghuraman",
        "image_50x50": "https://img-c.udemycdn.com/user/50x50/anonymous_3.png",
        "initials": "BR",
        "tracking_id": "ifk_utkJSO6EcuMVrsWO4g",
        "public_display_name": "Bhuvana R."
      },
      "response": null,
      "content_html": "<p>Lots of codes relate to Python2 and it has been very difficult to search constantly search for the replacement for the deprecated commands</p>",
      "created_formatted_with_time_since": "3 months ago"
    },
    {
      "_class": "course_review",
      "id": 115449950,
      "content": "many of the syntax are old...may renew them :D",
      "rating": 4.0,
      "created": "2022-06-01T23:24:38-07:00",
      "modified": "2022-06-03T16:07:46-07:00",
      "user_modified": "2022-06-01T23:25:06-07:00",
      "user": {
        "_class": "user",
        "title": "Abraham Baldo",
        "name": "Abraham",
        "display_name": "Abraham Baldo",
        "image_50x50": "https://img-c.udemycdn.com/user/50x50/190730640_184e_2.jpg",
        "initials": "AB",
        "tracking_id": "51eEaFwoRVuuOWwVNvje_Q",
        "public_display_name": "Abraham B."
      },
      "response": null,
      "content_html": "<p>many of the syntax are old...may renew them :D</p>",
      "created_formatted_with_time_since": "3 months ago"
    },
    {
      "_class": "course_review",
      "id": 112115418,
      "content": "Yes, courses broken down in small digestible videos, easy to follow along",
      "rating": 5.0,
      "created": "2022-04-18T16:20:52-07:00",
      "modified": "2022-05-06T11:31:10-07:00",
      "user_modified": "2022-05-06T11:31:10-07:00",
      "user": {
        "_class": "user",
        "title": "Ilaria Bossi",
        "name": "Ilaria",
        "display_name": "Ilaria Bossi",
        "image_50x50": "https://img-c.udemycdn.com/user/50x50/anonymous_3.png",
        "initials": "IB",
        "tracking_id": "z2LF4e9MRL6G9L3JooAkZg",
        "public_display_name": "Ilaria B."
      },
      "response": null,
      "content_html": "<p>Yes, courses broken down in small digestible videos, easy to follow along</p>",
      "created_formatted_with_time_since": "4 months ago"
    }
  ]
}
