{"count":224,"next":"https://www.udemy.com/api-2.0/courses/426196/reviews/?courseId=426196&fields%5Bcourse_review%5D=%40default%2Cresponse%2Ccontent_html%2Ccreated_formatted_with_time_since&fields%5Bcourse_review_response%5D=%40min%2Cuser%2Ccontent_html%2Ccreated_formatted_with_time_since&fields%5Buser%5D=%40min%2Cimage_50x50%2Cinitials%2Cpublic_display_name%2Ctracking_id&is_text_review=1&ordering=course_review_score__rank%2C-created&page=2","previous":null,"results":[{"_class":"course_review","id":119687382,"content":"The course is a good match for me as it has a very clear structure, the instructor made a great presentation in the Introduction part about the course and about the knowledge you can achieve after finishing all the lessons. I also appreciate the fact that the instructor mentioned which parts of the course will be more interesting and that he recommended how much to study per day.","rating":5.0,"created":"2022-07-26T11:42:47-07:00","modified":"2022-07-27T16:18:04-07:00","user_modified":"2022-07-26T11:50:41-07:00","user":{"_class":"user","title":"Rioana Andra","name":"Rioana","display_name":"Rioana Andra","image_50x50":"https://img-c.udemycdn.com/user/50x50/anonymous_3.png","initials":"RA","tracking_id":"tYdu-gZHSAGaZPZoZIb3TQ","public_display_name":"Rioana A."},"response":{"_class":"course_review_response","id":9953098,"content":"Thanks! I'm glad you appreciate these things! If you have any questions feel free to ask :)","created":"2022-07-28T04:57:55-07:00","modified":"2022-07-28T04:57:55-07:00","user":{"_class":"user","title":"Arkadiusz Włodarczyk","name":"Arkadiusz","display_name":"Arkadiusz Włodarczyk","image_50x50":"https://img-c.udemycdn.com/user/50x50/621716_0514_3.jpg","initials":"AW","tracking_id":"Uh_FS56bTdGWRBs7gkm-MQ","public_display_name":"Arkadiusz W."},"content_html":"<p>Thanks! I'm glad you appreciate these things! If you have any questions feel free to ask :)</p>","created_formatted_with_time_since":"a month ago"},"content_html":"<p>The course is a good match for me as it has a very clear structure, the instructor made a great presentation in the Introduction part about the course and about the knowledge you can achieve after finishing all the lessons. I also appreciate the fact that the instructor mentioned which parts of the course will be more interesting and that he recommended how much to study per day.</p>","created_formatted_with_time_since":"a month ago"},{"_class":"course_review","id":118280626,"content":"Nice","rating":4.5,"created":"2022-07-08T04:21:56-07:00","modified":"2022-07-20T05:19:37-07:00","user_modified":"2022-07-20T05:19:37-07:00","user":{"_class":"user","title":"","name":"","display_name":"Sravan R","image_50x50":"https://img-c.udemycdn.com/user/50x50/anonymous_3.png","initials":"","tracking_id":"-0cu9gFtTsKWJcRcxeNTaw","public_display_name":"Udemy User"},"response":null,"content_html":"<p>Nice</p>","created_formatted_with_time_since":"a month ago"},{"_class":"course_review","id":112806068,"content":"Absolutely beginner friendly course. Unfortunately some things are a bit outdated but a little bit of researching solves everything so it wasn't big of a problem. Other than that, good course!","rating":5.0,"created":"2022-04-28T00:26:59-07:00","modified":"2022-05-25T12:46:50-07:00","user_modified":"2022-05-25T12:46:50-07:00","user":{"_class":"user","title":"Anamari Romih","name":"Anamari","display_name":"Anamari Romih","image_50x50":"https://img-c.udemycdn.com/user/50x50/anonymous_3.png","initials":"AR","tracking_id":"4BBrtUzIRMOos13Ygm_LQg","public_display_name":"Anamari R."},"response":null,"content_html":"<p>Absolutely beginner friendly course. Unfortunately some things are a bit outdated but a little bit of researching solves everything so it wasn't big of a problem. Other than that, good course!</p>","created_formatted_with_time_since":"4 months ago"},{"_class":"course_review","id":109584344,"content":"Yes. The only hard part was I am working on a Mac and everything was ran though for the netbeans download on Windows It took me a minute to figure that out.","rating":4.0,"created":"2022-03-14T09:46:08-07:00","modified":"2022-03-15T16:05:32-07:00","user_modified":"2022-03-14T09:46:45-07:00","user":{"_class":"user","title":"Gary Wilson","name":"Gary","display_name":"Gary Wilson","image_50x50":"https://img-c.udemycdn.com/user/50x50/anonymous_3.png","initials":"GW","tracking_id":"PWFYIfGERsGlVudJBOYJHw","public_display_name":"Gary W."},"response":null,"content_html":"<p>Yes. The only hard part was I am working on a Mac and everything was ran though for the netbeans download on Windows It took me a minute to figure that out.</p>","created_formatted_with_time_since":"5 months ago"},{"_class":"course_review","id":108438830,"content":"Still a to learn about Java","rating":3.5,"created":"2022-02-26T22:35:29-08:00","modified":"2022-02-27T15:19:02-08:00","user_modified":"2022-02-26T22:36:45-08:00","user":{"_class":"user","title":"Carine de Jager","name":"Carine","display_name":"Carine de Jager","image_50x50":"https://img-c.udemycdn.com/user/50x50/anonymous_3.png","initials":"CD","tracking_id":"i1_w4231RYaTGWVHZiEpdg","public_display_name":"Carine D."},"response":null,"content_html":"<p>Still a to learn about Java</p>","created_formatted_with_time_since":"6 months ago"},{"_class":"course_review","id":104069148,"content":"The instructor was very helpful and went into a lot of detail.","rating":5.0,"created":"2022-01-04T11:27:10-08:00","modified":"2022-01-05T15:08:46-08:00","user_modified":"2022-01-04T11:28:07-08:00","user":{"_class":"user","title":"Abelardo","name":"Abelardo","display_name":"Abelardo","image_50x50":"https://img-c.udemycdn.com/user/50x50/anonymous_3.png","initials":"A","tracking_id":"NSi50MWuTU2pxjQFiwaa5Q","public_display_name":"Abelardo"},"response":null,"content_html":"<p>The instructor was very helpful and went into a lot of detail.</p>","created_formatted_with_time_since":"8 months ago"},{"_class":"course_review","id":107303376,"content":"so far, i am enjoyng everything, and i am learning so much","rating":5.0,"created":"2022-02-11T04:50:16-08:00","modified":"2022-02-12T15:06:13-08:00","user_modified":"2022-02-11T04:50:50-08:00","user":{"_class":"user","title":"Claudio Bernardino","name":"Claudio","display_name":"Claudio Bernardino","image_50x50":"https://img-c.udemycdn.com/user/50x50/anonymous_3.png","initials":"CB","tracking_id":"9nulrpV8QaKnXbEPIVZjag","public_display_name":"Claudio B."},"response":{"_class":"course_review_response","id":9125896,"content":"I'm glad you do! In case of any questions feel free to ask :)","created":"2022-02-14T02:32:07-08:00","modified":"2022-02-14T02:32:07-08:00","user":{"_class":"user","title":"Arkadiusz Włodarczyk","name":"Arkadiusz","display_name":"Arkadiusz Włodarczyk","image_50x50":"https://img-c.udemycdn.com/user/50x50/621716_0514_3.jpg","initials":"AW","tracking_id":"Uh_FS56bTdGWRBs7gkm-MQ","public_display_name":"Arkadiusz W."},"content_html":"<p>I'm glad you do! In case of any questions feel free to ask :)</p>","created_formatted_with_time_since":"6 months ago"},"content_html":"<p>so far, i am enjoyng everything, and i am learning so much</p>","created_formatted_with_time_since":"6 months ago"},{"_class":"course_review","id":122294280,"content":"Well explained.","rating":4.5,"created":"2022-08-28T21:55:32-07:00","modified":"2022-08-29T16:23:15-07:00","user_modified":"2022-08-28T21:55:41-07:00","user":{"_class":"user","title":"Ruchi","name":"Ruchi","display_name":"Ruchi","image_50x50":"https://img-c.udemycdn.com/user/50x50/anonymous_3.png","initials":"R","tracking_id":"i8ilmD1DRCeUUtnwd9Fl_w","public_display_name":"Ruchi"},"response":null,"content_html":"<p>Well explained.</p>","created_formatted_with_time_since":"4 days ago"},{"_class":"course_review","id":96721194,"content":"If you have previous experience on other languages and if you want to jump start to javascript, this course is for you indeed. I benefit so much from the couse. Some of the ideas and tricks (like using prototypes in Dates) is very good. This course may be extended a little by giving an example of binding with a server side language, or pagination example. Many thanks to Arkadiusz.","rating":5.0,"created":"2021-09-29T15:46:08-07:00","modified":"2021-09-30T16:04:33-07:00","user_modified":"2021-09-29T15:51:50-07:00","user":{"_class":"user","title":"Berk Akar","name":"Berk","display_name":"Berk Akar","image_50x50":"https://img-c.udemycdn.com/user/50x50/anonymous_3.png","initials":"BA","tracking_id":"j_gJhl6iTxCK8UcUt0ZQDw","public_display_name":"Berk A."},"response":null,"content_html":"<p>If you have previous experience on other languages and if you want to jump start to javascript, this course is for you indeed. I benefit so much from the couse. Some of the ideas and tricks (like using prototypes in Dates) is very good. This course may be extended a little by giving an example of binding with a server side language, or pagination example. Many thanks to Arkadiusz.</p>","created_formatted_with_time_since":"11 months ago"},{"_class":"course_review","id":109299206,"content":"Nice","rating":5.0,"created":"2022-03-10T05:11:13-08:00","modified":"2022-03-11T15:04:49-08:00","user_modified":"2022-03-10T05:11:22-08:00","user":{"_class":"user","title":"Mamathashree M","name":"Mamathashree","display_name":"Mamathashree M","image_50x50":"https://img-c.udemycdn.com/user/50x50/anonymous_3.png","initials":"MM","tracking_id":"3HtTpiK_RR-AF5QHs9P3sA","public_display_name":"Mamathashree M."},"response":null,"content_html":"<p>Nice</p>","created_formatted_with_time_since":"5 months ago"},{"_class":"course_review","id":120565534,"content":"good","rating":5.0,"created":"2022-08-06T06:48:20-07:00","modified":"2022-08-07T16:07:56-07:00","user_modified":"2022-08-06T06:48:35-07:00","user":{"_class":"user","title":"Wil Daniels","name":"Wil","display_name":"Wil Daniels","image_50x50":"https://img-c.udemycdn.com/user/50x50/anonymous_3.png","initials":"WD","tracking_id":"zpPPKINmQIicLSt_DnpwiQ","public_display_name":"Wil D."},"response":null,"content_html":"<p>good</p>","created_formatted_with_time_since":"3 weeks ago"},{"_class":"course_review","id":116061740,"content":".\n.","rating":5.0,"created":"2022-06-09T18:08:16-07:00","modified":"2022-06-10T16:07:06-07:00","user_modified":"2022-06-09T18:08:25-07:00","user":{"_class":"user","title":"","name":"","display_name":"Gutha Saikrishna","image_50x50":"https://img-c.udemycdn.com/user/50x50/anonymous_3.png","initials":"","tracking_id":"dWQlvKhAQD23G-XMR6Sw6g","public_display_name":"Udemy User"},"response":null,"content_html":"<p>.<br>.</p>","created_formatted_with_time_since":"2 months ago"}]}