{"count":2877,"next":"https://www.udemy.com/api-2.0/courses/446134/reviews/?courseId=446134&fields%5Bcourse_review%5D=%40default%2Cresponse%2Ccontent_html%2Ccreated_formatted_with_time_since&fields%5Bcourse_review_response%5D=%40min%2Cuser%2Ccontent_html%2Ccreated_formatted_with_time_since&fields%5Buser%5D=%40min%2Cimage_50x50%2Cinitials%2Cpublic_display_name%2Ctracking_id&is_text_review=1&ordering=course_review_score__rank%2C-created&page=2","previous":null,"results":[{"_class":"course_review","id":116789994,"content":"I was looking for a front-end web development course and this course not only taught me how to develop websites, but also web design which is very valuable especially in case I would be freelancing one day. \nThere were only a couple things I struggled to make work (using PHP locally, and some code that was broken on my end), but I found workarounds in QA forums so it wasn't a big deal. \nSPOILER alert: Brad is a likeable fella. He will keep you motivated.","rating":5.0,"created":"2022-06-20T02:57:44-07:00","modified":"2022-06-21T16:07:20-07:00","user_modified":"2022-06-20T03:04:18-07:00","user":{"_class":"user","title":"Antonio Calero","name":"Antonio","display_name":"Antonio Calero","image_50x50":"https://img-c.udemycdn.com/user/50x50/anonymous_3.png","initials":"AC","tracking_id":"6ykf8VKNR86HLe6kcvKtwg","public_display_name":"Antonio C."},"response":null,"content_html":"<p>I was looking for a front-end web development course and this course not only taught me how to develop websites, but also web design which is very valuable especially in case I would be freelancing one day. <br>There were only a couple things I struggled to make work (using PHP locally, and some code that was broken on my end), but I found workarounds in QA forums so it wasn't a big deal. <br>SPOILER alert: Brad is a likeable fella. He will keep you motivated.</p>","created_formatted_with_time_since":"2 months ago"},{"_class":"course_review","id":115783240,"content":"Brad has been an excellent instructor. His understanding of the material and experience gives him the ability to present concepts and lessons in a personable way with boyish charm. My only criticism is his adherence to colour and favourite, instead of color and favorite.","rating":4.5,"created":"2022-06-06T15:22:55-07:00","modified":"2022-06-07T16:05:20-07:00","user_modified":"2022-06-06T15:26:05-07:00","user":{"_class":"user","title":"Val Patterson","name":"Val","display_name":"Val Patterson","image_50x50":"https://img-c.udemycdn.com/user/50x50/17629926_9372.jpg","initials":"VP","tracking_id":"lLgzTlecRn-PmmpX5f3eKg","public_display_name":"Val P."},"response":null,"content_html":"<p>Brad has been an excellent instructor. His understanding of the material and experience gives him the ability to present concepts and lessons in a personable way with boyish charm. My only criticism is his adherence to colour and favourite, instead of color and favorite.</p>","created_formatted_with_time_since":"2 months ago"},{"_class":"course_review","id":114965006,"content":"Originally, I took this course in order to help demysify and relearn some of the aspects used with converting a Design and completing the final Developement phase. In the past I found myself becomming complacent using tools like Dreamweaver and have eventually shied away from coding since the actual design and finished look is way more inspiring to me. However, I eventually realized that I really needed to better understand this process.\n\nIt is great that Brad has so much knowledge in the entire realm of Website building that he can actually teach it for 30+ hours! \n\nSince completing this course, I will definitely revisit from time to time (especially if I get stuck on a project!).\n\nThis is the most inclusive and \"all incompassing course\" that I have found so far regarding Website building and really provides a full picture of the entire process!","rating":5.0,"created":"2022-05-26T12:10:52-07:00","modified":"2022-07-25T02:37:20-07:00","user_modified":"2022-07-25T02:37:20-07:00","user":{"_class":"user","title":"Jeremy Kling","name":"Jeremy","display_name":"Jeremy Kling","image_50x50":"https://img-c.udemycdn.com/user/50x50/anonymous_3.png","initials":"JK","tracking_id":"DIPdXNdOSL2llGs767yNig","public_display_name":"Jeremy K."},"response":null,"content_html":"<p>Originally, I took this course in order to help demysify and relearn some of the aspects used with converting a Design and completing the final Developement phase. In the past I found myself becomming complacent using tools like Dreamweaver and have eventually shied away from coding since the actual design and finished look is way more inspiring to me. However, I eventually realized that I really needed to better understand this process.</p>\n\n<p>It is great that Brad has so much knowledge in the entire realm of Website building that he can actually teach it for 30+ hours! </p>\n\n<p>Since completing this course, I will definitely revisit from time to time (especially if I get stuck on a project!).</p>\n\n<p>This is the most inclusive and \"all incompassing course\" that I have found so far regarding Website building and really provides a full picture of the entire process!</p>","created_formatted_with_time_since":"3 months ago"},{"_class":"course_review","id":114292706,"content":"There were some interesting parts, the design and CSS topics were quite helpful, but overall the course didn't go in much depth concerning web development.","rating":3.0,"created":"2022-05-18T11:39:58-07:00","modified":"2022-05-19T16:06:41-07:00","user_modified":"2022-05-18T11:42:53-07:00","user":{"_class":"user","title":"Alzbeta Mozisova","name":"Alzbeta","display_name":"Alzbeta Mozisova","image_50x50":"https://img-c.udemycdn.com/user/50x50/anonymous_3.png","initials":"AM","tracking_id":"1RLf3QIuTn2m0ATn4t84Mg","public_display_name":"Alzbeta M."},"response":null,"content_html":"<p>There were some interesting parts, the design and CSS topics were quite helpful, but overall the course didn't go in much depth concerning web development.</p>","created_formatted_with_time_since":"3 months ago"},{"_class":"course_review","id":110590034,"content":"The course is really very amazing. I've learned a lot from this course and if anyone wants to learn about web designing and web development, I will definitely recommend them for this Brad Hussy's Ultimate Web Designer & Web Development course.","rating":5.0,"created":"2022-03-28T06:25:22-07:00","modified":"2022-03-29T16:10:45-07:00","user_modified":"2022-03-28T06:32:40-07:00","user":{"_class":"user","title":"Shubham Singh Panwar","name":"Shubham Singh","display_name":"Shubham Singh Panwar","image_50x50":"https://img-c.udemycdn.com/user/50x50/anonymous_3.png","initials":"SP","tracking_id":"u_lhPNiNQYS5wqiD5LzKUA","public_display_name":"Shubham Singh P."},"response":null,"content_html":"<p>The course is really very amazing. I've learned a lot from this course and if anyone wants to learn about web designing and web development, I will definitely recommend them for this Brad Hussy's Ultimate Web Designer & Web Development course.</p>","created_formatted_with_time_since":"5 months ago"},{"_class":"course_review","id":119898384,"content":"Enseña muchas herramientas y las explica bien.","rating":4.5,"created":"2022-07-28T17:32:59-07:00","modified":"2022-07-29T16:06:01-07:00","user_modified":"2022-07-28T17:33:22-07:00","user":{"_class":"user","title":"Magally Servin","name":"Magally","display_name":"Magally Servin","image_50x50":"https://img-c.udemycdn.com/user/50x50/anonymous_3.png","initials":"MS","tracking_id":"6j0tM8vFSNaGM6TBfzLBrA","public_display_name":"Magally S."},"response":null,"content_html":"<p>Enseña muchas herramientas y las explica bien.</p>","created_formatted_with_time_since":"a month ago"},{"_class":"course_review","id":105845408,"content":"Absolutely amazing course.\nAmazing instructor who teaches with clarity and possesses a deep understanding of the subject.","rating":5.0,"created":"2022-01-24T14:35:38-08:00","modified":"2022-01-25T15:05:51-08:00","user_modified":"2022-01-24T14:36:19-08:00","user":{"_class":"user","title":"Deeptarko Chowdhury","name":"Deeptarko","display_name":"Deeptarko Chowdhury","image_50x50":"https://img-c.udemycdn.com/user/50x50/19923894_ac96.jpg","initials":"DC","tracking_id":"zaDb1m21Qz2jJ0xmkzBUYw","public_display_name":"Deeptarko C."},"response":null,"content_html":"<p>Absolutely amazing course.<br>Amazing instructor who teaches with clarity and possesses a deep understanding of the subject.</p>","created_formatted_with_time_since":"7 months ago"},{"_class":"course_review","id":122337178,"content":"Great for beginners. A lot of details and good stuff.","rating":5.0,"created":"2022-08-29T07:23:05-07:00","modified":"2022-08-31T16:09:03-07:00","user_modified":"2022-08-29T07:24:13-07:00","user":{"_class":"user","title":"Isabella Nunes","name":"Isabella","display_name":"Isabella Nunes","image_50x50":"https://img-c.udemycdn.com/user/50x50/36496790_1a58.jpg","initials":"IN","tracking_id":"2diqQ-4JRmSudlUqJ5StGg","public_display_name":"Isabella N."},"response":null,"content_html":"<p>Great for beginners. A lot of details and good stuff.</p>","created_formatted_with_time_since":"4 days ago"},{"_class":"course_review","id":108441490,"content":"Valuable course to dive into web development. I was able to build the layout of my website for my own business from Brad's tips.","rating":5.0,"created":"2022-02-26T23:43:40-08:00","modified":"2022-08-19T21:44:49-07:00","user_modified":"2022-08-19T21:44:49-07:00","user":{"_class":"user","title":"Jo Yap","name":"Jo","display_name":"Jo Yap","image_50x50":"https://img-c.udemycdn.com/user/50x50/anonymous_3.png","initials":"JY","tracking_id":"-XcPmI8KTP6hBlCjSzUmXg","public_display_name":"Jo Y."},"response":null,"content_html":"<p>Valuable course to dive into web development. I was able to build the layout of my website for my own business from Brad's tips.</p>","created_formatted_with_time_since":"6 months ago"},{"_class":"course_review","id":109577218,"content":"There are variables of JavaScript in Bracket that do not work when I do it but works with Brad when doing it. It may be outdated already as it is been made in 2015.","rating":3.5,"created":"2022-03-14T08:18:02-07:00","modified":"2022-05-28T07:39:38-07:00","user_modified":"2022-05-28T07:39:38-07:00","user":{"_class":"user","title":"Alvin Lloyd Briones","name":"Alvin Lloyd","display_name":"Alvin Lloyd Briones","image_50x50":"https://img-c.udemycdn.com/user/50x50/anonymous_3.png","initials":"AB","tracking_id":"24E9ehu-Ta-ZDcb_VFi78A","public_display_name":"Alvin Lloyd B."},"response":null,"content_html":"<p>There are variables of JavaScript in Bracket that do not work when I do it but works with Brad when doing it. It may be outdated already as it is been made in 2015.</p>","created_formatted_with_time_since":"5 months ago"},{"_class":"course_review","id":117843154,"content":"It's great but some content seems to be outdated","rating":4.5,"created":"2022-07-03T01:47:45-07:00","modified":"2022-07-28T13:12:07-07:00","user_modified":"2022-07-28T13:12:07-07:00","user":{"_class":"user","title":"Mwanambuyu Akamandisa","name":"Mwanambuyu","display_name":"Mwanambuyu Akamandisa","image_50x50":"https://img-c.udemycdn.com/user/50x50/anonymous_3.png","initials":"MA","tracking_id":"Z6MHwA5STXmoAqzyE4XZlw","public_display_name":"Mwanambuyu A."},"response":null,"content_html":"<p>It's great but some content seems to be outdated</p>","created_formatted_with_time_since":"2 months ago"},{"_class":"course_review","id":115813320,"content":"Me parece un empiece atractivo...\nA mitad de curso toca todo las funciones básicas","rating":4.5,"created":"2022-06-07T00:51:51-07:00","modified":"2022-06-20T08:59:24-07:00","user_modified":"2022-06-20T08:59:24-07:00","user":{"_class":"user","title":"Mario Moser García","name":"Mario","display_name":"Mario Moser García","image_50x50":"https://img-c.udemycdn.com/user/50x50/anonymous_3.png","initials":"MM","tracking_id":"Q8KjLCuoR6mn3NKTiYDCnQ","public_display_name":"Mario M."},"response":null,"content_html":"<p>Me parece un empiece atractivo...<br>A mitad de curso toca todo las funciones básicas</p>","created_formatted_with_time_since":"2 months ago"}]}