{"count":614,"next":"https://www.udemy.com/api-2.0/courses/449532/reviews/?courseId=449532&fields%5Bcourse_review%5D=%40default%2Cresponse%2Ccontent_html%2Ccreated_formatted_with_time_since&fields%5Bcourse_review_response%5D=%40min%2Cuser%2Ccontent_html%2Ccreated_formatted_with_time_since&fields%5Buser%5D=%40min%2Cimage_50x50%2Cinitials%2Cpublic_display_name%2Ctracking_id&is_text_review=1&ordering=course_review_score__rank%2C-created&page=2","previous":null,"results":[{"_class":"course_review","id":116099814,"content":"it is a good learning platform \nbut for me there are lots and lots of doubts which cannot clarified by google \nand i cant get answers even if i post it in the q&a section","rating":4.0,"created":"2022-06-10T06:00:15-07:00","modified":"2022-06-11T16:08:10-07:00","user_modified":"2022-06-10T06:02:46-07:00","user":{"_class":"user","title":"Jayashri.P","name":"Jayashri.P","display_name":"Jayashri.P","image_50x50":"https://img-c.udemycdn.com/user/50x50/anonymous_3.png","initials":"J","tracking_id":"1TAmYPFEQWiQC8AoKPHxww","public_display_name":"Jayashri.P"},"response":null,"content_html":"<p>it is a good learning platform <br>but for me there are lots and lots of doubts which cannot clarified by google <br>and i cant get answers even if i post it in the q&a section</p>","created_formatted_with_time_since":"2 months ago"},{"_class":"course_review","id":115873362,"content":"So I am a procedural programmer with personal rather than professional experience, now learning Python for my job. Oh boy this is so GREAT.","rating":5.0,"created":"2022-06-07T13:33:05-07:00","modified":"2022-06-08T16:05:09-07:00","user_modified":"2022-06-07T13:34:43-07:00","user":{"_class":"user","title":"Jim Davis","name":"Jim","display_name":"Jim Davis","image_50x50":"https://img-c.udemycdn.com/user/50x50/anonymous_3.png","initials":"JD","tracking_id":"Nkv0DELBQySCTtR94nS9rA","public_display_name":"Jim D."},"response":null,"content_html":"<p>So I am a procedural programmer with personal rather than professional experience, now learning Python for my job. Oh boy this is so GREAT.</p>","created_formatted_with_time_since":"2 months ago"},{"_class":"course_review","id":115313506,"content":"the course is very straightforward, the instructor is doing a great job explaining complex terminology and providing clean-cut, easy to understand examples along the way. highly recommend!","rating":5.0,"created":"2022-05-31T08:38:47-07:00","modified":"2022-06-02T21:11:00-07:00","user_modified":"2022-05-31T08:40:06-07:00","user":{"_class":"user","title":"Meltem Odabas","name":"Meltem","display_name":"Meltem Odabas","image_50x50":"https://img-c.udemycdn.com/user/50x50/anonymous_3.png","initials":"MO","tracking_id":"wCjJlNBlSLmwJe_5KiSgmg","public_display_name":"Meltem O."},"response":null,"content_html":"<p>the course is very straightforward, the instructor is doing a great job explaining complex terminology and providing clean-cut, easy to understand examples along the way. highly recommend!</p>","created_formatted_with_time_since":"3 months ago"},{"_class":"course_review","id":113023930,"content":"Need to include design pattern in python and also implementation of non-linear data structure in python like tree,graph etc.","rating":3.5,"created":"2022-05-01T07:47:31-07:00","modified":"2022-05-02T16:04:20-07:00","user_modified":"2022-05-01T07:49:36-07:00","user":{"_class":"user","title":"Subhjeet Kumar","name":"Subhjeet","display_name":"Subhjeet Kumar","image_50x50":"https://img-c.udemycdn.com/user/50x50/anonymous_3.png","initials":"SK","tracking_id":"KldkukdKS5ONXpzjq0Jk8Q","public_display_name":"Subhjeet K."},"response":null,"content_html":"<p>Need to include design pattern in python and also implementation of non-linear data structure in python like tree,graph etc.</p>","created_formatted_with_time_since":"4 months ago"},{"_class":"course_review","id":111558590,"content":"Really good, in depth class on OOP and with specifics on Python. Highly recommended class.","rating":4.5,"created":"2022-04-10T10:57:48-07:00","modified":"2022-05-07T14:38:26-07:00","user_modified":"2022-05-07T14:38:26-07:00","user":{"_class":"user","title":"Alan Rotman","name":"Alan","display_name":"Alan Rotman","image_50x50":"https://img-c.udemycdn.com/user/50x50/anonymous_3.png","initials":"AR","tracking_id":"plDOpUh6Q_2n3FWUd1_XgA","public_display_name":"Alan R."},"response":null,"content_html":"<p>Really good, in depth class on OOP and with specifics on Python. Highly recommended class.</p>","created_formatted_with_time_since":"4 months ago"},{"_class":"course_review","id":108472554,"content":"thats cool. But, It could have been better if the points in the slides is one after the other rather appearing the whole info at once.","rating":4.0,"created":"2022-02-27T11:24:18-08:00","modified":"2022-02-28T15:03:44-08:00","user_modified":"2022-02-27T11:27:37-08:00","user":{"_class":"user","title":"Devara Nikh","name":"Devara","display_name":"Devara Nikh","image_50x50":"https://img-c.udemycdn.com/user/50x50/anonymous_3.png","initials":"DN","tracking_id":"mgvCwyC_RdSARjy76yEsrQ","public_display_name":"Devara N."},"response":null,"content_html":"<p>thats cool. But, It could have been better if the points in the slides is one after the other rather appearing the whole info at once.</p>","created_formatted_with_time_since":"6 months ago"},{"_class":"course_review","id":111925798,"content":"I'm enjoying how it's presented and the explanations all make sense so far","rating":4.5,"created":"2022-04-15T09:46:06-07:00","modified":"2022-04-29T17:56:23-07:00","user_modified":"2022-04-29T17:56:23-07:00","user":{"_class":"user","title":"Jill Rabinowitz","name":"Jill","display_name":"Jill Rabinowitz","image_50x50":"https://img-c.udemycdn.com/user/50x50/anonymous_3.png","initials":"JR","tracking_id":"y5J7BvKeS0eJ9cB7ka3Z7A","public_display_name":"Jill R."},"response":null,"content_html":"<p>I'm enjoying how it's presented and the explanations all make sense so far</p>","created_formatted_with_time_since":"4 months ago"},{"_class":"course_review","id":119815756,"content":"Concise  and well explained","rating":4.0,"created":"2022-07-27T21:39:24-07:00","modified":"2022-07-29T16:17:04-07:00","user_modified":"2022-07-27T21:39:40-07:00","user":{"_class":"user","title":"Akshat Gupta","name":"Akshat","display_name":"Akshat Gupta","image_50x50":"https://img-c.udemycdn.com/user/50x50/anonymous_3.png","initials":"AG","tracking_id":"9gyLQi1eSLyxR6k1GQZXDw","public_display_name":"Akshat G."},"response":null,"content_html":"<p>Concise  and well explained</p>","created_formatted_with_time_since":"a month ago"},{"_class":"course_review","id":115075346,"content":"OOP  CONCEPTS ARE CLEARLY EXPLAINED.  THANK YOU.","rating":4.5,"created":"2022-05-28T00:09:44-07:00","modified":"2022-05-29T16:07:48-07:00","user_modified":"2022-05-28T00:10:24-07:00","user":{"_class":"user","title":"Rajan Ganesan","name":"Rajan","display_name":"Rajan Ganesan","image_50x50":"https://img-c.udemycdn.com/user/50x50/anonymous_3.png","initials":"RG","tracking_id":"NvZIFkptQdSgJNTIoNfboQ","public_display_name":"Rajan G."},"response":null,"content_html":"<p>OOP  CONCEPTS ARE CLEARLY EXPLAINED.  THANK YOU.</p>","created_formatted_with_time_since":"3 months ago"},{"_class":"course_review","id":104276056,"content":"Nice course for basic concepts in python. The fact that it's in python 2 adds an obstacle for","rating":3.5,"created":"2022-01-06T08:37:08-08:00","modified":"2022-01-07T15:07:06-08:00","user_modified":"2022-01-06T08:41:44-08:00","user":{"_class":"user","title":"Yishai Schreiber","name":"Yishai","display_name":"Yishai Schreiber","image_50x50":"https://img-c.udemycdn.com/user/50x50/anonymous_3.png","initials":"YS","tracking_id":"looEPB-8QxSSnMfIilykHg","public_display_name":"Yishai S."},"response":null,"content_html":"<p>Nice course for basic concepts in python. The fact that it's in python 2 adds an obstacle for</p>","created_formatted_with_time_since":"7 months ago"},{"_class":"course_review","id":104292860,"content":"Good course, but not updated recently. Some of the stuff is outdated already. Questions are never answered. Otherwise, very good and clear delivery from the instructor.","rating":2.5,"created":"2022-01-06T11:36:02-08:00","modified":"2022-01-08T08:12:25-08:00","user_modified":"2022-01-08T08:12:25-08:00","user":{"_class":"user","title":"M Ts","name":"M","display_name":"M Ts","image_50x50":"https://img-c.udemycdn.com/user/50x50/anonymous_3.png","initials":"MT","tracking_id":"3g83zH37Rx-NtPm1UL3q0Q","public_display_name":"M T."},"response":null,"content_html":"<p>Good course, but not updated recently. Some of the stuff is outdated already. Questions are never answered. Otherwise, very good and clear delivery from the instructor.</p>","created_formatted_with_time_since":"7 months ago"},{"_class":"course_review","id":103406762,"content":"Great fundamentals but was a slower course on including interesting examples","rating":4.0,"created":"2021-12-27T13:18:46-08:00","modified":"2021-12-28T15:08:52-08:00","user_modified":"2021-12-27T13:18:46-08:00","user":{"_class":"user","title":"Isaac Summers","name":"Isaac","display_name":"Isaac Summers","image_50x50":"https://img-c.udemycdn.com/user/50x50/anonymous_3.png","initials":"IS","tracking_id":"8ivUCg2SShet9J8-m_UQrg","public_display_name":"Isaac S."},"response":null,"content_html":"<p>Great fundamentals but was a slower course on including interesting examples</p>","created_formatted_with_time_since":"8 months ago"}]}