{"count":4327,"next":"https://www.udemy.com/api-2.0/courses/49250/reviews/?courseId=49250&fields%5Bcourse_review%5D=%40default%2Cresponse%2Ccontent_html%2Ccreated_formatted_with_time_since&fields%5Bcourse_review_response%5D=%40min%2Cuser%2Ccontent_html%2Ccreated_formatted_with_time_since&fields%5Buser%5D=%40min%2Cimage_50x50%2Cinitials%2Cpublic_display_name%2Ctracking_id&is_text_review=1&ordering=course_review_score__rank%2C-created&page=2","previous":null,"results":[{"_class":"course_review","id":122149504,"content":"Bad audio, too much zoom in certain parts of the lesson, difficult to understand due to speaking fast in a few minutes, there are duplicate downloadable files and missing downloadable files. He uses an old version of excel making it more difficult to apply what it says. The face cam is very annoying and bulky. The course is poorly organized, there are sections with a higher level of difficulty that are placed earlier than sections with a lower level of difficulty.","rating":1.0,"created":"2022-08-26T11:59:20-07:00","modified":"2022-09-01T01:18:21-07:00","user_modified":"2022-09-01T01:18:21-07:00","user":{"_class":"user","title":"Beniamino","name":"Beniamino","display_name":"Beniamino","image_50x50":"https://img-c.udemycdn.com/user/50x50/anonymous_3.png","initials":"B","tracking_id":"JJg0ctwbSqyjAPXu4EvMPw","public_display_name":"Beniamino"},"response":null,"content_html":"<p>Bad audio, too much zoom in certain parts of the lesson, difficult to understand due to speaking fast in a few minutes, there are duplicate downloadable files and missing downloadable files. He uses an old version of excel making it more difficult to apply what it says. The face cam is very annoying and bulky. The course is poorly organized, there are sections with a higher level of difficulty that are placed earlier than sections with a lower level of difficulty.</p>","created_formatted_with_time_since":"a week ago"},{"_class":"course_review","id":121860864,"content":"I feel I was little too advance for this course personally but for anyone totally new to Excel it is absolutely amazing! I wish I would have had this available to me when I started my Excel journey. I absolutely loved Todd, the way he explains things is very clear and very easy to follow!","rating":4.5,"created":"2022-08-23T10:51:17-07:00","modified":"2022-08-24T16:17:48-07:00","user_modified":"2022-08-23T10:53:11-07:00","user":{"_class":"user","title":"Isabelle Bertrand","name":"Isabelle","display_name":"Isabelle Bertrand","image_50x50":"https://img-c.udemycdn.com/user/50x50/anonymous_3.png","initials":"IB","tracking_id":"17rMcx9YTaOgphOPV4hh2A","public_display_name":"Isabelle B."},"response":null,"content_html":"<p>I feel I was little too advance for this course personally but for anyone totally new to Excel it is absolutely amazing! I wish I would have had this available to me when I started my Excel journey. I absolutely loved Todd, the way he explains things is very clear and very easy to follow!</p>","created_formatted_with_time_since":"a week ago"},{"_class":"course_review","id":121148484,"content":"So far I've learnt a lot! Words can't describe how much knowledge I've been filled out with during this course so far. Im pretty sure that once I'm done with this course, that new skill will boost my chance of getting into my desired job field.","rating":5.0,"created":"2022-08-14T08:53:30-07:00","modified":"2022-08-23T17:31:30-07:00","user_modified":"2022-08-23T17:31:30-07:00","user":{"_class":"user","title":"Euris Franchel Abreu Torres","name":"Euris Franchel Abreu","display_name":"Euris Franchel Abreu Torres","image_50x50":"https://img-c.udemycdn.com/user/50x50/anonymous_3.png","initials":"ET","tracking_id":"4OIfjVRhSZuF1NF-5GRqIw","public_display_name":"Euris Franchel Abreu T."},"response":null,"content_html":"<p>So far I've learnt a lot! Words can't describe how much knowledge I've been filled out with during this course so far. Im pretty sure that once I'm done with this course, that new skill will boost my chance of getting into my desired job field.</p>","created_formatted_with_time_since":"2 weeks ago"},{"_class":"course_review","id":120828090,"content":"It's good that Todd gives short quizzes to help me recall what he did in the video. I also like the on-screen key shortcuts for commonly used tasks.","rating":4.0,"created":"2022-08-09T19:20:53-07:00","modified":"2022-08-17T14:41:06-07:00","user_modified":"2022-08-17T14:41:06-07:00","user":{"_class":"user","title":"Laurie A Neilson","name":"Laurie A","display_name":"Laurie A Neilson","image_50x50":"https://img-c.udemycdn.com/user/50x50/anonymous_3.png","initials":"LN","tracking_id":"QyoNV80XSC-FmUFs7aA_3Q","public_display_name":"Laurie A N."},"response":null,"content_html":"<p>It's good that Todd gives short quizzes to help me recall what he did in the video. I also like the on-screen key shortcuts for commonly used tasks.</p>","created_formatted_with_time_since":"3 weeks ago"},{"_class":"course_review","id":119125184,"content":"I really enjoyed taking this course, learned lots from Excel that have helped me to improve my day by day at work. Cant recommend enough, thank you for sharing this material and explaining so graciously!","rating":5.0,"created":"2022-07-19T08:17:15-07:00","modified":"2022-07-22T16:16:49-07:00","user_modified":"2022-07-19T08:18:23-07:00","user":{"_class":"user","title":"Cristina Gabriela Cerda Romero","name":"Cristina Gabriela Cerda","display_name":"Cristina Gabriela Cerda Romero","image_50x50":"https://img-c.udemycdn.com/user/50x50/anonymous_3.png","initials":"CR","tracking_id":"uXcnieJ4Sc-BHDFSaFNGAg","public_display_name":"Cristina Gabriela Cerda R."},"response":null,"content_html":"<p>I really enjoyed taking this course, learned lots from Excel that have helped me to improve my day by day at work. Cant recommend enough, thank you for sharing this material and explaining so graciously!</p>","created_formatted_with_time_since":"a month ago"},{"_class":"course_review","id":114816032,"content":"The course was comprehensive , I was able to follow the course and it was split into manageable chunks .","rating":5.0,"created":"2022-05-25T01:22:50-07:00","modified":"2022-05-26T16:09:03-07:00","user_modified":"2022-05-25T01:22:50-07:00","user":{"_class":"user","title":"Ekaterina Kalinina","name":"Ekaterina","display_name":"Ekaterina Kalinina","image_50x50":"https://img-c.udemycdn.com/user/50x50/anonymous_3.png","initials":"EK","tracking_id":"C1chWYE5RMOAqni--bgxuA","public_display_name":"Ekaterina K."},"response":null,"content_html":"<p>The course was comprehensive , I was able to follow the course and it was split into manageable chunks .</p>","created_formatted_with_time_since":"3 months ago"},{"_class":"course_review","id":118005642,"content":"It seemed like the courses weren't always connected to one another and quite a few of the courses the resources given weren't always correct or just a mess to use.","rating":3.0,"created":"2022-07-05T03:59:57-07:00","modified":"2022-07-06T16:06:59-07:00","user_modified":"2022-07-05T04:01:18-07:00","user":{"_class":"user","title":"Oscar Albertsen","name":"Oscar","display_name":"Oscar Albertsen","image_50x50":"https://img-c.udemycdn.com/user/50x50/anonymous_3.png","initials":"OA","tracking_id":"V4UKuvTVQMSZYsLF4B5gKQ","public_display_name":"Oscar A."},"response":null,"content_html":"<p>It seemed like the courses weren't always connected to one another and quite a few of the courses the resources given weren't always correct or just a mess to use.</p>","created_formatted_with_time_since":"a month ago"},{"_class":"course_review","id":122162110,"content":"The content taught in the course is pretty useful, but I don't think the questions in the quizes are as there are a lot of them referring to useless things mentioned during the lectures. I think better questions will improve the course quality","rating":3.5,"created":"2022-08-26T15:52:02-07:00","modified":"2022-08-27T16:06:25-07:00","user_modified":"2022-08-26T15:54:11-07:00","user":{"_class":"user","title":"Mario Orellana","name":"Mario","display_name":"Mario Orellana","image_50x50":"https://img-c.udemycdn.com/user/50x50/20829468_34c4_2.jpg","initials":"MO","tracking_id":"_H0svSlbQC25tmka8_zO-Q","public_display_name":"Mario O."},"response":null,"content_html":"<p>The content taught in the course is pretty useful, but I don't think the questions in the quizes are as there are a lot of them referring to useless things mentioned during the lectures. I think better questions will improve the course quality</p>","created_formatted_with_time_since":"a week ago"},{"_class":"course_review","id":120620402,"content":"i never had any excel skills so it really helped me a lot and given me some clue on so much that i did not know about","rating":3.5,"created":"2022-08-07T08:25:12-07:00","modified":"2022-08-08T16:09:17-07:00","user_modified":"2022-08-07T08:26:34-07:00","user":{"_class":"user","title":"Mokhantso Ramarumo","name":"Mokhantso","display_name":"Mokhantso Ramarumo","image_50x50":"https://img-c.udemycdn.com/user/50x50/anonymous_3.png","initials":"MR","tracking_id":"ESN8rYX1TEqvG1cWvzcPHw","public_display_name":"Mokhantso R."},"response":null,"content_html":"<p>i never had any excel skills so it really helped me a lot and given me some clue on so much that i did not know about</p>","created_formatted_with_time_since":"3 weeks ago"},{"_class":"course_review","id":118259636,"content":"Yes it is! Got the chance to learn more techniques, that would help me to have a better, faster, and efficient way of doing work.","rating":5.0,"created":"2022-07-07T22:42:56-07:00","modified":"2022-07-08T16:12:26-07:00","user_modified":"2022-07-07T22:43:56-07:00","user":{"_class":"user","title":"Innah Barco","name":"Innah","display_name":"Innah Barco","image_50x50":"https://img-c.udemycdn.com/user/50x50/anonymous_3.png","initials":"IB","tracking_id":"iZ_i7t9RTyC-TxEz_lT05g","public_display_name":"Innah B."},"response":null,"content_html":"<p>Yes it is! Got the chance to learn more techniques, that would help me to have a better, faster, and efficient way of doing work.</p>","created_formatted_with_time_since":"a month ago"},{"_class":"course_review","id":114197438,"content":"first time doing online course and it was a good experiance. Great foundation thank you   Todd","rating":5.0,"created":"2022-05-17T11:19:28-07:00","modified":"2022-05-18T23:08:29-07:00","user_modified":"2022-05-17T11:20:57-07:00","user":{"_class":"user","title":"Bonelwa Ousie Nkalane","name":"Bonelwa Ousie","display_name":"Bonelwa Ousie Nkalane","image_50x50":"https://img-c.udemycdn.com/user/50x50/anonymous_3.png","initials":"BN","tracking_id":"UfcwGAyfTBOWvBSj7fDyBw","public_display_name":"Bonelwa Ousie N."},"response":null,"content_html":"<p>first time doing online course and it was a good experiance. Great foundation thank you   Todd</p>","created_formatted_with_time_since":"3 months ago"},{"_class":"course_review","id":110021782,"content":"Course was great. It took me a minute to catch on to it since I haven't been in a class setting in many years. I plan to take more courses.","rating":4.0,"created":"2022-03-20T10:31:15-07:00","modified":"2022-04-19T19:49:55-07:00","user_modified":"2022-04-19T19:49:55-07:00","user":{"_class":"user","title":"Richard E. Hawkins","name":"Richard E.","display_name":"Richard E. Hawkins","image_50x50":"https://img-c.udemycdn.com/user/50x50/anonymous_3.png","initials":"RH","tracking_id":"1XUXqy3eRDGewT32KJeINA","public_display_name":"Richard E. H."},"response":null,"content_html":"<p>Course was great. It took me a minute to catch on to it since I haven't been in a class setting in many years. I plan to take more courses.</p>","created_formatted_with_time_since":"5 months ago"}]}