{"count":73,"next":"https://www.udemy.com/api-2.0/courses/51078/reviews/?courseId=51078&fields%5Bcourse_review%5D=%40default%2Cresponse%2Ccontent_html%2Ccreated_formatted_with_time_since&fields%5Bcourse_review_response%5D=%40min%2Cuser%2Ccontent_html%2Ccreated_formatted_with_time_since&fields%5Buser%5D=%40min%2Cimage_50x50%2Cinitials%2Cpublic_display_name%2Ctracking_id&is_text_review=1&ordering=course_review_score__rank%2C-created&page=2","previous":null,"results":[{"_class":"course_review","id":121183036,"content":"Great course 10/10 recommendations.","rating":5.0,"created":"2022-08-15T00:37:12-07:00","modified":"2022-08-16T16:04:07-07:00","user_modified":"2022-08-15T00:37:28-07:00","user":{"_class":"user","title":"Sanskar Dabral","name":"Sanskar","display_name":"Sanskar Dabral","image_50x50":"https://img-c.udemycdn.com/user/50x50/anonymous_3.png","initials":"SD","tracking_id":"Dm4ZUaDIS4KcSXUpywYH9w","public_display_name":"Sanskar D."},"response":null,"content_html":"<p>Great course 10/10 recommendations.</p>","created_formatted_with_time_since":"2 weeks ago"},{"_class":"course_review","id":121170038,"content":"A good learning session","rating":5.0,"created":"2022-08-14T19:08:09-07:00","modified":"2022-08-15T16:10:13-07:00","user_modified":"2022-08-14T20:27:39-07:00","user":{"_class":"user","title":"Arun K A","name":"Arun K","display_name":"Arun K A","image_50x50":"https://img-c.udemycdn.com/user/50x50/anonymous_3.png","initials":"AA","tracking_id":"zHE7qSRWQPiuwTUsjs4hrA","public_display_name":"Arun K A."},"response":null,"content_html":"<p>A good learning session</p>","created_formatted_with_time_since":"2 weeks ago"},{"_class":"course_review","id":118911110,"content":"Yes, getting more understanding of creating spreadsheets.","rating":3.0,"created":"2022-07-16T13:51:36-07:00","modified":"2022-07-17T16:07:54-07:00","user_modified":"2022-07-16T13:53:35-07:00","user":{"_class":"user","title":"Odessa Mae Holloway","name":"Odessa Mae","display_name":"Odessa Mae Holloway","image_50x50":"https://img-c.udemycdn.com/user/50x50/anonymous_3.png","initials":"OH","tracking_id":"NxmLah8bQHOuxPlbaf0dyQ","public_display_name":"Odessa Mae H."},"response":null,"content_html":"<p>Yes, getting more understanding of creating spreadsheets.</p>","created_formatted_with_time_since":"a month ago"},{"_class":"course_review","id":118333738,"content":"Yes, because it helped me gain knowledge on excel that I can use in my work","rating":5.0,"created":"2022-07-09T01:14:25-07:00","modified":"2022-07-10T16:07:16-07:00","user_modified":"2022-07-09T01:15:33-07:00","user":{"_class":"user","title":"Ma. Cristina N. Pacia","name":"Ma. Cristina N.","display_name":"Ma. Cristina N. Pacia","image_50x50":"https://img-c.udemycdn.com/user/50x50/anonymous_3.png","initials":"MP","tracking_id":"Q2UXbiKeT5C8NaixZ3ukjw","public_display_name":"Ma. Cristina N. P."},"response":null,"content_html":"<p>Yes, because it helped me gain knowledge on excel that I can use in my work</p>","created_formatted_with_time_since":"a month ago"},{"_class":"course_review","id":111691080,"content":"Great course uncovering various in-built functions of Microsoft Excel !!","rating":4.5,"created":"2022-04-12T05:29:32-07:00","modified":"2022-04-13T15:00:30-07:00","user_modified":"2022-04-12T05:30:32-07:00","user":{"_class":"user","title":"Vibhas Mokashi","name":"Vibhas","display_name":"Vibhas Mokashi","image_50x50":"https://img-c.udemycdn.com/user/50x50/anonymous_3.png","initials":"VM","tracking_id":"zoj3xLAeQbWvj_vkmu1ZFQ","public_display_name":"Vibhas M."},"response":null,"content_html":"<p>Great course uncovering various in-built functions of Microsoft Excel !!</p>","created_formatted_with_time_since":"4 months ago"},{"_class":"course_review","id":109889680,"content":"It was a very good session, I have learnt lot tricks that I needed on my day to day work. Thank you.","rating":4.5,"created":"2022-03-18T04:31:53-07:00","modified":"2022-03-20T16:04:15-07:00","user_modified":"2022-03-18T04:33:58-07:00","user":{"_class":"user","title":"Anonymized User","name":"Anonymized","display_name":"Anonymized User","image_50x50":"https://img-c.udemycdn.com/user/50x50/anonymous_3.png","initials":"AU","tracking_id":"aWFWIz-EROWLngMX4Wepjw","public_display_name":"Anonymized U."},"response":null,"content_html":"<p>It was a very good session, I have learnt lot tricks that I needed on my day to day work. Thank you.</p>","created_formatted_with_time_since":"5 months ago"},{"_class":"course_review","id":120379424,"content":"Good overview about excel skills.","rating":4.0,"created":"2022-08-03T21:55:24-07:00","modified":"2022-08-05T16:08:04-07:00","user_modified":"2022-08-03T21:57:03-07:00","user":{"_class":"user","title":"Jens Hofmann","name":"Jens","display_name":"Jens Hofmann","image_50x50":"https://img-c.udemycdn.com/user/50x50/anonymous_3.png","initials":"JH","tracking_id":"_XniNQaoTUWCdBzOHlYRHw","public_display_name":"Jens H."},"response":null,"content_html":"<p>Good overview about excel skills.</p>","created_formatted_with_time_since":"4 weeks ago"},{"_class":"course_review","id":121610960,"content":"It was good. Learnt new commands & formulas.","rating":5.0,"created":"2022-08-20T02:51:38-07:00","modified":"2022-08-21T16:11:59-07:00","user_modified":"2022-08-20T02:52:12-07:00","user":{"_class":"user","title":"Viraj Vithal Sinari","name":"Viraj Vithal","display_name":"Viraj Vithal Sinari","image_50x50":"https://img-c.udemycdn.com/user/50x50/anonymous_3.png","initials":"VS","tracking_id":"nPQD9E00Rd23_wJFx70zYw","public_display_name":"Viraj Vithal S."},"response":null,"content_html":"<p>It was good. Learnt new commands & formulas.</p>","created_formatted_with_time_since":"a week ago"},{"_class":"course_review","id":120543370,"content":"Great Course","rating":4.5,"created":"2022-08-05T19:21:49-07:00","modified":"2022-08-06T16:06:41-07:00","user_modified":"2022-08-05T19:22:07-07:00","user":{"_class":"user","title":"Ruth Alice Kuipers","name":"Ruth Alice","display_name":"Ruth Alice Kuipers","image_50x50":"https://img-c.udemycdn.com/user/50x50/anonymous_3.png","initials":"RK","tracking_id":"MePg00FHRhqhtJyt4TCogA","public_display_name":"Ruth Alice K."},"response":null,"content_html":"<p>Great Course</p>","created_formatted_with_time_since":"3 weeks ago"},{"_class":"course_review","id":122073844,"content":"Very- very interesting course","rating":5.0,"created":"2022-08-25T16:11:03-07:00","modified":"2022-08-26T16:05:46-07:00","user_modified":"2022-08-25T16:13:39-07:00","user":{"_class":"user","title":"Naresh Pal Singh","name":"Naresh Pal","display_name":"Naresh Pal Singh","image_50x50":"https://img-c.udemycdn.com/user/50x50/anonymous_3.png","initials":"NS","tracking_id":"U85kpMojQKi9UGmSBmoUsQ","public_display_name":"Naresh Pal S."},"response":null,"content_html":"<p>Very- very interesting course</p>","created_formatted_with_time_since":"a week ago"},{"_class":"course_review","id":105504078,"content":"Informational","rating":4.5,"created":"2022-01-20T06:58:44-08:00","modified":"2022-01-21T15:08:12-08:00","user_modified":"2022-01-20T06:58:55-08:00","user":{"_class":"user","title":"Rashmi Sharma Bagree","name":"Rashmi Sharma","display_name":"Rashmi Sharma Bagree","image_50x50":"https://img-c.udemycdn.com/user/50x50/anonymous_3.png","initials":"RB","tracking_id":"1f01Jy9SQZajUEWea0rGWQ","public_display_name":"Rashmi Sharma B."},"response":null,"content_html":"<p>Informational</p>","created_formatted_with_time_since":"7 months ago"},{"_class":"course_review","id":97242722,"content":"Clear and easy to follow. Thank you.","rating":5.0,"created":"2021-10-06T08:24:00-07:00","modified":"2021-10-07T16:08:19-07:00","user_modified":"2021-10-06T08:25:03-07:00","user":{"_class":"user","title":"Marta Escalante","name":"Marta","display_name":"Marta Escalante","image_50x50":"https://img-c.udemycdn.com/user/50x50/anonymous_3.png","initials":"ME","tracking_id":"HOPNEN2VRXyH_z93T2ASbw","public_display_name":"Marta E."},"response":null,"content_html":"<p>Clear and easy to follow. Thank you.</p>","created_formatted_with_time_since":"11 months ago"}]}