{"count":1793,"next":"https://www.udemy.com/api-2.0/courses/519554/reviews/?courseId=519554&fields%5Bcourse_review%5D=%40default%2Cresponse%2Ccontent_html%2Ccreated_formatted_with_time_since&fields%5Bcourse_review_response%5D=%40min%2Cuser%2Ccontent_html%2Ccreated_formatted_with_time_since&fields%5Buser%5D=%40min%2Cimage_50x50%2Cinitials%2Cpublic_display_name%2Ctracking_id&is_text_review=1&ordering=course_review_score__rank%2C-created&page=2","previous":null,"results":[{"_class":"course_review","id":119222630,"content":"starting each section is easy for a beginner but towards the end of the sections, it is hard to understand variables that should have been taught\n before some lessons","rating":3.5,"created":"2022-07-20T08:40:00-07:00","modified":"2022-07-25T08:28:54-07:00","user_modified":"2022-07-25T08:28:54-07:00","user":{"_class":"user","title":"Henry Okonji","name":"Henry","display_name":"Henry Okonji","image_50x50":"https://img-c.udemycdn.com/user/50x50/anonymous_3.png","initials":"HO","tracking_id":"DkV0YuAHQfWkjfrVQoIp_A","public_display_name":"Henry O."},"response":null,"content_html":"<p>starting each section is easy for a beginner but towards the end of the sections, it is hard to understand variables that should have been taught<br> before some lessons</p>","created_formatted_with_time_since":"a month ago"},{"_class":"course_review","id":117049722,"content":"Im so happy beacasue its my third day and ive learned a lot just at my third day.\nIm already at section 4 and i will continue to coding for the idea of my game. Im just a ten year old and sixth grade i really wish i would become a great game Developer.","rating":5.0,"created":"2022-06-22T23:11:02-07:00","modified":"2022-07-21T06:13:46-07:00","user_modified":"2022-07-21T06:13:46-07:00","user":{"_class":"user","title":"Aira C","name":"Aira","display_name":"Aira C","image_50x50":"https://img-c.udemycdn.com/user/50x50/anonymous_3.png","initials":"AC","tracking_id":"oDUlKDpiRYah05MfHx7NXQ","public_display_name":"Aira C."},"response":null,"content_html":"<p>Im so happy beacasue its my third day and ive learned a lot just at my third day.<br>Im already at section 4 and i will continue to coding for the idea of my game. Im just a ten year old and sixth grade i really wish i would become a great game Developer.</p>","created_formatted_with_time_since":"2 months ago"},{"_class":"course_review","id":116026424,"content":"I really love this corse because of how detail it is and how Bryson is so good at explaining concepts, but it gets kinda boring when all we do is make spirals.","rating":4.5,"created":"2022-06-09T07:50:37-07:00","modified":"2022-06-10T16:09:27-07:00","user_modified":"2022-06-09T07:52:49-07:00","user":{"_class":"user","title":"Rire","name":"Rire","display_name":"Rire","image_50x50":"https://img-c.udemycdn.com/user/50x50/anonymous_3.png","initials":"R","tracking_id":"65Doqhz5QIu1nYX-lMPK0A","public_display_name":"Rire"},"response":null,"content_html":"<p>I really love this corse because of how detail it is and how Bryson is so good at explaining concepts, but it gets kinda boring when all we do is make spirals.</p>","created_formatted_with_time_since":"2 months ago"},{"_class":"course_review","id":115134702,"content":"very well explaining python course which helps all the students.\nhats off for Dr. Bryson Payne","rating":5.0,"created":"2022-05-29T04:03:46-07:00","modified":"2022-06-02T21:09:17-07:00","user_modified":"2022-05-29T04:05:20-07:00","user":{"_class":"user","title":"Rajan bose","name":"Rajan","display_name":"Rajan bose","image_50x50":"https://img-c.udemycdn.com/user/50x50/anonymous_3.png","initials":"RB","tracking_id":"P8DOfieISg-FaylgfJk9iA","public_display_name":"Rajan B."},"response":null,"content_html":"<p>very well explaining python course which helps all the students.<br>hats off for Dr. Bryson Payne</p>","created_formatted_with_time_since":"3 months ago"},{"_class":"course_review","id":113886372,"content":"This course is amazing for kids! Dr Bryson explains everything in simple terms. As a parent, I initially was heavily involved in teaching my son the content and learning the code as well. After, 5 weeks, I found that my son continued the course independently. The simplicity of the content has given my son confidence and a sense of completion. We are looking forward to do more Python and computing courses.","rating":5.0,"created":"2022-05-12T21:58:58-07:00","modified":"2022-05-13T16:12:58-07:00","user_modified":"2022-05-12T22:04:27-07:00","user":{"_class":"user","title":"Michael Jurdi","name":"Michael","display_name":"Michael Jurdi","image_50x50":"https://img-c.udemycdn.com/user/50x50/anonymous_3.png","initials":"MJ","tracking_id":"WzylU3_UTgujjcPiSzN2ng","public_display_name":"Michael J."},"response":null,"content_html":"<p>This course is amazing for kids! Dr Bryson explains everything in simple terms. As a parent, I initially was heavily involved in teaching my son the content and learning the code as well. After, 5 weeks, I found that my son continued the course independently. The simplicity of the content has given my son confidence and a sense of completion. We are looking forward to do more Python and computing courses.</p>","created_formatted_with_time_since":"3 months ago"},{"_class":"course_review","id":113306798,"content":"The course is very nice. However, it would be even cooler to have other platforms.","rating":4.5,"created":"2022-05-05T04:54:57-07:00","modified":"2022-05-06T15:09:50-07:00","user_modified":"2022-05-05T04:55:34-07:00","user":{"_class":"user","title":"Vihaan","name":"Vihaan","display_name":"Vihaan","image_50x50":"https://img-c.udemycdn.com/user/50x50/134785576_5f06.jpg","initials":"V","tracking_id":"6JPtOO3HTXCI6CxxyCrcvw","public_display_name":"Vihaan"},"response":null,"content_html":"<p>The course is very nice. However, it would be even cooler to have other platforms.</p>","created_formatted_with_time_since":"4 months ago"},{"_class":"course_review","id":119834696,"content":"Before taking this course I knew neither coding nor python, this course gave me the fundamentals to start making programs that I did not know how to do before. I hope this knowledge would help me on my journey in programming. Thank you for the help!","rating":4.5,"created":"2022-07-28T02:18:54-07:00","modified":"2022-08-19T09:34:24-07:00","user_modified":"2022-08-19T09:34:24-07:00","user":{"_class":"user","title":"Gimaan Wijayaratna","name":"Gimaan","display_name":"Gimaan Wijayaratna","image_50x50":"https://img-c.udemycdn.com/user/50x50/204071788_d09f.jpg","initials":"GW","tracking_id":"LfIBzD1oRUOH4XEWAyq21A","public_display_name":"Gimaan W."},"response":null,"content_html":"<p>Before taking this course I knew neither coding nor python, this course gave me the fundamentals to start making programs that I did not know how to do before. I hope this knowledge would help me on my journey in programming. Thank you for the help!</p>","created_formatted_with_time_since":"a month ago"},{"_class":"course_review","id":118606918,"content":"It was  a very fun and enjoyable course. I learnt a lot and had lots of  fun.","rating":5.0,"created":"2022-07-12T19:43:32-07:00","modified":"2022-07-13T16:10:51-07:00","user_modified":"2022-07-12T19:44:21-07:00","user":{"_class":"user","title":"James Wang","name":"James","display_name":"James Wang","image_50x50":"https://img-c.udemycdn.com/user/50x50/anonymous_3.png","initials":"JW","tracking_id":"HRp4xDt_SSWy3z_e2TlVhQ","public_display_name":"James W."},"response":null,"content_html":"<p>It was  a very fun and enjoyable course. I learnt a lot and had lots of  fun.</p>","created_formatted_with_time_since":"a month ago"},{"_class":"course_review","id":116297320,"content":"I was never really that interested in coding before, my parents tried whatever they could do for me to enjoy coding, but I was never eager enough to continue. But when they showed me Udemy, I was excited about each and every tutorial and lesson they would bring. The tutorials are short and easy to understand and are put to good use with wonderful programs. I look forward to continuing my learning course in Python.","rating":4.0,"created":"2022-06-13T10:21:33-07:00","modified":"2022-07-26T11:54:36-07:00","user_modified":"2022-07-26T11:54:36-07:00","user":{"_class":"user","title":"Nagaraj","name":"Nagaraj","display_name":"Nagaraj","image_50x50":"https://img-c.udemycdn.com/user/50x50/anonymous_3.png","initials":"N","tracking_id":"IT3mRqdLRZeClmVQCYftLA","public_display_name":"Nagaraj"},"response":null,"content_html":"<p>I was never really that interested in coding before, my parents tried whatever they could do for me to enjoy coding, but I was never eager enough to continue. But when they showed me Udemy, I was excited about each and every tutorial and lesson they would bring. The tutorials are short and easy to understand and are put to good use with wonderful programs. I look forward to continuing my learning course in Python.</p>","created_formatted_with_time_since":"2 months ago"},{"_class":"course_review","id":118457160,"content":"This is course was amazing and taught me how to code! This has helped me a lot.","rating":5.0,"created":"2022-07-11T04:57:46-07:00","modified":"2022-08-25T00:17:50-07:00","user_modified":"2022-08-25T00:17:50-07:00","user":{"_class":"user","title":"Aejaz Mohamed","name":"Aejaz","display_name":"Aejaz Mohamed","image_50x50":"https://img-c.udemycdn.com/user/50x50/anonymous_3.png","initials":"AM","tracking_id":"_RGIiTkCSRyPqAQp4y63tA","public_display_name":"Aejaz M."},"response":null,"content_html":"<p>This is course was amazing and taught me how to code! This has helped me a lot.</p>","created_formatted_with_time_since":"a month ago"},{"_class":"course_review","id":108941846,"content":"The course is great, and easy for any one to understand, even with no coding skills, though one thing seems off it is that instead of using a workspace like py.charm or coding rooms, through the whole course turtle graphics is the only platform used so just a recommendation is that  in the real world we uses platforms to make applications, not only games so you could improve by making your videos about other applications not only games but overall, otherwise its good","rating":3.0,"created":"2022-03-05T13:47:18-08:00","modified":"2022-05-01T12:49:12-07:00","user_modified":"2022-05-01T12:49:12-07:00","user":{"_class":"user","title":"Tsion W","name":"Tsion","display_name":"Tsion W","image_50x50":"https://img-c.udemycdn.com/user/50x50/184644510_e96b_2.jpg","initials":"TW","tracking_id":"upwVIMp0SPaXhevEK9W1hQ","public_display_name":"Tsion W."},"response":null,"content_html":"<p>The course is great, and easy for any one to understand, even with no coding skills, though one thing seems off it is that instead of using a workspace like py.charm or coding rooms, through the whole course turtle graphics is the only platform used so just a recommendation is that  in the real world we uses platforms to make applications, not only games so you could improve by making your videos about other applications not only games but overall, otherwise its good</p>","created_formatted_with_time_since":"6 months ago"},{"_class":"course_review","id":119641836,"content":"It was really fun to play with. I loved it because it said my name many times.","rating":5.0,"created":"2022-07-26T02:36:54-07:00","modified":"2022-07-28T10:27:26-07:00","user_modified":"2022-07-28T10:27:26-07:00","user":{"_class":"user","title":"Torres Ige","name":"Torres","display_name":"Torres Ige","image_50x50":"https://img-c.udemycdn.com/user/50x50/186347_6608_2.jpg","initials":"TI","tracking_id":"dzxldrkgTrKz1AuUgm9Prg","public_display_name":"Torres I."},"response":null,"content_html":"<p>It was really fun to play with. I loved it because it said my name many times.</p>","created_formatted_with_time_since":"a month ago"}]}