{"count":345,"next":"https://www.udemy.com/api-2.0/courses/530308/reviews/?courseId=530308&fields%5Bcourse_review%5D=%40default%2Cresponse%2Ccontent_html%2Ccreated_formatted_with_time_since&fields%5Bcourse_review_response%5D=%40min%2Cuser%2Ccontent_html%2Ccreated_formatted_with_time_since&fields%5Buser%5D=%40min%2Cimage_50x50%2Cinitials%2Cpublic_display_name%2Ctracking_id&is_text_review=1&ordering=course_review_score__rank%2C-created&page=2","previous":null,"results":[{"_class":"course_review","id":121026672,"content":"100% a good match for me.","rating":4.5,"created":"2022-08-12T04:23:47-07:00","modified":"2022-08-18T01:51:35-07:00","user_modified":"2022-08-18T01:51:35-07:00","user":{"_class":"user","title":"Busani Nkazimulo Zondo","name":"Busani Nkazimulo","display_name":"Busani Nkazimulo Zondo","image_50x50":"https://img-b.udemycdn.com/user/50x50/anonymous_3.png","initials":"BZ","tracking_id":"-3v1JtJPQrG2eNNnpn0a9Q","public_display_name":"Busani Nkazimulo Z."},"response":null,"content_html":"<p>100% a good match for me.</p>","created_formatted_with_time_since":"3 weeks ago"},{"_class":"course_review","id":120763296,"content":"It was very easy to listen and follow through while keeping in memory the instructions and what each tag is for. Very informative","rating":5.0,"created":"2022-08-09T03:28:37-07:00","modified":"2022-08-18T01:45:55-07:00","user_modified":"2022-08-18T01:45:55-07:00","user":{"_class":"user","title":"Sikholiwe Phumlile Zondi","name":"Sikholiwe Phumlile","display_name":"Sikholiwe Phumlile Zondi","image_50x50":"https://img-b.udemycdn.com/user/50x50/anonymous_3.png","initials":"SZ","tracking_id":"Be-6KwI_TWK6ykrs6X86pQ","public_display_name":"Sikholiwe Phumlile Z."},"response":null,"content_html":"<p>It was very easy to listen and follow through while keeping in memory the instructions and what each tag is for. Very informative</p>","created_formatted_with_time_since":"3 weeks ago"},{"_class":"course_review","id":117802042,"content":"It has been a good match for me. It also widen my knowledge. The instructor is good ?","rating":5.0,"created":"2022-07-02T05:23:59-07:00","modified":"2022-07-09T07:18:32-07:00","user_modified":"2022-07-09T07:18:32-07:00","user":{"_class":"user","title":"Quadri Sukurat Mosunmola","name":"Quadri Sukurat","display_name":"Quadri Sukurat Mosunmola","image_50x50":"https://img-b.udemycdn.com/user/50x50/anonymous_3.png","initials":"QM","tracking_id":"CNt-LcMMSnS-oNJUKbbktg","public_display_name":"Quadri Sukurat M."},"response":{"_class":"course_review_response","id":9863746,"content":"Thank you for enrolling Quadri in the Introduction to Programming Course.  Thank you so much for giving this course a perfect 5 STAR Rating! I'm happy to hear that you really enjoyed taking this course.","created":"2022-07-11T10:33:17-07:00","modified":"2022-07-11T10:33:17-07:00","user":{"_class":"user","title":"Tech Learning Network","name":"Tech Learning","display_name":"Tech Learning Network","image_50x50":"https://img-b.udemycdn.com/user/50x50/11439_12bd_13.jpg","initials":"TN","tracking_id":"NKBkcYTZRpGDQwtdMNFGGA","public_display_name":"Tech Learning N."},"content_html":"<p>Thank you for enrolling Quadri in the Introduction to Programming Course.  Thank you so much for giving this course a perfect 5 STAR Rating! I'm happy to hear that you really enjoyed taking this course.</p>","created_formatted_with_time_since":"a month ago"},"content_html":"<p>It has been a good match for me. It also widen my knowledge. The instructor is good ?</p>","created_formatted_with_time_since":"2 months ago"},{"_class":"course_review","id":111916662,"content":"Learned that HTML5 is used to improve the language with support for the latest multimedia and other features","rating":4.5,"created":"2022-04-15T06:52:46-07:00","modified":"2022-04-18T06:52:30-07:00","user_modified":"2022-04-18T06:52:30-07:00","user":{"_class":"user","title":"Ramsey A. Banga","name":"Ramsey A.","display_name":"Ramsey A. Banga","image_50x50":"https://img-b.udemycdn.com/user/50x50/anonymous_3.png","initials":"RB","tracking_id":"_npLUv5bTzm-SOdEjBKDtA","public_display_name":"Ramsey A. B."},"response":null,"content_html":"<p>Learned that HTML5 is used to improve the language with support for the latest multimedia and other features</p>","created_formatted_with_time_since":"4 months ago"},{"_class":"course_review","id":107601928,"content":"This is a great course, and the instructor is super helpful! Unfortunately, I've run into issues because I have a different version of Python, etc.","rating":5.0,"created":"2022-02-15T17:43:42-08:00","modified":"2022-04-29T11:28:12-07:00","user_modified":"2022-04-29T11:28:12-07:00","user":{"_class":"user","title":"Sergey Grabot","name":"Sergey","display_name":"Sergey Grabot","image_50x50":"https://img-b.udemycdn.com/user/50x50/anonymous_3.png","initials":"SG","tracking_id":"6hDO3G_LRg2J3WwxjpiEmQ","public_display_name":"Sergey G."},"response":null,"content_html":"<p>This is a great course, and the instructor is super helpful! Unfortunately, I've run into issues because I have a different version of Python, etc.</p>","created_formatted_with_time_since":"6 months ago"},{"_class":"course_review","id":115675290,"content":"Exccelent course","rating":5.0,"created":"2022-06-05T07:49:11-07:00","modified":"2022-07-17T03:43:40-07:00","user_modified":"2022-07-17T03:43:40-07:00","user":{"_class":"user","title":"Nejc Pipenbaher","name":"Nejc","display_name":"Nejc Pipenbaher","image_50x50":"https://img-b.udemycdn.com/user/50x50/anonymous_3.png","initials":"NP","tracking_id":"JWuIBfPzQf2IJ4hl0WBydg","public_display_name":"Nejc P."},"response":null,"content_html":"<p>Exccelent course</p>","created_formatted_with_time_since":"2 months ago"},{"_class":"course_review","id":121397702,"content":"straight to the point.","rating":5.0,"created":"2022-08-17T07:54:39-07:00","modified":"2022-08-18T16:17:37-07:00","user_modified":"2022-08-18T16:17:37-07:00","user":{"_class":"user","title":"Ncumisa Rorwana","name":"Ncumisa","display_name":"Ncumisa Rorwana","image_50x50":"https://img-b.udemycdn.com/user/50x50/anonymous_3.png","initials":"NR","tracking_id":"BlnWEofmS_yLOgfmzQLIVA","public_display_name":"Ncumisa R."},"response":null,"content_html":"<p>straight to the point.</p>","created_formatted_with_time_since":"2 weeks ago"},{"_class":"course_review","id":113840334,"content":"Over my head, unfortunately","rating":2.0,"created":"2022-05-12T06:49:57-07:00","modified":"2022-07-13T06:48:17-07:00","user_modified":"2022-07-13T06:48:17-07:00","user":{"_class":"user","title":"Kelly Baughan","name":"Kelly","display_name":"Kelly Baughan","image_50x50":"https://img-b.udemycdn.com/user/50x50/anonymous_3.png","initials":"KB","tracking_id":"bDJfgTw6SYyCrpAbu8YcGw","public_display_name":"Kelly B."},"response":null,"content_html":"<p>Over my head, unfortunately</p>","created_formatted_with_time_since":"3 months ago"},{"_class":"course_review","id":120852934,"content":"so much information, it really helps.","rating":5.0,"created":"2022-08-10T02:35:19-07:00","modified":"2022-08-11T16:08:53-07:00","user_modified":"2022-08-10T02:35:44-07:00","user":{"_class":"user","title":"Tsholanang","name":"Tsholanang","display_name":"Tsholanang","image_50x50":"https://img-b.udemycdn.com/user/50x50/anonymous_3.png","initials":"T","tracking_id":"K2v52ZTyS7egq5fZEFQTmw","public_display_name":"Tsholanang"},"response":null,"content_html":"<p>so much information, it really helps.</p>","created_formatted_with_time_since":"3 weeks ago"},{"_class":"course_review","id":119847810,"content":"Great content","rating":4.0,"created":"2022-07-28T05:19:36-07:00","modified":"2022-08-01T04:45:59-07:00","user_modified":"2022-08-01T04:45:59-07:00","user":{"_class":"user","title":"Eugene Korku Shikabli","name":"Eugene Korku","display_name":"Eugene Korku Shikabli","image_50x50":"https://img-b.udemycdn.com/user/50x50/anonymous_3.png","initials":"ES","tracking_id":"Y--DYdXMT7mVk9_zW_it1w","public_display_name":"Eugene Korku S."},"response":null,"content_html":"<p>Great content</p>","created_formatted_with_time_since":"a month ago"},{"_class":"course_review","id":104857478,"content":"Some of the courses examples don't work one to one so some experimentation/look up is required. Overall, class is explained very well for anyone looking to get an overview of what exactly goes into programming, and the teacher is very well spoken!","rating":4.0,"created":"2022-01-12T16:04:48-08:00","modified":"2022-01-17T13:29:49-08:00","user_modified":"2022-01-17T13:29:49-08:00","user":{"_class":"user","title":"Devin Jefferson","name":"Devin","display_name":"Devin Jefferson","image_50x50":"https://img-b.udemycdn.com/user/50x50/anonymous_3.png","initials":"DJ","tracking_id":"61XXO3qlRFeUv2UmGO9Agg","public_display_name":"Devin J."},"response":{"_class":"course_review_response","id":8990016,"content":"Thank you Devin for enrolling in the Introduction to Programming Course.  Your Comments have been noted and thank you for taking the time to do the review for this course.","created":"2022-01-21T09:07:06-08:00","modified":"2022-01-21T09:07:06-08:00","user":{"_class":"user","title":"Tech Learning Network","name":"Tech Learning","display_name":"Tech Learning Network","image_50x50":"https://img-b.udemycdn.com/user/50x50/11439_12bd_13.jpg","initials":"TN","tracking_id":"NKBkcYTZRpGDQwtdMNFGGA","public_display_name":"Tech Learning N."},"content_html":"<p>Thank you Devin for enrolling in the Introduction to Programming Course.  Your Comments have been noted and thank you for taking the time to do the review for this course.</p>","created_formatted_with_time_since":"7 months ago"},"content_html":"<p>Some of the courses examples don't work one to one so some experimentation/look up is required. Overall, class is explained very well for anyone looking to get an overview of what exactly goes into programming, and the teacher is very well spoken!</p>","created_formatted_with_time_since":"7 months ago"},{"_class":"course_review","id":102574220,"content":"I'm 50%  so far. Can't wait to reach 100% and start building my first app","rating":5.0,"created":"2021-12-15T00:51:04-08:00","modified":"2022-05-26T03:04:00-07:00","user_modified":"2022-05-26T03:04:00-07:00","user":{"_class":"user","title":"Mariusz Rozmysłowicz","name":"Mariusz","display_name":"Mariusz Rozmysłowicz","image_50x50":"https://img-b.udemycdn.com/user/50x50/anonymous_3.png","initials":"MR","tracking_id":"UcAbmFscRc-6xgjFWr2WXQ","public_display_name":"Mariusz R."},"response":{"_class":"course_review_response","id":9636652,"content":"Thank you for enrolling Mariusz in Introduction to Programming. Thanks so much for a 5 STAR Review!","created":"2022-05-27T11:26:50-07:00","modified":"2022-05-27T11:26:50-07:00","user":{"_class":"user","title":"Tech Learning Network","name":"Tech Learning","display_name":"Tech Learning Network","image_50x50":"https://img-b.udemycdn.com/user/50x50/11439_12bd_13.jpg","initials":"TN","tracking_id":"NKBkcYTZRpGDQwtdMNFGGA","public_display_name":"Tech Learning N."},"content_html":"<p>Thank you for enrolling Mariusz in Introduction to Programming. Thanks so much for a 5 STAR Review!</p>","created_formatted_with_time_since":"3 months ago"},"content_html":"<p>I'm 50%  so far. Can't wait to reach 100% and start building my first app</p>","created_formatted_with_time_since":"8 months ago"}]}