{"count":913,"next":"https://www.udemy.com/api-2.0/courses/535622/reviews/?courseId=535622&fields%5Bcourse_review%5D=%40default%2Cresponse%2Ccontent_html%2Ccreated_formatted_with_time_since&fields%5Bcourse_review_response%5D=%40min%2Cuser%2Ccontent_html%2Ccreated_formatted_with_time_since&fields%5Buser%5D=%40min%2Cimage_50x50%2Cinitials%2Cpublic_display_name%2Ctracking_id&is_text_review=1&ordering=course_review_score__rank%2C-created&page=2","previous":null,"results":[{"_class":"course_review","id":120086552,"content":"It's outdated and the code on the very first exercise (dynamic array sys.getsizeof()) doesn't work. Many students have asked questions relating to that issue with no response from the instructors. They suggested from cytpes import sizeof but that suggestion did not work and they didn't respond to students who mentioned such.","rating":2.0,"created":"2022-07-31T16:07:51-07:00","modified":"2022-08-01T16:10:18-07:00","user_modified":"2022-07-31T16:10:07-07:00","user":{"_class":"user","title":"Michael De Fabrizio","name":"Michael","display_name":"Michael De Fabrizio","image_50x50":"https://img-c.udemycdn.com/user/50x50/anonymous_3.png","initials":"MD","tracking_id":"M-TMU7XgRy-_W35MRxNuHw","public_display_name":"Michael D."},"response":null,"content_html":"<p>It's outdated and the code on the very first exercise (dynamic array sys.getsizeof()) doesn't work. Many students have asked questions relating to that issue with no response from the instructors. They suggested from cytpes import sizeof but that suggestion did not work and they didn't respond to students who mentioned such.</p>","created_formatted_with_time_since":"a month ago"},{"_class":"course_review","id":119244088,"content":"Still hard to understand the specific algorithm and Jose just simply repeated the words and there is hardly new thing he said in the interview questions answers","rating":4.0,"created":"2022-07-20T13:25:11-07:00","modified":"2022-07-26T12:39:27-07:00","user_modified":"2022-07-26T12:39:27-07:00","user":{"_class":"user","title":"Haohan Yang","name":"Haohan","display_name":"Haohan Yang","image_50x50":"https://img-c.udemycdn.com/user/50x50/anonymous_3.png","initials":"HY","tracking_id":"R9etnG_pQ2GkVaD7PKNi-A","public_display_name":"Haohan Y."},"response":null,"content_html":"<p>Still hard to understand the specific algorithm and Jose just simply repeated the words and there is hardly new thing he said in the interview questions answers</p>","created_formatted_with_time_since":"a month ago"},{"_class":"course_review","id":116661862,"content":"Taking step closer to crack the interview.\nMany new things and aspect to learn.","rating":5.0,"created":"2022-06-17T17:37:02-07:00","modified":"2022-06-19T16:08:39-07:00","user_modified":"2022-06-17T17:38:15-07:00","user":{"_class":"user","title":"Hiren.Gohil","name":"Hiren.Gohil","display_name":"Hiren.Gohil","image_50x50":"https://img-c.udemycdn.com/user/50x50/anonymous_3.png","initials":"H","tracking_id":"XEXoqZtXSri5zxE1ERMqcQ","public_display_name":"Hiren.Gohil"},"response":null,"content_html":"<p>Taking step closer to crack the interview.<br>Many new things and aspect to learn.</p>","created_formatted_with_time_since":"2 months ago"},{"_class":"course_review","id":115381140,"content":"It is well explained but would have been better if you found time to explain with objects before coding it out.","rating":5.0,"created":"2022-06-01T03:55:30-07:00","modified":"2022-08-25T06:31:36-07:00","user_modified":"2022-08-25T06:31:36-07:00","user":{"_class":"user","title":"Fawaz Olokodana","name":"Fawaz","display_name":"Fawaz Olokodana","image_50x50":"https://img-c.udemycdn.com/user/50x50/anonymous_3.png","initials":"FO","tracking_id":"qHRD53b_QYeyuYtAby5E0A","public_display_name":"Fawaz O."},"response":null,"content_html":"<p>It is well explained but would have been better if you found time to explain with objects before coding it out.</p>","created_formatted_with_time_since":"3 months ago"},{"_class":"course_review","id":114302174,"content":"Halfway through the course, and I find each session so rich in information.","rating":5.0,"created":"2022-05-18T13:59:41-07:00","modified":"2022-06-22T11:07:23-07:00","user_modified":"2022-06-22T11:07:23-07:00","user":{"_class":"user","title":"Guido Perez","name":"Guido","display_name":"Guido Perez","image_50x50":"https://img-c.udemycdn.com/user/50x50/anonymous_3.png","initials":"GP","tracking_id":"3FnMIzZmR1muYRfx4yKdmw","public_display_name":"Guido P."},"response":null,"content_html":"<p>Halfway through the course, and I find each session so rich in information.</p>","created_formatted_with_time_since":"3 months ago"},{"_class":"course_review","id":109865694,"content":"Very clear and organized. The interview questions really make you think. Almost immediate answer from the teachers for every question I've had so far.","rating":4.5,"created":"2022-03-17T17:59:32-07:00","modified":"2022-03-18T16:03:41-07:00","user_modified":"2022-03-17T18:01:09-07:00","user":{"_class":"user","title":"Pablo Santiago Rodriguez Castro","name":"Pablo Santiago","display_name":"Pablo Santiago Rodriguez Castro","image_50x50":"https://img-c.udemycdn.com/user/50x50/anonymous_3.png","initials":"PR","tracking_id":"4liUlo9aTmi4usMbzBf-kA","public_display_name":"Pablo Santiago R."},"response":null,"content_html":"<p>Very clear and organized. The interview questions really make you think. Almost immediate answer from the teachers for every question I've had so far.</p>","created_formatted_with_time_since":"5 months ago"},{"_class":"course_review","id":118862212,"content":"Nobody is responding to my questions, Jose is not opening to message, man","rating":1.0,"created":"2022-07-15T15:17:16-07:00","modified":"2022-07-17T16:08:50-07:00","user_modified":"2022-07-15T15:17:40-07:00","user":{"_class":"user","title":"Shan Jiang","name":"Shan","display_name":"Shan Jiang","image_50x50":"https://img-c.udemycdn.com/user/50x50/anonymous_3.png","initials":"SJ","tracking_id":"fiSZXv5dTYe9I0_eqn7RcA","public_display_name":"Shan J."},"response":null,"content_html":"<p>Nobody is responding to my questions, Jose is not opening to message, man</p>","created_formatted_with_time_since":"a month ago"},{"_class":"course_review","id":111529366,"content":"So many resources were copy and pasted from the internet","rating":1.5,"created":"2022-04-09T21:51:58-07:00","modified":"2022-04-11T00:41:09-07:00","user_modified":"2022-04-09T21:52:32-07:00","user":{"_class":"user","title":"Logan Park","name":"Logan","display_name":"Logan Park","image_50x50":"https://img-c.udemycdn.com/user/50x50/anonymous_3.png","initials":"LP","tracking_id":"l4s76QCmSmOxcHL-DbL7zQ","public_display_name":"Logan P."},"response":null,"content_html":"<p>So many resources were copy and pasted from the internet</p>","created_formatted_with_time_since":"4 months ago"},{"_class":"course_review","id":109030284,"content":"perfect technical interview prep, clear explanations and good questions to understand the underlying logic.","rating":5.0,"created":"2022-03-07T03:09:20-08:00","modified":"2022-03-08T15:03:18-08:00","user_modified":"2022-03-07T03:09:56-08:00","user":{"_class":"user","title":"Pavlina Petrova","name":"Pavlina","display_name":"Pavlina Petrova","image_50x50":"https://img-c.udemycdn.com/user/50x50/anonymous_3.png","initials":"PP","tracking_id":"exUWMsimTiSc4ehoAodkrg","public_display_name":"Pavlina P."},"response":null,"content_html":"<p>perfect technical interview prep, clear explanations and good questions to understand the underlying logic.</p>","created_formatted_with_time_since":"5 months ago"},{"_class":"course_review","id":101302366,"content":"The course should have focused more on the technical aspects of Data Structures and Algorithms e.g. what you can do with it, how can they be applied to real world problems, how to analyze Big-O, which algorithm/code would give certain type of Big-O so one can avoid, etc. Those barely scratch the surface. Instead, the course heavily focuses on different problems, but the technical aspect is very lacking. It's more like a coding exercise which scratches on the surface of Data Structures and Algorithms. As for the Interview sections, even though I had fun from it, it isn't useful or helpful.","rating":2.5,"created":"2021-11-28T17:49:02-08:00","modified":"2021-11-29T15:04:46-08:00","user_modified":"2021-11-28T18:00:02-08:00","user":{"_class":"user","title":"N S","name":"N","display_name":"N S","image_50x50":"https://img-c.udemycdn.com/user/50x50/anonymous_3.png","initials":"NS","tracking_id":"KSsQfqJnSSO6-gFiUMGpNA","public_display_name":"N S."},"response":null,"content_html":"<p>The course should have focused more on the technical aspects of Data Structures and Algorithms e.g. what you can do with it, how can they be applied to real world problems, how to analyze Big-O, which algorithm/code would give certain type of Big-O so one can avoid, etc. Those barely scratch the surface. Instead, the course heavily focuses on different problems, but the technical aspect is very lacking. It's more like a coding exercise which scratches on the surface of Data Structures and Algorithms. As for the Interview sections, even though I had fun from it, it isn't useful or helpful.</p>","created_formatted_with_time_since":"9 months ago"},{"_class":"course_review","id":118650602,"content":"its really good","rating":5.0,"created":"2022-07-13T06:44:14-07:00","modified":"2022-07-14T16:06:14-07:00","user_modified":"2022-07-13T06:44:21-07:00","user":{"_class":"user","title":"Gowsalya","name":"Gowsalya","display_name":"Gowsalya","image_50x50":"https://img-c.udemycdn.com/user/50x50/anonymous_3.png","initials":"G","tracking_id":"EYLS_pJpRMWtbOmLDTUjvg","public_display_name":"Gowsalya"},"response":null,"content_html":"<p>its really good</p>","created_formatted_with_time_since":"a month ago"},{"_class":"course_review","id":102467774,"content":"The content of this class is great, but the explanation could be better. Try to talk more like a conversation, not just reading out the text. Also, the recap of problem statement before the solution lecture is not necessary.","rating":3.0,"created":"2021-12-13T17:33:12-08:00","modified":"2021-12-29T09:52:33-08:00","user_modified":"2021-12-29T09:52:33-08:00","user":{"_class":"user","title":"Yufeng Shen","name":"Yufeng","display_name":"Yufeng Shen","image_50x50":"https://img-c.udemycdn.com/user/50x50/anonymous_3.png","initials":"YS","tracking_id":"CWfxSqMDQzm_967ug-dlJg","public_display_name":"Yufeng S."},"response":null,"content_html":"<p>The content of this class is great, but the explanation could be better. Try to talk more like a conversation, not just reading out the text. Also, the recap of problem statement before the solution lecture is not necessary.</p>","created_formatted_with_time_since":"8 months ago"}]}