{"count":10000,"next":"https://www.udemy.com/api-2.0/courses/543600/reviews/?courseId=543600&fields%5Bcourse_review%5D=%40default%2Cresponse%2Ccontent_html%2Ccreated_formatted_with_time_since&fields%5Bcourse_review_response%5D=%40min%2Cuser%2Ccontent_html%2Ccreated_formatted_with_time_since&fields%5Buser%5D=%40min%2Cimage_50x50%2Cinitials%2Cpublic_display_name%2Ctracking_id&is_text_review=1&ordering=course_review_score__rank%2C-created&page=2","previous":null,"results":[{"_class":"course_review","id":122149984,"content":"A great course for being introduced to the python language and then some. Parts of the course are somewhat outdated towards the end, but this is only a minor issue with solutions in the newer versions of the course book. It would have been nice to have been set programs to write with what has been taught.","rating":4.5,"created":"2022-08-26T12:06:24-07:00","modified":"2022-08-27T16:06:26-07:00","user_modified":"2022-08-26T12:09:06-07:00","user":{"_class":"user","title":"James Stephenson","name":"James","display_name":"James Stephenson","image_50x50":"https://img-c.udemycdn.com/user/50x50/anonymous_3.png","initials":"JS","tracking_id":"jWIBEbrnQO6WZQfdmh-hKg","public_display_name":"James S."},"response":null,"content_html":"<p>A great course for being introduced to the python language and then some. Parts of the course are somewhat outdated towards the end, but this is only a minor issue with solutions in the newer versions of the course book. It would have been nice to have been set programs to write with what has been taught.</p>","created_formatted_with_time_since":"a week ago"},{"_class":"course_review","id":121654574,"content":"Great course, only complaint is notes get lost when you typed them out in the text box and decide to maximize the screen to hide the lesson list. Very frustrating to have to retype notes. Other than that AMAZING.","rating":5.0,"created":"2022-08-20T23:31:53-07:00","modified":"2022-08-21T16:09:39-07:00","user_modified":"2022-08-20T23:33:23-07:00","user":{"_class":"user","title":"magna378 .","name":"magna378","display_name":"magna378 .","image_50x50":"https://img-c.udemycdn.com/user/50x50/anonymous_3.png","initials":"M.","tracking_id":"Omnv6-IARZ-OW28D92ic4A","public_display_name":"magna378 .."},"response":null,"content_html":"<p>Great course, only complaint is notes get lost when you typed them out in the text box and decide to maximize the screen to hide the lesson list. Very frustrating to have to retype notes. Other than that AMAZING.</p>","created_formatted_with_time_since":"a week ago"},{"_class":"course_review","id":120619488,"content":"Very good, a bit sad that last chapters had some tiny bit of oudated info like selenium and mail ones, but the course is still amazing !","rating":4.5,"created":"2022-08-07T08:05:51-07:00","modified":"2022-08-08T16:09:17-07:00","user_modified":"2022-08-07T08:07:16-07:00","user":{"_class":"user","title":"Denis Gorbuleac","name":"Denis","display_name":"Denis Gorbuleac","image_50x50":"https://img-c.udemycdn.com/user/50x50/34674076_4e98.jpg","initials":"DG","tracking_id":"3Gu8NwP6QKWbh3RJ4xwMMg","public_display_name":"Denis G."},"response":null,"content_html":"<p>Very good, a bit sad that last chapters had some tiny bit of oudated info like selenium and mail ones, but the course is still amazing !</p>","created_formatted_with_time_since":"3 weeks ago"},{"_class":"course_review","id":120511226,"content":"From my coding position, thank you for such an useful and funny course!! The numerous examples make you try, find errors and most important: learn how to solve them to not get stuck and continue practising!","rating":5.0,"created":"2022-08-05T08:05:43-07:00","modified":"2022-08-06T16:09:51-07:00","user_modified":"2022-08-05T08:08:43-07:00","user":{"_class":"user","title":"Alexis Nevot","name":"Alexis","display_name":"Alexis Nevot","image_50x50":"https://img-c.udemycdn.com/user/50x50/anonymous_3.png","initials":"AN","tracking_id":"w77fJyWvTH6n_gaDFFSa7g","public_display_name":"Alexis N."},"response":null,"content_html":"<p>From my coding position, thank you for such an useful and funny course!! The numerous examples make you try, find errors and most important: learn how to solve them to not get stuck and continue practising!</p>","created_formatted_with_time_since":"4 weeks ago"},{"_class":"course_review","id":119193810,"content":"I started by reading half of the book. It was very nice and the learning curve is excellent for someone like me, who does not really have any programming experience. Then, I saw that there was an online video module of the book, explained by the author. I am very happy with what I have learnt, and now I am way less scared of programming something. Thank you very much for the excellent content.","rating":5.0,"created":"2022-07-20T02:51:58-07:00","modified":"2022-07-22T16:17:07-07:00","user_modified":"2022-07-20T02:54:59-07:00","user":{"_class":"user","title":"Julien Aubourg","name":"Julien","display_name":"Julien Aubourg","image_50x50":"https://img-c.udemycdn.com/user/50x50/anonymous_3.png","initials":"JA","tracking_id":"o_R19kIwTfmC8F05LkoN9w","public_display_name":"Julien A."},"response":null,"content_html":"<p>I started by reading half of the book. It was very nice and the learning curve is excellent for someone like me, who does not really have any programming experience. Then, I saw that there was an online video module of the book, explained by the author. I am very happy with what I have learnt, and now I am way less scared of programming something. Thank you very much for the excellent content.</p>","created_formatted_with_time_since":"a month ago"},{"_class":"course_review","id":119850496,"content":"Such a great course as an intro to python programming. Al Sweigart does a wonderful job to explain things as you go along with the course. A truly awesome instructor. I most highly would recommend this course for total beginners to python and programming in general.","rating":5.0,"created":"2022-07-28T05:50:33-07:00","modified":"2022-07-29T16:12:10-07:00","user_modified":"2022-07-28T05:52:35-07:00","user":{"_class":"user","title":"Mohammed Salim","name":"Mohammed","display_name":"Mohammed Salim","image_50x50":"https://img-c.udemycdn.com/user/50x50/anonymous_3.png","initials":"MS","tracking_id":"ee1pK899RxWpYi4o4iGNmQ","public_display_name":"Mohammed S."},"response":null,"content_html":"<p>Such a great course as an intro to python programming. Al Sweigart does a wonderful job to explain things as you go along with the course. A truly awesome instructor. I most highly would recommend this course for total beginners to python and programming in general.</p>","created_formatted_with_time_since":"a month ago"},{"_class":"course_review","id":120781958,"content":"Excellent Course . I am a cyber security professional. Can you suggest me some projects that I should learn and work on as I see in many job openings a candidate requires to have skills in Automation using python. Thanks for this course . I will suggest this course to few of my friends they will also love it!","rating":5.0,"created":"2022-08-09T07:25:30-07:00","modified":"2022-08-10T16:15:43-07:00","user_modified":"2022-08-09T07:28:26-07:00","user":{"_class":"user","title":"Deepanshu Mishra","name":"Deepanshu","display_name":"Deepanshu Mishra","image_50x50":"https://img-c.udemycdn.com/user/50x50/anonymous_3.png","initials":"DM","tracking_id":"kf9kE7ntQFq2HMcw1VZi5A","public_display_name":"Deepanshu M."},"response":null,"content_html":"<p>Excellent Course . I am a cyber security professional. Can you suggest me some projects that I should learn and work on as I see in many job openings a candidate requires to have skills in Automation using python. Thanks for this course . I will suggest this course to few of my friends they will also love it!</p>","created_formatted_with_time_since":"3 weeks ago"},{"_class":"course_review","id":121659086,"content":"I had various mechanistic tasks to do quite frequently in my job, which require hundreds of clicks and mouse operations if done manually (e.g., Excel files, pdfs, and text files). Before this course, I was aware that these tasks could be automated with Python, but I did not know the relevant Python libraries that can do so (as there are so many possibilities, and some libraries are too complicated or limited). This course provided various practical examples and suggested libraries for achieving those tasks. I have already applied some of examples given in the course to my personal needs, and indeed, I have less boring, mechanistic tasks on my todos ... and my mouse hand is happier, too. I wish had taken this course sooner.","rating":5.0,"created":"2022-08-21T01:45:13-07:00","modified":"2022-08-23T16:08:27-07:00","user_modified":"2022-08-21T01:53:57-07:00","user":{"_class":"user","title":"Jani R","name":"Jani","display_name":"Jani R","image_50x50":"https://img-c.udemycdn.com/user/50x50/anonymous_3.png","initials":"JR","tracking_id":"sZrZWO7XT9-2NvujOiVv_w","public_display_name":"Jani R."},"response":null,"content_html":"<p>I had various mechanistic tasks to do quite frequently in my job, which require hundreds of clicks and mouse operations if done manually (e.g., Excel files, pdfs, and text files). Before this course, I was aware that these tasks could be automated with Python, but I did not know the relevant Python libraries that can do so (as there are so many possibilities, and some libraries are too complicated or limited). This course provided various practical examples and suggested libraries for achieving those tasks. I have already applied some of examples given in the course to my personal needs, and indeed, I have less boring, mechanistic tasks on my todos ... and my mouse hand is happier, too. I wish had taken this course sooner.</p>","created_formatted_with_time_since":"a week ago"},{"_class":"course_review","id":109293784,"content":"Great Explanation, for all the core topics. Trying out the code on the IDE along with Al.","rating":5.0,"created":"2022-03-10T03:51:25-08:00","modified":"2022-03-11T15:04:49-08:00","user_modified":"2022-03-10T03:59:40-08:00","user":{"_class":"user","title":"Rohit Saha","name":"Rohit","display_name":"Rohit Saha","image_50x50":"https://img-c.udemycdn.com/user/50x50/22998280_abbf_2.jpg","initials":"RS","tracking_id":"RKrEqTugQaGboo4ga8XndA","public_display_name":"Rohit S."},"response":null,"content_html":"<p>Great Explanation, for all the core topics. Trying out the code on the IDE along with Al.</p>","created_formatted_with_time_since":"5 months ago"},{"_class":"course_review","id":121902972,"content":"The way this was delivered... IDK, I work in an environment where we use Nodejs and JS and I could not help but see the overlaps - which made debugging our code alil easier - so thank you kind sir","rating":5.0,"created":"2022-08-23T23:41:07-07:00","modified":"2022-08-24T16:22:13-07:00","user_modified":"2022-08-23T23:42:19-07:00","user":{"_class":"user","title":"Tyrone Maasdorp","name":"Tyrone","display_name":"Tyrone Maasdorp","image_50x50":"https://img-c.udemycdn.com/user/50x50/anonymous_3.png","initials":"TM","tracking_id":"nj_ctAjwTnKGCbqKFvPFhQ","public_display_name":"Tyrone M."},"response":null,"content_html":"<p>The way this was delivered... IDK, I work in an environment where we use Nodejs and JS and I could not help but see the overlaps - which made debugging our code alil easier - so thank you kind sir</p>","created_formatted_with_time_since":"a week ago"},{"_class":"course_review","id":119598306,"content":"Great content, some outdated (Selenium section). Learned a lot of useful tricks that I am already putting to use. Wish there were some exercises to test your knowledge.","rating":3.5,"created":"2022-07-25T13:15:21-07:00","modified":"2022-07-26T16:26:56-07:00","user_modified":"2022-07-25T13:16:24-07:00","user":{"_class":"user","title":"Tyler Gennarelli","name":"Tyler","display_name":"Tyler Gennarelli","image_50x50":"https://img-c.udemycdn.com/user/50x50/anonymous_3.png","initials":"TG","tracking_id":"csEgpQqtRDuzetwka3-LEg","public_display_name":"Tyler G."},"response":null,"content_html":"<p>Great content, some outdated (Selenium section). Learned a lot of useful tricks that I am already putting to use. Wish there were some exercises to test your knowledge.</p>","created_formatted_with_time_since":"a month ago"},{"_class":"course_review","id":121845222,"content":"Noções básicas, porém muito uteis. Com este curso já é possível desenvolver muita coisa interessante e claro, automatizar as tarefas chatas.","rating":5.0,"created":"2022-08-23T07:43:22-07:00","modified":"2022-08-24T16:17:49-07:00","user_modified":"2022-08-23T07:45:11-07:00","user":{"_class":"user","title":"Rafael Kioshi Shirouzu","name":"Rafael Kioshi","display_name":"Rafael Kioshi Shirouzu","image_50x50":"https://img-c.udemycdn.com/user/50x50/anonymous_3.png","initials":"RS","tracking_id":"UXTN_0YWQ2-xAGSYA8adjw","public_display_name":"Rafael Kioshi S."},"response":null,"content_html":"<p>Noções básicas, porém muito uteis. Com este curso já é possível desenvolver muita coisa interessante e claro, automatizar as tarefas chatas.</p>","created_formatted_with_time_since":"a week ago"}]}