{"count":1421,"next":"https://www.udemy.com/api-2.0/courses/548278/reviews/?courseId=548278&fields%5Bcourse_review%5D=%40default%2Cresponse%2Ccontent_html%2Ccreated_formatted_with_time_since&fields%5Bcourse_review_response%5D=%40min%2Cuser%2Ccontent_html%2Ccreated_formatted_with_time_since&fields%5Buser%5D=%40min%2Cimage_50x50%2Cinitials%2Cpublic_display_name%2Ctracking_id&is_text_review=1&ordering=course_review_score__rank%2C-created&page=2","previous":null,"results":[{"_class":"course_review","id":121468024,"content":"thanks for making such a  beautiful course , I love it","rating":5.0,"created":"2022-08-18T03:53:42-07:00","modified":"2022-08-19T16:09:49-07:00","user_modified":"2022-08-18T03:54:29-07:00","user":{"_class":"user","title":"Chandan kumar yadav","name":"Chandan kumar","display_name":"Chandan kumar yadav","image_50x50":"https://img-c.udemycdn.com/user/50x50/anonymous_3.png","initials":"CY","tracking_id":"HwZPQwC1ScmDeNipDnw7pw","public_display_name":"Chandan kumar Y."},"response":null,"content_html":"<p>thanks for making such a  beautiful course , I love it</p>","created_formatted_with_time_since":"2 weeks ago"},{"_class":"course_review","id":121090036,"content":"it was a really good course, especially for starters with no CS background and then taking you up to the professional level..","rating":4.5,"created":"2022-08-13T04:55:32-07:00","modified":"2022-08-14T16:07:40-07:00","user_modified":"2022-08-13T04:56:23-07:00","user":{"_class":"user","title":"Claygen Philip Abreu","name":"Claygen Philip","display_name":"Claygen Philip Abreu","image_50x50":"https://img-c.udemycdn.com/user/50x50/anonymous_3.png","initials":"CA","tracking_id":"4OD1Sv-ZRFSxY_xOfswyEw","public_display_name":"Claygen Philip A."},"response":null,"content_html":"<p>it was a really good course, especially for starters with no CS background and then taking you up to the professional level..</p>","created_formatted_with_time_since":"2 weeks ago"},{"_class":"course_review","id":117794986,"content":"This course by far is really great! Recommendation - 1/1!","rating":4.0,"created":"2022-07-02T02:16:41-07:00","modified":"2022-07-04T16:03:56-07:00","user_modified":"2022-07-02T02:17:12-07:00","user":{"_class":"user","title":"Ivan Voda","name":"Ivan","display_name":"Ivan Voda","image_50x50":"https://img-c.udemycdn.com/user/50x50/anonymous_3.png","initials":"IV","tracking_id":"TQ9dy4vWQEOFt8LWJiadkg","public_display_name":"Ivan V."},"response":null,"content_html":"<p>This course by far is really great! Recommendation - 1/1!</p>","created_formatted_with_time_since":"2 months ago"},{"_class":"course_review","id":113856368,"content":"should be updated to the latest versions","rating":3.0,"created":"2022-05-12T10:31:57-07:00","modified":"2022-05-13T16:10:38-07:00","user_modified":"2022-05-12T10:32:25-07:00","user":{"_class":"user","title":"Shalom Olufemi","name":"Shalom","display_name":"Shalom Olufemi","image_50x50":"https://img-c.udemycdn.com/user/50x50/anonymous_3.png","initials":"SO","tracking_id":"UyOpJqfJSsy9saq7tmW4mg","public_display_name":"Shalom O."},"response":null,"content_html":"<p>should be updated to the latest versions</p>","created_formatted_with_time_since":"3 months ago"},{"_class":"course_review","id":112340044,"content":"really complete web developer training","rating":5.0,"created":"2022-04-21T08:06:25-07:00","modified":"2022-04-22T16:14:12-07:00","user_modified":"2022-04-21T08:06:56-07:00","user":{"_class":"user","title":"Joan","name":"Joan","display_name":"Joan","image_50x50":"https://img-c.udemycdn.com/user/50x50/anonymous_3.png","initials":"J","tracking_id":"Ox2mPoiLS5iwz4zRyCTsUA","public_display_name":"Joan"},"response":null,"content_html":"<p>really complete web developer training</p>","created_formatted_with_time_since":"4 months ago"},{"_class":"course_review","id":102975224,"content":"Hare Krishna Sir, Thank you so much Sir for this nice course .\nIn this course you are teaching from very beginning to advance and you clear our doubt very easily  also your teaching style so simple and understandable by anyone.\n\nAgain thanks!\nHare Krishna","rating":5.0,"created":"2021-12-21T01:05:39-08:00","modified":"2021-12-23T15:06:52-08:00","user_modified":"2021-12-21T01:08:49-08:00","user":{"_class":"user","title":"For_course2020","name":"For_course2020","display_name":"For_course2020","image_50x50":"https://img-c.udemycdn.com/user/50x50/anonymous_3.png","initials":"F","tracking_id":"223ZuHi3Qsqx6k-IkHevXQ","public_display_name":"For_course2020"},"response":null,"content_html":"<p>Hare Krishna Sir, Thank you so much Sir for this nice course .<br>In this course you are teaching from very beginning to advance and you clear our doubt very easily  also your teaching style so simple and understandable by anyone.</p>\n\n<p>Again thanks!<br>Hare Krishna</p>","created_formatted_with_time_since":"8 months ago"},{"_class":"course_review","id":122055668,"content":"I think this is one of the best course I purchased online. Here I can master every element separately.","rating":4.5,"created":"2022-08-25T11:16:32-07:00","modified":"2022-08-26T16:09:24-07:00","user_modified":"2022-08-25T11:17:56-07:00","user":{"_class":"user","title":"Deepak Chaudhary","name":"Deepak","display_name":"Deepak Chaudhary","image_50x50":"https://img-c.udemycdn.com/user/50x50/anonymous_3.png","initials":"DC","tracking_id":"0yosolVLQ_WU29-c0L1RCg","public_display_name":"Deepak C."},"response":null,"content_html":"<p>I think this is one of the best course I purchased online. Here I can master every element separately.</p>","created_formatted_with_time_since":"a week ago"},{"_class":"course_review","id":122297540,"content":"Amazing course and best for someone who is not familiar with web development.","rating":5.0,"created":"2022-08-28T22:53:56-07:00","modified":"2022-08-29T16:21:07-07:00","user_modified":"2022-08-28T22:54:31-07:00","user":{"_class":"user","title":"Mushtaq","name":"Mushtaq","display_name":"Mushtaq","image_50x50":"https://img-c.udemycdn.com/user/50x50/anonymous_3.png","initials":"M","tracking_id":"M1wXXEh8T8KzPbKNwooaGg","public_display_name":"Mushtaq"},"response":null,"content_html":"<p>Amazing course and best for someone who is not familiar with web development.</p>","created_formatted_with_time_since":"4 days ago"},{"_class":"course_review","id":117729200,"content":"Superb Class worth for the money","rating":4.5,"created":"2022-07-01T02:16:29-07:00","modified":"2022-07-02T16:10:48-07:00","user_modified":"2022-07-01T02:16:45-07:00","user":{"_class":"user","title":"Sowmiya Azhagesan","name":"Sowmiya","display_name":"Sowmiya Azhagesan","image_50x50":"https://img-c.udemycdn.com/user/50x50/anonymous_3.png","initials":"SA","tracking_id":"4sba92CsSXuORCFW_7fyiQ","public_display_name":"Sowmiya A."},"response":null,"content_html":"<p>Superb Class worth for the money</p>","created_formatted_with_time_since":"2 months ago"},{"_class":"course_review","id":118339470,"content":"my experience to this program is very nice but am still confused a kind of because its too fast for me to comprehend at the main time.","rating":5.0,"created":"2022-07-09T03:58:25-07:00","modified":"2022-07-10T16:07:16-07:00","user_modified":"2022-07-09T04:06:24-07:00","user":{"_class":"user","title":"Technical Support","name":"Technical","display_name":"Technical Support","image_50x50":"https://img-c.udemycdn.com/user/50x50/anonymous_3.png","initials":"TS","tracking_id":"mrpNpviXQ8WmvmVMt4AUrw","public_display_name":"Technical S."},"response":null,"content_html":"<p>my experience to this program is very nice but am still confused a kind of because its too fast for me to comprehend at the main time.</p>","created_formatted_with_time_since":"a month ago"},{"_class":"course_review","id":117863430,"content":"I am a software engineering student \nthis courses helps me a lot \nThan you very much. you are a wonderful instructor.\n\n I personally recommend this courses.","rating":5.0,"created":"2022-07-03T09:39:03-07:00","modified":"2022-07-05T16:07:11-07:00","user_modified":"2022-07-03T09:43:36-07:00","user":{"_class":"user","title":"Binyam","name":"Binyam","display_name":"Binyam","image_50x50":"https://img-c.udemycdn.com/user/50x50/anonymous_3.png","initials":"B","tracking_id":"vAw9ZRHISm2TAJoWcY-E_g","public_display_name":"Binyam"},"response":null,"content_html":"<p>I am a software engineering student <br>this courses helps me a lot <br>Than you very much. you are a wonderful instructor.</p>\n\n<p> I personally recommend this courses.</p>","created_formatted_with_time_since":"2 months ago"},{"_class":"course_review","id":109948686,"content":"I am only in lesson 21 but I find this a very amazing and useful course at udemy.  It is the perfect match for me and for people who really need detailed step by step instructions.  The free hosting for your hands-on and the applications he recommends are good.  You can follow him step by step.","rating":5.0,"created":"2022-03-19T02:43:36-07:00","modified":"2022-03-20T16:06:05-07:00","user_modified":"2022-03-19T02:46:33-07:00","user":{"_class":"user","title":"Annabelle Carter","name":"Annabelle","display_name":"Annabelle Carter","image_50x50":"https://img-c.udemycdn.com/user/50x50/anonymous_3.png","initials":"AC","tracking_id":"gsoD2NWORA-Enjn7EooWwg","public_display_name":"Annabelle C."},"response":null,"content_html":"<p>I am only in lesson 21 but I find this a very amazing and useful course at udemy.  It is the perfect match for me and for people who really need detailed step by step instructions.  The free hosting for your hands-on and the applications he recommends are good.  You can follow him step by step.</p>","created_formatted_with_time_since":"5 months ago"}]}