{"count":315,"next":"https://www.udemy.com/api-2.0/courses/558096/reviews/?courseId=558096&fields%5Bcourse_review%5D=%40default%2Cresponse%2Ccontent_html%2Ccreated_formatted_with_time_since&fields%5Bcourse_review_response%5D=%40min%2Cuser%2Ccontent_html%2Ccreated_formatted_with_time_since&fields%5Buser%5D=%40min%2Cimage_50x50%2Cinitials%2Cpublic_display_name%2Ctracking_id&is_text_review=1&ordering=course_review_score__rank%2C-created&page=2","previous":null,"results":[{"_class":"course_review","id":118857174,"content":"great match. highly enjoyable.","rating":4.5,"created":"2022-07-15T13:25:36-07:00","modified":"2022-07-17T16:08:51-07:00","user_modified":"2022-07-15T13:25:53-07:00","user":{"_class":"user","title":"Dan Wilson","name":"Dan","display_name":"Dan Wilson","image_50x50":"https://img-c.udemycdn.com/user/50x50/anonymous_3.png","initials":"DW","tracking_id":"AMvzvLCoRKa9INv8TQdxGw","public_display_name":"Dan W."},"response":null,"content_html":"<p>great match. highly enjoyable.</p>","created_formatted_with_time_since":"a month ago"},{"_class":"course_review","id":110280184,"content":"Good information, but seriously in need of some updates. Was able to get most of this stuff working on Win 10, got a lot of help through Google. Kali is rather out of date here as well. That may have been some of the problems as well if you don't keep historical versions of Kali laying around.","rating":3.5,"created":"2022-03-23T13:45:46-07:00","modified":"2022-03-24T16:05:30-07:00","user_modified":"2022-03-23T13:47:36-07:00","user":{"_class":"user","title":"S W","name":"S","display_name":"S W","image_50x50":"https://img-c.udemycdn.com/user/50x50/anonymous_3.png","initials":"SW","tracking_id":"gmgo8cvFRkand7Az9qh-UA","public_display_name":"S W."},"response":null,"content_html":"<p>Good information, but seriously in need of some updates. Was able to get most of this stuff working on Win 10, got a lot of help through Google. Kali is rather out of date here as well. That may have been some of the problems as well if you don't keep historical versions of Kali laying around.</p>","created_formatted_with_time_since":"5 months ago"},{"_class":"course_review","id":108961556,"content":"Great course, I benefited a lot!","rating":5.0,"created":"2022-03-06T01:34:40-08:00","modified":"2022-03-07T22:01:33-08:00","user_modified":"2022-03-06T01:35:50-08:00","user":{"_class":"user","title":"Hsi-Hsun Yeh","name":"Hsi-Hsun","display_name":"Hsi-Hsun Yeh","image_50x50":"https://img-c.udemycdn.com/user/50x50/143553574_5052_2.jpg","initials":"HY","tracking_id":"_01VnET_QPqbxZnrb6DH4A","public_display_name":"Hsi-Hsun Y."},"response":null,"content_html":"<p>Great course, I benefited a lot!</p>","created_formatted_with_time_since":"6 months ago"},{"_class":"course_review","id":108307708,"content":"In one word: Perfect!","rating":5.0,"created":"2022-02-24T19:39:02-08:00","modified":"2022-02-26T15:04:25-08:00","user_modified":"2022-02-24T19:39:32-08:00","user":{"_class":"user","title":"Faleke Olajuwon Olawale","name":"Faleke","display_name":"Faleke Olajuwon Olawale","image_50x50":"https://img-c.udemycdn.com/user/50x50/anonymous_3.png","initials":"FO","tracking_id":"s2IPO5g_TdqfknjzgeggeA","public_display_name":"Faleke O."},"response":null,"content_html":"<p>In one word: Perfect!</p>","created_formatted_with_time_since":"6 months ago"},{"_class":"course_review","id":104481042,"content":"Awesome Course","rating":5.0,"created":"2022-01-08T14:27:21-08:00","modified":"2022-01-09T15:05:55-08:00","user_modified":"2022-01-08T14:44:49-08:00","user":{"_class":"user","title":"David","name":"David","display_name":"David","image_50x50":"https://img-c.udemycdn.com/user/50x50/anonymous_3.png","initials":"D","tracking_id":"KTNz_xnbRdGV5CshdH-8DQ","public_display_name":"David"},"response":null,"content_html":"<p>Awesome Course</p>","created_formatted_with_time_since":"7 months ago"},{"_class":"course_review","id":115300858,"content":"HORRIBLE i did a mistake by taking this","rating":1.5,"created":"2022-05-31T06:13:54-07:00","modified":"2022-06-02T21:12:31-07:00","user_modified":"2022-05-31T06:14:08-07:00","user":{"_class":"user","title":"Venkat","name":"Venkat","display_name":"Venkat","image_50x50":"https://img-c.udemycdn.com/user/50x50/anonymous_3.png","initials":"V","tracking_id":"BoMeOKmgS922_WM54nSX_g","public_display_name":"Venkat"},"response":null,"content_html":"<p>HORRIBLE i did a mistake by taking this</p>","created_formatted_with_time_since":"3 months ago"},{"_class":"course_review","id":115949640,"content":"buen curso","rating":4.5,"created":"2022-06-08T10:10:16-07:00","modified":"2022-06-09T16:12:55-07:00","user_modified":"2022-06-08T10:10:21-07:00","user":{"_class":"user","title":"Emilyn Rul","name":"Emilyn","display_name":"Emilyn Rul","image_50x50":"https://img-c.udemycdn.com/user/50x50/anonymous_3.png","initials":"ER","tracking_id":"f_CeV5AxSYuDsKixbm_xZw","public_display_name":"Emilyn R."},"response":null,"content_html":"<p>buen curso</p>","created_formatted_with_time_since":"2 months ago"},{"_class":"course_review","id":102782646,"content":"Scripts Are Old, and some of the script doesn't even working. i contacted instructor but i doesn't got any response. i just wasted my money in oldest course.","rating":1.0,"created":"2021-12-17T23:22:55-08:00","modified":"2021-12-18T15:05:05-08:00","user_modified":"2021-12-17T23:24:55-08:00","user":{"_class":"user","title":"Rindbloch Abdulsamad","name":"Rindbloch","display_name":"Rindbloch Abdulsamad","image_50x50":"https://img-c.udemycdn.com/user/50x50/anonymous_3.png","initials":"RA","tracking_id":"l6Hk7JlKQ5iljROfqztRqA","public_display_name":"Rindbloch A."},"response":null,"content_html":"<p>Scripts Are Old, and some of the script doesn't even working. i contacted instructor but i doesn't got any response. i just wasted my money in oldest course.</p>","created_formatted_with_time_since":"8 months ago"},{"_class":"course_review","id":95532829,"content":"I have found this course and the instructor to be knowledgeable, and very good at communicating the lessons! 5 stars from me.","rating":5.0,"created":"2021-09-15T12:01:19-07:00","modified":"2021-09-16T16:06:13-07:00","user_modified":"2021-09-15T12:02:23-07:00","user":{"_class":"user","title":"Dan Updike","name":"Dan","display_name":"Dan Updike","image_50x50":"https://img-c.udemycdn.com/user/50x50/46126960_7a7b.jpg","initials":"DU","tracking_id":"2RIFGGfFSKK9EaYu17THfA","public_display_name":"Dan U."},"response":{"_class":"course_review_response","id":8328231,"content":"thanks Dan! iam quite happy to hear this. such comments encourage me to do more!","created":"2021-09-17T04:04:53-07:00","modified":"2021-09-17T04:04:53-07:00","user":{"_class":"user","title":"Hussam Khrais","name":"Hussam","display_name":"Hussam Khrais","image_50x50":"https://img-c.udemycdn.com/user/50x50/14299254_86cd_6.jpg","initials":"HK","tracking_id":"uSiWT1t6S-Gcum5hjB1p-Q","public_display_name":"Hussam K."},"content_html":"<p>thanks Dan! iam quite happy to hear this. such comments encourage me to do more!</p>","created_formatted_with_time_since":"11 months ago"},"content_html":"<p>I have found this course and the instructor to be knowledgeable, and very good at communicating the lessons! 5 stars from me.</p>","created_formatted_with_time_since":"11 months ago"},{"_class":"course_review","id":9109932,"content":"Very interesting course! Anyone can easily learn how to create their own Python scripts with it. Many security aspects were addressed during this course. I love the pen!","rating":4.5,"created":"2017-08-27T19:11:38-07:00","modified":"2018-05-22T15:15:19-07:00","user_modified":"2017-08-28T10:25:06-07:00","user":{"_class":"user","title":"Veli Toker","name":"Veli","display_name":"Veli Toker","image_50x50":"https://img-c.udemycdn.com/user/50x50/anonymous_3.png","initials":"VT","tracking_id":"8iIWJRKgSZWvD3UW7sMQqw","public_display_name":"Veli T."},"response":{"_class":"course_review_response","id":683162,"content":"Thanks alot Toker. Really appreciate your feedback and glad to hear it was informative for you","created":"2017-09-02T12:28:23-07:00","modified":"2017-09-02T12:28:23-07:00","user":{"_class":"user","title":"Hussam Khrais","name":"Hussam","display_name":"Hussam Khrais","image_50x50":"https://img-c.udemycdn.com/user/50x50/14299254_86cd_6.jpg","initials":"HK","tracking_id":"uSiWT1t6S-Gcum5hjB1p-Q","public_display_name":"Hussam K."},"content_html":"<p>Thanks alot Toker. Really appreciate your feedback and glad to hear it was informative for you</p>","created_formatted_with_time_since":"5 years ago"},"content_html":"<p>Very interesting course! Anyone can easily learn how to create their own Python scripts with it. Many security aspects were addressed during this course. I love the pen!</p>","created_formatted_with_time_since":"5 years ago"},{"_class":"course_review","id":4036838,"content":"i have been looking around for a good pentest training for longtime ...i was about to give up when i found this one...this course is very practical and to the point...i knew a bit  of python but now i know enough python to be dangerous...\nthanks hussam","rating":5.0,"created":"2016-11-09T05:25:59-08:00","modified":"2019-05-10T17:08:21-07:00","user_modified":"2019-05-10T17:08:21-07:00","user":{"_class":"user","title":"Onsiyam Yves Malembe","name":"Onsiyam Yves","display_name":"Onsiyam Yves Malembe","image_50x50":"https://img-c.udemycdn.com/user/50x50/anonymous_3.png","initials":"OM","tracking_id":"eX5Qm7q1QWiRyalxs24EOQ","public_display_name":"Onsiyam Yves M."},"response":{"_class":"course_review_response","id":2805350,"content":"Thanks a lot Onsiyam, such comments motivate me to do more and share more knowledge. Cheers!","created":"2019-05-11T10:16:02-07:00","modified":"2019-05-11T10:16:02-07:00","user":{"_class":"user","title":"Hussam Khrais","name":"Hussam","display_name":"Hussam Khrais","image_50x50":"https://img-c.udemycdn.com/user/50x50/14299254_86cd_6.jpg","initials":"HK","tracking_id":"uSiWT1t6S-Gcum5hjB1p-Q","public_display_name":"Hussam K."},"content_html":"<p>Thanks a lot Onsiyam, such comments motivate me to do more and share more knowledge. Cheers!</p>","created_formatted_with_time_since":"3 years ago"},"content_html":"<p>i have been looking around for a good pentest training for longtime ...i was about to give up when i found this one...this course is very practical and to the point...i knew a bit  of python but now i know enough python to be dangerous...<br>thanks hussam</p>","created_formatted_with_time_since":"5 years ago"},{"_class":"course_review","id":1660262,"content":"Great Course From Teacher Hussam, I took a long time with this course because it contains a lot of techniques and challenges which i ensure to solve it before i proceed to another chapter or lesson thank you for your clear explanations and your efforts and waiting for the second course.","rating":5.0,"created":"2016-04-04T09:18:32-07:00","modified":"2017-08-28T07:21:49-07:00","user_modified":"2017-08-28T07:21:49-07:00","user":{"_class":"user","title":"Tarek chaalan","name":"Tarek","display_name":"Tarek chaalan","image_50x50":"https://img-c.udemycdn.com/user/50x50/14901754_e49e.jpg","initials":"TC","tracking_id":"m0UvZiEiTqeSse3RUN9E5w","public_display_name":"Tarek C."},"response":null,"content_html":"<p>Great Course From Teacher Hussam, I took a long time with this course because it contains a lot of techniques and challenges which i ensure to solve it before i proceed to another chapter or lesson thank you for your clear explanations and your efforts and waiting for the second course.</p>","created_formatted_with_time_since":"6 years ago"}]}