{"count":10000,"next":"https://www.udemy.com/api-2.0/courses/567828/reviews/?courseId=567828&fields%5Bcourse_review%5D=%40default%2Cresponse%2Ccontent_html%2Ccreated_formatted_with_time_since&fields%5Bcourse_review_response%5D=%40min%2Cuser%2Ccontent_html%2Ccreated_formatted_with_time_since&fields%5Buser%5D=%40min%2Cimage_50x50%2Cinitials%2Cpublic_display_name%2Ctracking_id&is_text_review=1&ordering=course_review_score__rank%2C-created&page=2","previous":null,"results":[{"_class":"course_review","id":122124122,"content":"I love Jose's style of teaching. His course is well-structured, simplified, and concise, with many exercises and challenging problems to test our language understanding. I have learned a lot from his python course, and  I believe the solid foundation I have obtained from his python course will help me a lot in my career as a researcher. I will enroll in his other recent courses to acquire more in-depth programming skills and become a full-fledged advanced developer.","rating":5.0,"created":"2022-08-26T06:24:22-07:00","modified":"2022-08-27T16:09:58-07:00","user_modified":"2022-08-26T06:39:04-07:00","user":{"_class":"user","title":"Fotock Robert Kuku","name":"Fotock Robert","display_name":"Fotock Robert Kuku","image_50x50":"https://img-c.udemycdn.com/user/50x50/anonymous_3.png","initials":"FK","tracking_id":"BsUBBvxMSbGdLJVfJPhsMA","public_display_name":"Fotock Robert K."},"response":null,"content_html":"<p>I love Jose's style of teaching. His course is well-structured, simplified, and concise, with many exercises and challenging problems to test our language understanding. I have learned a lot from his python course, and  I believe the solid foundation I have obtained from his python course will help me a lot in my career as a researcher. I will enroll in his other recent courses to acquire more in-depth programming skills and become a full-fledged advanced developer.</p>","created_formatted_with_time_since":"a week ago"},{"_class":"course_review","id":121448766,"content":"I love the way this course has been made so interactive. So much to learn and practice. I know this is not over , rather just a begining in the learning path of python. So much to explore. Thank you for a fruitful tutorial contents.","rating":5.0,"created":"2022-08-17T23:13:45-07:00","modified":"2022-08-18T16:07:00-07:00","user_modified":"2022-08-17T23:15:30-07:00","user":{"_class":"user","title":"Manish Dwivedi","name":"Manish","display_name":"Manish Dwivedi","image_50x50":"https://img-c.udemycdn.com/user/50x50/anonymous_3.png","initials":"MD","tracking_id":"0wBS4xZVTCWvJTTnCMUNCg","public_display_name":"Manish D."},"response":null,"content_html":"<p>I love the way this course has been made so interactive. So much to learn and practice. I know this is not over , rather just a begining in the learning path of python. So much to explore. Thank you for a fruitful tutorial contents.</p>","created_formatted_with_time_since":"2 weeks ago"},{"_class":"course_review","id":121081080,"content":"I was a fantastic experience overall. It was my first lesson on any computer language, I enjoyed it. But one thing I want to mention here that the first milestone project was a huge jump for a beginner like me. It would have been really great if there were some small projects or exercises before jumping to milestone project.","rating":4.0,"created":"2022-08-13T00:46:57-07:00","modified":"2022-08-14T16:04:21-07:00","user_modified":"2022-08-13T00:51:01-07:00","user":{"_class":"user","title":"Tanima Singha","name":"Tanima","display_name":"Tanima Singha","image_50x50":"https://img-c.udemycdn.com/user/50x50/anonymous_3.png","initials":"TS","tracking_id":"qCRY3m0eTqSSdiOpZMnnbA","public_display_name":"Tanima S."},"response":null,"content_html":"<p>I was a fantastic experience overall. It was my first lesson on any computer language, I enjoyed it. But one thing I want to mention here that the first milestone project was a huge jump for a beginner like me. It would have been really great if there were some small projects or exercises before jumping to milestone project.</p>","created_formatted_with_time_since":"2 weeks ago"},{"_class":"course_review","id":119908066,"content":"From  Very Basics to Advance topics are covered. It's really good to go course.","rating":5.0,"created":"2022-07-28T21:30:03-07:00","modified":"2022-07-29T16:06:01-07:00","user_modified":"2022-07-28T21:31:22-07:00","user":{"_class":"user","title":"Pypa Admin","name":"Pypa","display_name":"Pypa Admin","image_50x50":"https://img-c.udemycdn.com/user/50x50/anonymous_3.png","initials":"PA","tracking_id":"oGVZ2uaLRO-Cr2Jg0w-VrQ","public_display_name":"Pypa A."},"response":null,"content_html":"<p>From  Very Basics to Advance topics are covered. It's really good to go course.</p>","created_formatted_with_time_since":"a month ago"},{"_class":"course_review","id":118340854,"content":"Amazing journey of learning with this course. Thank you","rating":4.5,"created":"2022-07-09T04:34:36-07:00","modified":"2022-07-10T16:07:16-07:00","user_modified":"2022-07-09T04:35:01-07:00","user":{"_class":"user","title":"Gera Anil kumar","name":"Gera Anil","display_name":"Gera Anil kumar","image_50x50":"https://img-c.udemycdn.com/user/50x50/anonymous_3.png","initials":"GK","tracking_id":"aU7Z-4pzSq-q_2dOHb3QfA","public_display_name":"Gera Anil K."},"response":null,"content_html":"<p>Amazing journey of learning with this course. Thank you</p>","created_formatted_with_time_since":"a month ago"},{"_class":"course_review","id":121205608,"content":"the course is very good for any one who's interested in python. the teacher has covered almost everthing to do with the programming language. After learning this it is advised to practise on different projects to challenge your skills.","rating":5.0,"created":"2022-08-15T06:40:20-07:00","modified":"2022-08-16T16:06:17-07:00","user_modified":"2022-08-15T06:43:33-07:00","user":{"_class":"user","title":"Eric Richard","name":"Eric","display_name":"Eric Richard","image_50x50":"https://img-c.udemycdn.com/user/50x50/anonymous_3.png","initials":"ER","tracking_id":"wEA8QON9QQi9EdZttIkeuQ","public_display_name":"Eric R."},"response":null,"content_html":"<p>the course is very good for any one who's interested in python. the teacher has covered almost everthing to do with the programming language. After learning this it is advised to practise on different projects to challenge your skills.</p>","created_formatted_with_time_since":"2 weeks ago"},{"_class":"course_review","id":118877884,"content":"Jose is an excellent teacher.\nHe teaches in such a easy way , all the tough topics seems very simple.\nAnd also he touches advance python topics.\nThanks \"Jose\"","rating":5.0,"created":"2022-07-16T00:42:40-07:00","modified":"2022-07-17T16:08:50-07:00","user_modified":"2022-07-16T00:44:55-07:00","user":{"_class":"user","title":"Shashank Dubey","name":"Shashank","display_name":"Shashank Dubey","image_50x50":"https://img-c.udemycdn.com/user/50x50/anonymous_3.png","initials":"SD","tracking_id":"ghcTMyI3Si2IAhT6tkspbg","public_display_name":"Shashank D."},"response":null,"content_html":"<p>Jose is an excellent teacher.<br>He teaches in such a easy way , all the tough topics seems very simple.<br>And also he touches advance python topics.<br>Thanks \"Jose\"</p>","created_formatted_with_time_since":"a month ago"},{"_class":"course_review","id":113964542,"content":"There some sections where the explanation was difficult to understand but overall it was a good insight to python as a code along.","rating":4.0,"created":"2022-05-14T02:44:32-07:00","modified":"2022-05-15T16:05:47-07:00","user_modified":"2022-05-14T02:44:32-07:00","user":{"_class":"user","title":"Mohammed Hussain","name":"Mohammed","display_name":"Mohammed Hussain","image_50x50":"https://img-c.udemycdn.com/user/50x50/anonymous_3.png","initials":"MH","tracking_id":"a7FZJV3tQOa01R49cKl6Bg","public_display_name":"Mohammed H."},"response":null,"content_html":"<p>There some sections where the explanation was difficult to understand but overall it was a good insight to python as a code along.</p>","created_formatted_with_time_since":"3 months ago"},{"_class":"course_review","id":122055974,"content":"I loved the explanation, the clarity in concepts, the ease of teaching and challenging with homework questions\nOnly thing I would appreciate if there is inclusion of certain discussion on what are the concepts that are asked in interviews more often","rating":4.0,"created":"2022-08-25T11:20:34-07:00","modified":"2022-08-29T11:29:34-07:00","user_modified":"2022-08-29T11:29:34-07:00","user":{"_class":"user","title":"Parth Trivedi","name":"Parth","display_name":"Parth Trivedi","image_50x50":"https://img-c.udemycdn.com/user/50x50/196295886_769f.jpg","initials":"PT","tracking_id":"cG8q3xhISXaP9olQh0IKBg","public_display_name":"Parth T."},"response":null,"content_html":"<p>I loved the explanation, the clarity in concepts, the ease of teaching and challenging with homework questions<br>Only thing I would appreciate if there is inclusion of certain discussion on what are the concepts that are asked in interviews more often</p>","created_formatted_with_time_since":"a week ago"},{"_class":"course_review","id":114554450,"content":"Before writing my review thank you Jose for making such a great course.Project were extremely helpfull, I hope your Django course also gets more projects like this.\n\nBefore starting this course I was a complete beginner. After completing this course in 9 weeks(avg. 3 - 4 hours a day) I have understood everything that was given in the course. I really recommend this course.\n\nThe reason why I gave 4.5 stars is some concepts were just rushed quickly as I understood what Jose was doing but didn't really understand the logic behind so had to do lots of google search.\n\nI know If he spent time on explaining every logic behind each line course would never finish.\n\nAlso I wish OOP lectures had more exercises just like Methods and Functions.\n\nBefore taking this course If you feel like you want to go to course and you dont want to  study online, I wouldn't really recommend that.Because the best part of this course was whatever I couldn't find online or couldn't understand It was either asked or Jose's teachers were responding my questions immidiately.","rating":4.5,"created":"2022-05-22T02:40:45-07:00","modified":"2022-07-24T06:17:32-07:00","user_modified":"2022-07-24T06:17:32-07:00","user":{"_class":"user","title":"Kaan","name":"Kaan","display_name":"Kaan","image_50x50":"https://img-c.udemycdn.com/user/50x50/anonymous_3.png","initials":"K","tracking_id":"u77iD3YkSFuxLHlGmtjOKw","public_display_name":"Kaan"},"response":null,"content_html":"<p>Before writing my review thank you Jose for making such a great course.Project were extremely helpfull, I hope your Django course also gets more projects like this.</p>\n\n<p>Before starting this course I was a complete beginner. After completing this course in 9 weeks(avg. 3 - 4 hours a day) I have understood everything that was given in the course. I really recommend this course.</p>\n\n<p>The reason why I gave 4.5 stars is some concepts were just rushed quickly as I understood what Jose was doing but didn't really understand the logic behind so had to do lots of google search.</p>\n\n<p>I know If he spent time on explaining every logic behind each line course would never finish.</p>\n\n<p>Also I wish OOP lectures had more exercises just like Methods and Functions.</p>\n\n<p>Before taking this course If you feel like you want to go to course and you dont want to  study online, I wouldn't really recommend that.Because the best part of this course was whatever I couldn't find online or couldn't understand It was either asked or Jose's teachers were responding my questions immidiately.</p>","created_formatted_with_time_since":"3 months ago"},{"_class":"course_review","id":119949510,"content":"Amazing course for Python, Really great explanation and covers very much everything there to start your career in Python.","rating":5.0,"created":"2022-07-29T07:55:55-07:00","modified":"2022-07-30T16:09:22-07:00","user_modified":"2022-07-29T07:59:03-07:00","user":{"_class":"user","title":"Pranav Jagatap","name":"Pranav","display_name":"Pranav Jagatap","image_50x50":"https://img-c.udemycdn.com/user/50x50/anonymous_3.png","initials":"PJ","tracking_id":"kpaCzQfGTA2Ra05FME2ORA","public_display_name":"Pranav J."},"response":null,"content_html":"<p>Amazing course for Python, Really great explanation and covers very much everything there to start your career in Python.</p>","created_formatted_with_time_since":"a month ago"},{"_class":"course_review","id":121016936,"content":"Because it is organized in a comprehensible way. The instructor's voice pitch and approach are perfect in my opinion.\nBut after I did the exams for the PCEP-30-01, PCEP-30-02 I discovered that there are some basic topics that were not covered even after reaching chapter 12 such as and not limited to: \n- Function(variable, end=\"\") this \"end\" thing at the end.\n- Bin(), AND, OR, |. the base of the binary is 2. (The Whole Topic)\n- Within a  a while loop or an if statements > continue to skip that iteration.\n- I have passed both exams and have wrote some code of my own but still I find it very difficult to think my way through complicated multi levels while or for loops which is how the you get tested. (an advise on this would be really really appreciated what am I missing.)\n-The whole Array union intersection topic, I failed every question I faced on it.","rating":4.5,"created":"2022-08-12T01:42:10-07:00","modified":"2022-08-13T16:08:13-07:00","user_modified":"2022-08-12T02:33:16-07:00","user":{"_class":"user","title":"Hamzeh Mahmod","name":"Hamzeh","display_name":"Hamzeh Mahmod","image_50x50":"https://img-c.udemycdn.com/user/50x50/anonymous_3.png","initials":"HM","tracking_id":"2B8vqjJRQyyH71Bo4ltsNQ","public_display_name":"Hamzeh M."},"response":null,"content_html":"<p>Because it is organized in a comprehensible way. The instructor's voice pitch and approach are perfect in my opinion.<br>But after I did the exams for the PCEP-30-01, PCEP-30-02 I discovered that there are some basic topics that were not covered even after reaching chapter 12 such as and not limited to: <br>- Function(variable, end=\"\") this \"end\" thing at the end.<br>- Bin(), AND, OR, |. the base of the binary is 2. (The Whole Topic)<br>- Within a  a while loop or an if statements > continue to skip that iteration.<br>- I have passed both exams and have wrote some code of my own but still I find it very difficult to think my way through complicated multi levels while or for loops which is how the you get tested. (an advise on this would be really really appreciated what am I missing.)<br>-The whole Array union intersection topic, I failed every question I faced on it.</p>","created_formatted_with_time_since":"3 weeks ago"}]}