{"count":1783,"next":"https://www.udemy.com/api-2.0/courses/577248/reviews/?courseId=577248&fields%5Bcourse_review%5D=%40default%2Cresponse%2Ccontent_html%2Ccreated_formatted_with_time_since&fields%5Bcourse_review_response%5D=%40min%2Cuser%2Ccontent_html%2Ccreated_formatted_with_time_since&fields%5Buser%5D=%40min%2Cimage_50x50%2Cinitials%2Cpublic_display_name%2Ctracking_id&is_text_review=1&ordering=course_review_score__rank%2C-created&page=2","previous":null,"results":[{"_class":"course_review","id":119629706,"content":"Ardit Sulce is very knowledgeable on the subject of Python and does a good job with the activities and lectures. There is enough content to go around to learning the subject, but I feel the structure of the lectures, from beginning to end could have been thought out and put together differently to make learning easier. Otherwise, no further complaints, good Lecturer.","rating":4.0,"created":"2022-07-25T23:48:36-07:00","modified":"2022-07-26T16:26:55-07:00","user_modified":"2022-07-26T05:14:29-07:00","user":{"_class":"user","title":"Marc Damon Oliver","name":"Marc Damon","display_name":"Marc Damon Oliver","image_50x50":"https://img-c.udemycdn.com/user/50x50/anonymous_3.png","initials":"MO","tracking_id":"czMV5YDxQPWLbJKNU0IwXw","public_display_name":"Marc Damon O."},"response":null,"content_html":"<p>Ardit Sulce is very knowledgeable on the subject of Python and does a good job with the activities and lectures. There is enough content to go around to learning the subject, but I feel the structure of the lectures, from beginning to end could have been thought out and put together differently to make learning easier. Otherwise, no further complaints, good Lecturer.</p>","created_formatted_with_time_since":"a month ago"},{"_class":"course_review","id":117855126,"content":"This is very good course for all those who are new to python programming language. Nicely structured contents covering basics of Linux as well. Thanks for the wonderful course.","rating":5.0,"created":"2022-07-03T06:44:04-07:00","modified":"2022-07-05T16:07:11-07:00","user_modified":"2022-07-03T06:45:24-07:00","user":{"_class":"user","title":"Ravi Jadhav","name":"Ravi","display_name":"Ravi Jadhav","image_50x50":"https://img-c.udemycdn.com/user/50x50/41955152_a45d.jpg","initials":"RJ","tracking_id":"z1eO-DeMTgm6DGeXbJNDtA","public_display_name":"Ravi J."},"response":null,"content_html":"<p>This is very good course for all those who are new to python programming language. Nicely structured contents covering basics of Linux as well. Thanks for the wonderful course.</p>","created_formatted_with_time_since":"2 months ago"},{"_class":"course_review","id":111981136,"content":"I took this course for my quick recap and getting me back on truck. Like I expected, his course is great for the \"Python\" beginner and other \"salvaged\" student, specially, like me, who need to refresh my memory, encourage myself. Plus, I could start building my confident again. I can't start other his courses, and also other instructors, too. So exciting!!","rating":5.0,"created":"2022-04-16T11:52:05-07:00","modified":"2022-04-17T16:07:40-07:00","user_modified":"2022-04-16T12:08:32-07:00","user":{"_class":"user","title":"Shin Kitani","name":"Shin","display_name":"Shin Kitani","image_50x50":"https://img-c.udemycdn.com/user/50x50/95073146_ee82_4.jpg","initials":"SK","tracking_id":"wZDqFi6bTzeQPnBpASdcmA","public_display_name":"Shin K."},"response":null,"content_html":"<p>I took this course for my quick recap and getting me back on truck. Like I expected, his course is great for the \"Python\" beginner and other \"salvaged\" student, specially, like me, who need to refresh my memory, encourage myself. Plus, I could start building my confident again. I can't start other his courses, and also other instructors, too. So exciting!!</p>","created_formatted_with_time_since":"4 months ago"},{"_class":"course_review","id":110838812,"content":"For a beginner that is interested in how to use Python in real world applications, this course is a must. The Desktop App and the Web app projects allow to familiarize with the true use of programming. Anyway, since most fundamental coding topics are introduced very rapidly, it might not be a course for Absolute Beginners (you should have at least some general knowledge on the main structures of coding such as loops, conditionals, etc.).","rating":4.5,"created":"2022-03-31T02:50:49-07:00","modified":"2022-04-01T16:11:01-07:00","user_modified":"2022-03-31T02:50:49-07:00","user":{"_class":"user","title":"Vincenzo Barbato","name":"Vincenzo","display_name":"Vincenzo Barbato","image_50x50":"https://img-c.udemycdn.com/user/50x50/anonymous_3.png","initials":"VB","tracking_id":"LWrIgbveSn6ysGm-3mBw8w","public_display_name":"Vincenzo B."},"response":null,"content_html":"<p>For a beginner that is interested in how to use Python in real world applications, this course is a must. The Desktop App and the Web app projects allow to familiarize with the true use of programming. Anyway, since most fundamental coding topics are introduced very rapidly, it might not be a course for Absolute Beginners (you should have at least some general knowledge on the main structures of coding such as loops, conditionals, etc.).</p>","created_formatted_with_time_since":"5 months ago"},{"_class":"course_review","id":104685120,"content":"all the sections were good except the lectures involving wxpython. I could not import wxpython at all and got many errors. I spent way to long trying to get it to work and it never did. Everything else was really well done!","rating":3.5,"created":"2022-01-11T00:17:27-08:00","modified":"2022-01-12T15:04:04-08:00","user_modified":"2022-01-11T00:18:29-08:00","user":{"_class":"user","title":"Madhu Vemula","name":"Madhu","display_name":"Madhu Vemula","image_50x50":"https://img-c.udemycdn.com/user/50x50/anonymous_3.png","initials":"MV","tracking_id":"NHeBo0pqSfab-Ob9R2Fu7A","public_display_name":"Madhu V."},"response":null,"content_html":"<p>all the sections were good except the lectures involving wxpython. I could not import wxpython at all and got many errors. I spent way to long trying to get it to work and it never did. Everything else was really well done!</p>","created_formatted_with_time_since":"7 months ago"},{"_class":"course_review","id":116193720,"content":"Thank you for helping me learn the basics of Python programming.","rating":4.0,"created":"2022-06-11T23:31:05-07:00","modified":"2022-06-12T16:04:58-07:00","user_modified":"2022-06-11T23:31:38-07:00","user":{"_class":"user","title":"Ishaan Kullu","name":"Ishaan","display_name":"Ishaan Kullu","image_50x50":"https://img-c.udemycdn.com/user/50x50/anonymous_3.png","initials":"IK","tracking_id":"DF4X6vBLRYSpL_2IJLgUDg","public_display_name":"Ishaan K."},"response":null,"content_html":"<p>Thank you for helping me learn the basics of Python programming.</p>","created_formatted_with_time_since":"2 months ago"},{"_class":"course_review","id":111569002,"content":"Very well done!  Thank you for taking the time to explain each step and show us what you are doing.","rating":4.0,"created":"2022-04-10T15:58:04-07:00","modified":"2022-04-11T16:03:57-07:00","user_modified":"2022-04-10T15:59:03-07:00","user":{"_class":"user","title":"Greg Mann","name":"Greg","display_name":"Greg Mann","image_50x50":"https://img-c.udemycdn.com/user/50x50/anonymous_3.png","initials":"GM","tracking_id":"OM0TIJH7TiCRcK5-lvyCXw","public_display_name":"Greg M."},"response":null,"content_html":"<p>Very well done!  Thank you for taking the time to explain each step and show us what you are doing.</p>","created_formatted_with_time_since":"4 months ago"},{"_class":"course_review","id":113612412,"content":"It's very basic so good for people who's got little background in computer programming.","rating":4.0,"created":"2022-05-09T16:09:16-07:00","modified":"2022-05-10T16:08:38-07:00","user_modified":"2022-05-09T16:10:18-07:00","user":{"_class":"user","title":"건재 이","name":"건재","display_name":"건재 이","image_50x50":"https://img-c.udemycdn.com/user/50x50/anonymous_3.png","initials":"","tracking_id":"ETw00l91QSu3Q1gpd8EcZQ","public_display_name":"건재"},"response":null,"content_html":"<p>It's very basic so good for people who's got little background in computer programming.</p>","created_formatted_with_time_since":"3 months ago"},{"_class":"course_review","id":104211924,"content":"Pretty good course.  I'm not quite sure I would recommend this to anyone who has never learned how to code in any other language.  This is a great course for someone who has learned another language and wants to skip over a lot of the low level skills.  This is good for people who want to jump straight in.  I've taken parts of another python course on UDEMY that goes significantly deeper into details on a lot of things like dictionaries, list, and tuples.","rating":4.5,"created":"2022-01-05T19:36:47-08:00","modified":"2022-01-06T15:06:42-08:00","user_modified":"2022-01-05T19:40:21-08:00","user":{"_class":"user","title":"Andrew Kuhlman","name":"Andrew","display_name":"Andrew Kuhlman","image_50x50":"https://img-c.udemycdn.com/user/50x50/anonymous_3.png","initials":"AK","tracking_id":"6g-O9Xt1Qo60klF4GhE4LQ","public_display_name":"Andrew K."},"response":null,"content_html":"<p>Pretty good course.  I'm not quite sure I would recommend this to anyone who has never learned how to code in any other language.  This is a great course for someone who has learned another language and wants to skip over a lot of the low level skills.  This is good for people who want to jump straight in.  I've taken parts of another python course on UDEMY that goes significantly deeper into details on a lot of things like dictionaries, list, and tuples.</p>","created_formatted_with_time_since":"7 months ago"},{"_class":"course_review","id":113575776,"content":"Great introduction to Python","rating":4.5,"created":"2022-05-09T06:41:25-07:00","modified":"2022-05-10T16:13:19-07:00","user_modified":"2022-05-09T06:41:52-07:00","user":{"_class":"user","title":"Yael","name":"Yael","display_name":"Yael","image_50x50":"https://img-c.udemycdn.com/user/50x50/anonymous_3.png","initials":"Y","tracking_id":"ba2JYcY7TwaBO1-h13QZFw","public_display_name":"Yael"},"response":null,"content_html":"<p>Great introduction to Python</p>","created_formatted_with_time_since":"3 months ago"},{"_class":"course_review","id":119854046,"content":"It has been good so far","rating":5.0,"created":"2022-07-28T06:33:06-07:00","modified":"2022-08-16T20:18:03-07:00","user_modified":"2022-08-16T20:18:03-07:00","user":{"_class":"user","title":"Duruaku Victor","name":"Duruaku","display_name":"Duruaku Victor","image_50x50":"https://img-c.udemycdn.com/user/50x50/anonymous_3.png","initials":"DV","tracking_id":"r2e06M0KRkORT8kG1wHwyg","public_display_name":"Duruaku V."},"response":null,"content_html":"<p>It has been good so far</p>","created_formatted_with_time_since":"a month ago"},{"_class":"course_review","id":103644998,"content":"I am a complete beginner, didn't even know the basics of python but with the help of this course i forgot that i am a beginner and have started to feel like a pro\nwill  definitely recommend this course to my friends.","rating":4.0,"created":"2021-12-30T05:11:19-08:00","modified":"2022-01-17T04:03:16-08:00","user_modified":"2022-01-17T04:03:16-08:00","user":{"_class":"user","title":"TUSHAR BALAJI S P","name":"TUSHAR BALAJI","display_name":"TUSHAR BALAJI S P","image_50x50":"https://img-c.udemycdn.com/user/50x50/anonymous_3.png","initials":"TS","tracking_id":"mZijKuO7Q8OHcnY-ABUgGw","public_display_name":"TUSHAR BALAJI S."},"response":null,"content_html":"<p>I am a complete beginner, didn't even know the basics of python but with the help of this course i forgot that i am a beginner and have started to feel like a pro<br>will  definitely recommend this course to my friends.</p>","created_formatted_with_time_since":"8 months ago"}]}