{"count":179,"next":"https://www.udemy.com/api-2.0/courses/584494/reviews/?courseId=584494&fields%5Bcourse_review%5D=%40default%2Cresponse%2Ccontent_html%2Ccreated_formatted_with_time_since&fields%5Bcourse_review_response%5D=%40min%2Cuser%2Ccontent_html%2Ccreated_formatted_with_time_since&fields%5Buser%5D=%40min%2Cimage_50x50%2Cinitials%2Cpublic_display_name%2Ctracking_id&is_text_review=1&ordering=course_review_score__rank%2C-created&page=2","previous":null,"results":[{"_class":"course_review","id":120496806,"content":"Nothing offensive to the presenter, very respectable and amicable. Content is soooooooooo boring.","rating":1.0,"created":"2022-08-05T04:53:46-07:00","modified":"2022-08-06T16:09:52-07:00","user_modified":"2022-08-05T04:56:10-07:00","user":{"_class":"user","title":"Lola","name":"Lola","display_name":"Lola","image_50x50":"https://img-c.udemycdn.com/user/50x50/anonymous_3.png","initials":"L","tracking_id":"_zsPBSNpQ3CSq7E0X2lD1w","public_display_name":"Lola"},"response":null,"content_html":"<p>Nothing offensive to the presenter, very respectable and amicable. Content is soooooooooo boring.</p>","created_formatted_with_time_since":"4 weeks ago"},{"_class":"course_review","id":118954902,"content":"So its short and easy but explains it that makes me understand and makes it simple.\nNOICE!","rating":5.0,"created":"2022-07-17T10:30:30-07:00","modified":"2022-07-21T07:24:40-07:00","user_modified":"2022-07-21T07:24:40-07:00","user":{"_class":"user","title":"MuhammadFarooq Faraz","name":"MuhammadFarooq","display_name":"MuhammadFarooq Faraz","image_50x50":"https://img-c.udemycdn.com/user/50x50/anonymous_3.png","initials":"MF","tracking_id":"uhJs0INqQ5m5Fs67uqcWAQ","public_display_name":"MuhammadFarooq F."},"response":null,"content_html":"<p>So its short and easy but explains it that makes me understand and makes it simple.<br>NOICE!</p>","created_formatted_with_time_since":"a month ago"},{"_class":"course_review","id":118008240,"content":"thanks for your course it was helpful","rating":5.0,"created":"2022-07-05T04:34:17-07:00","modified":"2022-07-22T00:35:34-07:00","user_modified":"2022-07-22T00:35:34-07:00","user":{"_class":"user","title":"Torres Ige","name":"Torres","display_name":"Torres Ige","image_50x50":"https://img-c.udemycdn.com/user/50x50/186347_6608_2.jpg","initials":"TI","tracking_id":"Q4bweirvRi-dzgXe_jlFtw","public_display_name":"Torres I."},"response":null,"content_html":"<p>thanks for your course it was helpful</p>","created_formatted_with_time_since":"a month ago"},{"_class":"course_review","id":116817360,"content":"yes. I was learning to be a programmer and just stumbled upon this and it really helped me out. this is a good programming course I would recommend to everyone.","rating":4.5,"created":"2022-06-20T08:55:09-07:00","modified":"2022-06-21T16:05:44-07:00","user_modified":"2022-06-20T08:56:31-07:00","user":{"_class":"user","title":"Daniel Stevens","name":"Daniel","display_name":"Daniel Stevens","image_50x50":"https://img-c.udemycdn.com/user/50x50/anonymous_3.png","initials":"DS","tracking_id":"hmVWPOJzQd254pI81FYdKA","public_display_name":"Daniel S."},"response":null,"content_html":"<p>yes. I was learning to be a programmer and just stumbled upon this and it really helped me out. this is a good programming course I would recommend to everyone.</p>","created_formatted_with_time_since":"2 months ago"},{"_class":"course_review","id":115614624,"content":"It was a fantastic course!!\nI am 12 years old now, and this course has been helping me very much!!!! :D","rating":5.0,"created":"2022-06-04T04:37:06-07:00","modified":"2022-06-08T02:39:14-07:00","user_modified":"2022-06-08T02:39:14-07:00","user":{"_class":"user","title":"Seyedeh Mahana Mirsadri","name":"Seyedeh Mahana","display_name":"Seyedeh Mahana Mirsadri","image_50x50":"https://img-c.udemycdn.com/user/50x50/anonymous_3.png","initials":"SM","tracking_id":"sg5y7whMSCafK_n3l0R9Og","public_display_name":"Seyedeh Mahana M."},"response":null,"content_html":"<p>It was a fantastic course!!<br>I am 12 years old now, and this course has been helping me very much!!!! :D</p>","created_formatted_with_time_since":"3 months ago"},{"_class":"course_review","id":116868732,"content":"Apart from learning new concepts of JavaScript, the topic of each section was fun to tackle.","rating":4.0,"created":"2022-06-21T00:49:48-07:00","modified":"2022-06-22T16:06:17-07:00","user_modified":"2022-06-21T00:51:01-07:00","user":{"_class":"user","title":"Raistlin Cristof C. Magalong","name":"Raistlin Cristof C.","display_name":"Raistlin Cristof C. Magalong","image_50x50":"https://img-c.udemycdn.com/user/50x50/anonymous_3.png","initials":"RM","tracking_id":"8VRstfqnRbuaIlrCuZaTSg","public_display_name":"Raistlin Cristof C. M."},"response":null,"content_html":"<p>Apart from learning new concepts of JavaScript, the topic of each section was fun to tackle.</p>","created_formatted_with_time_since":"2 months ago"},{"_class":"course_review","id":117110126,"content":"Yes. I learned a lot about coding, and I liked making HTML websites.","rating":4.5,"created":"2022-06-23T14:26:54-07:00","modified":"2022-06-24T16:08:13-07:00","user_modified":"2022-06-23T14:27:39-07:00","user":{"_class":"user","title":"Yick Kin Tsang","name":"Yick Kin","display_name":"Yick Kin Tsang","image_50x50":"https://img-c.udemycdn.com/user/50x50/anonymous_3.png","initials":"YT","tracking_id":"6NcykTZmQxiIBOsXvv-uig","public_display_name":"Yick Kin T."},"response":null,"content_html":"<p>Yes. I learned a lot about coding, and I liked making HTML websites.</p>","created_formatted_with_time_since":"2 months ago"},{"_class":"course_review","id":112528954,"content":"Investment calculator doesn't calculate percents.","rating":4.5,"created":"2022-04-24T11:26:35-07:00","modified":"2022-04-25T16:13:47-07:00","user_modified":"2022-04-24T11:27:04-07:00","user":{"_class":"user","title":"Ivan Cheban","name":"Ivan","display_name":"Ivan Cheban","image_50x50":"https://img-c.udemycdn.com/user/50x50/anonymous_3.png","initials":"IC","tracking_id":"svqeWHGjTzK_EELDbUl3Pw","public_display_name":"Ivan C."},"response":null,"content_html":"<p>Investment calculator doesn't calculate percents.</p>","created_formatted_with_time_since":"4 months ago"},{"_class":"course_review","id":105339018,"content":"For the bonus games, i did not have the file to the code and games. I just wish they told us how to get the file instead  of not telling us.","rating":4.5,"created":"2022-01-18T13:06:33-08:00","modified":"2022-01-20T15:09:25-08:00","user_modified":"2022-01-18T13:08:33-08:00","user":{"_class":"user","title":"Ali Ozdemir","name":"Ali","display_name":"Ali Ozdemir","image_50x50":"https://img-c.udemycdn.com/user/50x50/anonymous_3.png","initials":"AO","tracking_id":"QdhdgdGSSFua7MnSOSnxuA","public_display_name":"Ali O."},"response":null,"content_html":"<p>For the bonus games, i did not have the file to the code and games. I just wish they told us how to get the file instead  of not telling us.</p>","created_formatted_with_time_since":"7 months ago"},{"_class":"course_review","id":109338118,"content":"Yes. At the moment I am a kid at 10 years old and am learning java script for beginners. This is really helping me out! :)","rating":5.0,"created":"2022-03-10T15:29:17-08:00","modified":"2022-03-14T16:49:36-07:00","user_modified":"2022-03-14T16:49:36-07:00","user":{"_class":"user","title":"Neeraj Gera","name":"Neeraj","display_name":"Neeraj Gera","image_50x50":"https://img-c.udemycdn.com/user/50x50/anonymous_3.png","initials":"NG","tracking_id":"dVkILMEtRAuo8dYLZ4kE2Q","public_display_name":"Neeraj G."},"response":null,"content_html":"<p>Yes. At the moment I am a kid at 10 years old and am learning java script for beginners. This is really helping me out! :)</p>","created_formatted_with_time_since":"5 months ago"},{"_class":"course_review","id":118814226,"content":"Mr Paine, I did coding 2 years ago, but it wasn’t the best. Now, because of your course, I am falling in love with coding. Thanks","rating":5.0,"created":"2022-07-15T02:47:24-07:00","modified":"2022-07-17T16:09:34-07:00","user_modified":"2022-07-15T02:47:24-07:00","user":{"_class":"user","title":"Himanshu Chaturvedi","name":"Himanshu","display_name":"Himanshu Chaturvedi","image_50x50":"https://img-c.udemycdn.com/user/50x50/anonymous_3.png","initials":"HC","tracking_id":"XbKPIh92TR-YTXBWbRdmAA","public_display_name":"Himanshu C."},"response":null,"content_html":"<p>Mr Paine, I did coding 2 years ago, but it wasn’t the best. Now, because of your course, I am falling in love with coding. Thanks</p>","created_formatted_with_time_since":"a month ago"},{"_class":"course_review","id":110774268,"content":"it was really good and amazing","rating":4.5,"created":"2022-03-30T08:15:43-07:00","modified":"2022-04-01T01:17:21-07:00","user_modified":"2022-03-30T08:18:51-07:00","user":{"_class":"user","title":"Kei Adams","name":"Kei","display_name":"Kei Adams","image_50x50":"https://img-c.udemycdn.com/user/50x50/anonymous_3.png","initials":"KA","tracking_id":"E-mSI30hT82j55xRdDxGhw","public_display_name":"Kei A."},"response":null,"content_html":"<p>it was really good and amazing</p>","created_formatted_with_time_since":"5 months ago"}]}