{"count":150,"next":"https://www.udemy.com/api-2.0/courses/58489/reviews/?courseId=58489&fields%5Bcourse_review%5D=%40default%2Cresponse%2Ccontent_html%2Ccreated_formatted_with_time_since&fields%5Bcourse_review_response%5D=%40min%2Cuser%2Ccontent_html%2Ccreated_formatted_with_time_since&fields%5Buser%5D=%40min%2Cimage_50x50%2Cinitials%2Cpublic_display_name%2Ctracking_id&is_text_review=1&ordering=course_review_score__rank%2C-created&page=2","previous":null,"results":[{"_class":"course_review","id":121955074,"content":"O curso é muito bom, as explicações e as dinamicas são ótimas, mas, poderia ter mais opçoes de idiomas para as legendas. isso facilitaria o aprendizado e tomaria menos tempo para conclusão do modulo.","rating":4.0,"created":"2022-08-24T10:18:05-07:00","modified":"2022-08-25T16:07:09-07:00","user_modified":"2022-08-24T10:19:52-07:00","user":{"_class":"user","title":"Bruna Rodrigues","name":"Bruna","display_name":"Bruna Rodrigues","image_50x50":"https://img-c.udemycdn.com/user/50x50/anonymous_3.png","initials":"BR","tracking_id":"lG-tnwgQRyCaGsdjV7obGQ","public_display_name":"Bruna R."},"response":null,"content_html":"<p>O curso é muito bom, as explicações e as dinamicas são ótimas, mas, poderia ter mais opçoes de idiomas para as legendas. isso facilitaria o aprendizado e tomaria menos tempo para conclusão do modulo.</p>","created_formatted_with_time_since":"a week ago"},{"_class":"course_review","id":120635596,"content":"yes it was a good match, and beyond expectations as well","rating":5.0,"created":"2022-08-07T13:58:20-07:00","modified":"2022-08-08T16:09:17-07:00","user_modified":"2022-08-07T13:58:56-07:00","user":{"_class":"user","title":"Oguntuase Omowumi","name":"Oguntuase","display_name":"Oguntuase Omowumi","image_50x50":"https://img-c.udemycdn.com/user/50x50/anonymous_3.png","initials":"OO","tracking_id":"mlU_LaqcThO1zHCKQAI_2A","public_display_name":"Oguntuase O."},"response":null,"content_html":"<p>yes it was a good match, and beyond expectations as well</p>","created_formatted_with_time_since":"3 weeks ago"},{"_class":"course_review","id":119205774,"content":"I wish there was a test at the beginning so that someone with some excel knowledge can get some exceptions for some lessons.","rating":5.0,"created":"2022-07-20T05:28:30-07:00","modified":"2022-07-22T16:17:06-07:00","user_modified":"2022-07-20T05:30:12-07:00","user":{"_class":"user","title":"Angela Pherry","name":"Angela","display_name":"Angela Pherry","image_50x50":"https://img-c.udemycdn.com/user/50x50/anonymous_3.png","initials":"AP","tracking_id":"mAhyFZ0jScygxDD7xmhhJw","public_display_name":"Angela P."},"response":null,"content_html":"<p>I wish there was a test at the beginning so that someone with some excel knowledge can get some exceptions for some lessons.</p>","created_formatted_with_time_since":"a month ago"},{"_class":"course_review","id":117221292,"content":"Till now it seems amazing and flows perfectly. I hope it is going to be the same once more complicated things need to be explained.","rating":5.0,"created":"2022-06-25T04:29:53-07:00","modified":"2022-06-29T05:58:01-07:00","user_modified":"2022-06-29T05:58:01-07:00","user":{"_class":"user","title":"Christos Misailidis","name":"Christos","display_name":"Christos Misailidis","image_50x50":"https://img-c.udemycdn.com/user/50x50/anonymous_3.png","initials":"CM","tracking_id":"5fLJxk9lRMSCXywKaBklwQ","public_display_name":"Christos M."},"response":null,"content_html":"<p>Till now it seems amazing and flows perfectly. I hope it is going to be the same once more complicated things need to be explained.</p>","created_formatted_with_time_since":"2 months ago"},{"_class":"course_review","id":116658162,"content":"Excelente elección","rating":4.5,"created":"2022-06-17T15:23:42-07:00","modified":"2022-06-19T16:08:39-07:00","user_modified":"2022-06-17T15:23:55-07:00","user":{"_class":"user","title":"Jasvy Andino","name":"Jasvy","display_name":"Jasvy Andino","image_50x50":"https://img-c.udemycdn.com/user/50x50/anonymous_3.png","initials":"JA","tracking_id":"QTeFWrOLRaWBhdxohxpwAw","public_display_name":"Jasvy A."},"response":null,"content_html":"<p>Excelente elección</p>","created_formatted_with_time_since":"2 months ago"},{"_class":"course_review","id":117478584,"content":"Great Course.  Good to brush up on my Excel skills.","rating":5.0,"created":"2022-06-28T10:44:22-07:00","modified":"2022-06-29T16:11:59-07:00","user_modified":"2022-06-28T10:44:41-07:00","user":{"_class":"user","title":"Luke Redman","name":"Luke","display_name":"Luke Redman","image_50x50":"https://img-c.udemycdn.com/user/50x50/anonymous_3.png","initials":"LR","tracking_id":"glFlsAekQYOo1dwFRlogOw","public_display_name":"Luke R."},"response":null,"content_html":"<p>Great Course.  Good to brush up on my Excel skills.</p>","created_formatted_with_time_since":"2 months ago"},{"_class":"course_review","id":116370932,"content":"I like the efficiency.","rating":5.0,"created":"2022-06-14T07:11:13-07:00","modified":"2022-06-16T16:08:08-07:00","user_modified":"2022-06-14T11:00:27-07:00","user":{"_class":"user","title":"Tad Carmody","name":"Tad","display_name":"Tad Carmody","image_50x50":"https://img-c.udemycdn.com/user/50x50/anonymous_3.png","initials":"TC","tracking_id":"IRUYdVl0QeCBglMzDoCe3g","public_display_name":"Tad C."},"response":null,"content_html":"<p>I like the efficiency.</p>","created_formatted_with_time_since":"2 months ago"},{"_class":"course_review","id":113759488,"content":"Awesome & Complete course","rating":5.0,"created":"2022-05-11T08:07:22-07:00","modified":"2022-05-12T16:13:23-07:00","user_modified":"2022-05-11T08:07:40-07:00","user":{"_class":"user","title":"Aldana Tambini","name":"Aldana","display_name":"Aldana Tambini","image_50x50":"https://img-c.udemycdn.com/user/50x50/anonymous_3.png","initials":"AT","tracking_id":"9R7qQbUyT3qCVVPUewzUBg","public_display_name":"Aldana T."},"response":null,"content_html":"<p>Awesome & Complete course</p>","created_formatted_with_time_since":"3 months ago"},{"_class":"course_review","id":116356518,"content":"Yes, really good. Nice teacher!","rating":3.5,"created":"2022-06-14T04:11:37-07:00","modified":"2022-06-17T06:02:43-07:00","user_modified":"2022-06-17T06:02:43-07:00","user":{"_class":"user","title":"Elin Eriksson","name":"Elin","display_name":"Elin Eriksson","image_50x50":"https://img-c.udemycdn.com/user/50x50/anonymous_3.png","initials":"EE","tracking_id":"-JDS_Dr9T1O-rCYiwTBmqw","public_display_name":"Elin E."},"response":null,"content_html":"<p>Yes, really good. Nice teacher!</p>","created_formatted_with_time_since":"2 months ago"},{"_class":"course_review","id":115011798,"content":"great course!","rating":5.0,"created":"2022-05-27T02:39:31-07:00","modified":"2022-05-29T16:05:20-07:00","user_modified":"2022-05-27T02:39:46-07:00","user":{"_class":"user","title":"Holland Cathey","name":"Holland","display_name":"Holland Cathey","image_50x50":"https://img-c.udemycdn.com/user/50x50/anonymous_3.png","initials":"HC","tracking_id":"CSamFAiHS5W1HK0UD50-NQ","public_display_name":"Holland C."},"response":null,"content_html":"<p>great course!</p>","created_formatted_with_time_since":"3 months ago"},{"_class":"course_review","id":103567366,"content":"It was amazing learning experience. Understood Macros like never before. Great content and well explained training.","rating":5.0,"created":"2021-12-29T08:13:00-08:00","modified":"2021-12-30T15:08:40-08:00","user_modified":"2021-12-29T08:13:44-08:00","user":{"_class":"user","title":"Sheetal Yadav","name":"Sheetal","display_name":"Sheetal Yadav","image_50x50":"https://img-c.udemycdn.com/user/50x50/anonymous_3.png","initials":"SY","tracking_id":"yKYeA-obTSidU6_NVsPu1g","public_display_name":"Sheetal Y."},"response":null,"content_html":"<p>It was amazing learning experience. Understood Macros like never before. Great content and well explained training.</p>","created_formatted_with_time_since":"8 months ago"},{"_class":"course_review","id":107818776,"content":"I love this course, very interactive!","rating":4.5,"created":"2022-02-18T08:38:26-08:00","modified":"2022-02-20T14:51:53-08:00","user_modified":"2022-02-20T14:51:53-08:00","user":{"_class":"user","title":"Fazell Zainal","name":"Fazell","display_name":"Fazell Zainal","image_50x50":"https://img-c.udemycdn.com/user/50x50/anonymous_3.png","initials":"FZ","tracking_id":"toVtH3V-SnK9uBufd0c8Aw","public_display_name":"Fazell Z."},"response":null,"content_html":"<p>I love this course, very interactive!</p>","created_formatted_with_time_since":"6 months ago"}]}