{"count":2353,"next":"https://www.udemy.com/api-2.0/courses/622414/reviews/?courseId=622414&fields%5Bcourse_review%5D=%40default%2Cresponse%2Ccontent_html%2Ccreated_formatted_with_time_since&fields%5Bcourse_review_response%5D=%40min%2Cuser%2Ccontent_html%2Ccreated_formatted_with_time_since&fields%5Buser%5D=%40min%2Cimage_50x50%2Cinitials%2Cpublic_display_name%2Ctracking_id&is_text_review=1&ordering=course_review_score__rank%2C-created&page=2","previous":null,"results":[{"_class":"course_review","id":122373974,"content":"Curso ha sido muy bueno empezando por lo básico hasta tópicos más avanzados. Al ser un curso no específico de ML o Streaming, estos apartados han sido bastante cortos. El instructor muy bueno y la explicación también. Lo recomiendo","rating":4.5,"created":"2022-08-29T14:40:15-07:00","modified":"2022-08-31T16:10:48-07:00","user_modified":"2022-08-29T14:41:29-07:00","user":{"_class":"user","title":"Brayan González Riascos","name":"Brayan González","display_name":"Brayan González Riascos","image_50x50":"https://img-c.udemycdn.com/user/50x50/anonymous_3.png","initials":"BR","tracking_id":"DWbut0z2TWSKZpfzpcUrPA","public_display_name":"Brayan González R."},"response":null,"content_html":"<p>Curso ha sido muy bueno empezando por lo básico hasta tópicos más avanzados. Al ser un curso no específico de ML o Streaming, estos apartados han sido bastante cortos. El instructor muy bueno y la explicación también. Lo recomiendo</p>","created_formatted_with_time_since":"4 days ago"},{"_class":"course_review","id":121980368,"content":"Me encantó éste curso,  me agradó mucho que el instructor saliera en los videos  y nos explicara  o comentara ciertas cosas,  de igual manera me agradó que en los videos de teoría saliera su voz  y las presentaciones del tema,  y cuando tocaban ejercicios me gustó mucho que pusiera su pantalla  y nos explicara el código mostrando éste mismo,  y ejecutara su respectivo programa.  Me gusta mucho como explica,  se le entiende muy bien.  Muy buen instructor.","rating":5.0,"created":"2022-08-24T17:10:22-07:00","modified":"2022-08-25T16:07:08-07:00","user_modified":"2022-08-24T17:13:17-07:00","user":{"_class":"user","title":"Karla Dimas Perez","name":"Karla","display_name":"Karla Dimas Perez","image_50x50":"https://img-c.udemycdn.com/user/50x50/anonymous_3.png","initials":"KD","tracking_id":"XuwxLj0cSyOcaOXcr6AxQA","public_display_name":"Karla D."},"response":null,"content_html":"<p>Me encantó éste curso,  me agradó mucho que el instructor saliera en los videos  y nos explicara  o comentara ciertas cosas,  de igual manera me agradó que en los videos de teoría saliera su voz  y las presentaciones del tema,  y cuando tocaban ejercicios me gustó mucho que pusiera su pantalla  y nos explicara el código mostrando éste mismo,  y ejecutara su respectivo programa.  Me gusta mucho como explica,  se le entiende muy bien.  Muy buen instructor.</p>","created_formatted_with_time_since":"a week ago"},{"_class":"course_review","id":121791714,"content":"I think it was a really good course but I expected more exercises to do. Nevertheless everything was well explained!","rating":4.5,"created":"2022-08-22T18:53:42-07:00","modified":"2022-08-23T16:08:01-07:00","user_modified":"2022-08-22T18:54:31-07:00","user":{"_class":"user","title":"César Álvarez Romero","name":"César Álvarez","display_name":"César Álvarez Romero","image_50x50":"https://img-c.udemycdn.com/user/50x50/anonymous_3.png","initials":"CR","tracking_id":"npL4V1X4RPWUS053ttMo2w","public_display_name":"César Álvarez R."},"response":null,"content_html":"<p>I think it was a really good course but I expected more exercises to do. Nevertheless everything was well explained!</p>","created_formatted_with_time_since":"a week ago"},{"_class":"course_review","id":118773902,"content":"It was a little bit fast, but I could learn lots of things I didn´t know about spark over python. Good course for having basic to intermediate knowledge of spark","rating":5.0,"created":"2022-07-14T13:08:25-07:00","modified":"2022-07-15T16:11:22-07:00","user_modified":"2022-07-14T13:09:25-07:00","user":{"_class":"user","title":"Tomás Castilla","name":"Tomás","display_name":"Tomás Castilla","image_50x50":"https://img-c.udemycdn.com/user/50x50/anonymous_3.png","initials":"TC","tracking_id":"NFT-fKYJQCKG4IzYatoR7w","public_display_name":"Tomás C."},"response":null,"content_html":"<p>It was a little bit fast, but I could learn lots of things I didn´t know about spark over python. Good course for having basic to intermediate knowledge of spark</p>","created_formatted_with_time_since":"a month ago"},{"_class":"course_review","id":118036900,"content":"Some of the lectures are not helpful even after proceeding same steps getting some errors.","rating":3.0,"created":"2022-07-05T10:17:59-07:00","modified":"2022-07-06T16:06:58-07:00","user_modified":"2022-07-05T10:19:10-07:00","user":{"_class":"user","title":"Ayush Chourasia","name":"Ayush","display_name":"Ayush Chourasia","image_50x50":"https://img-c.udemycdn.com/user/50x50/anonymous_3.png","initials":"AC","tracking_id":"m4gcLgbzSzuf_XGI6j7Hnw","public_display_name":"Ayush C."},"response":null,"content_html":"<p>Some of the lectures are not helpful even after proceeding same steps getting some errors.</p>","created_formatted_with_time_since":"a month ago"},{"_class":"course_review","id":114901012,"content":"Very good explanations, covers the gap for me between Python and Spark. I know SQL to an advanced level, so it has been good to leverage that knowledge and apply it to the Spark world that Frank has explained so well. Great course.","rating":5.0,"created":"2022-05-25T22:36:14-07:00","modified":"2022-06-25T15:00:03-07:00","user_modified":"2022-06-25T15:00:03-07:00","user":{"_class":"user","title":"Simon Robinson","name":"Simon","display_name":"Simon Robinson","image_50x50":"https://img-c.udemycdn.com/user/50x50/anonymous_3.png","initials":"SR","tracking_id":"XI_lCqOQSj6NruyEFhQ5aQ","public_display_name":"Simon R."},"response":null,"content_html":"<p>Very good explanations, covers the gap for me between Python and Spark. I know SQL to an advanced level, so it has been good to leverage that knowledge and apply it to the Spark world that Frank has explained so well. Great course.</p>","created_formatted_with_time_since":"3 months ago"},{"_class":"course_review","id":117414402,"content":"Would prefer more of an overview of Spark concepts before diving into code. What is a Job/Task/Stage? How do partitions work? What do the different Managers do, and do I need to think about them?","rating":3.0,"created":"2022-06-27T21:11:12-07:00","modified":"2022-06-28T16:08:07-07:00","user_modified":"2022-06-27T21:12:42-07:00","user":{"_class":"user","title":"Nic Christeller","name":"Nic","display_name":"Nic Christeller","image_50x50":"https://img-c.udemycdn.com/user/50x50/anonymous_3.png","initials":"NC","tracking_id":"qWLylKldQiKjOJL_66yp_w","public_display_name":"Nic C."},"response":null,"content_html":"<p>Would prefer more of an overview of Spark concepts before diving into code. What is a Job/Task/Stage? How do partitions work? What do the different Managers do, and do I need to think about them?</p>","created_formatted_with_time_since":"2 months ago"},{"_class":"course_review","id":117636300,"content":"The course is clearly structured and instructor explains things carefully. I did find the exercises a bit too superficial and after finishing the course I don't feel I can immediately implement solutions in spark.","rating":3.5,"created":"2022-06-30T02:29:37-07:00","modified":"2022-07-01T16:08:49-07:00","user_modified":"2022-06-30T02:31:15-07:00","user":{"_class":"user","title":"Shale Profile","name":"Shale","display_name":"Shale Profile","image_50x50":"https://img-c.udemycdn.com/user/50x50/anonymous_3.png","initials":"SP","tracking_id":"rtD-WBuKRHaET_DgZ8qS9g","public_display_name":"Shale P."},"response":null,"content_html":"<p>The course is clearly structured and instructor explains things carefully. I did find the exercises a bit too superficial and after finishing the course I don't feel I can immediately implement solutions in spark.</p>","created_formatted_with_time_since":"2 months ago"},{"_class":"course_review","id":121063322,"content":"Really enjoyed the course. looking forward to put what I have learned through this course in to real world problems.","rating":5.0,"created":"2022-08-12T14:07:59-07:00","modified":"2022-08-13T16:10:33-07:00","user_modified":"2022-08-12T14:08:46-07:00","user":{"_class":"user","title":"Vinu Varghese","name":"Vinu","display_name":"Vinu Varghese","image_50x50":"https://img-c.udemycdn.com/user/50x50/anonymous_3.png","initials":"VV","tracking_id":"4fRLWrDhQuKjgVGb5vf_Tg","public_display_name":"Vinu V."},"response":null,"content_html":"<p>Really enjoyed the course. looking forward to put what I have learned through this course in to real world problems.</p>","created_formatted_with_time_since":"3 weeks ago"},{"_class":"course_review","id":115665516,"content":"The installation needs more update for new comer. The naming convention is highly inconsistence with python PEP-8 and some exercise are outdate on Spark 2.","rating":3.5,"created":"2022-06-05T04:13:15-07:00","modified":"2022-06-16T10:02:51-07:00","user_modified":"2022-06-16T10:02:51-07:00","user":{"_class":"user","title":"Hieu Ha","name":"Hieu","display_name":"Hieu Ha","image_50x50":"https://img-c.udemycdn.com/user/50x50/anonymous_3.png","initials":"HH","tracking_id":"W7IblQfhQVOpIznBPrnvrg","public_display_name":"Hieu H."},"response":null,"content_html":"<p>The installation needs more update for new comer. The naming convention is highly inconsistence with python PEP-8 and some exercise are outdate on Spark 2.</p>","created_formatted_with_time_since":"2 months ago"},{"_class":"course_review","id":115225814,"content":"Great Course! Thoroughly enjoyed Frank Kane's insights and commentary on the concepts and topics covered. I had some experience with R's sparklyr interface to Apache Spark coming in..but his sessions helped cement my understanding further as well as introduce new ways to use Apache Spark. His example of using an RDD as a NoSQL database blew my mind away! Will definitely check out the scala version of this class.","rating":5.0,"created":"2022-05-30T09:12:46-07:00","modified":"2022-06-02T21:12:14-07:00","user_modified":"2022-05-31T13:22:19-07:00","user":{"_class":"user","title":"Jerome Dixon","name":"Jerome","display_name":"Jerome Dixon","image_50x50":"https://img-c.udemycdn.com/user/50x50/anonymous_3.png","initials":"JD","tracking_id":"iW6u9VkYRYe5dfHOdCRs_Q","public_display_name":"Jerome D."},"response":null,"content_html":"<p>Great Course! Thoroughly enjoyed Frank Kane's insights and commentary on the concepts and topics covered. I had some experience with R's sparklyr interface to Apache Spark coming in..but his sessions helped cement my understanding further as well as introduce new ways to use Apache Spark. His example of using an RDD as a NoSQL database blew my mind away! Will definitely check out the scala version of this class.</p>","created_formatted_with_time_since":"3 months ago"},{"_class":"course_review","id":116372262,"content":"Really Good Stuff and hands on excersizes. Videos more than 10 min cause problem for few candidates.. try to make short portion if possible.. thanks","rating":4.0,"created":"2022-06-14T07:26:18-07:00","modified":"2022-06-16T16:08:08-07:00","user_modified":"2022-06-14T07:28:22-07:00","user":{"_class":"user","title":"Mithlesh Vishwakarma","name":"Mithlesh","display_name":"Mithlesh Vishwakarma","image_50x50":"https://img-c.udemycdn.com/user/50x50/anonymous_3.png","initials":"MV","tracking_id":"QItX374-SjKx_3U7Pozlyg","public_display_name":"Mithlesh V."},"response":null,"content_html":"<p>Really Good Stuff and hands on excersizes. Videos more than 10 min cause problem for few candidates.. try to make short portion if possible.. thanks</p>","created_formatted_with_time_since":"2 months ago"}]}