{"count":10000,"next":"https://www.udemy.com/api-2.0/courses/625204/reviews/?courseId=625204&fields%5Bcourse_review%5D=%40default%2Cresponse%2Ccontent_html%2Ccreated_formatted_with_time_since&fields%5Bcourse_review_response%5D=%40min%2Cuser%2Ccontent_html%2Ccreated_formatted_with_time_since&fields%5Buser%5D=%40min%2Cimage_50x50%2Cinitials%2Cpublic_display_name%2Ctracking_id&is_text_review=1&ordering=course_review_score__rank%2C-created&page=2","previous":null,"results":[{"_class":"course_review","id":121254588,"content":"Wow! This course was awesome! Colt's methodology is really good, the difficult topics are very well explained by him or the TAs in the Q&A section, also they give lots of resources if you want to learn more. Just know that you will need a lot of consistency to go through all the sections, it was hard sometimes but it was worth it. Thank you so much to Colt, the TAs and all the fellow students who share their knowledge in the Q&A.","rating":5.0,"created":"2022-08-15T20:26:43-07:00","modified":"2022-08-16T16:04:01-07:00","user_modified":"2022-08-15T20:34:54-07:00","user":{"_class":"user","title":"Oscar Alexis Mendoza Mendoza","name":"Oscar Alexis","display_name":"Oscar Alexis Mendoza Mendoza","image_50x50":"https://img-b.udemycdn.com/user/50x50/25789448_5b08.jpg","initials":"OM","tracking_id":"fs6clY32T1K26I5-orFx3w","public_display_name":"Oscar Alexis M."},"response":null,"content_html":"<p>Wow! This course was awesome! Colt's methodology is really good, the difficult topics are very well explained by him or the TAs in the Q&A section, also they give lots of resources if you want to learn more. Just know that you will need a lot of consistency to go through all the sections, it was hard sometimes but it was worth it. Thank you so much to Colt, the TAs and all the fellow students who share their knowledge in the Q&A.</p>","created_formatted_with_time_since":"2 weeks ago"},{"_class":"course_review","id":118208098,"content":"Colt is very good in explaining every bit of details that a developer needs to learn.  Not a single topic is boring, every topic is very informative and he makes it easy to understand.","rating":5.0,"created":"2022-07-07T07:11:18-07:00","modified":"2022-07-08T16:11:15-07:00","user_modified":"2022-07-07T07:14:02-07:00","user":{"_class":"user","title":"Patrick John Tenorio","name":"Patrick John","display_name":"Patrick John Tenorio","image_50x50":"https://img-b.udemycdn.com/user/50x50/anonymous_3.png","initials":"PT","tracking_id":"NSIOa0ZWQTOsu21L_aggxA","public_display_name":"Patrick John T."},"response":null,"content_html":"<p>Colt is very good in explaining every bit of details that a developer needs to learn.  Not a single topic is boring, every topic is very informative and he makes it easy to understand.</p>","created_formatted_with_time_since":"a month ago"},{"_class":"course_review","id":117833454,"content":"Amazing course to get familiar with Web Development. Explanation for every concept is provided. This is my fifth course with Colt Steele and \nI can confidently say that this guy knows what he teaches. The TA's were extremely helpful in solving my queries I got while following the course.","rating":4.5,"created":"2022-07-02T20:30:41-07:00","modified":"2022-07-04T16:06:12-07:00","user_modified":"2022-07-02T20:35:17-07:00","user":{"_class":"user","title":"Vaibhav Jain","name":"Vaibhav","display_name":"Vaibhav Jain","image_50x50":"https://img-b.udemycdn.com/user/50x50/anonymous_3.png","initials":"VJ","tracking_id":"-nVw2pofSAWLeb8VPS1tRw","public_display_name":"Vaibhav J."},"response":null,"content_html":"<p>Amazing course to get familiar with Web Development. Explanation for every concept is provided. This is my fifth course with Colt Steele and <br>I can confidently say that this guy knows what he teaches. The TA's were extremely helpful in solving my queries I got while following the course.</p>","created_formatted_with_time_since":"2 months ago"},{"_class":"course_review","id":113258308,"content":"My hearty thanks to my Guru Mr. Colt. You are really an asset to this generation. You make zeroes to heroes. We are blessed to have Guru like you. Thanks to Udemy for showing you as I was searching a Guru like you for years. This course is perfect. You poured your knowledge like a rain. I am not a continuous learner but your lectures pulled me back even if I am dejected and took longer breaks in between. I was very new to web development when I started the course and now I can understand its life cycle better. Will follow your advice and proceed my learning. Thank you and may God bless all your wishes.","rating":5.0,"created":"2022-05-04T12:02:33-07:00","modified":"2022-05-05T16:08:11-07:00","user_modified":"2022-05-04T12:19:13-07:00","user":{"_class":"user","title":"Vijay Prakash KM","name":"Vijay Prakash","display_name":"Vijay Prakash KM","image_50x50":"https://img-b.udemycdn.com/user/50x50/anonymous_3.png","initials":"VK","tracking_id":"ijnOXcccSgKddDsCKVSArg","public_display_name":"Vijay Prakash K."},"response":null,"content_html":"<p>My hearty thanks to my Guru Mr. Colt. You are really an asset to this generation. You make zeroes to heroes. We are blessed to have Guru like you. Thanks to Udemy for showing you as I was searching a Guru like you for years. This course is perfect. You poured your knowledge like a rain. I am not a continuous learner but your lectures pulled me back even if I am dejected and took longer breaks in between. I was very new to web development when I started the course and now I can understand its life cycle better. Will follow your advice and proceed my learning. Thank you and may God bless all your wishes.</p>","created_formatted_with_time_since":"4 months ago"},{"_class":"course_review","id":121526744,"content":"I really enjoyed this course and learned a ton! Some lessons force you to seek solutions in the Q/A because the way things are done constantly changes in the tech world, but that can be part of the learning experience because problem solving is a huge part of becoming a developer! The final project uses a lot of packages and outside resources which means that 5 years from now you would probably have to update a lot of the code for the project to make it continue to work. Packages and outside resources have updates and newer versions constantly. This means you have to stay up to date with them and so does your code!","rating":4.5,"created":"2022-08-18T20:34:12-07:00","modified":"2022-08-19T16:08:57-07:00","user_modified":"2022-08-18T20:40:22-07:00","user":{"_class":"user","title":"Brandon Bhangari","name":"Brandon","display_name":"Brandon Bhangari","image_50x50":"https://img-b.udemycdn.com/user/50x50/anonymous_3.png","initials":"BB","tracking_id":"aLZ4Ln5oRUCQY_mcXoy4ag","public_display_name":"Brandon B."},"response":null,"content_html":"<p>I really enjoyed this course and learned a ton! Some lessons force you to seek solutions in the Q/A because the way things are done constantly changes in the tech world, but that can be part of the learning experience because problem solving is a huge part of becoming a developer! The final project uses a lot of packages and outside resources which means that 5 years from now you would probably have to update a lot of the code for the project to make it continue to work. Packages and outside resources have updates and newer versions constantly. This means you have to stay up to date with them and so does your code!</p>","created_formatted_with_time_since":"2 weeks ago"},{"_class":"course_review","id":112463882,"content":"Some topics are tough to understand but I’m glad Colt’s sense of humor and teaching experience makes it all bearable.","rating":5.0,"created":"2022-04-23T04:18:15-07:00","modified":"2022-04-24T16:07:09-07:00","user_modified":"2022-04-23T04:18:15-07:00","user":{"_class":"user","title":"Wenli Leong","name":"Wenli","display_name":"Wenli Leong","image_50x50":"https://img-b.udemycdn.com/user/50x50/anonymous_3.png","initials":"WL","tracking_id":"hEiJYzoMQ125AyT8GKOXiw","public_display_name":"Wenli L."},"response":null,"content_html":"<p>Some topics are tough to understand but I’m glad Colt’s sense of humor and teaching experience makes it all bearable.</p>","created_formatted_with_time_since":"4 months ago"},{"_class":"course_review","id":117856064,"content":"The course content is great and I highly recommend this course for all those who are making there career as a web developer.","rating":5.0,"created":"2022-07-03T07:02:27-07:00","modified":"2022-07-05T16:07:11-07:00","user_modified":"2022-07-03T07:03:46-07:00","user":{"_class":"user","title":"Deepak Dua","name":"Deepak","display_name":"Deepak Dua","image_50x50":"https://img-b.udemycdn.com/user/50x50/anonymous_3.png","initials":"DD","tracking_id":"XhEvYrKiT7CcgK-3YOZq6w","public_display_name":"Deepak D."},"response":null,"content_html":"<p>The course content is great and I highly recommend this course for all those who are making there career as a web developer.</p>","created_formatted_with_time_since":"2 months ago"},{"_class":"course_review","id":119855776,"content":"Can't expect more from a web development course. This course is really awesome and recommended to anyone who wants to become a web developer.","rating":5.0,"created":"2022-07-28T06:52:10-07:00","modified":"2022-07-29T16:12:10-07:00","user_modified":"2022-07-28T06:54:08-07:00","user":{"_class":"user","title":"Anoop Kumar","name":"Anoop","display_name":"Anoop Kumar","image_50x50":"https://img-b.udemycdn.com/user/50x50/anonymous_3.png","initials":"AK","tracking_id":"fcB9RPBTTGqqY_WeqkvZOw","public_display_name":"Anoop K."},"response":null,"content_html":"<p>Can't expect more from a web development course. This course is really awesome and recommended to anyone who wants to become a web developer.</p>","created_formatted_with_time_since":"a month ago"},{"_class":"course_review","id":120725420,"content":"Amazing course, great support in the comments for any questions or issues. Highly recommended for anyone wanting to get in to Web Development.","rating":5.0,"created":"2022-08-08T15:22:43-07:00","modified":"2022-08-09T16:14:24-07:00","user_modified":"2022-08-08T15:23:14-07:00","user":{"_class":"user","title":"Marcos Almeida","name":"Marcos","display_name":"Marcos Almeida","image_50x50":"https://img-b.udemycdn.com/user/50x50/51091724_1d09.jpg","initials":"MA","tracking_id":"8avspd8QSzyaEn4QspCjVQ","public_display_name":"Marcos A."},"response":null,"content_html":"<p>Amazing course, great support in the comments for any questions or issues. Highly recommended for anyone wanting to get in to Web Development.</p>","created_formatted_with_time_since":"3 weeks ago"},{"_class":"course_review","id":118103692,"content":"What an amazing experience this course was! Colt is really a master teacher,  and the tools shown are very useful and widely used professionally. Also was heavily impressed by the whole team as the assistance during the course was very in-depth. The learning experience was better than my whole engineering degree by a mile. Thank you so much!","rating":5.0,"created":"2022-07-06T04:39:53-07:00","modified":"2022-07-08T16:14:02-07:00","user_modified":"2022-07-06T05:00:31-07:00","user":{"_class":"user","title":"Martynas Goberis","name":"Martynas","display_name":"Martynas Goberis","image_50x50":"https://img-b.udemycdn.com/user/50x50/160509940_5a0d.jpg","initials":"MG","tracking_id":"ltrCvs2OTyiMwsVvXi51Tw","public_display_name":"Martynas G."},"response":null,"content_html":"<p>What an amazing experience this course was! Colt is really a master teacher,  and the tools shown are very useful and widely used professionally. Also was heavily impressed by the whole team as the assistance during the course was very in-depth. The learning experience was better than my whole engineering degree by a mile. Thank you so much!</p>","created_formatted_with_time_since":"a month ago"},{"_class":"course_review","id":121240828,"content":"Great, GIANT course. It covers so much. I started to get frustrated towards the end because, even though the course has been updated, there were updates to many of the dependencies and that was difficult to figure out while seeing it all for the first time. Overall, I highly recommend it and really enjoyed the course structure and how we learned the later concepts while applying them to the YelpCamp project.","rating":5.0,"created":"2022-08-15T14:59:19-07:00","modified":"2022-08-16T16:04:02-07:00","user_modified":"2022-08-15T15:00:54-07:00","user":{"_class":"user","title":"Angeleen Neely-Sardon","name":"Angeleen","display_name":"Angeleen Neely-Sardon","image_50x50":"https://img-b.udemycdn.com/user/50x50/169591486_67e7.jpg","initials":"AN","tracking_id":"uDOS5zd2Q7KcDvQOYNxVOA","public_display_name":"Angeleen N."},"response":null,"content_html":"<p>Great, GIANT course. It covers so much. I started to get frustrated towards the end because, even though the course has been updated, there were updates to many of the dependencies and that was difficult to figure out while seeing it all for the first time. Overall, I highly recommend it and really enjoyed the course structure and how we learned the later concepts while applying them to the YelpCamp project.</p>","created_formatted_with_time_since":"2 weeks ago"},{"_class":"course_review","id":112179158,"content":"To anyone starting to learn development - whether web dev, mobile dev, frontend, backend whatever, this should be the first course. It literally covers all the basics needed from ground up to a very good level from where you can take the knowledge you gained and learn advanced topics, or maybe start building applications on your own.\nThis is the best course, the instructor is super awesome.","rating":5.0,"created":"2022-04-19T10:01:59-07:00","modified":"2022-04-20T16:10:41-07:00","user_modified":"2022-04-19T10:04:21-07:00","user":{"_class":"user","title":"Code Digest","name":"Code","display_name":"Code Digest","image_50x50":"https://img-b.udemycdn.com/user/50x50/79569268_0fac.jpg","initials":"CD","tracking_id":"UAgByd04T9yEvtb-c4dsMA","public_display_name":"Code D."},"response":null,"content_html":"<p>To anyone starting to learn development - whether web dev, mobile dev, frontend, backend whatever, this should be the first course. It literally covers all the basics needed from ground up to a very good level from where you can take the knowledge you gained and learn advanced topics, or maybe start building applications on your own.<br>This is the best course, the instructor is super awesome.</p>","created_formatted_with_time_since":"4 months ago"}]}