{"count":307,"next":"https://www.udemy.com/api-2.0/courses/633084/reviews/?courseId=633084&fields%5Bcourse_review%5D=%40default%2Cresponse%2Ccontent_html%2Ccreated_formatted_with_time_since&fields%5Bcourse_review_response%5D=%40min%2Cuser%2Ccontent_html%2Ccreated_formatted_with_time_since&fields%5Buser%5D=%40min%2Cimage_50x50%2Cinitials%2Cpublic_display_name%2Ctracking_id&is_text_review=1&ordering=course_review_score__rank%2C-created&page=2","previous":null,"results":[{"_class":"course_review","id":122349694,"content":"\"I'm a professional artist and techer and I don't need nobody to tell me how to draw...\" That's what I thought before taking this course. But in my vast ego was a little child telling me \"please sir... let me have fun while drawing. Not all is about money or fame or meeting deadlines and expectations... just let me draw...\"\n\nSo that's what I did and had so much fun doing this course. Recommended for everyone, specially parents who want to help their kids exploring their artistic skills.","rating":5.0,"created":"2022-08-29T09:39:23-07:00","modified":"2022-08-31T16:10:50-07:00","user_modified":"2022-08-29T09:43:11-07:00","user":{"_class":"user","title":"Francisco Javier Armoa Diana","name":"Francisco Javier Armoa","display_name":"Francisco Javier Armoa Diana","image_50x50":"https://img-c.udemycdn.com/user/50x50/anonymous_3.png","initials":"FD","tracking_id":"nk6lJX3cSV-qr0egkrHA9g","public_display_name":"Francisco Javier Armoa D."},"response":null,"content_html":"<p>\"I'm a professional artist and techer and I don't need nobody to tell me how to draw...\" That's what I thought before taking this course. But in my vast ego was a little child telling me \"please sir... let me have fun while drawing. Not all is about money or fame or meeting deadlines and expectations... just let me draw...\"</p>\n\n<p>So that's what I did and had so much fun doing this course. Recommended for everyone, specially parents who want to help their kids exploring their artistic skills.</p>","created_formatted_with_time_since":"4 days ago"},{"_class":"course_review","id":116539916,"content":"Até aqui as ideias são claras, os exercícios fáceis de seguir. Mas acho que precisava uma introdução melhor, ou mais exercícios de aquecimento, antes de chegar no desenho das casas e do mar.","rating":3.0,"created":"2022-06-16T05:56:53-07:00","modified":"2022-06-18T16:09:36-07:00","user_modified":"2022-06-18T11:54:18-07:00","user":{"_class":"user","title":"Rejane Florinda Cintra","name":"Rejane Florinda","display_name":"Rejane Florinda Cintra","image_50x50":"https://img-c.udemycdn.com/user/50x50/anonymous_3.png","initials":"RC","tracking_id":"wqKoicBtSvamYe_yDZkPNA","public_display_name":"Rejane Florinda C."},"response":{"_class":"course_review_response","id":9747762,"content":"Thank you for taking time to write this review and give me feedback...I very much appreciate it :)","created":"2022-06-18T16:25:31-07:00","modified":"2022-06-18T16:25:31-07:00","user":{"_class":"user","title":"Em Winn","name":"Em","display_name":"Em Winn","image_50x50":"https://img-c.udemycdn.com/user/50x50/9100824_a767_2.jpg","initials":"EW","tracking_id":"6AWkJpm1SIGGhMeKNcernA","public_display_name":"Em W."},"content_html":"<p>Thank you for taking time to write this review and give me feedback...I very much appreciate it :)</p>","created_formatted_with_time_since":"2 months ago"},"content_html":"<p>Até aqui as ideias são claras, os exercícios fáceis de seguir. Mas acho que precisava uma introdução melhor, ou mais exercícios de aquecimento, antes de chegar no desenho das casas e do mar.</p>","created_formatted_with_time_since":"2 months ago"},{"_class":"course_review","id":115053780,"content":"My 6 year old daughter loves drawing along and can follow the instructions easily.","rating":5.0,"created":"2022-05-27T12:53:25-07:00","modified":"2022-05-29T16:07:49-07:00","user_modified":"2022-05-27T12:53:25-07:00","user":{"_class":"user","title":"Leanne Graham","name":"Leanne","display_name":"Leanne Graham","image_50x50":"https://img-c.udemycdn.com/user/50x50/anonymous_3.png","initials":"LG","tracking_id":"ev97Z5LnTxaiWtDqlhy19w","public_display_name":"Leanne G."},"response":{"_class":"course_review_response","id":9728284,"content":"Thank you for your review...so glad to hear that your daughter enjoyed this course :)","created":"2022-06-14T21:29:44-07:00","modified":"2022-06-14T21:29:44-07:00","user":{"_class":"user","title":"Em Winn","name":"Em","display_name":"Em Winn","image_50x50":"https://img-c.udemycdn.com/user/50x50/9100824_a767_2.jpg","initials":"EW","tracking_id":"6AWkJpm1SIGGhMeKNcernA","public_display_name":"Em W."},"content_html":"<p>Thank you for your review...so glad to hear that your daughter enjoyed this course :)</p>","created_formatted_with_time_since":"2 months ago"},"content_html":"<p>My 6 year old daughter loves drawing along and can follow the instructions easily.</p>","created_formatted_with_time_since":"3 months ago"},{"_class":"course_review","id":113841982,"content":"The course was very good ,it was easy to follow. I absolutely loved it and I recommend the course to everyone who wants to learn to draw.","rating":5.0,"created":"2022-05-12T07:11:14-07:00","modified":"2022-05-13T16:10:38-07:00","user_modified":"2022-05-12T07:13:05-07:00","user":{"_class":"user","title":"Debangshee Bhowmick","name":"Debangshee","display_name":"Debangshee Bhowmick","image_50x50":"https://img-c.udemycdn.com/user/50x50/anonymous_3.png","initials":"DB","tracking_id":"iURdsNFLTS6s-DUcmLcZYA","public_display_name":"Debangshee B."},"response":{"_class":"course_review_response","id":9728494,"content":"Thank you so much for your review :) And a DOUBLE thank you for recommending this course to your friends!","created":"2022-06-14T21:43:54-07:00","modified":"2022-06-14T21:43:54-07:00","user":{"_class":"user","title":"Em Winn","name":"Em","display_name":"Em Winn","image_50x50":"https://img-c.udemycdn.com/user/50x50/9100824_a767_2.jpg","initials":"EW","tracking_id":"6AWkJpm1SIGGhMeKNcernA","public_display_name":"Em W."},"content_html":"<p>Thank you so much for your review :) And a DOUBLE thank you for recommending this course to your friends!</p>","created_formatted_with_time_since":"2 months ago"},"content_html":"<p>The course was very good ,it was easy to follow. I absolutely loved it and I recommend the course to everyone who wants to learn to draw.</p>","created_formatted_with_time_since":"3 months ago"},{"_class":"course_review","id":109806816,"content":"nice","rating":4.5,"created":"2022-03-17T02:00:36-07:00","modified":"2022-03-18T16:03:48-07:00","user_modified":"2022-03-17T02:00:47-07:00","user":{"_class":"user","title":"Jyotsna","name":"Jyotsna","display_name":"Jyotsna","image_50x50":"https://img-c.udemycdn.com/user/50x50/anonymous_3.png","initials":"J","tracking_id":"e-yQGDQ_QT6B2NETkFlqoQ","public_display_name":"Jyotsna"},"response":{"_class":"course_review_response","id":9728640,"content":"Thank you :)","created":"2022-06-14T22:39:34-07:00","modified":"2022-06-14T22:39:34-07:00","user":{"_class":"user","title":"Em Winn","name":"Em","display_name":"Em Winn","image_50x50":"https://img-c.udemycdn.com/user/50x50/9100824_a767_2.jpg","initials":"EW","tracking_id":"6AWkJpm1SIGGhMeKNcernA","public_display_name":"Em W."},"content_html":"<p>Thank you :)</p>","created_formatted_with_time_since":"2 months ago"},"content_html":"<p>nice</p>","created_formatted_with_time_since":"5 months ago"},{"_class":"course_review","id":116820590,"content":"it was a good match for me","rating":5.0,"created":"2022-06-20T09:40:49-07:00","modified":"2022-06-21T16:05:44-07:00","user_modified":"2022-06-21T08:05:27-07:00","user":{"_class":"user","title":"Madelynn Aderoju","name":"Madelynn","display_name":"Madelynn Aderoju","image_50x50":"https://img-c.udemycdn.com/user/50x50/anonymous_3.png","initials":"MA","tracking_id":"ulIVmgn0QrOYA9bTrneKPA","public_display_name":"Madelynn A."},"response":{"_class":"course_review_response","id":9770804,"content":"Thank you for your 5 star rating and I'm glad to hear that this course is a good match for you :)","created":"2022-06-22T10:08:37-07:00","modified":"2022-06-22T10:08:37-07:00","user":{"_class":"user","title":"Em Winn","name":"Em","display_name":"Em Winn","image_50x50":"https://img-c.udemycdn.com/user/50x50/9100824_a767_2.jpg","initials":"EW","tracking_id":"6AWkJpm1SIGGhMeKNcernA","public_display_name":"Em W."},"content_html":"<p>Thank you for your 5 star rating and I'm glad to hear that this course is a good match for you :)</p>","created_formatted_with_time_since":"2 months ago"},"content_html":"<p>it was a good match for me</p>","created_formatted_with_time_since":"2 months ago"},{"_class":"course_review","id":120425886,"content":"If you like step by step and are new to drawing, this would be fun.","rating":3.5,"created":"2022-08-04T08:19:31-07:00","modified":"2022-08-05T16:09:57-07:00","user_modified":"2022-08-04T08:19:53-07:00","user":{"_class":"user","title":"Erica Nardone","name":"Erica","display_name":"Erica Nardone","image_50x50":"https://img-c.udemycdn.com/user/50x50/anonymous_3.png","initials":"EN","tracking_id":"GSiJhmqgR8yeLgmz5nlaPw","public_display_name":"Erica N."},"response":{"_class":"course_review_response","id":10056616,"content":"Thank you for your review :)","created":"2022-08-19T19:53:14-07:00","modified":"2022-08-19T19:53:14-07:00","user":{"_class":"user","title":"Em Winn","name":"Em","display_name":"Em Winn","image_50x50":"https://img-c.udemycdn.com/user/50x50/9100824_a767_2.jpg","initials":"EW","tracking_id":"6AWkJpm1SIGGhMeKNcernA","public_display_name":"Em W."},"content_html":"<p>Thank you for your review :)</p>","created_formatted_with_time_since":"a week ago"},"content_html":"<p>If you like step by step and are new to drawing, this would be fun.</p>","created_formatted_with_time_since":"4 weeks ago"},{"_class":"course_review","id":111976352,"content":"Easy to apply, the kids will love these","rating":5.0,"created":"2022-04-16T09:52:49-07:00","modified":"2022-04-17T16:07:40-07:00","user_modified":"2022-04-16T11:18:18-07:00","user":{"_class":"user","title":"Tammy L McDaniels","name":"Tammy L","display_name":"Tammy L McDaniels","image_50x50":"https://img-c.udemycdn.com/user/50x50/anonymous_3.png","initials":"TM","tracking_id":"sCdbAmCiSx2OPQ3w0Rzm1Q","public_display_name":"Tammy L M."},"response":{"_class":"course_review_response","id":9728310,"content":"Yay! Thank you so much :)","created":"2022-06-14T21:31:11-07:00","modified":"2022-06-14T21:31:11-07:00","user":{"_class":"user","title":"Em Winn","name":"Em","display_name":"Em Winn","image_50x50":"https://img-c.udemycdn.com/user/50x50/9100824_a767_2.jpg","initials":"EW","tracking_id":"6AWkJpm1SIGGhMeKNcernA","public_display_name":"Em W."},"content_html":"<p>Yay! Thank you so much :)</p>","created_formatted_with_time_since":"2 months ago"},"content_html":"<p>Easy to apply, the kids will love these</p>","created_formatted_with_time_since":"4 months ago"},{"_class":"course_review","id":115177562,"content":"It was a good match and was very interesting as well as useful to me.","rating":5.0,"created":"2022-05-29T22:05:14-07:00","modified":"2022-06-02T21:10:38-07:00","user_modified":"2022-05-29T22:05:53-07:00","user":{"_class":"user","title":"Chella Gomathi","name":"Chella","display_name":"Chella Gomathi","image_50x50":"https://img-c.udemycdn.com/user/50x50/anonymous_3.png","initials":"CG","tracking_id":"acSiVbokSG65br4pOHgRLg","public_display_name":"Chella G."},"response":{"_class":"course_review_response","id":9728268,"content":"Yay! So glad to hear you enjoyed this course :)","created":"2022-06-14T21:28:56-07:00","modified":"2022-06-14T21:28:56-07:00","user":{"_class":"user","title":"Em Winn","name":"Em","display_name":"Em Winn","image_50x50":"https://img-c.udemycdn.com/user/50x50/9100824_a767_2.jpg","initials":"EW","tracking_id":"6AWkJpm1SIGGhMeKNcernA","public_display_name":"Em W."},"content_html":"<p>Yay! So glad to hear you enjoyed this course :)</p>","created_formatted_with_time_since":"2 months ago"},"content_html":"<p>It was a good match and was very interesting as well as useful to me.</p>","created_formatted_with_time_since":"3 months ago"},{"_class":"course_review","id":122145044,"content":"Thank you my child made a beautiful creation.","rating":5.0,"created":"2022-08-26T10:53:11-07:00","modified":"2022-08-27T16:06:26-07:00","user_modified":"2022-08-26T10:55:19-07:00","user":{"_class":"user","title":"Alisia Clement","name":"Alisia","display_name":"Alisia Clement","image_50x50":"https://img-c.udemycdn.com/user/50x50/anonymous_3.png","initials":"AC","tracking_id":"wvhAuSVzSfi9cfo608Pf_w","public_display_name":"Alisia C."},"response":null,"content_html":"<p>Thank you my child made a beautiful creation.</p>","created_formatted_with_time_since":"a week ago"},{"_class":"course_review","id":99957456,"content":"I like your teaching method. It makes me excited to draw.Thanks.","rating":5.0,"created":"2021-11-11T02:21:25-08:00","modified":"2021-11-12T15:08:27-08:00","user_modified":"2021-11-11T02:24:07-08:00","user":{"_class":"user","title":"Nguyen Hung Phuong","name":"Nguyen","display_name":"Nguyen Hung Phuong","image_50x50":"https://img-c.udemycdn.com/user/50x50/anonymous_3.png","initials":"NH","tracking_id":"6pNKdwfiT_SXqB6KGWj4uA","public_display_name":"Nguyen H."},"response":{"_class":"course_review_response","id":9728650,"content":"Thank you for this wonderful review...really makes me happy :)","created":"2022-06-14T22:41:22-07:00","modified":"2022-06-14T22:41:22-07:00","user":{"_class":"user","title":"Em Winn","name":"Em","display_name":"Em Winn","image_50x50":"https://img-c.udemycdn.com/user/50x50/9100824_a767_2.jpg","initials":"EW","tracking_id":"6AWkJpm1SIGGhMeKNcernA","public_display_name":"Em W."},"content_html":"<p>Thank you for this wonderful review...really makes me happy :)</p>","created_formatted_with_time_since":"2 months ago"},"content_html":"<p>I like your teaching method. It makes me excited to draw.Thanks.</p>","created_formatted_with_time_since":"9 months ago"},{"_class":"course_review","id":108438084,"content":"Nice","rating":5.0,"created":"2022-02-26T22:11:45-08:00","modified":"2022-02-27T15:19:02-08:00","user_modified":"2022-02-26T22:11:45-08:00","user":{"_class":"user","title":"Sudheer Chinthakani","name":"Sudheer","display_name":"Sudheer Chinthakani","image_50x50":"https://img-c.udemycdn.com/user/50x50/anonymous_3.png","initials":"SC","tracking_id":"LR11iKVETWOaAmUCYEBTiw","public_display_name":"Sudheer C."},"response":{"_class":"course_review_response","id":9728388,"content":"Thank you :)","created":"2022-06-14T21:35:24-07:00","modified":"2022-06-14T21:35:24-07:00","user":{"_class":"user","title":"Em Winn","name":"Em","display_name":"Em Winn","image_50x50":"https://img-c.udemycdn.com/user/50x50/9100824_a767_2.jpg","initials":"EW","tracking_id":"6AWkJpm1SIGGhMeKNcernA","public_display_name":"Em W."},"content_html":"<p>Thank you :)</p>","created_formatted_with_time_since":"2 months ago"},"content_html":"<p>Nice</p>","created_formatted_with_time_since":"6 months ago"}]}