{"count":404,"next":"https://www.udemy.com/api-2.0/courses/63612/reviews/?courseId=63612&fields%5Bcourse_review%5D=%40default%2Cresponse%2Ccontent_html%2Ccreated_formatted_with_time_since&fields%5Bcourse_review_response%5D=%40min%2Cuser%2Ccontent_html%2Ccreated_formatted_with_time_since&fields%5Buser%5D=%40min%2Cimage_50x50%2Cinitials%2Cpublic_display_name%2Ctracking_id&is_text_review=1&ordering=course_review_score__rank%2C-created&page=2","previous":null,"results":[{"_class":"course_review","id":118442368,"content":"Whatever that the instructor covered is good but he hasn't covered many topics. I know its one hour course but topics like operators and for loop are pretty much important  in coding and they are not covered here","rating":3.5,"created":"2022-07-11T01:15:59-07:00","modified":"2022-07-12T15:05:01-07:00","user_modified":"2022-07-11T01:17:37-07:00","user":{"_class":"user","title":"Nikhil Vellampalli","name":"Nikhil","display_name":"Nikhil Vellampalli","image_50x50":"https://img-b.udemycdn.com/user/50x50/anonymous_3.png","initials":"NV","tracking_id":"8hUo1naVQd64iDJ_Swr-Tg","public_display_name":"Nikhil V."},"response":null,"content_html":"<p>Whatever that the instructor covered is good but he hasn't covered many topics. I know its one hour course but topics like operators and for loop are pretty much important  in coding and they are not covered here</p>","created_formatted_with_time_since":"a month ago"},{"_class":"course_review","id":115076064,"content":"I love the delivery of the course. I got to understand some fundamental stuff about js. As our tutor advised, it's time to get our hands dirty.","rating":4.0,"created":"2022-05-28T00:28:14-07:00","modified":"2022-05-29T16:07:47-07:00","user_modified":"2022-05-28T00:29:44-07:00","user":{"_class":"user","title":"Emmanuel Mitti","name":"Emmanuel","display_name":"Emmanuel Mitti","image_50x50":"https://img-b.udemycdn.com/user/50x50/anonymous_3.png","initials":"EM","tracking_id":"YRM8qeVsSUyg63RDPJaa4g","public_display_name":"Emmanuel M."},"response":null,"content_html":"<p>I love the delivery of the course. I got to understand some fundamental stuff about js. As our tutor advised, it's time to get our hands dirty.</p>","created_formatted_with_time_since":"3 months ago"},{"_class":"course_review","id":113228368,"content":"You are just too amazing but if you can help me with else and if type of statements, it would be very helpful.\n\nThanks:)","rating":4.5,"created":"2022-05-04T05:05:26-07:00","modified":"2022-05-05T16:07:36-07:00","user_modified":"2022-05-04T05:06:56-07:00","user":{"_class":"user","title":"Karan Sharma","name":"Karan","display_name":"Karan Sharma","image_50x50":"https://img-b.udemycdn.com/user/50x50/anonymous_3.png","initials":"KS","tracking_id":"bux43R8cS3u1JfBgKj5cXA","public_display_name":"Karan S."},"response":null,"content_html":"<p>You are just too amazing but if you can help me with else and if type of statements, it would be very helpful.</p>\n\n<p>Thanks:)</p>","created_formatted_with_time_since":"4 months ago"},{"_class":"course_review","id":111476986,"content":"Short and Simple! Over-long courses hides the essentials. This course gives the basic of How-To-Do it in a fast giant step and is a great start to give you a better picture when you dig into longer course.","rating":5.0,"created":"2022-04-08T17:16:30-07:00","modified":"2022-04-11T00:50:25-07:00","user_modified":"2022-04-08T17:19:55-07:00","user":{"_class":"user","title":"Joe Goh","name":"Joe","display_name":"Joe Goh","image_50x50":"https://img-b.udemycdn.com/user/50x50/anonymous_3.png","initials":"JG","tracking_id":"TWp4S6xORMS1RWLi-_R5AA","public_display_name":"Joe G."},"response":null,"content_html":"<p>Short and Simple! Over-long courses hides the essentials. This course gives the basic of How-To-Do it in a fast giant step and is a great start to give you a better picture when you dig into longer course.</p>","created_formatted_with_time_since":"4 months ago"},{"_class":"course_review","id":111152754,"content":"I really enjoyed the course. The instructor is pleasant and easy to follow. I have had a little bit of programming and modding experience, but I need to have a more structured experience to progress in my learning journey. This was a very good introduction/review.","rating":5.0,"created":"2022-04-04T19:08:04-07:00","modified":"2022-04-05T16:02:33-07:00","user_modified":"2022-04-04T19:10:44-07:00","user":{"_class":"user","title":"Donna Hoyle","name":"Donna","display_name":"Donna Hoyle","image_50x50":"https://img-b.udemycdn.com/user/50x50/anonymous_3.png","initials":"DH","tracking_id":"MKyUA5saRqCV9UtBlw90sg","public_display_name":"Donna H."},"response":null,"content_html":"<p>I really enjoyed the course. The instructor is pleasant and easy to follow. I have had a little bit of programming and modding experience, but I need to have a more structured experience to progress in my learning journey. This was a very good introduction/review.</p>","created_formatted_with_time_since":"5 months ago"},{"_class":"course_review","id":116244008,"content":"Il corso è breve, ma molto ben fatto! La logica che lo guida spige ad intraprendere un approfondimento costruttivo delle tematiche di programmazione!","rating":4.5,"created":"2022-06-12T21:35:53-07:00","modified":"2022-06-14T16:09:29-07:00","user_modified":"2022-06-12T21:42:40-07:00","user":{"_class":"user","title":"Guido Bussani","name":"Guido","display_name":"Guido Bussani","image_50x50":"https://img-b.udemycdn.com/user/50x50/anonymous_3.png","initials":"GB","tracking_id":"yWHwcnslQLG3DOv_ELDZrQ","public_display_name":"Guido B."},"response":null,"content_html":"<p>Il corso è breve, ma molto ben fatto! La logica che lo guida spige ad intraprendere un approfondimento costruttivo delle tematiche di programmazione!</p>","created_formatted_with_time_since":"2 months ago"},{"_class":"course_review","id":114204472,"content":"Shows the basic syntax, but doesn't go deep enough to allow you to create anything major. With that said, you obviously can't learn JS in 1 hour, but the exposure to it is a good start and for those starting out, this course is great.","rating":4.5,"created":"2022-05-17T12:50:32-07:00","modified":"2022-05-18T23:08:29-07:00","user_modified":"2022-05-17T12:53:30-07:00","user":{"_class":"user","title":"William Ratcliff","name":"William","display_name":"William Ratcliff","image_50x50":"https://img-b.udemycdn.com/user/50x50/anonymous_3.png","initials":"WR","tracking_id":"oxeok3QWRUmrjKHNgVzGMQ","public_display_name":"William R."},"response":null,"content_html":"<p>Shows the basic syntax, but doesn't go deep enough to allow you to create anything major. With that said, you obviously can't learn JS in 1 hour, but the exposure to it is a good start and for those starting out, this course is great.</p>","created_formatted_with_time_since":"3 months ago"},{"_class":"course_review","id":110307166,"content":"Pretty good. I believe it prepped me sufficiently for understanding some JS basics.  I would have appreciated a for loop tutorial though. Thanks for the good work!","rating":4.0,"created":"2022-03-23T23:37:45-07:00","modified":"2022-03-24T16:05:29-07:00","user_modified":"2022-03-23T23:39:06-07:00","user":{"_class":"user","title":"Jason Bartlett","name":"Jason","display_name":"Jason Bartlett","image_50x50":"https://img-b.udemycdn.com/user/50x50/anonymous_3.png","initials":"JB","tracking_id":"vXiM4ooxSTCjhAk6TOSqIA","public_display_name":"Jason B."},"response":null,"content_html":"<p>Pretty good. I believe it prepped me sufficiently for understanding some JS basics.  I would have appreciated a for loop tutorial though. Thanks for the good work!</p>","created_formatted_with_time_since":"5 months ago"},{"_class":"course_review","id":114791424,"content":"Really fun and passionate about teaching JavaScript! Thank you!","rating":5.0,"created":"2022-05-24T18:11:42-07:00","modified":"2022-05-26T16:08:46-07:00","user_modified":"2022-05-24T18:12:14-07:00","user":{"_class":"user","title":"Patrick","name":"Patrick","display_name":"Patrick","image_50x50":"https://img-b.udemycdn.com/user/50x50/anonymous_3.png","initials":"P","tracking_id":"phv4D-deRC64_3gJly-DhA","public_display_name":"Patrick"},"response":null,"content_html":"<p>Really fun and passionate about teaching JavaScript! Thank you!</p>","created_formatted_with_time_since":"3 months ago"},{"_class":"course_review","id":117792112,"content":"course is easily understandable and very usefull","rating":4.0,"created":"2022-07-02T00:54:25-07:00","modified":"2022-07-04T16:03:56-07:00","user_modified":"2022-07-02T00:54:54-07:00","user":{"_class":"user","title":"Rakesh Choudhary","name":"Rakesh","display_name":"Rakesh Choudhary","image_50x50":"https://img-b.udemycdn.com/user/50x50/anonymous_3.png","initials":"RC","tracking_id":"rtmRbewxR8CgtwNPiw8WgA","public_display_name":"Rakesh C."},"response":null,"content_html":"<p>course is easily understandable and very usefull</p>","created_formatted_with_time_since":"2 months ago"},{"_class":"course_review","id":116956668,"content":"This course was amazing.","rating":5.0,"created":"2022-06-21T23:07:14-07:00","modified":"2022-06-22T16:08:09-07:00","user_modified":"2022-06-21T23:07:51-07:00","user":{"_class":"user","title":"Krishna Uikey","name":"Krishna","display_name":"Krishna Uikey","image_50x50":"https://img-b.udemycdn.com/user/50x50/anonymous_3.png","initials":"KU","tracking_id":"-dL0_J9FSoGbk9CraFClxQ","public_display_name":"Krishna U."},"response":null,"content_html":"<p>This course was amazing.</p>","created_formatted_with_time_since":"2 months ago"},{"_class":"course_review","id":115664236,"content":"The course was awesome","rating":5.0,"created":"2022-06-05T03:41:10-07:00","modified":"2022-06-06T16:14:42-07:00","user_modified":"2022-06-05T03:41:21-07:00","user":{"_class":"user","title":"James Maweu","name":"James","display_name":"James Maweu","image_50x50":"https://img-b.udemycdn.com/user/50x50/anonymous_3.png","initials":"JM","tracking_id":"HGoWQRkBSEu31URVGgtB8w","public_display_name":"James M."},"response":null,"content_html":"<p>The course was awesome</p>","created_formatted_with_time_since":"2 months ago"}]}