{"count":1420,"next":"https://www.udemy.com/api-2.0/courses/670034/reviews/?courseId=670034&fields%5Bcourse_review%5D=%40default%2Cresponse%2Ccontent_html%2Ccreated_formatted_with_time_since&fields%5Bcourse_review_response%5D=%40min%2Cuser%2Ccontent_html%2Ccreated_formatted_with_time_since&fields%5Buser%5D=%40min%2Cimage_50x50%2Cinitials%2Cpublic_display_name%2Ctracking_id&is_text_review=1&ordering=course_review_score__rank%2C-created&page=2","previous":null,"results":[{"_class":"course_review","id":121066408,"content":"It helps me a lot to review and went deeper into important concepts, but for starting learning these topics, seeing real examples to apply them would be nice.","rating":4.0,"created":"2022-08-12T15:36:13-07:00","modified":"2022-08-13T16:10:33-07:00","user_modified":"2022-08-12T15:41:53-07:00","user":{"_class":"user","title":"Yazmin Pedraza Ortiz","name":"Yazmin Pedraza","display_name":"Yazmin Pedraza Ortiz","image_50x50":"https://img-c.udemycdn.com/user/50x50/anonymous_3.png","initials":"YO","tracking_id":"GsPRXPn3RNSmSoRO-136cw","public_display_name":"Yazmin Pedraza O."},"response":null,"content_html":"<p>It helps me a lot to review and went deeper into important concepts, but for starting learning these topics, seeing real examples to apply them would be nice.</p>","created_formatted_with_time_since":"3 weeks ago"},{"_class":"course_review","id":118666728,"content":"Genial forma de explicar y transmitir conocimientos. Quizá faltaría un agregado de prácticas para terminar de asentar todo el conocimiento brindado. Felicitactiones!","rating":4.0,"created":"2022-07-13T09:55:46-07:00","modified":"2022-07-14T16:13:48-07:00","user_modified":"2022-07-13T09:56:26-07:00","user":{"_class":"user","title":"Jonatan Segovia","name":"Jonatan","display_name":"Jonatan Segovia","image_50x50":"https://img-c.udemycdn.com/user/50x50/anonymous_3.png","initials":"JS","tracking_id":"eEDdH42xTPaTBXxfAm3xGw","public_display_name":"Jonatan S."},"response":null,"content_html":"<p>Genial forma de explicar y transmitir conocimientos. Quizá faltaría un agregado de prácticas para terminar de asentar todo el conocimiento brindado. Felicitactiones!</p>","created_formatted_with_time_since":"a month ago"},{"_class":"course_review","id":116780136,"content":"Thank you many much for your knowledge and information. Easy to understand and clear explanation.\nHighly recommend!","rating":5.0,"created":"2022-06-20T00:29:57-07:00","modified":"2022-06-21T16:07:21-07:00","user_modified":"2022-06-20T00:31:41-07:00","user":{"_class":"user","title":"Tran Trong Nhan","name":"Tran","display_name":"Tran Trong Nhan","image_50x50":"https://img-c.udemycdn.com/user/50x50/180449914_97ba.jpg","initials":"TT","tracking_id":"1mjTF928SESByZwwdqow1Q","public_display_name":"Tran T."},"response":null,"content_html":"<p>Thank you many much for your knowledge and information. Easy to understand and clear explanation.<br>Highly recommend!</p>","created_formatted_with_time_since":"2 months ago"},{"_class":"course_review","id":116208616,"content":"Great course where are explained topics that are pretty useful to know.","rating":5.0,"created":"2022-06-12T06:09:13-07:00","modified":"2022-06-14T16:09:30-07:00","user_modified":"2022-06-12T06:20:41-07:00","user":{"_class":"user","title":"Erik Hanc","name":"Erik","display_name":"Erik Hanc","image_50x50":"https://img-c.udemycdn.com/user/50x50/anonymous_3.png","initials":"EH","tracking_id":"hIJXDJh2SnSel77lwsqeNQ","public_display_name":"Erik H."},"response":null,"content_html":"<p>Great course where are explained topics that are pretty useful to know.</p>","created_formatted_with_time_since":"2 months ago"},{"_class":"course_review","id":115278492,"content":"I wanted to deepen my understanding of JavaScript fundamentals i.e. how JS works and why it works the way it does. This course has given me that depth of understanding. I will be taking Asim's Asynchronous JavaScript course next, as I find his teaching style to be very effective.","rating":5.0,"created":"2022-05-31T01:12:36-07:00","modified":"2022-06-02T21:12:32-07:00","user_modified":"2022-05-31T01:15:19-07:00","user":{"_class":"user","title":"Jay McKenzie","name":"Jay","display_name":"Jay McKenzie","image_50x50":"https://img-c.udemycdn.com/user/50x50/anonymous_3.png","initials":"JM","tracking_id":"2z10JgeKRxuJnkQu6I5Inw","public_display_name":"Jay M."},"response":null,"content_html":"<p>I wanted to deepen my understanding of JavaScript fundamentals i.e. how JS works and why it works the way it does. This course has given me that depth of understanding. I will be taking Asim's Asynchronous JavaScript course next, as I find his teaching style to be very effective.</p>","created_formatted_with_time_since":"3 months ago"},{"_class":"course_review","id":118589224,"content":"It's a course that allow us to discover new things and understand others that we already know. It's very well explained, thank you Asim :)","rating":4.5,"created":"2022-07-12T13:39:25-07:00","modified":"2022-07-13T16:10:52-07:00","user_modified":"2022-07-12T13:44:06-07:00","user":{"_class":"user","title":"Joana Pires","name":"Joana","display_name":"Joana Pires","image_50x50":"https://img-c.udemycdn.com/user/50x50/200766776_7232.jpg","initials":"JP","tracking_id":"WKP9s_laRQugeoHBlp6RVQ","public_display_name":"Joana P."},"response":null,"content_html":"<p>It's a course that allow us to discover new things and understand others that we already know. It's very well explained, thank you Asim :)</p>","created_formatted_with_time_since":"a month ago"},{"_class":"course_review","id":114272134,"content":"I want to thank asim for investing his time to make this course, It was a good course for me to revise some of the core concepts.\n\nHowever i would rate this course as 3 star, cause of few reasons, course content is outdated, practical examples are not used, for 1 example in async section example could have been better explained via fetching things from APIs. \n\nOverall a good course, for experienced developers a good refresher, and so beginners scope of learning is there. Thanks you asim.","rating":3.0,"created":"2022-05-18T07:28:20-07:00","modified":"2022-05-19T16:06:42-07:00","user_modified":"2022-05-18T07:31:24-07:00","user":{"_class":"user","title":"Mohit Verma","name":"Mohit","display_name":"Mohit Verma","image_50x50":"https://img-c.udemycdn.com/user/50x50/30455018_53cb.jpg","initials":"MV","tracking_id":"V-OS_1sYQqmMeKiU-TZuug","public_display_name":"Mohit V."},"response":null,"content_html":"<p>I want to thank asim for investing his time to make this course, It was a good course for me to revise some of the core concepts.</p>\n\n<p>However i would rate this course as 3 star, cause of few reasons, course content is outdated, practical examples are not used, for 1 example in async section example could have been better explained via fetching things from APIs. </p>\n\n<p>Overall a good course, for experienced developers a good refresher, and so beginners scope of learning is there. Thanks you asim.</p>","created_formatted_with_time_since":"3 months ago"},{"_class":"course_review","id":117801258,"content":"I loved the course. Great insight into JavaScript. I would recommend this to all web developers.","rating":5.0,"created":"2022-07-02T05:01:55-07:00","modified":"2022-07-04T16:03:56-07:00","user_modified":"2022-07-02T05:02:25-07:00","user":{"_class":"user","title":"Supriya Kijakkar","name":"Supriya","display_name":"Supriya Kijakkar","image_50x50":"https://img-c.udemycdn.com/user/50x50/anonymous_3.png","initials":"SK","tracking_id":"JfPm8eb4TdWWtPSFYAgyng","public_display_name":"Supriya K."},"response":null,"content_html":"<p>I loved the course. Great insight into JavaScript. I would recommend this to all web developers.</p>","created_formatted_with_time_since":"2 months ago"},{"_class":"course_review","id":117274746,"content":"Excellent learning!. This course provides a deep understanding of how JavaScript works.","rating":5.0,"created":"2022-06-26T05:09:46-07:00","modified":"2022-06-27T16:09:29-07:00","user_modified":"2022-06-26T05:10:57-07:00","user":{"_class":"user","title":"Leonardo Rivera Mancia","name":"Leonardo","display_name":"Leonardo Rivera Mancia","image_50x50":"https://img-c.udemycdn.com/user/50x50/anonymous_3.png","initials":"LR","tracking_id":"2KrW15HgTUycVSTNvErEuQ","public_display_name":"Leonardo R."},"response":null,"content_html":"<p>Excellent learning!. This course provides a deep understanding of how JavaScript works.</p>","created_formatted_with_time_since":"2 months ago"},{"_class":"course_review","id":113547316,"content":"Great course. It's going through details of base understanding of javascript.\n+ Good pronunciation, easy to understand","rating":5.0,"created":"2022-05-08T23:41:00-07:00","modified":"2022-05-10T16:13:20-07:00","user_modified":"2022-05-08T23:45:06-07:00","user":{"_class":"user","title":"Edyta Adamczyk","name":"Edyta","display_name":"Edyta Adamczyk","image_50x50":"https://img-c.udemycdn.com/user/50x50/anonymous_3.png","initials":"EA","tracking_id":"y1rEQxFOTrqqh-WX7TEB2g","public_display_name":"Edyta A."},"response":null,"content_html":"<p>Great course. It's going through details of base understanding of javascript.<br>+ Good pronunciation, easy to understand</p>","created_formatted_with_time_since":"3 months ago"},{"_class":"course_review","id":115292626,"content":"instructor can support the idea with examples from different versions so it's becomes more understandable to newbies.","rating":4.5,"created":"2022-05-31T04:27:30-07:00","modified":"2022-06-04T04:52:05-07:00","user_modified":"2022-06-04T04:52:05-07:00","user":{"_class":"user","title":"Onur Altuntaş","name":"Onur","display_name":"Onur Altuntaş","image_50x50":"https://img-c.udemycdn.com/user/50x50/anonymous_3.png","initials":"OA","tracking_id":"cEqmQHa8Q0a3R29J8r-DuA","public_display_name":"Onur A."},"response":null,"content_html":"<p>instructor can support the idea with examples from different versions so it's becomes more understandable to newbies.</p>","created_formatted_with_time_since":"3 months ago"},{"_class":"course_review","id":111423268,"content":"This is fantastic. Really delving into the detail of how things work and why the language has evolved how it has. All very clearly explained and well paced.","rating":5.0,"created":"2022-04-08T00:45:30-07:00","modified":"2022-05-13T00:35:45-07:00","user_modified":"2022-05-13T00:35:45-07:00","user":{"_class":"user","title":"Chris Smith","name":"Chris","display_name":"Chris Smith","image_50x50":"https://img-c.udemycdn.com/user/50x50/anonymous_3.png","initials":"CS","tracking_id":"SsR_NitZSMGpG1J_4zCiPA","public_display_name":"Chris S."},"response":null,"content_html":"<p>This is fantastic. Really delving into the detail of how things work and why the language has evolved how it has. All very clearly explained and well paced.</p>","created_formatted_with_time_since":"4 months ago"}]}