{"count":96,"next":"https://www.udemy.com/api-2.0/courses/670050/reviews/?courseId=670050&fields%5Bcourse_review%5D=%40default%2Cresponse%2Ccontent_html%2Ccreated_formatted_with_time_since&fields%5Bcourse_review_response%5D=%40min%2Cuser%2Ccontent_html%2Ccreated_formatted_with_time_since&fields%5Buser%5D=%40min%2Cimage_50x50%2Cinitials%2Cpublic_display_name%2Ctracking_id&is_text_review=1&ordering=course_review_score__rank%2C-created&page=2","previous":null,"results":[{"_class":"course_review","id":111074392,"content":"I LOVE this instructor! She is so clear, goes at a good pace and is very easy to listen and follow along with!","rating":5.0,"created":"2022-04-03T21:25:29-07:00","modified":"2022-04-04T16:03:36-07:00","user_modified":"2022-04-03T21:25:29-07:00","user":{"_class":"user","title":"Natalie Baumann","name":"Natalie","display_name":"Natalie Baumann","image_50x50":"https://img-b.udemycdn.com/user/50x50/anonymous_3.png","initials":"NB","tracking_id":"DtFQbqhpT1yHWWOvgbRnug","public_display_name":"Natalie B."},"response":{"_class":"course_review_response","id":9728358,"content":"Aw! This review made me smile...thank you so much :)","created":"2022-06-14T21:33:39-07:00","modified":"2022-06-14T21:33:39-07:00","user":{"_class":"user","title":"Em Winn","name":"Em","display_name":"Em Winn","image_50x50":"https://img-b.udemycdn.com/user/50x50/9100824_a767_2.jpg","initials":"EW","tracking_id":"qpUjnaMASpGFFG2OVMyc6w","public_display_name":"Em W."},"content_html":"<p>Aw! This review made me smile...thank you so much :)</p>","created_formatted_with_time_since":"2 months ago"},"content_html":"<p>I LOVE this instructor! She is so clear, goes at a good pace and is very easy to listen and follow along with!</p>","created_formatted_with_time_since":"5 months ago"},{"_class":"course_review","id":110121972,"content":"Simply yet informative and productive. I felt so good learning to use water colour this way. Made me feel like a real artist.","rating":5.0,"created":"2022-03-21T19:00:46-07:00","modified":"2022-03-22T16:06:11-07:00","user_modified":"2022-03-21T19:01:33-07:00","user":{"_class":"user","title":"Arnel Waldron","name":"Arnel","display_name":"Arnel Waldron","image_50x50":"https://img-b.udemycdn.com/user/50x50/anonymous_3.png","initials":"AW","tracking_id":"1REpXTy6QLyQCaJE_gd0Bw","public_display_name":"Arnel W."},"response":{"_class":"course_review_response","id":9728634,"content":"Thank you for the wonderful comment...this makes me happy :)","created":"2022-06-14T22:38:33-07:00","modified":"2022-06-14T22:38:33-07:00","user":{"_class":"user","title":"Em Winn","name":"Em","display_name":"Em Winn","image_50x50":"https://img-b.udemycdn.com/user/50x50/9100824_a767_2.jpg","initials":"EW","tracking_id":"qpUjnaMASpGFFG2OVMyc6w","public_display_name":"Em W."},"content_html":"<p>Thank you for the wonderful comment...this makes me happy :)</p>","created_formatted_with_time_since":"2 months ago"},"content_html":"<p>Simply yet informative and productive. I felt so good learning to use water colour this way. Made me feel like a real artist.</p>","created_formatted_with_time_since":"5 months ago"},{"_class":"course_review","id":106816108,"content":"Yes, It is was great learning for me I thought that I would be difficult for me but something else! It was very easy!","rating":5.0,"created":"2022-02-05T00:36:31-08:00","modified":"2022-02-07T15:03:40-08:00","user_modified":"2022-02-05T00:39:09-08:00","user":{"_class":"user","title":"Swati Gupta","name":"Swati","display_name":"Swati Gupta","image_50x50":"https://img-b.udemycdn.com/user/50x50/anonymous_3.png","initials":"SG","tracking_id":"54WAtjs9R-6_NDE6PWgWMg","public_display_name":"Swati G."},"response":{"_class":"course_review_response","id":9728542,"content":"Yay! So glad to hear that you learned a lot in this course :)","created":"2022-06-14T21:50:54-07:00","modified":"2022-06-14T21:50:54-07:00","user":{"_class":"user","title":"Em Winn","name":"Em","display_name":"Em Winn","image_50x50":"https://img-b.udemycdn.com/user/50x50/9100824_a767_2.jpg","initials":"EW","tracking_id":"qpUjnaMASpGFFG2OVMyc6w","public_display_name":"Em W."},"content_html":"<p>Yay! So glad to hear that you learned a lot in this course :)</p>","created_formatted_with_time_since":"2 months ago"},"content_html":"<p>Yes, It is was great learning for me I thought that I would be difficult for me but something else! It was very easy!</p>","created_formatted_with_time_since":"6 months ago"},{"_class":"course_review","id":102357304,"content":"Hi Ms. M I really enjoyed my session today but with the paint it was not that great but i still adore this artwork thank you for teaching me i really appreciate it! -Riya","rating":5.0,"created":"2021-12-12T06:49:43-08:00","modified":"2021-12-14T22:48:40-08:00","user_modified":"2021-12-14T22:48:40-08:00","user":{"_class":"user","title":"Divya","name":"Divya","display_name":"Divya","image_50x50":"https://img-b.udemycdn.com/user/50x50/anonymous_3.png","initials":"D","tracking_id":"RSVxMrBcSFmq5BrZCDuz6A","public_display_name":"Divya"},"response":{"_class":"course_review_response","id":9728478,"content":"Hi Riya! I'm glad to hear that you adore this artwork. Keep practicing and you will continue to grow your painting skills :)","created":"2022-06-14T21:42:18-07:00","modified":"2022-06-14T21:42:18-07:00","user":{"_class":"user","title":"Em Winn","name":"Em","display_name":"Em Winn","image_50x50":"https://img-b.udemycdn.com/user/50x50/9100824_a767_2.jpg","initials":"EW","tracking_id":"qpUjnaMASpGFFG2OVMyc6w","public_display_name":"Em W."},"content_html":"<p>Hi Riya! I'm glad to hear that you adore this artwork. Keep practicing and you will continue to grow your painting skills :)</p>","created_formatted_with_time_since":"2 months ago"},"content_html":"<p>Hi Ms. M I really enjoyed my session today but with the paint it was not that great but i still adore this artwork thank you for teaching me i really appreciate it! -Riya</p>","created_formatted_with_time_since":"8 months ago"},{"_class":"course_review","id":86118724,"content":"I enrolled this course for my 5 years old kid who enjoyed it a lot. Thanks for this course.","rating":4.5,"created":"2021-05-27T11:52:31-07:00","modified":"2021-05-28T16:08:42-07:00","user_modified":"2021-05-27T11:53:56-07:00","user":{"_class":"user","title":"Nupur Biswas","name":"Nupur","display_name":"Nupur Biswas","image_50x50":"https://img-b.udemycdn.com/user/50x50/anonymous_3.png","initials":"NB","tracking_id":"OOCybWjvS8aJYnZ1bNUTkw","public_display_name":"Nupur B."},"response":{"_class":"course_review_response","id":7778356,"content":"So glad to hear that your child enjoyed this course...thank you for letting me know :)","created":"2021-05-31T18:43:30-07:00","modified":"2021-05-31T18:43:30-07:00","user":{"_class":"user","title":"Em Winn","name":"Em","display_name":"Em Winn","image_50x50":"https://img-b.udemycdn.com/user/50x50/9100824_a767_2.jpg","initials":"EW","tracking_id":"qpUjnaMASpGFFG2OVMyc6w","public_display_name":"Em W."},"content_html":"<p>So glad to hear that your child enjoyed this course...thank you for letting me know :)</p>","created_formatted_with_time_since":"a year ago"},"content_html":"<p>I enrolled this course for my 5 years old kid who enjoyed it a lot. Thanks for this course.</p>","created_formatted_with_time_since":"a year ago"},{"_class":"course_review","id":115301518,"content":"Wonderful course thank you","rating":5.0,"created":"2022-05-31T06:22:34-07:00","modified":"2022-06-02T21:12:31-07:00","user_modified":"2022-05-31T06:22:49-07:00","user":{"_class":"user","title":"Madhava Missack","name":"Madhava","display_name":"Madhava Missack","image_50x50":"https://img-b.udemycdn.com/user/50x50/anonymous_3.png","initials":"MM","tracking_id":"3zoyyLYETneUilozGWj0zA","public_display_name":"Madhava M."},"response":{"_class":"course_review_response","id":9728260,"content":"Thank you so much for this nice review :)","created":"2022-06-14T21:28:32-07:00","modified":"2022-06-14T21:28:32-07:00","user":{"_class":"user","title":"Em Winn","name":"Em","display_name":"Em Winn","image_50x50":"https://img-b.udemycdn.com/user/50x50/9100824_a767_2.jpg","initials":"EW","tracking_id":"qpUjnaMASpGFFG2OVMyc6w","public_display_name":"Em W."},"content_html":"<p>Thank you so much for this nice review :)</p>","created_formatted_with_time_since":"2 months ago"},"content_html":"<p>Wonderful course thank you</p>","created_formatted_with_time_since":"3 months ago"},{"_class":"course_review","id":100303548,"content":"My daughter likes your teaching. Thanks.","rating":5.0,"created":"2021-11-15T19:30:12-08:00","modified":"2021-11-16T15:07:27-08:00","user_modified":"2021-11-15T19:31:09-08:00","user":{"_class":"user","title":"Nguyen Hung Phuong","name":"Nguyen","display_name":"Nguyen Hung Phuong","image_50x50":"https://img-b.udemycdn.com/user/50x50/anonymous_3.png","initials":"NH","tracking_id":"1i6m4SEjTmSm5FdXBMdbPg","public_display_name":"Nguyen H."},"response":{"_class":"course_review_response","id":9728622,"content":"Aw...thank you so much :)","created":"2022-06-14T22:34:52-07:00","modified":"2022-06-14T22:34:52-07:00","user":{"_class":"user","title":"Em Winn","name":"Em","display_name":"Em Winn","image_50x50":"https://img-b.udemycdn.com/user/50x50/9100824_a767_2.jpg","initials":"EW","tracking_id":"qpUjnaMASpGFFG2OVMyc6w","public_display_name":"Em W."},"content_html":"<p>Aw...thank you so much :)</p>","created_formatted_with_time_since":"2 months ago"},"content_html":"<p>My daughter likes your teaching. Thanks.</p>","created_formatted_with_time_since":"9 months ago"},{"_class":"course_review","id":115602736,"content":"my cat","rating":5.0,"created":"2022-06-03T22:57:15-07:00","modified":"2022-06-14T22:26:50-07:00","user_modified":"2022-06-14T22:26:50-07:00","user":{"_class":"user","title":"Richard Truong","name":"Richard","display_name":"Richard Truong","image_50x50":"https://img-b.udemycdn.com/user/50x50/anonymous_3.png","initials":"RT","tracking_id":"vIz2lwgMRm6RgMRTzYZLvw","public_display_name":"Richard T."},"response":{"_class":"course_review_response","id":9728626,"content":"Thank you so much :) I really appreciate your 5-stars :)","created":"2022-06-14T22:37:14-07:00","modified":"2022-06-14T22:37:14-07:00","user":{"_class":"user","title":"Em Winn","name":"Em","display_name":"Em Winn","image_50x50":"https://img-b.udemycdn.com/user/50x50/9100824_a767_2.jpg","initials":"EW","tracking_id":"qpUjnaMASpGFFG2OVMyc6w","public_display_name":"Em W."},"content_html":"<p>Thank you so much :) I really appreciate your 5-stars :)</p>","created_formatted_with_time_since":"2 months ago"},"content_html":"<p>my cat</p>","created_formatted_with_time_since":"3 months ago"},{"_class":"course_review","id":56300116,"content":"It was really great for my 6 year old twins. They loved doing it and could do it without the help of Mom and DAD. Thank You Em and we will definitely take more classes from you.","rating":5.0,"created":"2020-05-25T03:25:47-07:00","modified":"2020-05-25T07:07:19-07:00","user_modified":"2020-05-25T03:27:21-07:00","user":{"_class":"user","title":"sarth Thorat","name":"sarth","display_name":"sarth Thorat","image_50x50":"https://img-b.udemycdn.com/user/50x50/anonymous_3.png","initials":"ST","tracking_id":"c41Ar83TQM6xub2MoEF4AQ","public_display_name":"sarth T."},"response":null,"content_html":"<p>It was really great for my 6 year old twins. They loved doing it and could do it without the help of Mom and DAD. Thank You Em and we will definitely take more classes from you.</p>","created_formatted_with_time_since":"2 years ago"},{"_class":"course_review","id":50410898,"content":"I had great fun with these projects. Thank you very much for teaching me. I learned to paint all the animals.","rating":5.0,"created":"2020-04-10T07:23:32-07:00","modified":"2020-04-11T16:07:44-07:00","user_modified":"2020-04-10T07:24:43-07:00","user":{"_class":"user","title":"Benita Sanyal","name":"Benita","display_name":"Benita Sanyal","image_50x50":"https://img-b.udemycdn.com/user/50x50/anonymous_3.png","initials":"BS","tracking_id":"iigsu_kxQfS-ZkWpaTUgtA","public_display_name":"Benita S."},"response":null,"content_html":"<p>I had great fun with these projects. Thank you very much for teaching me. I learned to paint all the animals.</p>","created_formatted_with_time_since":"2 years ago"},{"_class":"course_review","id":59282464,"content":"i was a little depressed when i did this project, thinking it was too easy. Bu then I tried it, and as easy as it was it made me happier! I LOVED this experience!!!","rating":5.0,"created":"2020-06-23T12:24:34-07:00","modified":"2020-06-24T07:11:31-07:00","user_modified":"2020-06-23T12:26:13-07:00","user":{"_class":"user","title":"Rika Stock","name":"Rika","display_name":"Rika Stock","image_50x50":"https://img-b.udemycdn.com/user/50x50/anonymous_3.png","initials":"RS","tracking_id":"QaiE8pTOQ22HHVgKkjrydg","public_display_name":"Rika S."},"response":null,"content_html":"<p>i was a little depressed when i did this project, thinking it was too easy. Bu then I tried it, and as easy as it was it made me happier! I LOVED this experience!!!</p>","created_formatted_with_time_since":"2 years ago"},{"_class":"course_review","id":25331406,"content":"I just loved this course. It well thought-out and my grand-daughter was able to complete each of the items well and enjoyed it very much. Thank You!","rating":5.0,"created":"2019-01-04T14:32:49-08:00","modified":"2021-04-05T16:40:44-07:00","user_modified":"2021-04-05T16:40:44-07:00","user":{"_class":"user","title":"Fernando J. B. Gonçalves","name":"Fernando J. B.","display_name":"Fernando J. B. Gonçalves","image_50x50":"https://img-b.udemycdn.com/user/50x50/26081028_7135.jpg","initials":"FG","tracking_id":"yEPGiQqRSpulkM_kT58SAA","public_display_name":"Fernando J. B. G."},"response":{"_class":"course_review_response","id":7584262,"content":"Thank you for your comment and rating...it makes me happy to know that your granddaughter enjoyed this course and was able to follow along. Best to you :)","created":"2021-04-27T19:16:10-07:00","modified":"2021-04-27T19:16:10-07:00","user":{"_class":"user","title":"Em Winn","name":"Em","display_name":"Em Winn","image_50x50":"https://img-b.udemycdn.com/user/50x50/9100824_a767_2.jpg","initials":"EW","tracking_id":"qpUjnaMASpGFFG2OVMyc6w","public_display_name":"Em W."},"content_html":"<p>Thank you for your comment and rating...it makes me happy to know that your granddaughter enjoyed this course and was able to follow along. Best to you :)</p>","created_formatted_with_time_since":"a year ago"},"content_html":"<p>I just loved this course. It well thought-out and my grand-daughter was able to complete each of the items well and enjoyed it very much. Thank You!</p>","created_formatted_with_time_since":"3 years ago"}]}