{"count":4861,"next":"https://www.udemy.com/api-2.0/courses/671576/reviews/?courseId=671576&fields%5Bcourse_review%5D=%40default%2Cresponse%2Ccontent_html%2Ccreated_formatted_with_time_since&fields%5Bcourse_review_response%5D=%40min%2Cuser%2Ccontent_html%2Ccreated_formatted_with_time_since&fields%5Buser%5D=%40min%2Cimage_50x50%2Cinitials%2Cpublic_display_name%2Ctracking_id&is_text_review=1&ordering=course_review_score__rank%2C-created&page=2","previous":null,"results":[{"_class":"course_review","id":121379522,"content":"The sundog materials don't work (Most likely I would have to download the materials, but thats not allowed on a company device). This course shows how to build your implementations of ML solutions. It doesn't show you how to apply ML, DS or DL as problem solving tools, which is what actually empowers someone to create value using these skills.","rating":4.0,"created":"2022-08-17T04:30:34-07:00","modified":"2022-08-18T16:10:26-07:00","user_modified":"2022-08-17T04:33:16-07:00","user":{"_class":"user","title":"Kurtus Kobeck","name":"Kurtus","display_name":"Kurtus Kobeck","image_50x50":"https://img-c.udemycdn.com/user/50x50/anonymous_3.png","initials":"KK","tracking_id":"3QV1oSm_R42wMvMunVEmgA","public_display_name":"Kurtus K."},"response":null,"content_html":"<p>The sundog materials don't work (Most likely I would have to download the materials, but thats not allowed on a company device). This course shows how to build your implementations of ML solutions. It doesn't show you how to apply ML, DS or DL as problem solving tools, which is what actually empowers someone to create value using these skills.</p>","created_formatted_with_time_since":"2 weeks ago"},{"_class":"course_review","id":117759392,"content":"That's a really great place to learn data science from zero background knowledge of math or computer science. If you already know a bit of math it could be frustrating the lack of deeper analysis on those topics","rating":4.0,"created":"2022-07-01T09:59:20-07:00","modified":"2022-07-16T08:12:52-07:00","user_modified":"2022-07-16T08:12:52-07:00","user":{"_class":"user","title":"Gianmarco Sarnelli","name":"Gianmarco","display_name":"Gianmarco Sarnelli","image_50x50":"https://img-c.udemycdn.com/user/50x50/anonymous_3.png","initials":"GS","tracking_id":"XMnT5HyzS160kBpwp1kSVQ","public_display_name":"Gianmarco S."},"response":null,"content_html":"<p>That's a really great place to learn data science from zero background knowledge of math or computer science. If you already know a bit of math it could be frustrating the lack of deeper analysis on those topics</p>","created_formatted_with_time_since":"2 months ago"},{"_class":"course_review","id":117348026,"content":"Second course from Frank I took. Just all-round great: crystal clear and compelling presentation, hands-on exercises well supplemented by prerequisite theory and very good quality of sound and video.","rating":5.0,"created":"2022-06-27T04:55:29-07:00","modified":"2022-06-28T16:09:23-07:00","user_modified":"2022-06-27T05:00:44-07:00","user":{"_class":"user","title":"Peter Výboch","name":"Peter","display_name":"Peter Výboch","image_50x50":"https://img-c.udemycdn.com/user/50x50/anonymous_3.png","initials":"PV","tracking_id":"C_2B0mdXSd2hQxmbWliJ-g","public_display_name":"Peter V."},"response":null,"content_html":"<p>Second course from Frank I took. Just all-round great: crystal clear and compelling presentation, hands-on exercises well supplemented by prerequisite theory and very good quality of sound and video.</p>","created_formatted_with_time_since":"2 months ago"},{"_class":"course_review","id":114141718,"content":"The course is amazing as the lecturer is too good at articulating concepts with real world examples, which makes the concepts more understandable. I would recommend this course to anyone who has basic coding knowledge,  and has interest in this domain.","rating":5.0,"created":"2022-05-16T23:14:44-07:00","modified":"2022-08-07T22:28:17-07:00","user_modified":"2022-08-07T22:28:17-07:00","user":{"_class":"user","title":"Nikhil Kant","name":"Nikhil","display_name":"Nikhil Kant","image_50x50":"https://img-c.udemycdn.com/user/50x50/anonymous_3.png","initials":"NK","tracking_id":"M1B9WOKRS3a5_BL2e5kAsw","public_display_name":"Nikhil K."},"response":null,"content_html":"<p>The course is amazing as the lecturer is too good at articulating concepts with real world examples, which makes the concepts more understandable. I would recommend this course to anyone who has basic coding knowledge,  and has interest in this domain.</p>","created_formatted_with_time_since":"3 months ago"},{"_class":"course_review","id":111296130,"content":"Its pretty fast.  I am using it more as a reference point to go search and learn the concepts that are being shown in the videos and learning it that way.  Not really learning from the videos.","rating":3.0,"created":"2022-04-06T10:01:34-07:00","modified":"2022-04-07T16:04:30-07:00","user_modified":"2022-04-06T10:02:31-07:00","user":{"_class":"user","title":"Robert Davis","name":"Robert","display_name":"Robert Davis","image_50x50":"https://img-c.udemycdn.com/user/50x50/anonymous_3.png","initials":"RD","tracking_id":"sm2xOZF5Q0ScX1gL_vxjGw","public_display_name":"Robert D."},"response":null,"content_html":"<p>Its pretty fast.  I am using it more as a reference point to go search and learn the concepts that are being shown in the videos and learning it that way.  Not really learning from the videos.</p>","created_formatted_with_time_since":"4 months ago"},{"_class":"course_review","id":109330584,"content":"It is an awesome course on Data Science and Machine Learning. It gives a great foundation for practicing DS and ML in real Life. Thank you Frank for such a great course.","rating":5.0,"created":"2022-03-10T12:36:02-08:00","modified":"2022-03-11T15:05:58-08:00","user_modified":"2022-03-10T12:38:28-08:00","user":{"_class":"user","title":"Max Luckystar","name":"Max","display_name":"Max Luckystar","image_50x50":"https://img-c.udemycdn.com/user/50x50/anonymous_3.png","initials":"ML","tracking_id":"A8xD33A-Shuk564f42xyCg","public_display_name":"Max L."},"response":null,"content_html":"<p>It is an awesome course on Data Science and Machine Learning. It gives a great foundation for practicing DS and ML in real Life. Thank you Frank for such a great course.</p>","created_formatted_with_time_since":"5 months ago"},{"_class":"course_review","id":113031974,"content":"Really taught the basics of ML and Data science..By the end of the course I was able to develop a few ML models myself..Will practice more and visit these examples in the upcoming future","rating":4.0,"created":"2022-05-01T10:57:39-07:00","modified":"2022-05-02T16:13:41-07:00","user_modified":"2022-05-01T10:59:28-07:00","user":{"_class":"user","title":"Siddhartha Gupta","name":"Siddhartha","display_name":"Siddhartha Gupta","image_50x50":"https://img-c.udemycdn.com/user/50x50/anonymous_3.png","initials":"SG","tracking_id":"dhKU0tdvSpy_MEvPi2t7yg","public_display_name":"Siddhartha G."},"response":null,"content_html":"<p>Really taught the basics of ML and Data science..By the end of the course I was able to develop a few ML models myself..Will practice more and visit these examples in the upcoming future</p>","created_formatted_with_time_since":"4 months ago"},{"_class":"course_review","id":116930112,"content":"This was a perfect course for a newbie to data science and machine learning. The trainer was very effective in setting the basics right before deep diving into using them. Excellent collection of examples, data sets, and real-life scenarios. Especially loved the part where I learned the algorithms behind streaming service movie recommendations. It took a while for me to wrap my head around tensor flow, but that is just me. Overall a great first course to set the basics right.","rating":4.5,"created":"2022-06-21T13:49:12-07:00","modified":"2022-06-22T16:08:10-07:00","user_modified":"2022-06-21T13:52:53-07:00","user":{"_class":"user","title":"Mathangi Pichai","name":"Mathangi","display_name":"Mathangi Pichai","image_50x50":"https://img-c.udemycdn.com/user/50x50/anonymous_3.png","initials":"MP","tracking_id":"cK8x8xTlTOqWrNVmHPkHmw","public_display_name":"Mathangi P."},"response":null,"content_html":"<p>This was a perfect course for a newbie to data science and machine learning. The trainer was very effective in setting the basics right before deep diving into using them. Excellent collection of examples, data sets, and real-life scenarios. Especially loved the part where I learned the algorithms behind streaming service movie recommendations. It took a while for me to wrap my head around tensor flow, but that is just me. Overall a great first course to set the basics right.</p>","created_formatted_with_time_since":"2 months ago"},{"_class":"course_review","id":116783192,"content":"Very relevant and well-structured. I will be using these skills immediately and I will use this course as a reference as I go!","rating":4.5,"created":"2022-06-20T01:16:57-07:00","modified":"2022-06-21T16:07:21-07:00","user_modified":"2022-06-20T01:17:28-07:00","user":{"_class":"user","title":"Lachlan Stewart","name":"Lachlan","display_name":"Lachlan Stewart","image_50x50":"https://img-c.udemycdn.com/user/50x50/anonymous_3.png","initials":"LS","tracking_id":"yvNOYeneT4u4zaSwctOdDg","public_display_name":"Lachlan S."},"response":null,"content_html":"<p>Very relevant and well-structured. I will be using these skills immediately and I will use this course as a reference as I go!</p>","created_formatted_with_time_since":"2 months ago"},{"_class":"course_review","id":111638748,"content":"It was easy to follow along and appreciate the detailed notebooks! I would recommend that the people who take this course have some background data science courses under their belt as some of the concepts were very technical, but overall I thought this course was great!","rating":5.0,"created":"2022-04-11T12:34:46-07:00","modified":"2022-04-12T16:07:06-07:00","user_modified":"2022-04-11T12:36:03-07:00","user":{"_class":"user","title":"Joanne Evangelista","name":"Joanne","display_name":"Joanne Evangelista","image_50x50":"https://img-c.udemycdn.com/user/50x50/anonymous_3.png","initials":"JE","tracking_id":"gwapHfnfSOaLsCoQ1LNIbA","public_display_name":"Joanne E."},"response":null,"content_html":"<p>It was easy to follow along and appreciate the detailed notebooks! I would recommend that the people who take this course have some background data science courses under their belt as some of the concepts were very technical, but overall I thought this course was great!</p>","created_formatted_with_time_since":"4 months ago"},{"_class":"course_review","id":112828774,"content":"This course is well designed. It was really helpful to recover acquired knowledge many years ago in my Undergraduate Machine Learning Course, and to update to new topics.","rating":5.0,"created":"2022-04-28T06:05:50-07:00","modified":"2022-04-30T16:06:17-07:00","user_modified":"2022-04-28T06:07:16-07:00","user":{"_class":"user","title":"Marco Aurelio Nuño-Maganda","name":"Marco Aurelio","display_name":"Marco Aurelio Nuño-Maganda","image_50x50":"https://img-c.udemycdn.com/user/50x50/anonymous_3.png","initials":"MN","tracking_id":"IqDJvSkwRc-o4qK5Pulh_Q","public_display_name":"Marco Aurelio N."},"response":null,"content_html":"<p>This course is well designed. It was really helpful to recover acquired knowledge many years ago in my Undergraduate Machine Learning Course, and to update to new topics.</p>","created_formatted_with_time_since":"4 months ago"},{"_class":"course_review","id":113972926,"content":"Nice overview of a broad set up topics at a good pace with plenty of hands-on excercises.","rating":5.0,"created":"2022-05-14T06:31:34-07:00","modified":"2022-05-15T16:05:47-07:00","user_modified":"2022-05-14T06:32:07-07:00","user":{"_class":"user","title":"Tricky Rooster","name":"Tricky","display_name":"Tricky Rooster","image_50x50":"https://img-c.udemycdn.com/user/50x50/73762686_7507.jpg","initials":"TR","tracking_id":"XnzvfQFaTz2JuNeijNM0-g","public_display_name":"Tricky R."},"response":null,"content_html":"<p>Nice overview of a broad set up topics at a good pace with plenty of hands-on excercises.</p>","created_formatted_with_time_since":"3 months ago"}]}