{"count":401,"next":"https://www.udemy.com/api-2.0/courses/695656/reviews/?courseId=695656&fields%5Bcourse_review%5D=%40default%2Cresponse%2Ccontent_html%2Ccreated_formatted_with_time_since&fields%5Bcourse_review_response%5D=%40min%2Cuser%2Ccontent_html%2Ccreated_formatted_with_time_since&fields%5Buser%5D=%40min%2Cimage_50x50%2Cinitials%2Cpublic_display_name%2Ctracking_id&is_text_review=1&ordering=course_review_score__rank%2C-created&page=2","previous":null,"results":[{"_class":"course_review","id":119751594,"content":"Teacher has an in-depth knowledge of topic","rating":5.0,"created":"2022-07-27T05:13:34-07:00","modified":"2022-07-29T16:14:01-07:00","user_modified":"2022-07-27T05:13:58-07:00","user":{"_class":"user","title":"Tonna Amazu","name":"Tonna","display_name":"Tonna Amazu","image_50x50":"https://img-c.udemycdn.com/user/50x50/26656946_d1de.jpg","initials":"TA","tracking_id":"d1766NI4Qk-WMdT-1Mc_Gg","public_display_name":"Tonna A."},"response":null,"content_html":"<p>Teacher has an in-depth knowledge of topic</p>","created_formatted_with_time_since":"a month ago"},{"_class":"course_review","id":118735634,"content":"It contained the things which I was looking for understanding the very basics about javascript","rating":4.0,"created":"2022-07-14T04:58:02-07:00","modified":"2022-07-15T16:07:57-07:00","user_modified":"2022-07-14T04:59:48-07:00","user":{"_class":"user","title":"Pankaj Kumar","name":"Pankaj","display_name":"Pankaj Kumar","image_50x50":"https://img-c.udemycdn.com/user/50x50/anonymous_3.png","initials":"PK","tracking_id":"3B_siAtvQZWmy3PiB-wQaA","public_display_name":"Pankaj K."},"response":null,"content_html":"<p>It contained the things which I was looking for understanding the very basics about javascript</p>","created_formatted_with_time_since":"a month ago"},{"_class":"course_review","id":116223196,"content":"It was good but not that much. thought it would be more detailed but anyways the way he explained it , that was good. gl future","rating":4.0,"created":"2022-06-12T11:36:13-07:00","modified":"2022-06-14T16:09:30-07:00","user_modified":"2022-06-12T11:37:59-07:00","user":{"_class":"user","title":"Sayedul Sayem","name":"Sayedul","display_name":"Sayedul Sayem","image_50x50":"https://img-c.udemycdn.com/user/50x50/37918052_22df.jpg","initials":"SS","tracking_id":"vaCi5m3pRBKmpnMp1iaefQ","public_display_name":"Sayedul S."},"response":null,"content_html":"<p>It was good but not that much. thought it would be more detailed but anyways the way he explained it , that was good. gl future</p>","created_formatted_with_time_since":"2 months ago"},{"_class":"course_review","id":106967448,"content":"Examples do not work across different browsers. Too slow in the explanations, could have covered more in the same time.","rating":3.0,"created":"2022-02-07T06:07:10-08:00","modified":"2022-02-08T15:07:59-08:00","user_modified":"2022-02-07T06:07:57-08:00","user":{"_class":"user","title":"Vladimir Hernandez","name":"Vladimir","display_name":"Vladimir Hernandez","image_50x50":"https://img-c.udemycdn.com/user/50x50/anonymous_3.png","initials":"VH","tracking_id":"y3C7rqFETjab1c0pM6FlTg","public_display_name":"Vladimir H."},"response":null,"content_html":"<p>Examples do not work across different browsers. Too slow in the explanations, could have covered more in the same time.</p>","created_formatted_with_time_since":"6 months ago"},{"_class":"course_review","id":106981806,"content":"excellent job","rating":5.0,"created":"2022-02-07T08:50:38-08:00","modified":"2022-02-12T09:23:29-08:00","user_modified":"2022-02-12T09:23:29-08:00","user":{"_class":"user","title":"Audwitiya Bandyopadhyay","name":"Audwitiya","display_name":"Audwitiya Bandyopadhyay","image_50x50":"https://img-c.udemycdn.com/user/50x50/anonymous_3.png","initials":"AB","tracking_id":"n8jFJt-KRdSxlFd0bUKLmg","public_display_name":"Audwitiya B."},"response":null,"content_html":"<p>excellent job</p>","created_formatted_with_time_since":"6 months ago"},{"_class":"course_review","id":109234634,"content":"content could be improved","rating":2.5,"created":"2022-03-09T09:36:57-08:00","modified":"2022-03-10T15:07:19-08:00","user_modified":"2022-03-09T09:37:18-08:00","user":{"_class":"user","title":"Himanshu singh","name":"Himanshu","display_name":"Himanshu singh","image_50x50":"https://img-c.udemycdn.com/user/50x50/anonymous_3.png","initials":"HS","tracking_id":"lC11aEcPRkalefz3NmGgHA","public_display_name":"Himanshu S."},"response":null,"content_html":"<p>content could be improved</p>","created_formatted_with_time_since":"5 months ago"},{"_class":"course_review","id":106477756,"content":"Very helpful, so far!","rating":5.0,"created":"2022-02-01T03:59:16-08:00","modified":"2022-02-02T14:04:37-08:00","user_modified":"2022-02-01T09:16:09-08:00","user":{"_class":"user","title":"George Tsironis","name":"George","display_name":"George Tsironis","image_50x50":"https://img-c.udemycdn.com/user/50x50/anonymous_3.png","initials":"GT","tracking_id":"YOKwaeFmQwCWRui5sjXDwg","public_display_name":"George T."},"response":null,"content_html":"<p>Very helpful, so far!</p>","created_formatted_with_time_since":"7 months ago"},{"_class":"course_review","id":97860488,"content":"I'm really glad I got a steep discount because this was barely enough content to justify the $15 I spent.  Without downloadable example files, with very little detail of any kind, this wasn't much of an introduction to coding generally and for someone who was already coding, it wasn't any better than a free resource.","rating":2.0,"created":"2021-10-14T11:32:28-07:00","modified":"2021-10-15T16:08:24-07:00","user_modified":"2021-10-14T11:34:04-07:00","user":{"_class":"user","title":"Allison Sliter","name":"Allison","display_name":"Allison Sliter","image_50x50":"https://img-c.udemycdn.com/user/50x50/anonymous_3.png","initials":"AS","tracking_id":"xrxjRAhERSOM7pm6a50QlA","public_display_name":"Allison S."},"response":null,"content_html":"<p>I'm really glad I got a steep discount because this was barely enough content to justify the $15 I spent.  Without downloadable example files, with very little detail of any kind, this wasn't much of an introduction to coding generally and for someone who was already coding, it wasn't any better than a free resource.</p>","created_formatted_with_time_since":"10 months ago"},{"_class":"course_review","id":97786178,"content":"quality information and was able to follow along the entire time!","rating":5.0,"created":"2021-10-13T13:37:20-07:00","modified":"2021-10-14T16:04:20-07:00","user_modified":"2021-10-13T13:37:42-07:00","user":{"_class":"user","title":"Kari Perry","name":"Kari","display_name":"Kari Perry","image_50x50":"https://img-c.udemycdn.com/user/50x50/anonymous_3.png","initials":"KP","tracking_id":"tGOi3PhoS2qEuUyukxeuLg","public_display_name":"Kari P."},"response":null,"content_html":"<p>quality information and was able to follow along the entire time!</p>","created_formatted_with_time_since":"10 months ago"},{"_class":"course_review","id":120851732,"content":"good","rating":5.0,"created":"2022-08-10T02:18:11-07:00","modified":"2022-08-11T16:08:53-07:00","user_modified":"2022-08-10T02:18:17-07:00","user":{"_class":"user","title":"Bhagvat Dave","name":"Bhagvat","display_name":"Bhagvat Dave","image_50x50":"https://img-c.udemycdn.com/user/50x50/anonymous_3.png","initials":"BD","tracking_id":"za_vQcG4TPiozjyAyJQu7Q","public_display_name":"Bhagvat D."},"response":null,"content_html":"<p>good</p>","created_formatted_with_time_since":"3 weeks ago"},{"_class":"course_review","id":96016082,"content":"Es un excelente curso!, muy sencillo de seguir y muy detallado","rating":5.0,"created":"2021-09-21T12:34:01-07:00","modified":"2021-10-07T09:37:59-07:00","user_modified":"2021-10-07T09:37:59-07:00","user":{"_class":"user","title":"Juan Cruz Guerra","name":"Juan Cruz","display_name":"Juan Cruz Guerra","image_50x50":"https://img-c.udemycdn.com/user/50x50/anonymous_3.png","initials":"JG","tracking_id":"V3WH1fBGR5S21Fyp3_khpw","public_display_name":"Juan Cruz G."},"response":null,"content_html":"<p>Es un excelente curso!, muy sencillo de seguir y muy detallado</p>","created_formatted_with_time_since":"11 months ago"},{"_class":"course_review","id":96228036,"content":"The objective of each lesson is very clearly explained and demonstrated in an way that is easy to understand the concept.","rating":5.0,"created":"2021-09-23T19:28:59-07:00","modified":"2021-09-24T16:05:26-07:00","user_modified":"2021-09-23T19:29:57-07:00","user":{"_class":"user","title":"Kaye Five","name":"Kaye","display_name":"Kaye Five","image_50x50":"https://img-c.udemycdn.com/user/50x50/anonymous_3.png","initials":"KF","tracking_id":"7fBUSa6vQhGBFAJ1CeioVA","public_display_name":"Kaye F."},"response":null,"content_html":"<p>The objective of each lesson is very clearly explained and demonstrated in an way that is easy to understand the concept.</p>","created_formatted_with_time_since":"11 months ago"}]}