{"count":229,"next":"https://www.udemy.com/api-2.0/courses/70720/reviews/?courseId=70720&fields%5Bcourse_review%5D=%40default%2Cresponse%2Ccontent_html%2Ccreated_formatted_with_time_since&fields%5Bcourse_review_response%5D=%40min%2Cuser%2Ccontent_html%2Ccreated_formatted_with_time_since&fields%5Buser%5D=%40min%2Cimage_50x50%2Cinitials%2Cpublic_display_name%2Ctracking_id&is_text_review=1&ordering=course_review_score__rank%2C-created&page=2","previous":null,"results":[{"_class":"course_review","id":120721920,"content":"Se explica bastante claro los atajos y consejos sobre la herramienta de Excel dando ejemplos y resaltando los puntos importantes para que funcionen estos atajos, buen curso para mejorar las skills en la herramienta.","rating":5.0,"created":"2022-08-08T14:10:33-07:00","modified":"2022-08-11T11:12:40-07:00","user_modified":"2022-08-11T11:12:40-07:00","user":{"_class":"user","title":"Alfonso Iturbe","name":"Alfonso","display_name":"Alfonso Iturbe","image_50x50":"https://img-c.udemycdn.com/user/50x50/anonymous_3.png","initials":"AI","tracking_id":"VmYAAJ3pQ9Gatc6sNeiltA","public_display_name":"Alfonso I."},"response":null,"content_html":"<p>Se explica bastante claro los atajos y consejos sobre la herramienta de Excel dando ejemplos y resaltando los puntos importantes para que funcionen estos atajos, buen curso para mejorar las skills en la herramienta.</p>","created_formatted_with_time_since":"3 weeks ago"},{"_class":"course_review","id":118482690,"content":"Course is very useful and interactive","rating":4.5,"created":"2022-07-11T10:18:05-07:00","modified":"2022-07-12T16:08:51-07:00","user_modified":"2022-07-11T10:18:25-07:00","user":{"_class":"user","title":"","name":"","display_name":"Priya Kumariefeb8","image_50x50":"https://img-c.udemycdn.com/user/50x50/anonymous_3.png","initials":"","tracking_id":"AGNtV8UwTAuj6CQSYMXaNA","public_display_name":"Udemy User"},"response":{"_class":"course_review_response","id":9873406,"content":"Thank you, Priya. We are happy that you learn from our course. ?","created":"2022-07-13T08:28:11-07:00","modified":"2022-07-13T08:28:11-07:00","user":{"_class":"user","title":"Stephanie Jhoy Tumulak","name":"Stephanie Jhoy","display_name":"Stephanie Jhoy Tumulak","image_50x50":"https://img-c.udemycdn.com/user/50x50/171593750_b9f9.jpg","initials":"ST","tracking_id":"aN-pV9CaTaWH8baFRxnRGQ","public_display_name":"Stephanie Jhoy T."},"content_html":"<p>Thank you, Priya. We are happy that you learn from our course. ?</p>","created_formatted_with_time_since":"a month ago"},"content_html":"<p>Course is very useful and interactive</p>","created_formatted_with_time_since":"a month ago"},{"_class":"course_review","id":116936974,"content":"Yes, it's giving me shortcuts and knowledge I did not have prior to this course, I think it will be very useful for me when navigating excel at work.","rating":5.0,"created":"2022-06-21T16:05:50-07:00","modified":"2022-06-27T17:32:45-07:00","user_modified":"2022-06-27T17:32:45-07:00","user":{"_class":"user","title":"","name":"","display_name":"Candace Madans","image_50x50":"https://img-c.udemycdn.com/user/50x50/anonymous_3.png","initials":"","tracking_id":"bssUIdq1Q32eLymDcoGSWQ","public_display_name":"Udemy User"},"response":{"_class":"course_review_response","id":9777680,"content":"Nice Candace! We are happy that you learn some skills and apply it on your work. Keep on learning! ?","created":"2022-06-23T15:57:21-07:00","modified":"2022-06-23T15:57:21-07:00","user":{"_class":"user","title":"Stephanie Jhoy Tumulak","name":"Stephanie Jhoy","display_name":"Stephanie Jhoy Tumulak","image_50x50":"https://img-c.udemycdn.com/user/50x50/171593750_b9f9.jpg","initials":"ST","tracking_id":"aN-pV9CaTaWH8baFRxnRGQ","public_display_name":"Stephanie Jhoy T."},"content_html":"<p>Nice Candace! We are happy that you learn some skills and apply it on your work. Keep on learning! ?</p>","created_formatted_with_time_since":"2 months ago"},"content_html":"<p>Yes, it's giving me shortcuts and knowledge I did not have prior to this course, I think it will be very useful for me when navigating excel at work.</p>","created_formatted_with_time_since":"2 months ago"},{"_class":"course_review","id":116922254,"content":"Billy has a fantastic energy in his instruction and makes it easy to follow along!","rating":5.0,"created":"2022-06-21T11:53:43-07:00","modified":"2022-06-24T09:28:09-07:00","user_modified":"2022-06-24T09:28:09-07:00","user":{"_class":"user","title":"","name":"","display_name":"Peter Brown","image_50x50":"https://img-c.udemycdn.com/user/50x50/anonymous_3.png","initials":"","tracking_id":"WPQ9E9ZTTMK96b5E61Xn8A","public_display_name":"Udemy User"},"response":{"_class":"course_review_response","id":9777684,"content":"I agree with you. Mr. Aloha wants the best for his students! We are happy that you like this course Peter ?","created":"2022-06-23T15:58:32-07:00","modified":"2022-06-23T15:58:32-07:00","user":{"_class":"user","title":"Stephanie Jhoy Tumulak","name":"Stephanie Jhoy","display_name":"Stephanie Jhoy Tumulak","image_50x50":"https://img-c.udemycdn.com/user/50x50/171593750_b9f9.jpg","initials":"ST","tracking_id":"aN-pV9CaTaWH8baFRxnRGQ","public_display_name":"Stephanie Jhoy T."},"content_html":"<p>I agree with you. Mr. Aloha wants the best for his students! We are happy that you like this course Peter ?</p>","created_formatted_with_time_since":"2 months ago"},"content_html":"<p>Billy has a fantastic energy in his instruction and makes it easy to follow along!</p>","created_formatted_with_time_since":"2 months ago"},{"_class":"course_review","id":113109548,"content":"Billy has a lot of knowledge and skill in teaching MSExcel. He has teaching methods that will definitely set him apart from other instructors. Plenty of information here.","rating":4.0,"created":"2022-05-02T12:56:38-07:00","modified":"2022-05-03T16:34:04-07:00","user_modified":"2022-05-02T12:59:16-07:00","user":{"_class":"user","title":"Loren L. Ratzlaff","name":"Loren L.","display_name":"Loren L. Ratzlaff","image_50x50":"https://img-c.udemycdn.com/user/50x50/anonymous_3.png","initials":"LR","tracking_id":"0tKqsh2OSlyJjeJAcy4o_w","public_display_name":"Loren L. R."},"response":{"_class":"course_review_response","id":9530390,"content":"Thank you Loren for this wonderful review. If you have questions, just ask and we are happy to help ?","created":"2022-05-06T08:07:11-07:00","modified":"2022-05-06T08:07:11-07:00","user":{"_class":"user","title":"Stephanie Jhoy Tumulak","name":"Stephanie Jhoy","display_name":"Stephanie Jhoy Tumulak","image_50x50":"https://img-c.udemycdn.com/user/50x50/171593750_b9f9.jpg","initials":"ST","tracking_id":"aN-pV9CaTaWH8baFRxnRGQ","public_display_name":"Stephanie Jhoy T."},"content_html":"<p>Thank you Loren for this wonderful review. If you have questions, just ask and we are happy to help ?</p>","created_formatted_with_time_since":"3 months ago"},"content_html":"<p>Billy has a lot of knowledge and skill in teaching MSExcel. He has teaching methods that will definitely set him apart from other instructors. Plenty of information here.</p>","created_formatted_with_time_since":"4 months ago"},{"_class":"course_review","id":116819772,"content":"Very enjoyable- I like how he breaks it down without talking down to the user\nMy Excel skills were able to meet the job before that but was very basic as was asked\nI REALLY wish I knew all this before my last job- I could have blown them out of the water and better understand why it was not a good fit- so Getting Skills!","rating":3.5,"created":"2022-06-20T09:29:02-07:00","modified":"2022-06-22T10:59:28-07:00","user_modified":"2022-06-22T10:59:28-07:00","user":{"_class":"user","title":"","name":"","display_name":"Kristin Brantley","image_50x50":"https://img-c.udemycdn.com/user/50x50/anonymous_3.png","initials":"","tracking_id":"vQuZTVHvQ7qUtz_oi6Uikg","public_display_name":"Udemy User"},"response":{"_class":"course_review_response","id":9771092,"content":"I am happy that you are benefiting from the skills I am teaching. Forget about the past, it's history. Now you are prepared for the moment, and getting ready for the future because you Don't Get Mad, you Get Skills!<br>Congratulations! <br>Keep on learning. <br>????","created":"2022-06-22T11:34:59-07:00","modified":"2022-06-22T11:34:59-07:00","user":{"_class":"user","title":"Billy Wigley","name":"Billy","display_name":"Billy Wigley","image_50x50":"https://img-c.udemycdn.com/user/50x50/1071808_f970_10.jpg","initials":"BW","tracking_id":"G9nQu4caQ9CKWzVIy0atXg","public_display_name":"Billy W."},"content_html":"<p>I am happy that you are benefiting from the skills I am teaching. Forget about the past, it's history. Now you are prepared for the moment, and getting ready for the future because you Don't Get Mad, you Get Skills!<br>Congratulations! <br>Keep on learning. <br>????</p>","created_formatted_with_time_since":"2 months ago"},"content_html":"<p>Very enjoyable- I like how he breaks it down without talking down to the user<br>My Excel skills were able to meet the job before that but was very basic as was asked<br>I REALLY wish I knew all this before my last job- I could have blown them out of the water and better understand why it was not a good fit- so Getting Skills!</p>","created_formatted_with_time_since":"2 months ago"},{"_class":"course_review","id":114659010,"content":"This is an amazing course for refreshing excel knowledge.","rating":5.0,"created":"2022-05-23T09:17:36-07:00","modified":"2022-08-19T08:33:41-07:00","user_modified":"2022-08-19T08:33:41-07:00","user":{"_class":"user","title":"","name":"","display_name":"Brian Patrick","image_50x50":"https://img-c.udemycdn.com/user/50x50/anonymous_3.png","initials":"","tracking_id":"ktZ9kcgpTtyOUNDoHVYGNQ","public_display_name":"Udemy User"},"response":{"_class":"course_review_response","id":10054698,"content":"Thanks, Brian! Just keep on learning. ?","created":"2022-08-19T08:59:12-07:00","modified":"2022-08-19T08:59:12-07:00","user":{"_class":"user","title":"Stephanie Jhoy Tumulak","name":"Stephanie Jhoy","display_name":"Stephanie Jhoy Tumulak","image_50x50":"https://img-c.udemycdn.com/user/50x50/171593750_b9f9.jpg","initials":"ST","tracking_id":"aN-pV9CaTaWH8baFRxnRGQ","public_display_name":"Stephanie Jhoy T."},"content_html":"<p>Thanks, Brian! Just keep on learning. ?</p>","created_formatted_with_time_since":"2 weeks ago"},"content_html":"<p>This is an amazing course for refreshing excel knowledge.</p>","created_formatted_with_time_since":"3 months ago"},{"_class":"course_review","id":120171914,"content":"thanks you , it was easy way to learn","rating":5.0,"created":"2022-08-01T14:47:53-07:00","modified":"2022-08-11T18:09:27-07:00","user_modified":"2022-08-11T18:09:27-07:00","user":{"_class":"user","title":"","name":"","display_name":"Jamal Timraz","image_50x50":"https://img-c.udemycdn.com/user/50x50/anonymous_3.png","initials":"","tracking_id":"d5n8U538RreYT78JLAQcJg","public_display_name":"Udemy User"},"response":{"_class":"course_review_response","id":10029080,"content":"My pleasure! Keep on learning!","created":"2022-08-13T07:21:10-07:00","modified":"2022-08-13T07:21:10-07:00","user":{"_class":"user","title":"Billy Wigley","name":"Billy","display_name":"Billy Wigley","image_50x50":"https://img-c.udemycdn.com/user/50x50/1071808_f970_10.jpg","initials":"BW","tracking_id":"G9nQu4caQ9CKWzVIy0atXg","public_display_name":"Billy W."},"content_html":"<p>My pleasure! Keep on learning!</p>","created_formatted_with_time_since":"2 weeks ago"},"content_html":"<p>thanks you , it was easy way to learn</p>","created_formatted_with_time_since":"a month ago"},{"_class":"course_review","id":106971108,"content":"It's really very helpful. The way of explanation is very good. Thank you so much Aloha!","rating":5.0,"created":"2022-02-07T06:49:15-08:00","modified":"2022-02-08T15:07:59-08:00","user_modified":"2022-02-07T06:50:20-08:00","user":{"_class":"user","title":"","name":"","display_name":"Vani T","image_50x50":"https://img-c.udemycdn.com/user/50x50/anonymous_3.png","initials":"","tracking_id":"fywe0qYdTRO3rp-YbQ40HQ","public_display_name":"Udemy User"},"response":{"_class":"course_review_response","id":9117418,"content":"Aloha from Kauai! I am happy that you are laying a solid Excel Basics foundation. As you can see I am updating all the lectures to Microsoft 365. Remember that I am always available to answer your questions. Keep on learning!<br>????","created":"2022-02-12T10:52:38-08:00","modified":"2022-02-12T10:52:38-08:00","user":{"_class":"user","title":"Billy Wigley","name":"Billy","display_name":"Billy Wigley","image_50x50":"https://img-c.udemycdn.com/user/50x50/1071808_f970_10.jpg","initials":"BW","tracking_id":"G9nQu4caQ9CKWzVIy0atXg","public_display_name":"Billy W."},"content_html":"<p>Aloha from Kauai! I am happy that you are laying a solid Excel Basics foundation. As you can see I am updating all the lectures to Microsoft 365. Remember that I am always available to answer your questions. Keep on learning!<br>????</p>","created_formatted_with_time_since":"6 months ago"},"content_html":"<p>It's really very helpful. The way of explanation is very good. Thank you so much Aloha!</p>","created_formatted_with_time_since":"6 months ago"},{"_class":"course_review","id":111734452,"content":"great lesson very interesting kept my attention..","rating":5.0,"created":"2022-04-12T17:14:19-07:00","modified":"2022-04-13T16:04:41-07:00","user_modified":"2022-04-12T17:15:41-07:00","user":{"_class":"user","title":"Carla Jones","name":"Carla","display_name":"Carla Jones","image_50x50":"https://img-c.udemycdn.com/user/50x50/anonymous_3.png","initials":"CJ","tracking_id":"QzD3H5c_Qsqd353VoP87SA","public_display_name":"Carla J."},"response":{"_class":"course_review_response","id":9423346,"content":"I'm glad you are learning, Carla.<br>Remember that I am available to answer your questions, and help you keep on learning!","created":"2022-04-15T18:30:37-07:00","modified":"2022-04-15T18:30:37-07:00","user":{"_class":"user","title":"Billy Wigley","name":"Billy","display_name":"Billy Wigley","image_50x50":"https://img-c.udemycdn.com/user/50x50/1071808_f970_10.jpg","initials":"BW","tracking_id":"G9nQu4caQ9CKWzVIy0atXg","public_display_name":"Billy W."},"content_html":"<p>I'm glad you are learning, Carla.<br>Remember that I am available to answer your questions, and help you keep on learning!</p>","created_formatted_with_time_since":"4 months ago"},"content_html":"<p>great lesson very interesting kept my attention..</p>","created_formatted_with_time_since":"4 months ago"},{"_class":"course_review","id":109849228,"content":"i would highly recommend for anyone who want to learn or upgrade their Excel skills.","rating":5.0,"created":"2022-03-17T12:00:41-07:00","modified":"2022-03-27T02:03:41-07:00","user_modified":"2022-03-27T02:03:41-07:00","user":{"_class":"user","title":"Verenique Stout","name":"Verenique","display_name":"Verenique Stout","image_50x50":"https://img-c.udemycdn.com/user/50x50/anonymous_3.png","initials":"VS","tracking_id":"jdQADEe1SVS9gN7-VCdhDw","public_display_name":"Verenique S."},"response":{"_class":"course_review_response","id":9331864,"content":"Thank you Verenique for the recommendation and good review. We really appreciate it ?","created":"2022-03-28T02:20:28-07:00","modified":"2022-03-28T02:20:28-07:00","user":{"_class":"user","title":"Stephanie Jhoy Tumulak","name":"Stephanie Jhoy","display_name":"Stephanie Jhoy Tumulak","image_50x50":"https://img-c.udemycdn.com/user/50x50/171593750_b9f9.jpg","initials":"ST","tracking_id":"aN-pV9CaTaWH8baFRxnRGQ","public_display_name":"Stephanie Jhoy T."},"content_html":"<p>Thank you Verenique for the recommendation and good review. We really appreciate it ?</p>","created_formatted_with_time_since":"5 months ago"},"content_html":"<p>i would highly recommend for anyone who want to learn or upgrade their Excel skills.</p>","created_formatted_with_time_since":"5 months ago"},{"_class":"course_review","id":104192804,"content":"Billy was an excellent instructor, and fun to listen to!  I would watch any of his instructional videos, and I'm glad I took his course.","rating":5.0,"created":"2022-01-05T13:49:44-08:00","modified":"2022-01-12T09:23:10-08:00","user_modified":"2022-01-12T09:23:10-08:00","user":{"_class":"user","title":"Lacresha Blankenship","name":"Lacresha","display_name":"Lacresha Blankenship","image_50x50":"https://img-c.udemycdn.com/user/50x50/anonymous_3.png","initials":"LB","tracking_id":"_tH9DvFZScqPlVgG2ZGZoA","public_display_name":"Lacresha B."},"response":{"_class":"course_review_response","id":8940754,"content":"Woo-hoo! Happy New Year, Lacresha! <br>Thank you for letting me know how much you enjoyed my lessons and my style.? I'm betting you have excellent skills because you have fun while you learn. it made me so happy to wake up this morning and read your words. FYI - I am working on a series of Conditional Formatting videos. keep on learning, Lacresha!<br>????","created":"2022-01-12T13:08:55-08:00","modified":"2022-01-12T13:08:55-08:00","user":{"_class":"user","title":"Billy Wigley","name":"Billy","display_name":"Billy Wigley","image_50x50":"https://img-c.udemycdn.com/user/50x50/1071808_f970_10.jpg","initials":"BW","tracking_id":"G9nQu4caQ9CKWzVIy0atXg","public_display_name":"Billy W."},"content_html":"<p>Woo-hoo! Happy New Year, Lacresha! <br>Thank you for letting me know how much you enjoyed my lessons and my style.? I'm betting you have excellent skills because you have fun while you learn. it made me so happy to wake up this morning and read your words. FYI - I am working on a series of Conditional Formatting videos. keep on learning, Lacresha!<br>????</p>","created_formatted_with_time_since":"7 months ago"},"content_html":"<p>Billy was an excellent instructor, and fun to listen to!  I would watch any of his instructional videos, and I'm glad I took his course.</p>","created_formatted_with_time_since":"8 months ago"}]}