{"count":901,"next":"https://www.udemy.com/api-2.0/courses/713104/reviews/?courseId=713104&fields%5Bcourse_review%5D=%40default%2Cresponse%2Ccontent_html%2Ccreated_formatted_with_time_since&fields%5Bcourse_review_response%5D=%40min%2Cuser%2Ccontent_html%2Ccreated_formatted_with_time_since&fields%5Buser%5D=%40min%2Cimage_50x50%2Cinitials%2Cpublic_display_name%2Ctracking_id&is_text_review=1&ordering=course_review_score__rank%2C-created&page=2","previous":null,"results":[{"_class":"course_review","id":120941640,"content":"Just ended the core part of the course. For me it was a perfect oppurtunity to learn more about basic concepts of Deep Learning that were not properly explained during my AI classes. I think the strongest side of this course was to not learn syntax and oblige to write ANN using numpy. It was totally a new experience for me and finally allowed me to understand basic concepts.\n\nMy level before course: I could use several API and I knew the concept of backpropag but I was not capable of calculate this on my own.","rating":4.5,"created":"2022-08-11T03:14:31-07:00","modified":"2022-08-12T16:06:45-07:00","user_modified":"2022-08-11T03:23:09-07:00","user":{"_class":"user","title":"Mateusz B","name":"Mateusz","display_name":"Mateusz B","image_50x50":"https://img-c.udemycdn.com/user/50x50/anonymous_3.png","initials":"MB","tracking_id":"hPxgTOhbTyOpSDRsMyjGug","public_display_name":"Mateusz B."},"response":null,"content_html":"<p>Just ended the core part of the course. For me it was a perfect oppurtunity to learn more about basic concepts of Deep Learning that were not properly explained during my AI classes. I think the strongest side of this course was to not learn syntax and oblige to write ANN using numpy. It was totally a new experience for me and finally allowed me to understand basic concepts.</p>\n\n<p>My level before course: I could use several API and I knew the concept of backpropag but I was not capable of calculate this on my own.</p>","created_formatted_with_time_since":"3 weeks ago"},{"_class":"course_review","id":117305268,"content":"The Machine Learning Master himself, Lazy Programmer, delivered as per my expectation. It was an amazing journey to be taken through the math of deep learning to get to the root of it all. I am glad I took this course.","rating":5.0,"created":"2022-06-26T16:41:09-07:00","modified":"2022-06-27T16:08:01-07:00","user_modified":"2022-06-26T20:07:26-07:00","user":{"_class":"user","title":"Athar Ansari","name":"Athar","display_name":"Athar Ansari","image_50x50":"https://img-c.udemycdn.com/user/50x50/anonymous_3.png","initials":"AA","tracking_id":"xq3_8b8ZTeOz-6xMmIIHRA","public_display_name":"Athar A."},"response":null,"content_html":"<p>The Machine Learning Master himself, Lazy Programmer, delivered as per my expectation. It was an amazing journey to be taken through the math of deep learning to get to the root of it all. I am glad I took this course.</p>","created_formatted_with_time_since":"2 months ago"},{"_class":"course_review","id":116735418,"content":"Really good course. It is great that it has a theoretical approach to machine learning and that they build the models only using numpy (interesting to see how, with only a little coding you can actually build a pretty well performing model). There is some repetition in the high level discussion, but I think it is mainly because some sections are also used in their other courses. I especially appertiate that I got an indepth answer to my observation/question.","rating":5.0,"created":"2022-06-19T06:10:14-07:00","modified":"2022-06-20T16:06:57-07:00","user_modified":"2022-06-19T06:19:44-07:00","user":{"_class":"user","title":"Horn Péter","name":"Horn","display_name":"Horn Péter","image_50x50":"https://img-c.udemycdn.com/user/50x50/anonymous_3.png","initials":"HP","tracking_id":"YYBQDy9aTaS_t1tKOPPsBQ","public_display_name":"Horn P."},"response":null,"content_html":"<p>Really good course. It is great that it has a theoretical approach to machine learning and that they build the models only using numpy (interesting to see how, with only a little coding you can actually build a pretty well performing model). There is some repetition in the high level discussion, but I think it is mainly because some sections are also used in their other courses. I especially appertiate that I got an indepth answer to my observation/question.</p>","created_formatted_with_time_since":"2 months ago"},{"_class":"course_review","id":115937436,"content":"It has been an insanely challenging journey for me up until this point in the course (I didn't exactly follow the prerequisite instructions like the Lazy Programmer suggested). But I am glad I stuck with it and I'm proud to accomplish what I did. I have learned a lot thanks to this course.","rating":5.0,"created":"2022-06-08T07:34:40-07:00","modified":"2022-06-09T18:16:39-07:00","user_modified":"2022-06-09T18:16:39-07:00","user":{"_class":"user","title":"Brian Truman","name":"Brian","display_name":"Brian Truman","image_50x50":"https://img-c.udemycdn.com/user/50x50/anonymous_3.png","initials":"BT","tracking_id":"knOVzen3R8Ose_TjQT9aNg","public_display_name":"Brian T."},"response":null,"content_html":"<p>It has been an insanely challenging journey for me up until this point in the course (I didn't exactly follow the prerequisite instructions like the Lazy Programmer suggested). But I am glad I stuck with it and I'm proud to accomplish what I did. I have learned a lot thanks to this course.</p>","created_formatted_with_time_since":"2 months ago"},{"_class":"course_review","id":117376864,"content":"one of the best data science/machine learning courses I have ever taken","rating":4.5,"created":"2022-06-27T10:24:44-07:00","modified":"2022-06-28T16:09:21-07:00","user_modified":"2022-06-27T10:27:01-07:00","user":{"_class":"user","title":"Stefanics Gabor","name":"Stefanics","display_name":"Stefanics Gabor","image_50x50":"https://img-c.udemycdn.com/user/50x50/anonymous_3.png","initials":"SG","tracking_id":"Yyu6XVZuTgm3GMuYbD9C1A","public_display_name":"Stefanics G."},"response":null,"content_html":"<p>one of the best data science/machine learning courses I have ever taken</p>","created_formatted_with_time_since":"2 months ago"},{"_class":"course_review","id":121165048,"content":"Noch sehr niedriges Level, aber es wird gut erklärt, nichts ausgelassen","rating":4.5,"created":"2022-08-14T16:15:45-07:00","modified":"2022-08-19T05:45:06-07:00","user_modified":"2022-08-19T05:45:06-07:00","user":{"_class":"user","title":"Christoph Becker-Freyseng","name":"Christoph","display_name":"Christoph Becker-Freyseng","image_50x50":"https://img-c.udemycdn.com/user/50x50/anonymous_3.png","initials":"CB","tracking_id":"M_cMKjdHTfajQ-rP1G2G2Q","public_display_name":"Christoph B."},"response":null,"content_html":"<p>Noch sehr niedriges Level, aber es wird gut erklärt, nichts ausgelassen</p>","created_formatted_with_time_since":"2 weeks ago"},{"_class":"course_review","id":113485656,"content":"I am feeling extremely grateful to have this course. The course covers fundamental concepts and building blocks of deep learning and neural networks.","rating":5.0,"created":"2022-05-07T17:46:08-07:00","modified":"2022-05-08T16:07:18-07:00","user_modified":"2022-05-07T23:48:08-07:00","user":{"_class":"user","title":"Amirul Haque","name":"Amirul","display_name":"Amirul Haque","image_50x50":"https://img-c.udemycdn.com/user/50x50/anonymous_3.png","initials":"AH","tracking_id":"FCOtOzg1Q72shMF3XCDNxA","public_display_name":"Amirul H."},"response":null,"content_html":"<p>I am feeling extremely grateful to have this course. The course covers fundamental concepts and building blocks of deep learning and neural networks.</p>","created_formatted_with_time_since":"3 months ago"},{"_class":"course_review","id":114064984,"content":"I have really enjoyed the course. It's very well structured and the important thing is it makes me practice more my math and coding.","rating":5.0,"created":"2022-05-16T01:16:39-07:00","modified":"2022-05-22T20:13:54-07:00","user_modified":"2022-05-22T20:13:54-07:00","user":{"_class":"user","title":"Jeet Ghotra","name":"Jeet","display_name":"Jeet Ghotra","image_50x50":"https://img-c.udemycdn.com/user/50x50/anonymous_3.png","initials":"JG","tracking_id":"JVO-oDTbR3aDsjPe-Nbqng","public_display_name":"Jeet G."},"response":null,"content_html":"<p>I have really enjoyed the course. It's very well structured and the important thing is it makes me practice more my math and coding.</p>","created_formatted_with_time_since":"3 months ago"},{"_class":"course_review","id":103924084,"content":"The structure of the course was a little difficult to follow. I would have preferred the code to be deployed directly after the theoretical formulation of each problem. And I would still like a couple of examples from the git files to be formulated as an exercise. But I don't know if they exist in your other courses. Otherwise it was very interesting.","rating":3.0,"created":"2022-01-03T06:23:21-08:00","modified":"2022-01-04T15:06:11-08:00","user_modified":"2022-01-03T06:28:56-08:00","user":{"_class":"user","title":"Vanessa Markaki","name":"Vanessa","display_name":"Vanessa Markaki","image_50x50":"https://img-c.udemycdn.com/user/50x50/anonymous_3.png","initials":"VM","tracking_id":"ikJfmR1nSieCH42wNfiiiw","public_display_name":"Vanessa M."},"response":{"_class":"course_review_response","id":8911292,"content":"Thanks for your feedback!\n\n> I would have preferred the code to be deployed directly after the theoretical formulation of each problem.\n\nThat is what we did. Please use the Q&A if you find any instances where this is not the case. I'll be happy to look into them.\n\n> And I would still like a couple of examples from the git files to be formulated as an exercise.\n\nALL of the code in this course is meant to be an exercise. Don't cheat by just watching the lectures straight through!","created":"2022-01-07T23:08:02-08:00","modified":"2022-01-07T23:08:31-08:00","user":{"_class":"user","title":"Lazy Programmer Inc.","name":"Lazy Programmer","display_name":"Lazy Programmer Inc.","image_50x50":"https://img-c.udemycdn.com/user/50x50/14266988_a969_9.jpg","initials":"LI","tracking_id":"bQtJGWxeRHikcT9m2-2juw","public_display_name":"Lazy Programmer I."},"content_html":"<p>Thanks for your feedback!</p>\n\n<p>> I would have preferred the code to be deployed directly after the theoretical formulation of each problem.</p>\n\n<p>That is what we did. Please use the Q&A if you find any instances where this is not the case. I'll be happy to look into them.</p>\n\n<p>> And I would still like a couple of examples from the git files to be formulated as an exercise.</p>\n\n<p>ALL of the code in this course is meant to be an exercise. Don't cheat by just watching the lectures straight through!</p>","created_formatted_with_time_since":"7 months ago"},"content_html":"<p>The structure of the course was a little difficult to follow. I would have preferred the code to be deployed directly after the theoretical formulation of each problem. And I would still like a couple of examples from the git files to be formulated as an exercise. But I don't know if they exist in your other courses. Otherwise it was very interesting.</p>","created_formatted_with_time_since":"8 months ago"},{"_class":"course_review","id":118835674,"content":"Great advice, to know how these machine learning algorithms work step by step, how to calculate them mathematically and to implement them in coding.  I highly recommend it to any data science student.","rating":5.0,"created":"2022-07-15T07:55:33-07:00","modified":"2022-07-17T16:09:33-07:00","user_modified":"2022-07-15T08:02:06-07:00","user":{"_class":"user","title":"David Gabriel","name":"David","display_name":"David Gabriel","image_50x50":"https://img-c.udemycdn.com/user/50x50/anonymous_3.png","initials":"DG","tracking_id":"YVq5ZHzdQTyu5AUupuc40g","public_display_name":"David G."},"response":null,"content_html":"<p>Great advice, to know how these machine learning algorithms work step by step, how to calculate them mathematically and to implement them in coding.  I highly recommend it to any data science student.</p>","created_formatted_with_time_since":"a month ago"},{"_class":"course_review","id":111255894,"content":"It was great. Some things a little more difficult because of rusty math skill but that is okay!","rating":5.0,"created":"2022-04-06T00:35:35-07:00","modified":"2022-04-07T23:23:08-07:00","user_modified":"2022-04-07T23:23:08-07:00","user":{"_class":"user","title":"Shadi Parsa","name":"Shadi","display_name":"Shadi Parsa","image_50x50":"https://img-c.udemycdn.com/user/50x50/anonymous_3.png","initials":"SP","tracking_id":"NeNW8-1cT-CSKYhAwQWu2A","public_display_name":"Shadi P."},"response":null,"content_html":"<p>It was great. Some things a little more difficult because of rusty math skill but that is okay!</p>","created_formatted_with_time_since":"4 months ago"},{"_class":"course_review","id":105759296,"content":"Great course! I finally understand back-propagation.","rating":5.0,"created":"2022-01-23T17:50:13-08:00","modified":"2022-01-24T15:06:24-08:00","user_modified":"2022-01-23T17:50:37-08:00","user":{"_class":"user","title":"Benjamin","name":"Benjamin","display_name":"Benjamin","image_50x50":"https://img-c.udemycdn.com/user/50x50/anonymous_3.png","initials":"B","tracking_id":"FLj-hGywRGimQz6aHHXbXw","public_display_name":"Benjamin"},"response":null,"content_html":"<p>Great course! I finally understand back-propagation.</p>","created_formatted_with_time_since":"7 months ago"}]}