{"count":10000,"next":"https://www.udemy.com/api-2.0/courses/764164/reviews/?courseId=764164&fields%5Bcourse_review%5D=%40default%2Cresponse%2Ccontent_html%2Ccreated_formatted_with_time_since&fields%5Bcourse_review_response%5D=%40min%2Cuser%2Ccontent_html%2Ccreated_formatted_with_time_since&fields%5Buser%5D=%40min%2Cimage_50x50%2Cinitials%2Cpublic_display_name%2Ctracking_id&is_text_review=1&ordering=course_review_score__rank%2C-created&page=2","previous":null,"results":[{"_class":"course_review","id":120004818,"content":"This was a great course and Rob is a great tutor. I specially enjoyed the little projects he had us code.","rating":4.0,"created":"2022-07-30T05:46:01-07:00","modified":"2022-07-31T16:05:12-07:00","user_modified":"2022-07-30T05:47:00-07:00","user":{"_class":"user","title":"Michael Nwobbi","name":"Michael","display_name":"Michael Nwobbi","image_50x50":"https://img-b.udemycdn.com/user/50x50/anonymous_3.png","initials":"MN","tracking_id":"Wf8mpJ2RSXmwqRV2BQmYDA","public_display_name":"Michael N."},"response":null,"content_html":"<p>This was a great course and Rob is a great tutor. I specially enjoyed the little projects he had us code.</p>","created_formatted_with_time_since":"a month ago"},{"_class":"course_review","id":118212884,"content":"Yes it has been a wonderful experience, the concepts have been very well articulated. I am enjoying it.","rating":5.0,"created":"2022-07-07T08:04:08-07:00","modified":"2022-07-08T16:11:15-07:00","user_modified":"2022-07-07T08:05:43-07:00","user":{"_class":"user","title":"Nicholas Mwariri","name":"Nicholas","display_name":"Nicholas Mwariri","image_50x50":"https://img-b.udemycdn.com/user/50x50/anonymous_3.png","initials":"NM","tracking_id":"vEKelaNHT0Oh_eowocyPLA","public_display_name":"Nicholas M."},"response":null,"content_html":"<p>Yes it has been a wonderful experience, the concepts have been very well articulated. I am enjoying it.</p>","created_formatted_with_time_since":"a month ago"},{"_class":"course_review","id":114356378,"content":"very professional and easy to understand and get more knowledge about web developing","rating":5.0,"created":"2022-05-19T06:14:31-07:00","modified":"2022-06-23T15:01:56-07:00","user_modified":"2022-06-23T15:01:56-07:00","user":{"_class":"user","title":"Elena Gospodinova","name":"Elena","display_name":"Elena Gospodinova","image_50x50":"https://img-b.udemycdn.com/user/50x50/anonymous_3.png","initials":"EG","tracking_id":"T7nbif-_TDeqN-zERr3vkw","public_display_name":"Elena G."},"response":null,"content_html":"<p>very professional and easy to understand and get more knowledge about web developing</p>","created_formatted_with_time_since":"3 months ago"},{"_class":"course_review","id":111781820,"content":"Fantastic course, I have learnt a lot, This definitely is a great place to start coding and understanding the basic building blocks of how a website works. After the finishing the course I realize that I have learnt a huge amount of stuff but, at the same time I feel like I am just getting started.","rating":4.5,"created":"2022-04-13T07:37:36-07:00","modified":"2022-04-14T16:04:53-07:00","user_modified":"2022-04-13T07:39:19-07:00","user":{"_class":"user","title":"Vijay Nabhwani","name":"Vijay","display_name":"Vijay Nabhwani","image_50x50":"https://img-b.udemycdn.com/user/50x50/anonymous_3.png","initials":"VN","tracking_id":"mTZnoMbJTS2US3quGlEN0g","public_display_name":"Vijay N."},"response":null,"content_html":"<p>Fantastic course, I have learnt a lot, This definitely is a great place to start coding and understanding the basic building blocks of how a website works. After the finishing the course I realize that I have learnt a huge amount of stuff but, at the same time I feel like I am just getting started.</p>","created_formatted_with_time_since":"4 months ago"},{"_class":"course_review","id":108469568,"content":"Thank you Rob sir and Mark sir for clearing all doubts that came along while learning.Thanks for  bringing in such a great course which covers almost every language giving an idea how to put things altogether to build a website.Every section is brilliant to learn and is full clear to understand.","rating":5.0,"created":"2022-02-27T10:18:20-08:00","modified":"2022-02-28T15:04:28-08:00","user_modified":"2022-02-27T10:21:42-08:00","user":{"_class":"user","title":"Sushmita pujari","name":"Sushmita","display_name":"Sushmita pujari","image_50x50":"https://img-b.udemycdn.com/user/50x50/anonymous_3.png","initials":"SP","tracking_id":"-5qeb4wuTniz8F-bXixw1Q","public_display_name":"Sushmita P."},"response":null,"content_html":"<p>Thank you Rob sir and Mark sir for clearing all doubts that came along while learning.Thanks for  bringing in such a great course which covers almost every language giving an idea how to put things altogether to build a website.Every section is brilliant to learn and is full clear to understand.</p>","created_formatted_with_time_since":"6 months ago"},{"_class":"course_review","id":116616530,"content":"Nice Course. It has more information than I expected. \nI have few suggestions for this course:\n1. Mode of examination should be improved.(Not allowing outside the CCA tab).\n2. Marking Percentage should be given for the projects by asking students to submit their apps to the tutor!\nIn fact, I had to complete the course in hurry. Will look into the twitter clone section later on.\nThanks a lot! I am glad learning with you \"Rob Percival\" Sir! :)","rating":3.5,"created":"2022-06-17T04:17:45-07:00","modified":"2022-06-19T16:09:48-07:00","user_modified":"2022-06-17T04:21:44-07:00","user":{"_class":"user","title":"Nakka Kiran Kumar","name":"Nakka Kiran","display_name":"Nakka Kiran Kumar","image_50x50":"https://img-b.udemycdn.com/user/50x50/anonymous_3.png","initials":"NK","tracking_id":"hN1AhPQzSX6Z0r7wqWRpPA","public_display_name":"Nakka Kiran K."},"response":null,"content_html":"<p>Nice Course. It has more information than I expected. <br>I have few suggestions for this course:<br>1. Mode of examination should be improved.(Not allowing outside the CCA tab).<br>2. Marking Percentage should be given for the projects by asking students to submit their apps to the tutor!<br>In fact, I had to complete the course in hurry. Will look into the twitter clone section later on.<br>Thanks a lot! I am glad learning with you \"Rob Percival\" Sir! :)</p>","created_formatted_with_time_since":"2 months ago"},{"_class":"course_review","id":116796954,"content":"Nice course I just don't like the way he's always mentioning the fact that we could learn anything we don't know with a quick google search everyone knows that and it makes me feel like he's not emphasizing on  some important aspects that's really worth learning and would really make things easier if we knew them.","rating":3.0,"created":"2022-06-20T04:37:37-07:00","modified":"2022-06-21T16:05:45-07:00","user_modified":"2022-06-20T04:45:13-07:00","user":{"_class":"user","title":"David A.","name":"David","display_name":"David A.","image_50x50":"https://img-b.udemycdn.com/user/50x50/anonymous_3.png","initials":"DA","tracking_id":"AF-LjBDkTD2XpUkw4zBDTA","public_display_name":"David A."},"response":null,"content_html":"<p>Nice course I just don't like the way he's always mentioning the fact that we could learn anything we don't know with a quick google search everyone knows that and it makes me feel like he's not emphasizing on  some important aspects that's really worth learning and would really make things easier if we knew them.</p>","created_formatted_with_time_since":"2 months ago"},{"_class":"course_review","id":116428888,"content":"Fantastic course for the beginners like me..thanks","rating":4.5,"created":"2022-06-14T23:53:27-07:00","modified":"2022-06-16T16:06:57-07:00","user_modified":"2022-06-14T23:53:59-07:00","user":{"_class":"user","title":"Hemant Kumar","name":"Hemant","display_name":"Hemant Kumar","image_50x50":"https://img-b.udemycdn.com/user/50x50/anonymous_3.png","initials":"HK","tracking_id":"gG_NRjk8RDalEZM0Czba_g","public_display_name":"Hemant K."},"response":null,"content_html":"<p>Fantastic course for the beginners like me..thanks</p>","created_formatted_with_time_since":"2 months ago"},{"_class":"course_review","id":115364020,"content":"This is the best course video i ever came across. this is the thing that i always needed......going to buy more of your courses. Thanks for making us understand so well. :)","rating":5.0,"created":"2022-05-31T23:27:34-07:00","modified":"2022-07-03T23:45:17-07:00","user_modified":"2022-07-03T23:45:17-07:00","user":{"_class":"user","title":"Farheen Jabeen","name":"Farheen","display_name":"Farheen Jabeen","image_50x50":"https://img-b.udemycdn.com/user/50x50/anonymous_3.png","initials":"FJ","tracking_id":"3wGWCgMdRh2G0clz4dbBoA","public_display_name":"Farheen J."},"response":null,"content_html":"<p>This is the best course video i ever came across. this is the thing that i always needed......going to buy more of your courses. Thanks for making us understand so well. :)</p>","created_formatted_with_time_since":"3 months ago"},{"_class":"course_review","id":112178974,"content":"course in not updated. Many important things are old not working in current time","rating":3.5,"created":"2022-04-19T09:59:36-07:00","modified":"2022-04-20T16:10:41-07:00","user_modified":"2022-04-19T10:00:29-07:00","user":{"_class":"user","title":"Bhupendra","name":"Bhupendra","display_name":"Bhupendra","image_50x50":"https://img-b.udemycdn.com/user/50x50/anonymous_3.png","initials":"B","tracking_id":"kp26eecfQUONPryTQiiN5w","public_display_name":"Bhupendra"},"response":null,"content_html":"<p>course in not updated. Many important things are old not working in current time</p>","created_formatted_with_time_since":"4 months ago"},{"_class":"course_review","id":116813028,"content":"this exhilarating course has helped me to enhance my knowledge about web development","rating":4.0,"created":"2022-06-20T08:00:10-07:00","modified":"2022-06-23T06:14:08-07:00","user_modified":"2022-06-23T06:14:08-07:00","user":{"_class":"user","title":"Suman Ghosh","name":"Suman","display_name":"Suman Ghosh","image_50x50":"https://img-b.udemycdn.com/user/50x50/anonymous_3.png","initials":"SG","tracking_id":"X17mOKZSS3mamoa6vzP90w","public_display_name":"Suman G."},"response":null,"content_html":"<p>this exhilarating course has helped me to enhance my knowledge about web development</p>","created_formatted_with_time_since":"2 months ago"},{"_class":"course_review","id":109134538,"content":"Lots of content and a great way to get an understanding of various coding methods. Rob's teaching style is also very easy to follow. I definitely recommend.","rating":5.0,"created":"2022-03-08T06:48:44-08:00","modified":"2022-03-09T15:07:41-08:00","user_modified":"2022-03-08T06:49:40-08:00","user":{"_class":"user","title":"Ian Bigg","name":"Ian","display_name":"Ian Bigg","image_50x50":"https://img-b.udemycdn.com/user/50x50/anonymous_3.png","initials":"IB","tracking_id":"peGCibEGR66gwrAHzETA1A","public_display_name":"Ian B."},"response":null,"content_html":"<p>Lots of content and a great way to get an understanding of various coding methods. Rob's teaching style is also very easy to follow. I definitely recommend.</p>","created_formatted_with_time_since":"5 months ago"}]}