{"count":830,"next":"https://www.udemy.com/api-2.0/courses/787236/reviews/?courseId=787236&fields%5Bcourse_review%5D=%40default%2Cresponse%2Ccontent_html%2Ccreated_formatted_with_time_since&fields%5Bcourse_review_response%5D=%40min%2Cuser%2Ccontent_html%2Ccreated_formatted_with_time_since&fields%5Buser%5D=%40min%2Cimage_50x50%2Cinitials%2Cpublic_display_name%2Ctracking_id&is_text_review=1&ordering=course_review_score__rank%2C-created&page=2","previous":null,"results":[{"_class":"course_review","id":121618758,"content":"This is a great course.\nThe explanation is simple and easy to understand.","rating":5.0,"created":"2022-08-20T06:08:31-07:00","modified":"2022-08-21T16:11:59-07:00","user_modified":"2022-08-20T19:13:44-07:00","user":{"_class":"user","title":"Gst. Ayu Vida Mastrika Giri","name":"Gst. Ayu Vida Mastrika","display_name":"Gst. Ayu Vida Mastrika Giri","image_50x50":"https://img-c.udemycdn.com/user/50x50/anonymous_3.png","initials":"GG","tracking_id":"mAUzrAZNS9q-qn4PLqIizQ","public_display_name":"Gst. Ayu Vida Mastrika G."},"response":null,"content_html":"<p>This is a great course.<br>The explanation is simple and easy to understand.</p>","created_formatted_with_time_since":"a week ago"},{"_class":"course_review","id":113511326,"content":"It's amazing course, through knowing a new libraries and jQuery plugins i can now fulfill my dream. But before i have to revise HTML of this page just for me.\nThank you Sir for creating this course.","rating":5.0,"created":"2022-05-08T07:22:59-07:00","modified":"2022-05-10T16:07:30-07:00","user_modified":"2022-05-08T07:24:56-07:00","user":{"_class":"user","title":"Łukasz Borkowski","name":"Łukasz","display_name":"Łukasz Borkowski","image_50x50":"https://img-c.udemycdn.com/user/50x50/189825858_640c_4.jpg","initials":"UB","tracking_id":"BreuSHn7QD6CIMQfbmlu3w","public_display_name":"Łukasz B."},"response":null,"content_html":"<p>It's amazing course, through knowing a new libraries and jQuery plugins i can now fulfill my dream. But before i have to revise HTML of this page just for me.<br>Thank you Sir for creating this course.</p>","created_formatted_with_time_since":"3 months ago"},{"_class":"course_review","id":112014776,"content":"Worst course of wThe worst web design course I've ever seen. You won't learn anything and you'll spend the practice copying code you don't know it does. Luckily I learned programming and web design by other means, because of this course I can only save the practice as an exercise to review my knowledge, replicate it for the pleasure of practicing. Since nowadays I dedicate myself more to programming than to web layout, practical exercises such as replicating websites go very well to keep my knowledge of css, boostrap, etc. up to date. But if you start from scratch, with this course you will be lost if you think that only by watching it you can replicate a website without any help. There are much better courses than this.","rating":1.0,"created":"2022-04-17T06:11:09-07:00","modified":"2022-04-18T16:08:51-07:00","user_modified":"2022-04-17T06:20:49-07:00","user":{"_class":"user","title":"Fco. Javier Fdez.","name":"Fco. Javier","display_name":"Fco. Javier Fdez.","image_50x50":"https://img-c.udemycdn.com/user/50x50/anonymous_3.png","initials":"FF","tracking_id":"Qzm44JTbQ-GGffXALD4FnQ","public_display_name":"Fco. Javier F."},"response":null,"content_html":"<p>Worst course of wThe worst web design course I've ever seen. You won't learn anything and you'll spend the practice copying code you don't know it does. Luckily I learned programming and web design by other means, because of this course I can only save the practice as an exercise to review my knowledge, replicate it for the pleasure of practicing. Since nowadays I dedicate myself more to programming than to web layout, practical exercises such as replicating websites go very well to keep my knowledge of css, boostrap, etc. up to date. But if you start from scratch, with this course you will be lost if you think that only by watching it you can replicate a website without any help. There are much better courses than this.</p>","created_formatted_with_time_since":"4 months ago"},{"_class":"course_review","id":110998482,"content":"I opened an article but i cant use it","rating":4.5,"created":"2022-04-02T08:28:56-07:00","modified":"2022-05-23T10:57:06-07:00","user_modified":"2022-05-23T10:57:06-07:00","user":{"_class":"user","title":"Ogundare olajumoke","name":"Ogundare","display_name":"Ogundare olajumoke","image_50x50":"https://img-c.udemycdn.com/user/50x50/anonymous_3.png","initials":"OO","tracking_id":"ZOIts_gVQf2TCV9eoCErlg","public_display_name":"Ogundare O."},"response":null,"content_html":"<p>I opened an article but i cant use it</p>","created_formatted_with_time_since":"5 months ago"},{"_class":"course_review","id":110786358,"content":"Very grateful for the course. I liked everything, this is a very good start for professionals who have chosen the path of web development.","rating":4.5,"created":"2022-03-30T10:56:18-07:00","modified":"2022-04-01T01:17:21-07:00","user_modified":"2022-03-30T10:59:13-07:00","user":{"_class":"user","title":"Andrii Iaremenko","name":"Andrii","display_name":"Andrii Iaremenko","image_50x50":"https://img-c.udemycdn.com/user/50x50/anonymous_3.png","initials":"AI","tracking_id":"GnLELuaYSCaTEkPVy0nc3g","public_display_name":"Andrii I."},"response":null,"content_html":"<p>Very grateful for the course. I liked everything, this is a very good start for professionals who have chosen the path of web development.</p>","created_formatted_with_time_since":"5 months ago"},{"_class":"course_review","id":112575822,"content":"Excellent course for beginners!!","rating":5.0,"created":"2022-04-25T05:23:39-07:00","modified":"2022-04-26T16:08:20-07:00","user_modified":"2022-04-25T20:22:43-07:00","user":{"_class":"user","title":"Balamurugan Palanichamy","name":"Balamurugan","display_name":"Balamurugan Palanichamy","image_50x50":"https://img-c.udemycdn.com/user/50x50/anonymous_3.png","initials":"BP","tracking_id":"Hk6TF-4kSrak1Zc0iP4lsQ","public_display_name":"Balamurugan P."},"response":null,"content_html":"<p>Excellent course for beginners!!</p>","created_formatted_with_time_since":"4 months ago"},{"_class":"course_review","id":120232100,"content":"good course","rating":5.0,"created":"2022-08-02T07:19:38-07:00","modified":"2022-08-04T16:08:33-07:00","user_modified":"2022-08-02T07:19:45-07:00","user":{"_class":"user","title":"Muhammad Adib bin Mohd Fauzi","name":"Muhammad Adib bin Mohd","display_name":"Muhammad Adib bin Mohd Fauzi","image_50x50":"https://img-c.udemycdn.com/user/50x50/anonymous_3.png","initials":"MF","tracking_id":"oyiVldjGRxeGZmsDn1pRKw","public_display_name":"Muhammad Adib bin Mohd F."},"response":null,"content_html":"<p>good course</p>","created_formatted_with_time_since":"a month ago"},{"_class":"course_review","id":116891054,"content":"Excellent","rating":5.0,"created":"2022-06-21T05:39:51-07:00","modified":"2022-06-22T16:09:03-07:00","user_modified":"2022-06-21T05:54:58-07:00","user":{"_class":"user","title":"Saikumar Anagandula","name":"Saikumar","display_name":"Saikumar Anagandula","image_50x50":"https://img-c.udemycdn.com/user/50x50/anonymous_3.png","initials":"SA","tracking_id":"Yei0lNq0S1-KUdBuWvzfqg","public_display_name":"Saikumar A."},"response":null,"content_html":"<p>Excellent</p>","created_formatted_with_time_since":"2 months ago"},{"_class":"course_review","id":11514512,"content":"Great course!\nI loved it because we did a website from scratch (you can learn much much faster this way)\n Thank you!","rating":5.0,"created":"2017-12-02T03:21:33-08:00","modified":"2019-01-15T02:38:58-08:00","user_modified":"2019-01-15T02:38:58-08:00","user":{"_class":"user","title":"Gabi Bojor","name":"Gabi","display_name":"Gabi Bojor","image_50x50":"https://img-c.udemycdn.com/user/50x50/18758212_3f21.jpg","initials":"GB","tracking_id":"fhQmCCeiQACWWh_5K6bGWQ","public_display_name":"Gabi B."},"response":{"_class":"course_review_response","id":978358,"content":"Gabi Bojor, Thank you so much for your nice review! I really appreciate that! Thanks","created":"2018-01-05T12:37:52-08:00","modified":"2018-01-05T12:37:52-08:00","user":{"_class":"user","title":"Irfan Dayan","name":"Irfan","display_name":"Irfan Dayan","image_50x50":"https://img-c.udemycdn.com/user/50x50/18993806_6f3c_5.jpg","initials":"ID","tracking_id":"yZSFdOKURByU6Qz4q29wLQ","public_display_name":"Irfan D."},"content_html":"<p>Gabi Bojor, Thank you so much for your nice review! I really appreciate that! Thanks</p>","created_formatted_with_time_since":"4 years ago"},"content_html":"<p>Great course!<br>I loved it because we did a website from scratch (you can learn much much faster this way)<br> Thank you!</p>","created_formatted_with_time_since":"4 years ago"},{"_class":"course_review","id":71096180,"content":"It’s great but he didn’t show us where to get the images and some other tool","rating":5.0,"created":"2020-11-23T08:00:47-08:00","modified":"2022-05-03T10:36:47-07:00","user_modified":"2022-05-03T10:36:47-07:00","user":{"_class":"user","title":"Michael Abobade","name":"Michael","display_name":"Michael Abobade","image_50x50":"https://img-c.udemycdn.com/user/50x50/17941546_cda4.jpg","initials":"MA","tracking_id":"X2AIVS8tQ0GZ9u0qVEYlxw","public_display_name":"Michael A."},"response":null,"content_html":"<p>It’s great but he didn’t show us where to get the images and some other tool</p>","created_formatted_with_time_since":"a year ago"},{"_class":"course_review","id":23007314,"content":"Loved this course! It covered several practical things that I had been wanting to learn, and I used the information to build a website of my own. Teacher is great. Highly recommend!","rating":5.0,"created":"2018-11-13T14:22:03-08:00","modified":"2018-11-28T12:49:23-08:00","user_modified":"2018-11-28T12:49:23-08:00","user":{"_class":"user","title":"Justin Morante","name":"Justin","display_name":"Justin Morante","image_50x50":"https://img-c.udemycdn.com/user/50x50/anonymous_3.png","initials":"JM","tracking_id":"Z_DWBPVmS6ahWd0U_AMLGw","public_display_name":"Justin M."},"response":{"_class":"course_review_response","id":2048807,"content":"Justin Morante, Thank you very much for your nice review! I really appreciate that! If you need any help, let me know, I would help you out. Thanks!","created":"2018-11-28T23:30:18-08:00","modified":"2018-11-28T23:30:18-08:00","user":{"_class":"user","title":"Irfan Dayan","name":"Irfan","display_name":"Irfan Dayan","image_50x50":"https://img-c.udemycdn.com/user/50x50/18993806_6f3c_5.jpg","initials":"ID","tracking_id":"yZSFdOKURByU6Qz4q29wLQ","public_display_name":"Irfan D."},"content_html":"<p>Justin Morante, Thank you very much for your nice review! I really appreciate that! If you need any help, let me know, I would help you out. Thanks!</p>","created_formatted_with_time_since":"3 years ago"},"content_html":"<p>Loved this course! It covered several practical things that I had been wanting to learn, and I used the information to build a website of my own. Teacher is great. Highly recommend!</p>","created_formatted_with_time_since":"3 years ago"},{"_class":"course_review","id":22121036,"content":"The course only requires of you to have a text editor but that won't cut it. You do need to have HTML, CSS and JS knowledge unless you want to use this course as a cookbook. In that case, it will serve you well. Although the instructor explains HTML and CSS in greater detail than JS, he still uses parts that weren't covered or, at least, talked about in previous lessons. I regard this course as practice after you've learned the web trinity and you want to practice it on a webpage. \n\nIf you've never touched JavaScript, the code you type will do its thing but you won't know why it is used or how it actually works. Directing students to job sites like Upwork or Freelancer with only the knowledge gathered during this course is a great mistake unless you have decided to do some background reading about HTML, CSS and JS on MDN, W3Schools or another reference site, and made a couple of websites yourself. The most useful part for me in this course was figuring out how to use Bootstrap framework.","rating":3.5,"created":"2018-10-20T12:21:00-07:00","modified":"2018-10-20T19:02:27-07:00","user_modified":"2018-10-20T12:23:10-07:00","user":{"_class":"user","title":"Pierre de Witt","name":"Pierre","display_name":"Pierre de Witt","image_50x50":"https://img-c.udemycdn.com/user/50x50/34645282_c4b7_3.jpg","initials":"PD","tracking_id":"YyjXlYVsQa-lREtX9S0H4w","public_display_name":"Pierre D."},"response":null,"content_html":"<p>The course only requires of you to have a text editor but that won't cut it. You do need to have HTML, CSS and JS knowledge unless you want to use this course as a cookbook. In that case, it will serve you well. Although the instructor explains HTML and CSS in greater detail than JS, he still uses parts that weren't covered or, at least, talked about in previous lessons. I regard this course as practice after you've learned the web trinity and you want to practice it on a webpage. </p>\n\n<p>If you've never touched JavaScript, the code you type will do its thing but you won't know why it is used or how it actually works. Directing students to job sites like Upwork or Freelancer with only the knowledge gathered during this course is a great mistake unless you have decided to do some background reading about HTML, CSS and JS on MDN, W3Schools or another reference site, and made a couple of websites yourself. The most useful part for me in this course was figuring out how to use Bootstrap framework.</p>","created_formatted_with_time_since":"3 years ago"}]}