{"count":191,"next":"https://www.udemy.com/api-2.0/courses/81744/reviews/?courseId=81744&fields%5Bcourse_review%5D=%40default%2Cresponse%2Ccontent_html%2Ccreated_formatted_with_time_since&fields%5Bcourse_review_response%5D=%40min%2Cuser%2Ccontent_html%2Ccreated_formatted_with_time_since&fields%5Buser%5D=%40min%2Cimage_50x50%2Cinitials%2Cpublic_display_name%2Ctracking_id&is_text_review=1&ordering=course_review_score__rank%2C-created&page=2","previous":null,"results":[{"_class":"course_review","id":121603542,"content":"The instructor has set this course up great, because the templates to practice on are so convenient for learning. It is difficult to learn new functions in Excel when you don't current need to, but what he does is provide you with use cases which helps cement learning and consider new applications.","rating":5.0,"created":"2022-08-19T23:09:45-07:00","modified":"2022-08-21T19:09:19-07:00","user_modified":"2022-08-21T19:09:19-07:00","user":{"_class":"user","title":"James Norris","name":"James","display_name":"James Norris","image_50x50":"https://img-c.udemycdn.com/user/50x50/anonymous_3.png","initials":"JN","tracking_id":"mi7l2sIjQpegLtZhk6QQbQ","public_display_name":"James N."},"response":null,"content_html":"<p>The instructor has set this course up great, because the templates to practice on are so convenient for learning. It is difficult to learn new functions in Excel when you don't current need to, but what he does is provide you with use cases which helps cement learning and consider new applications.</p>","created_formatted_with_time_since":"a week ago"},{"_class":"course_review","id":113585766,"content":"This course is a great refresher and the shortcuts are very helpful.","rating":4.0,"created":"2022-05-09T08:46:43-07:00","modified":"2022-05-10T16:13:19-07:00","user_modified":"2022-05-09T08:47:27-07:00","user":{"_class":"user","title":"Julie N VANZANDT","name":"Julie N","display_name":"Julie N VANZANDT","image_50x50":"https://img-c.udemycdn.com/user/50x50/anonymous_3.png","initials":"JV","tracking_id":"GzjSzza_R5ODW9JbDMS64Q","public_display_name":"Julie N V."},"response":null,"content_html":"<p>This course is a great refresher and the shortcuts are very helpful.</p>","created_formatted_with_time_since":"3 months ago"},{"_class":"course_review","id":109281012,"content":"Amazing Course covering topics right from basic level to advanced.\n#Thanks.","rating":5.0,"created":"2022-03-10T00:37:35-08:00","modified":"2022-03-11T15:04:49-08:00","user_modified":"2022-03-10T00:38:21-08:00","user":{"_class":"user","title":"Abhishek gupta","name":"Abhishek","display_name":"Abhishek gupta","image_50x50":"https://img-c.udemycdn.com/user/50x50/anonymous_3.png","initials":"AG","tracking_id":"ohHetOhoRZeHG-JA0wmFKg","public_display_name":"Abhishek G."},"response":null,"content_html":"<p>Amazing Course covering topics right from basic level to advanced.<br>#Thanks.</p>","created_formatted_with_time_since":"5 months ago"},{"_class":"course_review","id":108451234,"content":"One of the Most Interesting Excel Couse. This course is very very helpful for my professional growth and my career. Explanation of very topic was very amazing way .Thank You sir .","rating":5.0,"created":"2022-02-27T03:59:43-08:00","modified":"2022-02-28T15:04:29-08:00","user_modified":"2022-02-27T04:01:50-08:00","user":{"_class":"user","title":"A.HASNAL NIRMITH","name":"A.HASNAL","display_name":"A.HASNAL NIRMITH","image_50x50":"https://img-c.udemycdn.com/user/50x50/164096040_c1ec_2.jpg","initials":"AN","tracking_id":"SWwcg4LXR8OE87mr9kWHlg","public_display_name":"A.HASNAL N."},"response":null,"content_html":"<p>One of the Most Interesting Excel Couse. This course is very very helpful for my professional growth and my career. Explanation of very topic was very amazing way .Thank You sir .</p>","created_formatted_with_time_since":"6 months ago"},{"_class":"course_review","id":96324006,"content":"This is just the intro and it is as i expected. Learned few new things on shortcut keys.","rating":4.0,"created":"2021-09-25T03:17:26-07:00","modified":"2022-03-22T17:47:07-07:00","user_modified":"2022-03-22T17:47:07-07:00","user":{"_class":"user","title":"Md. Khalid Hossain","name":"Md. Khalid","display_name":"Md. Khalid Hossain","image_50x50":"https://img-c.udemycdn.com/user/50x50/anonymous_3.png","initials":"MH","tracking_id":"UB3Pc_L_RBu5xQAFc2-0og","public_display_name":"Md. Khalid H."},"response":null,"content_html":"<p>This is just the intro and it is as i expected. Learned few new things on shortcut keys.</p>","created_formatted_with_time_since":"11 months ago"},{"_class":"course_review","id":103451656,"content":"Course was good, learnt a lot of things I was not aware excel could do.","rating":5.0,"created":"2021-12-28T03:19:21-08:00","modified":"2021-12-29T15:04:51-08:00","user_modified":"2021-12-28T03:19:44-08:00","user":{"_class":"user","title":"Jason Laubscher","name":"Jason","display_name":"Jason Laubscher","image_50x50":"https://img-c.udemycdn.com/user/50x50/anonymous_3.png","initials":"JL","tracking_id":"Zvgvidb-S4STxyUfo7Pe4Q","public_display_name":"Jason L."},"response":null,"content_html":"<p>Course was good, learnt a lot of things I was not aware excel could do.</p>","created_formatted_with_time_since":"8 months ago"},{"_class":"course_review","id":116189362,"content":"Very detailed with shortcuts and various means of handling data with both showing the \"structure\" and operation of these shortcuts and \"tricks\", and then shown with actual real-life examples.   Nicely structured and presented!","rating":5.0,"created":"2022-06-11T21:02:47-07:00","modified":"2022-06-12T16:04:58-07:00","user_modified":"2022-06-11T21:54:11-07:00","user":{"_class":"user","title":"Richard J Bloch","name":"Richard J","display_name":"Richard J Bloch","image_50x50":"https://img-c.udemycdn.com/user/50x50/anonymous_3.png","initials":"RB","tracking_id":"_kKsTx45RjK9B1lPiIe_Bw","public_display_name":"Richard J B."},"response":null,"content_html":"<p>Very detailed with shortcuts and various means of handling data with both showing the \"structure\" and operation of these shortcuts and \"tricks\", and then shown with actual real-life examples.   Nicely structured and presented!</p>","created_formatted_with_time_since":"2 months ago"},{"_class":"course_review","id":109659290,"content":"I learnt interesting techniques so happy so far","rating":5.0,"created":"2022-03-15T06:47:58-07:00","modified":"2022-03-16T16:09:47-07:00","user_modified":"2022-03-15T06:48:24-07:00","user":{"_class":"user","title":"Stephanie Brummer","name":"Stephanie","display_name":"Stephanie Brummer","image_50x50":"https://img-c.udemycdn.com/user/50x50/anonymous_3.png","initials":"SB","tracking_id":"q4oS2UmXRs-6AmQt6E7JGA","public_display_name":"Stephanie B."},"response":null,"content_html":"<p>I learnt interesting techniques so happy so far</p>","created_formatted_with_time_since":"5 months ago"},{"_class":"course_review","id":117894674,"content":"GOOD","rating":5.0,"created":"2022-07-03T23:20:48-07:00","modified":"2022-07-07T22:42:36-07:00","user_modified":"2022-07-07T22:42:36-07:00","user":{"_class":"user","title":"Kiran Kumar Reddy Sirigiri","name":"Kiran Kumar Reddy","display_name":"Kiran Kumar Reddy Sirigiri","image_50x50":"https://img-c.udemycdn.com/user/50x50/anonymous_3.png","initials":"KS","tracking_id":"htnSmPu7RQCUeBZ_SIySzA","public_display_name":"Kiran Kumar Reddy S."},"response":null,"content_html":"<p>GOOD</p>","created_formatted_with_time_since":"2 months ago"},{"_class":"course_review","id":100546925,"content":"Great course! Comprehensive and easy to follow.","rating":5.0,"created":"2021-11-18T23:58:10-08:00","modified":"2022-01-08T15:51:38-08:00","user_modified":"2022-01-08T15:51:38-08:00","user":{"_class":"user","title":"Lucy Maria Joseph","name":"Lucy Maria","display_name":"Lucy Maria Joseph","image_50x50":"https://img-c.udemycdn.com/user/50x50/anonymous_3.png","initials":"LJ","tracking_id":"2HtRVMidRMK26vsDje-s3g","public_display_name":"Lucy Maria J."},"response":null,"content_html":"<p>Great course! Comprehensive and easy to follow.</p>","created_formatted_with_time_since":"9 months ago"},{"_class":"course_review","id":119735450,"content":"best class till now","rating":5.0,"created":"2022-07-27T01:51:55-07:00","modified":"2022-07-29T16:10:50-07:00","user_modified":"2022-07-27T01:52:06-07:00","user":{"_class":"user","title":"Abhishek Chauhan","name":"Abhishek","display_name":"Abhishek Chauhan","image_50x50":"https://img-c.udemycdn.com/user/50x50/anonymous_3.png","initials":"AC","tracking_id":"WNtsTWRZQ4GA3gPaj3za5g","public_display_name":"Abhishek C."},"response":null,"content_html":"<p>best class till now</p>","created_formatted_with_time_since":"a month ago"},{"_class":"course_review","id":119437306,"content":"great info and great performance","rating":5.0,"created":"2022-07-23T05:36:02-07:00","modified":"2022-07-24T16:06:02-07:00","user_modified":"2022-07-23T05:36:21-07:00","user":{"_class":"user","title":"Orsolya Hanácsik-Földi","name":"Orsolya","display_name":"Orsolya Hanácsik-Földi","image_50x50":"https://img-c.udemycdn.com/user/50x50/anonymous_3.png","initials":"OH","tracking_id":"_UtYM9TWSsymCwUt1Rebkw","public_display_name":"Orsolya H."},"response":null,"content_html":"<p>great info and great performance</p>","created_formatted_with_time_since":"a month ago"}]}