{"count":2276,"next":"https://www.udemy.com/api-2.0/courses/818990/reviews/?courseId=818990&fields%5Bcourse_review%5D=%40default%2Cresponse%2Ccontent_html%2Ccreated_formatted_with_time_since&fields%5Bcourse_review_response%5D=%40min%2Cuser%2Ccontent_html%2Ccreated_formatted_with_time_since&fields%5Buser%5D=%40min%2Cimage_50x50%2Cinitials%2Cpublic_display_name%2Ctracking_id&is_text_review=1&ordering=course_review_score__rank%2C-created&page=2","previous":null,"results":[{"_class":"course_review","id":122146736,"content":"I have very basic knowledge using HTML and CSS and needed a lesson that would wrap up everything in a clear and concise way. This course is exactly what I needed and Brad is very informative and to the point.","rating":5.0,"created":"2022-08-26T11:17:34-07:00","modified":"2022-08-27T16:06:26-07:00","user_modified":"2022-08-26T11:21:37-07:00","user":{"_class":"user","title":"Stephen Blackwell","name":"Stephen","display_name":"Stephen Blackwell","image_50x50":"https://img-c.udemycdn.com/user/50x50/anonymous_3.png","initials":"SB","tracking_id":"JxtboRjxQBCgpsUSQMYRbA","public_display_name":"Stephen B."},"response":null,"content_html":"<p>I have very basic knowledge using HTML and CSS and needed a lesson that would wrap up everything in a clear and concise way. This course is exactly what I needed and Brad is very informative and to the point.</p>","created_formatted_with_time_since":"a week ago"},{"_class":"course_review","id":121762646,"content":"Brad, you are my fav online tutor, whenever I come buying a course, and if I have two courses to choose from, and one course happens to be from you, I definitely choose your course...\nYou are Awesome, as a tutor, and you inspire me a lot.\nThanks","rating":5.0,"created":"2022-08-22T10:11:31-07:00","modified":"2022-08-23T16:13:13-07:00","user_modified":"2022-08-22T10:15:06-07:00","user":{"_class":"user","title":"Sukhraj Singh","name":"Sukhraj","display_name":"Sukhraj Singh","image_50x50":"https://img-c.udemycdn.com/user/50x50/anonymous_3.png","initials":"SS","tracking_id":"QvSHBBQeQOyJTKPYi--k7g","public_display_name":"Sukhraj S."},"response":null,"content_html":"<p>Brad, you are my fav online tutor, whenever I come buying a course, and if I have two courses to choose from, and one course happens to be from you, I definitely choose your course...<br>You are Awesome, as a tutor, and you inspire me a lot.<br>Thanks</p>","created_formatted_with_time_since":"a week ago"},{"_class":"course_review","id":115891326,"content":"Brad is amazing in his ability to teach through the eyes of the learner.  The pace is phenomenal, the explanations are precise and leave little to no room for additional questions.  I have purchased almost all of his courses and thoroughly enjoy learning from him, and the content/materials he includes in each course.","rating":5.0,"created":"2022-06-07T19:44:36-07:00","modified":"2022-06-08T16:05:08-07:00","user_modified":"2022-06-07T19:45:55-07:00","user":{"_class":"user","title":"Corey Leftwich","name":"Corey","display_name":"Corey Leftwich","image_50x50":"https://img-c.udemycdn.com/user/50x50/anonymous_3.png","initials":"CL","tracking_id":"O14kyY4rQNmJsXq1DEhC3g","public_display_name":"Corey L."},"response":null,"content_html":"<p>Brad is amazing in his ability to teach through the eyes of the learner.  The pace is phenomenal, the explanations are precise and leave little to no room for additional questions.  I have purchased almost all of his courses and thoroughly enjoy learning from him, and the content/materials he includes in each course.</p>","created_formatted_with_time_since":"2 months ago"},{"_class":"course_review","id":111729678,"content":"This course filled holes in my skills I didn't even know I had. Now I feel like I really know how to organize my code. It surprisingly helped my project making skills a lot just learning to use git. Having the ability to easily branch and experiment without losing track, really made a difference. Also, CSS is so much more tolerable when you limit the influence of the cascade.","rating":5.0,"created":"2022-04-12T15:11:44-07:00","modified":"2022-04-13T16:04:41-07:00","user_modified":"2022-04-12T15:15:11-07:00","user":{"_class":"user","title":"Andrea Smith","name":"Andrea","display_name":"Andrea Smith","image_50x50":"https://img-c.udemycdn.com/user/50x50/anonymous_3.png","initials":"AS","tracking_id":"_Y5fV41gRIOxTwRW96MH2A","public_display_name":"Andrea S."},"response":null,"content_html":"<p>This course filled holes in my skills I didn't even know I had. Now I feel like I really know how to organize my code. It surprisingly helped my project making skills a lot just learning to use git. Having the ability to easily branch and experiment without losing track, really made a difference. Also, CSS is so much more tolerable when you limit the influence of the cascade.</p>","created_formatted_with_time_since":"4 months ago"},{"_class":"course_review","id":108791348,"content":"If you follow the course exactly as Brad advises, you wont run into any out-of-date issues at all. He also attaches his code incase you screw up somewhere - so yeah - loved it\n\nthanks Brad!","rating":4.0,"created":"2022-03-03T07:26:11-08:00","modified":"2022-04-07T07:32:03-07:00","user_modified":"2022-04-07T07:32:03-07:00","user":{"_class":"user","title":"Adi Rainbow","name":"Adi","display_name":"Adi Rainbow","image_50x50":"https://img-c.udemycdn.com/user/50x50/anonymous_3.png","initials":"AR","tracking_id":"Xht0OH5qTL6TSwEYoELW2w","public_display_name":"Adi R."},"response":null,"content_html":"<p>If you follow the course exactly as Brad advises, you wont run into any out-of-date issues at all. He also attaches his code incase you screw up somewhere - so yeah - loved it</p>\n\n<p>thanks Brad!</p>","created_formatted_with_time_since":"6 months ago"},{"_class":"course_review","id":120367208,"content":"I was very happy with the course through the first half. Brad is very thorough in his explanations and covering details. Unfortunately, the course is at least 4 years old and he has made some updates. But ultimately the updates are even more confusing because it's putting bandaids here and there while older material still remains. I'm still working on the last section - building the site for production. Two more videos to go and hoping it will work once I complete this Section.\nBrad is a good instructor and very knowledgeable but ultimately my experience was as disappointing as it was enjoyable and enlightening.","rating":3.5,"created":"2022-08-03T16:59:04-07:00","modified":"2022-08-06T14:15:19-07:00","user_modified":"2022-08-06T14:15:19-07:00","user":{"_class":"user","title":"Steve Stout","name":"Steve","display_name":"Steve Stout","image_50x50":"https://img-c.udemycdn.com/user/50x50/anonymous_3.png","initials":"SS","tracking_id":"3bGGQ6KWR76HNSar58K4Hg","public_display_name":"Steve S."},"response":null,"content_html":"<p>I was very happy with the course through the first half. Brad is very thorough in his explanations and covering details. Unfortunately, the course is at least 4 years old and he has made some updates. But ultimately the updates are even more confusing because it's putting bandaids here and there while older material still remains. I'm still working on the last section - building the site for production. Two more videos to go and hoping it will work once I complete this Section.<br>Brad is a good instructor and very knowledgeable but ultimately my experience was as disappointing as it was enjoyable and enlightening.</p>","created_formatted_with_time_since":"4 weeks ago"},{"_class":"course_review","id":116158186,"content":"The lecturer is excellent.  However, the course could use an update.","rating":4.0,"created":"2022-06-11T05:38:34-07:00","modified":"2022-08-03T10:19:27-07:00","user_modified":"2022-08-03T10:19:27-07:00","user":{"_class":"user","title":"D M","name":"D","display_name":"D M","image_50x50":"https://img-c.udemycdn.com/user/50x50/anonymous_3.png","initials":"DM","tracking_id":"CfZz-fLhR_2BZT9UbIBkHA","public_display_name":"D M."},"response":null,"content_html":"<p>The lecturer is excellent.  However, the course could use an update.</p>","created_formatted_with_time_since":"2 months ago"},{"_class":"course_review","id":112019300,"content":"This course was great, we were introduced to a whole bunch of different concepts and created a webpage that included many optimizations.\nThat being said, we didn't go deep in any of those concepts, and merely wrote the code at the same time and observed the results. Many functions that were used are unexplained and are just \"follow me with this\" so we can see a result. I don't remember most of them nor would I be able to remember to use them if the need arise. If I need to build a similar webpage, I'll probably need to re-do the course to remember hat to use and where. There is very little practice and there are no exercises or tests to validate knowledge.\nThat being said, I did enjoy it, and would recommend it.","rating":4.5,"created":"2022-04-17T07:55:38-07:00","modified":"2022-04-18T16:08:51-07:00","user_modified":"2022-04-17T07:59:37-07:00","user":{"_class":"user","title":"Charles Héroux","name":"Charles","display_name":"Charles Héroux","image_50x50":"https://img-c.udemycdn.com/user/50x50/anonymous_3.png","initials":"CH","tracking_id":"a0WOhodhQxe3HA1SB4Mr_A","public_display_name":"Charles H."},"response":null,"content_html":"<p>This course was great, we were introduced to a whole bunch of different concepts and created a webpage that included many optimizations.<br>That being said, we didn't go deep in any of those concepts, and merely wrote the code at the same time and observed the results. Many functions that were used are unexplained and are just \"follow me with this\" so we can see a result. I don't remember most of them nor would I be able to remember to use them if the need arise. If I need to build a similar webpage, I'll probably need to re-do the course to remember hat to use and where. There is very little practice and there are no exercises or tests to validate knowledge.<br>That being said, I did enjoy it, and would recommend it.</p>","created_formatted_with_time_since":"4 months ago"},{"_class":"course_review","id":110928132,"content":"Happy to learn step by step from A to Z, or maybe to P or Q ;-) \nSome redundances when creating new Block class and partial file and import and .... but repetition is inner integration !\nIt's the first time I really cope with and enjoy version control !! A big step for me ! Thanks Brad !\n\nPS - As I use video subtitles, it would be appreciated that the code lines we are working on would be placed at least at the middle of the screen, and not at the bottom ^^ ( overlapping effect without any CSS code under our control ;-) )","rating":4.0,"created":"2022-04-01T04:07:38-07:00","modified":"2022-04-02T16:02:03-07:00","user_modified":"2022-04-01T04:12:51-07:00","user":{"_class":"user","title":"TataHipi","name":"TataHipi","display_name":"TataHipi","image_50x50":"https://img-c.udemycdn.com/user/50x50/anonymous_3.png","initials":"T","tracking_id":"NGwZqaS2TN-kXckvZLzhoA","public_display_name":"TataHipi"},"response":null,"content_html":"<p>Happy to learn step by step from A to Z, or maybe to P or Q ;-) <br>Some redundances when creating new Block class and partial file and import and .... but repetition is inner integration !<br>It's the first time I really cope with and enjoy version control !! A big step for me ! Thanks Brad !</p>\n\n<p>PS - As I use video subtitles, it would be appreciated that the code lines we are working on would be placed at least at the middle of the screen, and not at the bottom ^^ ( overlapping effect without any CSS code under our control ;-) )</p>","created_formatted_with_time_since":"5 months ago"},{"_class":"course_review","id":122382380,"content":"Instructor is good. I did his WordPress course and MySQL course which were awesome. The rating for this course reflects the support, or lack of it.","rating":2.5,"created":"2022-08-29T17:18:18-07:00","modified":"2022-08-31T16:10:48-07:00","user_modified":"2022-08-29T17:19:30-07:00","user":{"_class":"user","title":"Al Newsman","name":"Al","display_name":"Al Newsman","image_50x50":"https://img-c.udemycdn.com/user/50x50/anonymous_3.png","initials":"AN","tracking_id":"SeS2BdSdTpeMIJAjZjsVTg","public_display_name":"Al N."},"response":null,"content_html":"<p>Instructor is good. I did his WordPress course and MySQL course which were awesome. The rating for this course reflects the support, or lack of it.</p>","created_formatted_with_time_since":"3 days ago"},{"_class":"course_review","id":107418532,"content":"The instructor not only shows how to solve a problem, but says why the problem matters and why the solution proposed is a good fit.","rating":5.0,"created":"2022-02-13T08:33:11-08:00","modified":"2022-02-14T15:05:30-08:00","user_modified":"2022-02-13T08:34:28-08:00","user":{"_class":"user","title":"Eche Oji","name":"Eche","display_name":"Eche Oji","image_50x50":"https://img-c.udemycdn.com/user/50x50/anonymous_3.png","initials":"EO","tracking_id":"avWqJ9X3Qs6cKeKcoZyL6Q","public_display_name":"Eche O."},"response":null,"content_html":"<p>The instructor not only shows how to solve a problem, but says why the problem matters and why the solution proposed is a good fit.</p>","created_formatted_with_time_since":"6 months ago"},{"_class":"course_review","id":111215688,"content":"I'm loving this course! Just started as a Junior Dev and this course explains amazingly well everything that I'm seeing throughout my job routine","rating":5.0,"created":"2022-04-05T11:15:02-07:00","modified":"2022-05-10T10:18:28-07:00","user_modified":"2022-05-10T10:18:28-07:00","user":{"_class":"user","title":"Johan Alves","name":"Johan","display_name":"Johan Alves","image_50x50":"https://img-c.udemycdn.com/user/50x50/anonymous_3.png","initials":"JA","tracking_id":"qmETy2CgRQKaoy8OMz6xdA","public_display_name":"Johan A."},"response":null,"content_html":"<p>I'm loving this course! Just started as a Junior Dev and this course explains amazingly well everything that I'm seeing throughout my job routine</p>","created_formatted_with_time_since":"5 months ago"}]}