{"count":207,"next":"https://www.udemy.com/api-2.0/courses/819676/reviews/?courseId=819676&fields%5Bcourse_review%5D=%40default%2Cresponse%2Ccontent_html%2Ccreated_formatted_with_time_since&fields%5Bcourse_review_response%5D=%40min%2Cuser%2Ccontent_html%2Ccreated_formatted_with_time_since&fields%5Buser%5D=%40min%2Cimage_50x50%2Cinitials%2Cpublic_display_name%2Ctracking_id&is_text_review=1&ordering=course_review_score__rank%2C-created&page=2","previous":null,"results":[{"_class":"course_review","id":121597082,"content":"perfect","rating":5.0,"created":"2022-08-19T18:58:47-07:00","modified":"2022-08-21T16:12:00-07:00","user_modified":"2022-08-19T18:58:57-07:00","user":{"_class":"user","title":"Fatma Sevi̇n Düz","name":"Fatma Sevi̇n","display_name":"Fatma Sevi̇n Düz","image_50x50":"https://img-c.udemycdn.com/user/50x50/anonymous_3.png","initials":"FD","tracking_id":"1AvjRrHhQTmND4QwGdFtMQ","public_display_name":"Fatma Sevi̇n D."},"response":null,"content_html":"<p>perfect</p>","created_formatted_with_time_since":"a week ago"},{"_class":"course_review","id":113725434,"content":"I love the underlying geometry of the teaching.","rating":5.0,"created":"2022-05-11T00:40:51-07:00","modified":"2022-05-12T16:13:25-07:00","user_modified":"2022-05-11T00:41:56-07:00","user":{"_class":"user","title":"Surya Sundar Mitra","name":"Surya Sundar","display_name":"Surya Sundar Mitra","image_50x50":"https://img-c.udemycdn.com/user/50x50/anonymous_3.png","initials":"SM","tracking_id":"MwKtA0iPSxikBppD7cIhHQ","public_display_name":"Surya Sundar M."},"response":null,"content_html":"<p>I love the underlying geometry of the teaching.</p>","created_formatted_with_time_since":"3 months ago"},{"_class":"course_review","id":107949832,"content":"Very clear and easy to follow explanations!","rating":5.0,"created":"2022-02-20T19:01:47-08:00","modified":"2022-02-21T15:07:44-08:00","user_modified":"2022-02-20T19:02:40-08:00","user":{"_class":"user","title":"Cintia Calvo","name":"Cintia","display_name":"Cintia Calvo","image_50x50":"https://img-c.udemycdn.com/user/50x50/anonymous_3.png","initials":"CC","tracking_id":"JUbfhwomRY6bE2UKLVHZTw","public_display_name":"Cintia C."},"response":{"_class":"course_review_response","id":9383822,"content":"thank you so much!","created":"2022-04-07T13:07:28-07:00","modified":"2022-04-07T13:07:28-07:00","user":{"_class":"user","title":"Samira Mian","name":"Samira","display_name":"Samira Mian","image_50x50":"https://img-c.udemycdn.com/user/50x50/21916666_89eb_2.jpg","initials":"SM","tracking_id":"YGEhGaWDR1yxfHz-indlww","public_display_name":"Samira M."},"content_html":"<p>thank you so much!</p>","created_formatted_with_time_since":"4 months ago"},"content_html":"<p>Very clear and easy to follow explanations!</p>","created_formatted_with_time_since":"6 months ago"},{"_class":"course_review","id":104987250,"content":"Really enjoyed the entire learning process. Very systematic and laid down simply and easy to understand. Would definitely take up another advanced course by Samira :) Thank you for teaching this beautiful art!","rating":5.0,"created":"2022-01-14T03:46:07-08:00","modified":"2022-01-16T15:06:17-08:00","user_modified":"2022-01-14T03:47:48-08:00","user":{"_class":"user","title":"Poulami Bose","name":"Poulami","display_name":"Poulami Bose","image_50x50":"https://img-c.udemycdn.com/user/50x50/anonymous_3.png","initials":"PB","tracking_id":"jI6CWl0XRzq2w6jgkdYZTw","public_display_name":"Poulami B."},"response":{"_class":"course_review_response","id":9383762,"content":"thanks so much, and you are very welcome!!","created":"2022-04-07T13:06:04-07:00","modified":"2022-04-07T13:06:04-07:00","user":{"_class":"user","title":"Samira Mian","name":"Samira","display_name":"Samira Mian","image_50x50":"https://img-c.udemycdn.com/user/50x50/21916666_89eb_2.jpg","initials":"SM","tracking_id":"YGEhGaWDR1yxfHz-indlww","public_display_name":"Samira M."},"content_html":"<p>thanks so much, and you are very welcome!!</p>","created_formatted_with_time_since":"4 months ago"},"content_html":"<p>Really enjoyed the entire learning process. Very systematic and laid down simply and easy to understand. Would definitely take up another advanced course by Samira :) Thank you for teaching this beautiful art!</p>","created_formatted_with_time_since":"7 months ago"},{"_class":"course_review","id":42683182,"content":"Alhamdullilah,  Samira is an amazing teacher. I have learned so much from doing this course and I would recommend it to anyone who has the desire and determination to learn. The downloadable pdfs are an excellent resource to keep for life and when my wifi was playing up I was able to access my pdfs which I had printed. What's more, is that I got my 2 daughters involved, the youngest being 13 and it has been a wonderful way of spending good quality time with each other whilst learning this art.  This course was really good value for money.","rating":4.5,"created":"2019-12-29T23:36:03-08:00","modified":"2019-12-30T06:05:34-08:00","user_modified":"2019-12-29T23:42:22-08:00","user":{"_class":"user","title":"Faiza Galdhari","name":"Faiza","display_name":"Faiza Galdhari","image_50x50":"https://img-c.udemycdn.com/user/50x50/anonymous_3.png","initials":"FG","tracking_id":"1kf6nA1mRoKVF4SuUlnJIw","public_display_name":"Faiza G."},"response":{"_class":"course_review_response","id":3812950,"content":"Thanks for taking the time to write this Faiza, really appreciate it and so glad it's been of value to you!! And it there is anything I can change or improve to make that 4.5 stars in to 5 stars...do let me know!","created":"2020-01-10T02:15:52-08:00","modified":"2020-01-10T02:18:45-08:00","user":{"_class":"user","title":"Samira Mian","name":"Samira","display_name":"Samira Mian","image_50x50":"https://img-c.udemycdn.com/user/50x50/21916666_89eb_2.jpg","initials":"SM","tracking_id":"YGEhGaWDR1yxfHz-indlww","public_display_name":"Samira M."},"content_html":"<p>Thanks for taking the time to write this Faiza, really appreciate it and so glad it's been of value to you!! And it there is anything I can change or improve to make that 4.5 stars in to 5 stars...do let me know!</p>","created_formatted_with_time_since":"2 years ago"},"content_html":"<p>Alhamdullilah,  Samira is an amazing teacher. I have learned so much from doing this course and I would recommend it to anyone who has the desire and determination to learn. The downloadable pdfs are an excellent resource to keep for life and when my wifi was playing up I was able to access my pdfs which I had printed. What's more, is that I got my 2 daughters involved, the youngest being 13 and it has been a wonderful way of spending good quality time with each other whilst learning this art.  This course was really good value for money.</p>","created_formatted_with_time_since":"2 years ago"},{"_class":"course_review","id":97589116,"content":"Thank you so much Samira for the wonderful course, with step-by-step and clear guidance to follow. This course is so inspiring. Loving also the historical info about the pattern. Jazakillah kahyran :)","rating":5.0,"created":"2021-10-11T07:14:20-07:00","modified":"2021-10-21T06:28:59-07:00","user_modified":"2021-10-21T06:28:59-07:00","user":{"_class":"user","title":"Imlati Hadad","name":"Imlati","display_name":"Imlati Hadad","image_50x50":"https://img-c.udemycdn.com/user/50x50/164338968_379c_2.jpg","initials":"IH","tracking_id":"K7X8awWKQpOpzqgF9Q-4Yw","public_display_name":"Imlati H."},"response":{"_class":"course_review_response","id":8787178,"content":"Thank you so much Imlati!!","created":"2021-12-14T02:59:25-08:00","modified":"2021-12-14T02:59:25-08:00","user":{"_class":"user","title":"Samira Mian","name":"Samira","display_name":"Samira Mian","image_50x50":"https://img-c.udemycdn.com/user/50x50/21916666_89eb_2.jpg","initials":"SM","tracking_id":"YGEhGaWDR1yxfHz-indlww","public_display_name":"Samira M."},"content_html":"<p>Thank you so much Imlati!!</p>","created_formatted_with_time_since":"8 months ago"},"content_html":"<p>Thank you so much Samira for the wonderful course, with step-by-step and clear guidance to follow. This course is so inspiring. Loving also the historical info about the pattern. Jazakillah kahyran :)</p>","created_formatted_with_time_since":"10 months ago"},{"_class":"course_review","id":120404504,"content":"great","rating":5.0,"created":"2022-08-04T03:59:57-07:00","modified":"2022-08-05T16:09:58-07:00","user_modified":"2022-08-04T04:00:09-07:00","user":{"_class":"user","title":"Amber Siddiqui","name":"Amber","display_name":"Amber Siddiqui","image_50x50":"https://img-c.udemycdn.com/user/50x50/anonymous_3.png","initials":"AS","tracking_id":"LOazqfL1SxSt6TejupympA","public_display_name":"Amber S."},"response":null,"content_html":"<p>great</p>","created_formatted_with_time_since":"4 weeks ago"},{"_class":"course_review","id":96932610,"content":"As a total beginner i found the speed too fast and not clear instructions :(","rating":2.0,"created":"2021-10-02T09:01:36-07:00","modified":"2021-10-03T16:05:29-07:00","user_modified":"2021-10-02T09:01:36-07:00","user":{"_class":"user","title":"Zehra","name":"Zehra","display_name":"Zehra","image_50x50":"https://img-c.udemycdn.com/user/50x50/anonymous_3.png","initials":"Z","tracking_id":"H9D0XzIdT6KKS0xZLX0ZYQ","public_display_name":"Zehra"},"response":{"_class":"course_review_response","id":8408284,"content":"sorry to hear this, may i suggest that you try slowing down the playback speed (press the 3 little dots on the bottom right, chose playback speed then  x0.5 or x0.25), also down load the PDF step by step guide so you cans see each step individually\n\nHope you persevere!\n\nGood luck\n\nSamira","created":"2021-10-04T00:36:23-07:00","modified":"2021-12-14T02:59:37-08:00","user":{"_class":"user","title":"Samira Mian","name":"Samira","display_name":"Samira Mian","image_50x50":"https://img-c.udemycdn.com/user/50x50/21916666_89eb_2.jpg","initials":"SM","tracking_id":"YGEhGaWDR1yxfHz-indlww","public_display_name":"Samira M."},"content_html":"<p>sorry to hear this, may i suggest that you try slowing down the playback speed (press the 3 little dots on the bottom right, chose playback speed then  x0.5 or x0.25), also down load the PDF step by step guide so you cans see each step individually</p>\n\n<p>Hope you persevere!</p>\n\n<p>Good luck</p>\n\n<p>Samira</p>","created_formatted_with_time_since":"11 months ago"},"content_html":"<p>As a total beginner i found the speed too fast and not clear instructions :(</p>","created_formatted_with_time_since":"11 months ago"},{"_class":"course_review","id":95268818,"content":"It is very easy to do.  Love it.","rating":5.0,"created":"2021-09-12T20:04:14-07:00","modified":"2021-09-14T16:04:56-07:00","user_modified":"2021-09-12T20:06:35-07:00","user":{"_class":"user","title":"Eesa Tilly","name":"Eesa","display_name":"Eesa Tilly","image_50x50":"https://img-c.udemycdn.com/user/50x50/anonymous_3.png","initials":"ET","tracking_id":"fypWuPefQeuzYXj-MD85qA","public_display_name":"Eesa T."},"response":{"_class":"course_review_response","id":8329717,"content":"thanks so much Eesa!","created":"2021-09-17T09:48:36-07:00","modified":"2021-09-17T09:48:36-07:00","user":{"_class":"user","title":"Samira Mian","name":"Samira","display_name":"Samira Mian","image_50x50":"https://img-c.udemycdn.com/user/50x50/21916666_89eb_2.jpg","initials":"SM","tracking_id":"YGEhGaWDR1yxfHz-indlww","public_display_name":"Samira M."},"content_html":"<p>thanks so much Eesa!</p>","created_formatted_with_time_since":"11 months ago"},"content_html":"<p>It is very easy to do.  Love it.</p>","created_formatted_with_time_since":"11 months ago"},{"_class":"course_review","id":94956220,"content":"Addictive... I had the pleasure of attending an in person class with Samira, she is brilliant, knowledgeable and explains very well and easily! not to mention that she's hilarious... that always helps :)","rating":5.0,"created":"2021-09-08T07:46:14-07:00","modified":"2021-09-10T16:04:53-07:00","user_modified":"2021-09-08T07:47:26-07:00","user":{"_class":"user","title":"Alessandra Maggiora","name":"Alessandra","display_name":"Alessandra Maggiora","image_50x50":"https://img-c.udemycdn.com/user/50x50/anonymous_3.png","initials":"AM","tracking_id":"KxTthRtmQ7eZTnA7WiD-VQ","public_display_name":"Alessandra M."},"response":{"_class":"course_review_response","id":8329713,"content":"aww thank you Alessandra! So glad to see you're enjoying these patterns! Ofcourse the most welcome feedback is that I'm hilarious! I love a joke I do!","created":"2021-09-17T09:48:13-07:00","modified":"2021-09-17T09:48:13-07:00","user":{"_class":"user","title":"Samira Mian","name":"Samira","display_name":"Samira Mian","image_50x50":"https://img-c.udemycdn.com/user/50x50/21916666_89eb_2.jpg","initials":"SM","tracking_id":"YGEhGaWDR1yxfHz-indlww","public_display_name":"Samira M."},"content_html":"<p>aww thank you Alessandra! So glad to see you're enjoying these patterns! Ofcourse the most welcome feedback is that I'm hilarious! I love a joke I do!</p>","created_formatted_with_time_since":"11 months ago"},"content_html":"<p>Addictive... I had the pleasure of attending an in person class with Samira, she is brilliant, knowledgeable and explains very well and easily! not to mention that she's hilarious... that always helps :)</p>","created_formatted_with_time_since":"11 months ago"},{"_class":"course_review","id":13764252,"content":"Very good introduction to islamic patterns with the bonus of practical tipps for coloring, tracing, tiling etc. Great course, very addictive!","rating":5.0,"created":"2018-02-13T23:42:51-08:00","modified":"2019-02-02T09:07:11-08:00","user_modified":"2019-02-02T09:07:11-08:00","user":{"_class":"user","title":"Petra Ollram","name":"Petra","display_name":"Petra Ollram","image_50x50":"https://img-c.udemycdn.com/user/50x50/34636208_3759.jpg","initials":"PO","tracking_id":"gC5KElUuS866Nj0VZccwVw","public_display_name":"Petra O."},"response":{"_class":"course_review_response","id":1111164,"content":"Hi Petra, Thanks so much for the rating and review, really appreciate your feedback!","created":"2018-02-16T00:59:48-08:00","modified":"2018-02-16T00:59:48-08:00","user":{"_class":"user","title":"Samira Mian","name":"Samira","display_name":"Samira Mian","image_50x50":"https://img-c.udemycdn.com/user/50x50/21916666_89eb_2.jpg","initials":"SM","tracking_id":"YGEhGaWDR1yxfHz-indlww","public_display_name":"Samira M."},"content_html":"<p>Hi Petra, Thanks so much for the rating and review, really appreciate your feedback!</p>","created_formatted_with_time_since":"4 years ago"},"content_html":"<p>Very good introduction to islamic patterns with the bonus of practical tipps for coloring, tracing, tiling etc. Great course, very addictive!</p>","created_formatted_with_time_since":"4 years ago"},{"_class":"course_review","id":69683512,"content":"Thank you so much for the course! It is very helpful and understandable! I bought your second course and cant wait to start learning ! :)","rating":5.0,"created":"2020-11-01T22:25:59-08:00","modified":"2020-11-25T11:14:45-08:00","user_modified":"2020-11-25T11:14:45-08:00","user":{"_class":"user","title":"Shams Hasanova","name":"Shams","display_name":"Shams Hasanova","image_50x50":"https://img-c.udemycdn.com/user/50x50/anonymous_3.png","initials":"SH","tracking_id":"ksCTx4K-R26MSr2Ikul2BQ","public_display_name":"Shams H."},"response":{"_class":"course_review_response","id":6723276,"content":"Thanks so much Shams, really appreciate it!","created":"2020-12-23T12:38:12-08:00","modified":"2020-12-23T12:38:12-08:00","user":{"_class":"user","title":"Samira Mian","name":"Samira","display_name":"Samira Mian","image_50x50":"https://img-c.udemycdn.com/user/50x50/21916666_89eb_2.jpg","initials":"SM","tracking_id":"YGEhGaWDR1yxfHz-indlww","public_display_name":"Samira M."},"content_html":"<p>Thanks so much Shams, really appreciate it!</p>","created_formatted_with_time_since":"a year ago"},"content_html":"<p>Thank you so much for the course! It is very helpful and understandable! I bought your second course and cant wait to start learning ! :)</p>","created_formatted_with_time_since":"a year ago"}]}