{"count":2092,"next":"https://www.udemy.com/api-2.0/courses/821726/reviews/?courseId=821726&fields%5Bcourse_review%5D=%40default%2Cresponse%2Ccontent_html%2Ccreated_formatted_with_time_since&fields%5Bcourse_review_response%5D=%40min%2Cuser%2Ccontent_html%2Ccreated_formatted_with_time_since&fields%5Buser%5D=%40min%2Cimage_50x50%2Cinitials%2Cpublic_display_name%2Ctracking_id&is_text_review=1&ordering=course_review_score__rank%2C-created&page=2","previous":null,"results":[{"_class":"course_review","id":121413608,"content":"Really enjoyed the course and notes. I found the projects very useful. The only issue I had was with the natural language processing network, I was unable to follow along as the Twitter developer codes seem to have changed. Perhaps that lecture needs to be updated.","rating":4.5,"created":"2022-08-17T11:15:27-07:00","modified":"2022-08-18T16:10:24-07:00","user_modified":"2022-08-17T11:16:44-07:00","user":{"_class":"user","title":"Sean Denroche","name":"Sean","display_name":"Sean Denroche","image_50x50":"https://img-c.udemycdn.com/user/50x50/anonymous_3.png","initials":"SD","tracking_id":"o3P6vXGUSoCHNhdOVK6B3g","public_display_name":"Sean D."},"response":null,"content_html":"<p>Really enjoyed the course and notes. I found the projects very useful. The only issue I had was with the natural language processing network, I was unable to follow along as the Twitter developer codes seem to have changed. Perhaps that lecture needs to be updated.</p>","created_formatted_with_time_since":"2 weeks ago"},{"_class":"course_review","id":120073114,"content":"This Course is wonderful. I just finished it and can say without a shadow of a doubt that it was worth every second of the 17 hours. For anyone interested in data analysis this course will provide a solid, stable basis on top of which the applied aspect of analysis will stand. Anyone who takes this course will have a huge advantage in the work force compared to their peers who have not undergone such training. Just WONDERFUL!","rating":5.0,"created":"2022-07-31T10:50:07-07:00","modified":"2022-08-19T02:25:42-07:00","user_modified":"2022-08-19T02:25:42-07:00","user":{"_class":"user","title":"Redon Deliu","name":"Redon","display_name":"Redon Deliu","image_50x50":"https://img-c.udemycdn.com/user/50x50/anonymous_3.png","initials":"RD","tracking_id":"zvmkVHWoQISpAWj_SqzICw","public_display_name":"Redon D."},"response":null,"content_html":"<p>This Course is wonderful. I just finished it and can say without a shadow of a doubt that it was worth every second of the 17 hours. For anyone interested in data analysis this course will provide a solid, stable basis on top of which the applied aspect of analysis will stand. Anyone who takes this course will have a huge advantage in the work force compared to their peers who have not undergone such training. Just WONDERFUL!</p>","created_formatted_with_time_since":"a month ago"},{"_class":"course_review","id":119080822,"content":"Great Teaching. Great course if you are a beginner to R. Material for further learning also mentioned in the course","rating":5.0,"created":"2022-07-18T23:05:01-07:00","modified":"2022-07-19T16:13:34-07:00","user_modified":"2022-07-18T23:06:56-07:00","user":{"_class":"user","title":"Kiran Sahir","name":"Kiran","display_name":"Kiran Sahir","image_50x50":"https://img-c.udemycdn.com/user/50x50/anonymous_3.png","initials":"KS","tracking_id":"kBP3Td4RQliSoRX9trH_bw","public_display_name":"Kiran S."},"response":null,"content_html":"<p>Great Teaching. Great course if you are a beginner to R. Material for further learning also mentioned in the course</p>","created_formatted_with_time_since":"a month ago"},{"_class":"course_review","id":118952354,"content":"This course gave me a very good overview of data science and machine learning concepts! The instructor also breaks down difficult topics in a more digestible way and even redirects us to a few very useful resource materials.\nThere are a series of projects in this course, which allow us to learn and get used to things way faster.","rating":4.5,"created":"2022-07-17T09:37:24-07:00","modified":"2022-07-18T16:08:44-07:00","user_modified":"2022-07-17T09:41:14-07:00","user":{"_class":"user","title":"Chanel Koh","name":"Chanel","display_name":"Chanel Koh","image_50x50":"https://img-c.udemycdn.com/user/50x50/anonymous_3.png","initials":"CK","tracking_id":"WFyFNGkhTja1k-J9AkxVAg","public_display_name":"Chanel K."},"response":null,"content_html":"<p>This course gave me a very good overview of data science and machine learning concepts! The instructor also breaks down difficult topics in a more digestible way and even redirects us to a few very useful resource materials.<br>There are a series of projects in this course, which allow us to learn and get used to things way faster.</p>","created_formatted_with_time_since":"a month ago"},{"_class":"course_review","id":118519068,"content":"Best classes for reviewing how to use R for data analysis.\nI totally recommend this class for someone who wants to learn R.","rating":5.0,"created":"2022-07-11T21:39:18-07:00","modified":"2022-07-12T16:08:49-07:00","user_modified":"2022-07-12T04:43:41-07:00","user":{"_class":"user","title":"Anonymized User","name":"Anonymized","display_name":"Anonymized User","image_50x50":"https://img-c.udemycdn.com/user/50x50/anonymous_3.png","initials":"AU","tracking_id":"_VCS9wu0SjCmYdoZnh0qCA","public_display_name":"Anonymized U."},"response":null,"content_html":"<p>Best classes for reviewing how to use R for data analysis.<br>I totally recommend this class for someone who wants to learn R.</p>","created_formatted_with_time_since":"a month ago"},{"_class":"course_review","id":115824046,"content":"As I was only in touch with the theory on all the different ML-Algorithms, this course was a brilliant way to learn by doing, how I can actually use all these techniques. Thanks so much!","rating":5.0,"created":"2022-06-07T03:23:27-07:00","modified":"2022-07-27T08:31:44-07:00","user_modified":"2022-07-27T08:31:44-07:00","user":{"_class":"user","title":"Jan Heumann","name":"Jan","display_name":"Jan Heumann","image_50x50":"https://img-c.udemycdn.com/user/50x50/anonymous_3.png","initials":"JH","tracking_id":"cVYvOQBzQmaOa8hklV4okg","public_display_name":"Jan H."},"response":null,"content_html":"<p>As I was only in touch with the theory on all the different ML-Algorithms, this course was a brilliant way to learn by doing, how I can actually use all these techniques. Thanks so much!</p>","created_formatted_with_time_since":"2 months ago"},{"_class":"course_review","id":118129360,"content":"Yes. The lectures all build upon each other leading. There is a nice sequential order that makes sense and everything is clearly explained in simple examples. Perfect for any STEM student.","rating":4.5,"created":"2022-07-06T09:43:11-07:00","modified":"2022-07-08T16:14:01-07:00","user_modified":"2022-07-07T14:21:04-07:00","user":{"_class":"user","title":"Saul Contreras","name":"Saul","display_name":"Saul Contreras","image_50x50":"https://img-c.udemycdn.com/user/50x50/anonymous_3.png","initials":"SC","tracking_id":"FhoPyPMCQLiavTfKxFMiiw","public_display_name":"Saul C."},"response":null,"content_html":"<p>Yes. The lectures all build upon each other leading. There is a nice sequential order that makes sense and everything is clearly explained in simple examples. Perfect for any STEM student.</p>","created_formatted_with_time_since":"a month ago"},{"_class":"course_review","id":116360284,"content":"This is the best Data Science Class I have taken.  Even after going thru a course on Data Science with Python on another platform, I have learn so much more  with this class.","rating":5.0,"created":"2022-06-14T05:01:58-07:00","modified":"2022-06-17T11:03:36-07:00","user_modified":"2022-06-17T11:03:36-07:00","user":{"_class":"user","title":"Cheri Homaee","name":"Cheri","display_name":"Cheri Homaee","image_50x50":"https://img-c.udemycdn.com/user/50x50/anonymous_3.png","initials":"CH","tracking_id":"BEbH_V10RimLJDRYH6ReFA","public_display_name":"Cheri H."},"response":null,"content_html":"<p>This is the best Data Science Class I have taken.  Even after going thru a course on Data Science with Python on another platform, I have learn so much more  with this class.</p>","created_formatted_with_time_since":"2 months ago"},{"_class":"course_review","id":116078426,"content":"Great recommendation of textbook, and practice exercises to reinforce learning","rating":5.0,"created":"2022-06-10T00:22:04-07:00","modified":"2022-06-11T16:05:55-07:00","user_modified":"2022-06-10T00:22:41-07:00","user":{"_class":"user","title":"Tan Chun Yan","name":"Tan Chun Yan","display_name":"Tan Chun Yan","image_50x50":"https://img-c.udemycdn.com/user/50x50/anonymous_3.png","initials":"T","tracking_id":"uX13cS25TVaZWkxla-VMkw","public_display_name":"Tan Chun Yan"},"response":null,"content_html":"<p>Great recommendation of textbook, and practice exercises to reinforce learning</p>","created_formatted_with_time_since":"2 months ago"},{"_class":"course_review","id":122180992,"content":"Great material for both fresher and experienced.","rating":5.0,"created":"2022-08-27T01:38:54-07:00","modified":"2022-08-28T16:08:19-07:00","user_modified":"2022-08-27T01:39:25-07:00","user":{"_class":"user","title":"Raju Chowdhury","name":"Raju","display_name":"Raju Chowdhury","image_50x50":"https://img-c.udemycdn.com/user/50x50/anonymous_3.png","initials":"RC","tracking_id":"n8Fi0vKvQOuLeWjL-16D5Q","public_display_name":"Raju C."},"response":null,"content_html":"<p>Great material for both fresher and experienced.</p>","created_formatted_with_time_since":"6 days ago"},{"_class":"course_review","id":116085614,"content":"Loved it, somehow takes months although its \"only\" 18 hours of content. So fun.","rating":5.0,"created":"2022-06-10T02:12:14-07:00","modified":"2022-06-11T16:05:54-07:00","user_modified":"2022-06-10T02:13:05-07:00","user":{"_class":"user","title":"Anthony Cazares","name":"Anthony","display_name":"Anthony Cazares","image_50x50":"https://img-c.udemycdn.com/user/50x50/anonymous_3.png","initials":"AC","tracking_id":"QtBTG-rGQi2RSgB7sNO9bQ","public_display_name":"Anthony C."},"response":null,"content_html":"<p>Loved it, somehow takes months although its \"only\" 18 hours of content. So fun.</p>","created_formatted_with_time_since":"2 months ago"},{"_class":"course_review","id":115869268,"content":"It is a great course, and I loved doing the exercises and the projects!","rating":5.0,"created":"2022-06-07T12:35:21-07:00","modified":"2022-06-08T16:09:22-07:00","user_modified":"2022-06-07T12:35:46-07:00","user":{"_class":"user","title":"Besar Vatoci","name":"Besar","display_name":"Besar Vatoci","image_50x50":"https://img-c.udemycdn.com/user/50x50/anonymous_3.png","initials":"BV","tracking_id":"3uVkE7jtTeWObHdSfllHwQ","public_display_name":"Besar V."},"response":null,"content_html":"<p>It is a great course, and I loved doing the exercises and the projects!</p>","created_formatted_with_time_since":"2 months ago"}]}