{"count":10000,"next":"https://www.udemy.com/api-2.0/courses/851712/reviews/?courseId=851712&fields%5Bcourse_review%5D=%40default%2Cresponse%2Ccontent_html%2Ccreated_formatted_with_time_since&fields%5Bcourse_review_response%5D=%40min%2Cuser%2Ccontent_html%2Ccreated_formatted_with_time_since&fields%5Buser%5D=%40min%2Cimage_50x50%2Cinitials%2Cpublic_display_name%2Ctracking_id&is_text_review=1&ordering=course_review_score__rank%2C-created&page=2","previous":null,"results":[{"_class":"course_review","id":122123834,"content":"Merci Jonas, tous fonctionne à la perfection, on écoute les conseils, on suit les consignes et on comprend vraiment les rouages et le fonctionnement de Javascript, un vrai plaisir de suivre cette formation.","rating":5.0,"created":"2022-08-26T06:20:25-07:00","modified":"2022-08-27T16:09:58-07:00","user_modified":"2022-08-26T06:22:00-07:00","user":{"_class":"user","title":"MARINI Gregory","name":"MARINI","display_name":"MARINI Gregory","image_50x50":"https://img-c.udemycdn.com/user/50x50/174824638_cdde.jpg","initials":"MG","tracking_id":"FVerPVTIQkqz3-e4CMNG2w","public_display_name":"MARINI G."},"response":null,"content_html":"<p>Merci Jonas, tous fonctionne à la perfection, on écoute les conseils, on suit les consignes et on comprend vraiment les rouages et le fonctionnement de Javascript, un vrai plaisir de suivre cette formation.</p>","created_formatted_with_time_since":"a week ago"},{"_class":"course_review","id":118294826,"content":"Overall its good but I think its need an update for parcel because there are some error when build with parcel","rating":4.5,"created":"2022-07-08T07:44:03-07:00","modified":"2022-07-09T16:05:57-07:00","user_modified":"2022-07-08T07:45:22-07:00","user":{"_class":"user","title":"Ramdan Agus Saputra","name":"Ramdan Agus","display_name":"Ramdan Agus Saputra","image_50x50":"https://img-c.udemycdn.com/user/50x50/anonymous_3.png","initials":"RS","tracking_id":"dvQkRWGBT-6uj3bPd-xR8g","public_display_name":"Ramdan Agus S."},"response":null,"content_html":"<p>Overall its good but I think its need an update for parcel because there are some error when build with parcel</p>","created_formatted_with_time_since":"a month ago"},{"_class":"course_review","id":118016138,"content":"One of the best courses I've ever taken on Udemy. Jonas is incredibly knowledgeable in JavaScript and every minute of this course taught me something new. Glad I chose this course and looking forward to enrolling in more of Jonas' courses!","rating":5.0,"created":"2022-07-05T06:12:07-07:00","modified":"2022-07-06T16:06:59-07:00","user_modified":"2022-07-05T06:14:16-07:00","user":{"_class":"user","title":"Roy Chng","name":"Roy","display_name":"Roy Chng","image_50x50":"https://img-c.udemycdn.com/user/50x50/anonymous_3.png","initials":"RC","tracking_id":"TJzs0cArQseMXVY1EHGjrw","public_display_name":"Roy C."},"response":null,"content_html":"<p>One of the best courses I've ever taken on Udemy. Jonas is incredibly knowledgeable in JavaScript and every minute of this course taught me something new. Glad I chose this course and looking forward to enrolling in more of Jonas' courses!</p>","created_formatted_with_time_since":"a month ago"},{"_class":"course_review","id":115127652,"content":"Jonas explanation is easy to understand for a layman also. Thanks a ton Jonas","rating":5.0,"created":"2022-05-29T01:10:06-07:00","modified":"2022-06-02T21:09:17-07:00","user_modified":"2022-05-29T01:10:06-07:00","user":{"_class":"user","title":"Kiran Varaprasad","name":"Kiran","display_name":"Kiran Varaprasad","image_50x50":"https://img-c.udemycdn.com/user/50x50/4923110_3ae0.jpg","initials":"KV","tracking_id":"-sm_CV9NTwyt-gvSHYsmaw","public_display_name":"Kiran V."},"response":null,"content_html":"<p>Jonas explanation is easy to understand for a layman also. Thanks a ton Jonas</p>","created_formatted_with_time_since":"3 months ago"},{"_class":"course_review","id":117685560,"content":"A great course, It has taken me 6 months to complete with a full time job in tow. Just about every critical JS topic has been covered at length and it's now my turn to practice on my own and hone my skills. Jonas' teaching was superb, easy to follow and quite professional. My only gripe; I felt the last two chapters were not as fluid as all the previous ones, doable, but not as easy to follow. All in all, amazing","rating":5.0,"created":"2022-06-30T12:02:19-07:00","modified":"2022-07-01T16:13:03-07:00","user_modified":"2022-06-30T12:16:00-07:00","user":{"_class":"user","title":"Francis Wafula","name":"Francis","display_name":"Francis Wafula","image_50x50":"https://img-c.udemycdn.com/user/50x50/anonymous_3.png","initials":"FW","tracking_id":"MsBW18BVTKGDtH5TwOdHDA","public_display_name":"Francis W."},"response":null,"content_html":"<p>A great course, It has taken me 6 months to complete with a full time job in tow. Just about every critical JS topic has been covered at length and it's now my turn to practice on my own and hone my skills. Jonas' teaching was superb, easy to follow and quite professional. My only gripe; I felt the last two chapters were not as fluid as all the previous ones, doable, but not as easy to follow. All in all, amazing</p>","created_formatted_with_time_since":"2 months ago"},{"_class":"course_review","id":119503042,"content":"Great teacher, and great course. All questions are answered.\nIt's amazing how you can get so much for so little.","rating":5.0,"created":"2022-07-24T10:26:08-07:00","modified":"2022-07-26T16:27:59-07:00","user_modified":"2022-07-24T10:30:18-07:00","user":{"_class":"user","title":"Alfredo Herráez","name":"Alfredo","display_name":"Alfredo Herráez","image_50x50":"https://img-c.udemycdn.com/user/50x50/anonymous_3.png","initials":"AH","tracking_id":"bOmGL51pRR6o37G9SGFPgg","public_display_name":"Alfredo H."},"response":null,"content_html":"<p>Great teacher, and great course. All questions are answered.<br>It's amazing how you can get so much for so little.</p>","created_formatted_with_time_since":"a month ago"},{"_class":"course_review","id":121598088,"content":"This course was a real journey! It combines a perfect mix of theory, history, fundamentals, and practical application. I will have to review it soon because the amount of content is both exhaustive and exhausting. It took me about 3 months to complete the entire thing because I tried to code as much as possible on my own, pausing the videos often and trying to anticipate how Jonas was going to implement his project ideas. I succeeded a lot, failed a lot, wrecked my brain a lot, but I've learned a lot. Thank you for an outstanding experience, Jonas. Node.js, you're next!","rating":5.0,"created":"2022-08-19T19:42:26-07:00","modified":"2022-08-21T16:12:00-07:00","user_modified":"2022-08-19T20:00:19-07:00","user":{"_class":"user","title":"Alight","name":"Alight","display_name":"Alight","image_50x50":"https://img-c.udemycdn.com/user/50x50/anonymous_3.png","initials":"A","tracking_id":"TRdTG9NOQAi2gf4dQxw3dA","public_display_name":"Alight"},"response":null,"content_html":"<p>This course was a real journey! It combines a perfect mix of theory, history, fundamentals, and practical application. I will have to review it soon because the amount of content is both exhaustive and exhausting. It took me about 3 months to complete the entire thing because I tried to code as much as possible on my own, pausing the videos often and trying to anticipate how Jonas was going to implement his project ideas. I succeeded a lot, failed a lot, wrecked my brain a lot, but I've learned a lot. Thank you for an outstanding experience, Jonas. Node.js, you're next!</p>","created_formatted_with_time_since":"a week ago"},{"_class":"course_review","id":121598192,"content":"Jonas is really amazing at explaining the most basic to complex concepts of Javascript. He gives examples and teaches the lessons from examples of his experience of web development, which is really helpful. I feel like I am getting the most up to date and relevant topics of Javascript","rating":4.5,"created":"2022-08-19T19:46:43-07:00","modified":"2022-08-21T16:12:00-07:00","user_modified":"2022-08-19T19:48:07-07:00","user":{"_class":"user","title":"Jisung Kim","name":"Jisung","display_name":"Jisung Kim","image_50x50":"https://img-c.udemycdn.com/user/50x50/anonymous_3.png","initials":"JK","tracking_id":"61X4du-kThyhhwxFNlfg6g","public_display_name":"Jisung K."},"response":null,"content_html":"<p>Jonas is really amazing at explaining the most basic to complex concepts of Javascript. He gives examples and teaches the lessons from examples of his experience of web development, which is really helpful. I feel like I am getting the most up to date and relevant topics of Javascript</p>","created_formatted_with_time_since":"a week ago"},{"_class":"course_review","id":122052230,"content":"There is a lot of information in this course but it is incredibly boring, truly a mind numbing experience. Most of this course, literally hours on hours, is spent on 13-20min lectures that just include very isolated and basic examples for the topic being explained.\n\nIt is by far the worst way to learn. Max believes otherwise but sorry this is incredibly boring. There are two projects in the course but that's really it, and you more or less just follow along rather than get challenged every step of the way. \n\nI do not recommend this course for beginners. Instead, pick up a project based approach and that will definitely keep you engaged.","rating":2.0,"created":"2022-08-25T10:30:26-07:00","modified":"2022-08-26T16:09:24-07:00","user_modified":"2022-08-25T10:34:08-07:00","user":{"_class":"user","title":"Hassan D","name":"Hassan","display_name":"Hassan D","image_50x50":"https://img-c.udemycdn.com/user/50x50/anonymous_3.png","initials":"HD","tracking_id":"qNLGaGgmRxCJrf8sjJ4_zw","public_display_name":"Hassan D."},"response":null,"content_html":"<p>There is a lot of information in this course but it is incredibly boring, truly a mind numbing experience. Most of this course, literally hours on hours, is spent on 13-20min lectures that just include very isolated and basic examples for the topic being explained.</p>\n\n<p>It is by far the worst way to learn. Max believes otherwise but sorry this is incredibly boring. There are two projects in the course but that's really it, and you more or less just follow along rather than get challenged every step of the way. </p>\n\n<p>I do not recommend this course for beginners. Instead, pick up a project based approach and that will definitely keep you engaged.</p>","created_formatted_with_time_since":"a week ago"},{"_class":"course_review","id":121638064,"content":"If you want to learn JavaScript, this is the course for you. It not only gives you a deeper knowledge about the language but confidence after completing the course. Highly recommended!","rating":5.0,"created":"2022-08-20T12:58:17-07:00","modified":"2022-08-21T16:09:39-07:00","user_modified":"2022-08-20T12:59:23-07:00","user":{"_class":"user","title":"Sabrina Chan","name":"Sabrina","display_name":"Sabrina Chan","image_50x50":"https://img-c.udemycdn.com/user/50x50/anonymous_3.png","initials":"SC","tracking_id":"AdIIOeh-SaScDOhbKX1JAg","public_display_name":"Sabrina C."},"response":null,"content_html":"<p>If you want to learn JavaScript, this is the course for you. It not only gives you a deeper knowledge about the language but confidence after completing the course. Highly recommended!</p>","created_formatted_with_time_since":"a week ago"},{"_class":"course_review","id":118927456,"content":"Fantastic, in-depth course. All Jonas' courses are well worth the time and effort, highly recommended for learning modern javascript.","rating":5.0,"created":"2022-07-17T00:14:54-07:00","modified":"2022-07-18T16:08:45-07:00","user_modified":"2022-07-17T00:30:34-07:00","user":{"_class":"user","title":"Richard Norris","name":"Richard","display_name":"Richard Norris","image_50x50":"https://img-c.udemycdn.com/user/50x50/anonymous_3.png","initials":"RN","tracking_id":"-hGAUwq0Ti-VmamxxvyYFQ","public_display_name":"Richard N."},"response":null,"content_html":"<p>Fantastic, in-depth course. All Jonas' courses are well worth the time and effort, highly recommended for learning modern javascript.</p>","created_formatted_with_time_since":"a month ago"},{"_class":"course_review","id":115692834,"content":"Overall great course. I am completely new to coding and this is definitely giving me a good basis. Having said that I felt like due to the sheer size of the whole language the examples and explanations to each topic were just shown once briefly and then you are expected to memorize it just like that before moving on. \nSo a good course but you must look up and practice by your own in order to really learn everything. Still 5 Stars","rating":5.0,"created":"2022-06-05T14:12:52-07:00","modified":"2022-06-06T16:12:50-07:00","user_modified":"2022-06-05T14:19:35-07:00","user":{"_class":"user","title":"Gero Walther","name":"Gero","display_name":"Gero Walther","image_50x50":"https://img-c.udemycdn.com/user/50x50/anonymous_3.png","initials":"GW","tracking_id":"a7e8j99jT-6PEvu5qSNgKw","public_display_name":"Gero W."},"response":null,"content_html":"<p>Overall great course. I am completely new to coding and this is definitely giving me a good basis. Having said that I felt like due to the sheer size of the whole language the examples and explanations to each topic were just shown once briefly and then you are expected to memorize it just like that before moving on. <br>So a good course but you must look up and practice by your own in order to really learn everything. Still 5 Stars</p>","created_formatted_with_time_since":"2 months ago"}]}