{"count":1744,"next":"https://www.udemy.com/api-2.0/courses/860148/reviews/?courseId=860148&fields%5Bcourse_review%5D=%40default%2Cresponse%2Ccontent_html%2Ccreated_formatted_with_time_since&fields%5Bcourse_review_response%5D=%40min%2Cuser%2Ccontent_html%2Ccreated_formatted_with_time_since&fields%5Buser%5D=%40min%2Cimage_50x50%2Cinitials%2Cpublic_display_name%2Ctracking_id&is_text_review=1&ordering=course_review_score__rank%2C-created&page=2","previous":null,"results":[{"_class":"course_review","id":122218692,"content":"Excellent, outstanding presentation and simplification of some complex concepts and essential core skills.","rating":5.0,"created":"2022-08-27T14:56:04-07:00","modified":"2022-08-28T16:08:30-07:00","user_modified":"2022-08-27T14:57:29-07:00","user":{"_class":"user","title":"Daniel Wickins","name":"Daniel","display_name":"Daniel Wickins","image_50x50":"https://img-c.udemycdn.com/user/50x50/anonymous_3.png","initials":"DW","tracking_id":"GgRO2k-uQfGA0tb2KsTwUw","public_display_name":"Daniel W."},"response":null,"content_html":"<p>Excellent, outstanding presentation and simplification of some complex concepts and essential core skills.</p>","created_formatted_with_time_since":"6 days ago"},{"_class":"course_review","id":120724402,"content":"This was a second tremendous course in R Programming that I have taken from KIrill Eremenko.  I can't state enough about what I have learned in these well-structured and thoroughly instructed courses.\nHis presentation and explanations as one moves along through the sections is amazing!\n\nI wish that I could say the same for Udemy's lack of appropriately useful responses or follow-up relative to obtaining any Certificates of Completion!","rating":5.0,"created":"2022-08-08T15:00:27-07:00","modified":"2022-08-09T16:14:24-07:00","user_modified":"2022-08-08T15:14:58-07:00","user":{"_class":"user","title":"Richard J Bloch","name":"Richard J","display_name":"Richard J Bloch","image_50x50":"https://img-c.udemycdn.com/user/50x50/anonymous_3.png","initials":"RB","tracking_id":"91LiJGAsSqyhPxqF-BZyew","public_display_name":"Richard J B."},"response":null,"content_html":"<p>This was a second tremendous course in R Programming that I have taken from KIrill Eremenko.  I can't state enough about what I have learned in these well-structured and thoroughly instructed courses.<br>His presentation and explanations as one moves along through the sections is amazing!</p>\n\n<p>I wish that I could say the same for Udemy's lack of appropriately useful responses or follow-up relative to obtaining any Certificates of Completion!</p>","created_formatted_with_time_since":"3 weeks ago"},{"_class":"course_review","id":120430140,"content":"Good teacher explained clearly and well, some teachings are slightly outdated but still interesting. Not THAT advanced but still good ! would recommend","rating":4.0,"created":"2022-08-04T09:15:09-07:00","modified":"2022-08-05T16:09:57-07:00","user_modified":"2022-08-04T09:16:25-07:00","user":{"_class":"user","title":"Lucas Olarreaga","name":"Lucas","display_name":"Lucas Olarreaga","image_50x50":"https://img-c.udemycdn.com/user/50x50/anonymous_3.png","initials":"LO","tracking_id":"tgvQLLysTTiSDpjZ16Mxtg","public_display_name":"Lucas O."},"response":null,"content_html":"<p>Good teacher explained clearly and well, some teachings are slightly outdated but still interesting. Not THAT advanced but still good ! would recommend</p>","created_formatted_with_time_since":"4 weeks ago"},{"_class":"course_review","id":119712958,"content":"One of the best course I had on udemy, it really help me understand those techniques from a fundamental level, that's very important for me to further utilize the techniques on my own. Thank you, I appreciate your effort!","rating":5.0,"created":"2022-07-26T19:37:46-07:00","modified":"2022-07-27T16:18:02-07:00","user_modified":"2022-07-26T19:41:30-07:00","user":{"_class":"user","title":"POYI LEE","name":"POYI","display_name":"POYI LEE","image_50x50":"https://img-c.udemycdn.com/user/50x50/anonymous_3.png","initials":"PL","tracking_id":"4VucXyTkTdO4qy1DJzVF-w","public_display_name":"POYI L."},"response":null,"content_html":"<p>One of the best course I had on udemy, it really help me understand those techniques from a fundamental level, that's very important for me to further utilize the techniques on my own. Thank you, I appreciate your effort!</p>","created_formatted_with_time_since":"a month ago"},{"_class":"course_review","id":120361848,"content":"Amazing course, it touches base literally with every component of R. But what I feel is if there has been a mini project at the end combining all the elements taught, it would have been a fun experience.","rating":5.0,"created":"2022-08-03T14:46:50-07:00","modified":"2022-08-05T16:08:05-07:00","user_modified":"2022-08-03T14:48:17-07:00","user":{"_class":"user","title":"Sonaxy Mohanty","name":"Sonaxy","display_name":"Sonaxy Mohanty","image_50x50":"https://img-c.udemycdn.com/user/50x50/anonymous_3.png","initials":"SM","tracking_id":"C_EN7B1hRay4KraMqF187g","public_display_name":"Sonaxy M."},"response":null,"content_html":"<p>Amazing course, it touches base literally with every component of R. But what I feel is if there has been a mini project at the end combining all the elements taught, it would have been a fun experience.</p>","created_formatted_with_time_since":"a month ago"},{"_class":"course_review","id":119174042,"content":"The good: I did learn a few things, BUT I'm a relative beginner with R, so I should have found this much more challenging. \n\nBad: for an 'advanced' course, he took the slow way vs a more 'advanced' way on several lessons, such as importing all the CSV files in S4 manually, versus using lapply, dropping the ending and renaming the list with the file name. \nU3 32: should have mentioned converting time zones. \n\nS4: the dot operator is an 'advanced' way to refer to a directory? Seriously?\nHe makes reference to 'going to fast' a lot, when he doesn't. \n\nDo I have regrets? No. I learned a few things, but I'm pretty new to R. \nRename this \"intermediate\" or advanced beginner.","rating":3.5,"created":"2022-07-19T22:12:11-07:00","modified":"2022-07-22T16:07:40-07:00","user_modified":"2022-07-19T22:20:53-07:00","user":{"_class":"user","title":"Georg","name":"Georg","display_name":"Georg","image_50x50":"https://img-c.udemycdn.com/user/50x50/anonymous_3.png","initials":"G","tracking_id":"W_W9xQN6Qw-1CyJqf3Vg2w","public_display_name":"Georg"},"response":null,"content_html":"<p>The good: I did learn a few things, BUT I'm a relative beginner with R, so I should have found this much more challenging. </p>\n\n<p>Bad: for an 'advanced' course, he took the slow way vs a more 'advanced' way on several lessons, such as importing all the CSV files in S4 manually, versus using lapply, dropping the ending and renaming the list with the file name. <br>U3 32: should have mentioned converting time zones. </p>\n\n<p>S4: the dot operator is an 'advanced' way to refer to a directory? Seriously?<br>He makes reference to 'going to fast' a lot, when he doesn't. </p>\n\n<p>Do I have regrets? No. I learned a few things, but I'm pretty new to R. <br>Rename this \"intermediate\" or advanced beginner.</p>","created_formatted_with_time_since":"a month ago"},{"_class":"course_review","id":121158988,"content":"It was amazing learning this advanced course in R, especially getting to understand the apply() family pretty well.\nThank you very much, Sir. I had lots of confusion that you managed to clear all.\nSo much appreciated, until next time :)","rating":4.5,"created":"2022-08-14T13:04:53-07:00","modified":"2022-08-15T16:10:14-07:00","user_modified":"2022-08-14T13:07:33-07:00","user":{"_class":"user","title":"Delil Jerry","name":"Delil","display_name":"Delil Jerry","image_50x50":"https://img-c.udemycdn.com/user/50x50/anonymous_3.png","initials":"DJ","tracking_id":"yzSWfrN_RMqWn1IewOqwNQ","public_display_name":"Delil J."},"response":null,"content_html":"<p>It was amazing learning this advanced course in R, especially getting to understand the apply() family pretty well.<br>Thank you very much, Sir. I had lots of confusion that you managed to clear all.<br>So much appreciated, until next time :)</p>","created_formatted_with_time_since":"2 weeks ago"},{"_class":"course_review","id":120729134,"content":"First let me say this: the things that are contained within this course are done well. He builds upon the knowledge gained from his beginner's R course in a good manner, and everything was presented in an easy to understand fashion just like his other courses.\n\nBut this course had no actual CODING. There were no end-of-section challenges (essentially homework problems) the way his beginner's R course did. If you're already an experienced coder? Okay, you may not need such exercises. But for those of us taking this course as a sequel to his beginner's R programming course, the lack of actual coding is a critical flaw.\n\nFor a newer programmer one of the best ways to learn and gain experience is to actually CODE. His beginner's course had challenges at the end of each section where you had to try to take everything you had learned and put it all together into a real, personally coded solution. Such things are very much missing in this course. It's a bare-bones information course with no actual coding.\n\nIf this course had optional homework / challenges that we can attempt ourselves along with posted solutions when we run into problems, then this course would be an easy 5/5 (and no, the two short and cursory ones near the end are not enough to count). Without that hands-on experience to help solidify my growing skills, I just can't give this course the high rating it would otherwise deserve.  Anyone coming from Kirill's beginner's course deserves more than what we got here. This course was just a Cliff's Notes reading.","rating":3.0,"created":"2022-08-08T16:52:31-07:00","modified":"2022-08-09T16:14:24-07:00","user_modified":"2022-08-08T17:16:24-07:00","user":{"_class":"user","title":"Elwin Bassett","name":"Elwin","display_name":"Elwin Bassett","image_50x50":"https://img-c.udemycdn.com/user/50x50/anonymous_3.png","initials":"EB","tracking_id":"UPYhuJBsSvihDma7r1LWvw","public_display_name":"Elwin B."},"response":null,"content_html":"<p>First let me say this: the things that are contained within this course are done well. He builds upon the knowledge gained from his beginner's R course in a good manner, and everything was presented in an easy to understand fashion just like his other courses.</p>\n\n<p>But this course had no actual CODING. There were no end-of-section challenges (essentially homework problems) the way his beginner's R course did. If you're already an experienced coder? Okay, you may not need such exercises. But for those of us taking this course as a sequel to his beginner's R programming course, the lack of actual coding is a critical flaw.</p>\n\n<p>For a newer programmer one of the best ways to learn and gain experience is to actually CODE. His beginner's course had challenges at the end of each section where you had to try to take everything you had learned and put it all together into a real, personally coded solution. Such things are very much missing in this course. It's a bare-bones information course with no actual coding.</p>\n\n<p>If this course had optional homework / challenges that we can attempt ourselves along with posted solutions when we run into problems, then this course would be an easy 5/5 (and no, the two short and cursory ones near the end are not enough to count). Without that hands-on experience to help solidify my growing skills, I just can't give this course the high rating it would otherwise deserve.  Anyone coming from Kirill's beginner's course deserves more than what we got here. This course was just a Cliff's Notes reading.</p>","created_formatted_with_time_since":"3 weeks ago"},{"_class":"course_review","id":117869836,"content":"Great course, my 2nd one with Kiril and again I'm very happy. Now, what remains to be seen is how advanced this \"advanced\" course actually is... :)","rating":5.0,"created":"2022-07-03T12:07:17-07:00","modified":"2022-07-05T16:07:10-07:00","user_modified":"2022-07-03T12:07:51-07:00","user":{"_class":"user","title":"Gallez","name":"Gallez","display_name":"Gallez","image_50x50":"https://img-c.udemycdn.com/user/50x50/anonymous_3.png","initials":"G","tracking_id":"dRGXtE8WQfyQycrdN3pyAg","public_display_name":"Gallez"},"response":null,"content_html":"<p>Great course, my 2nd one with Kiril and again I'm very happy. Now, what remains to be seen is how advanced this \"advanced\" course actually is... :)</p>","created_formatted_with_time_since":"2 months ago"},{"_class":"course_review","id":117504290,"content":"I did the R programming A to Z and once again, the content was greatly presented. The material was taught in an easy to grasp way. I know that the course does not include any practice exercise, but I wish it did, in order to practice those advanced skills","rating":4.5,"created":"2022-06-28T17:47:37-07:00","modified":"2022-06-29T16:10:52-07:00","user_modified":"2022-06-28T17:49:54-07:00","user":{"_class":"user","title":"Keanu Rochette-Yu Tsuen","name":"Keanu Rochette-Yu","display_name":"Keanu Rochette-Yu Tsuen","image_50x50":"https://img-c.udemycdn.com/user/50x50/anonymous_3.png","initials":"KT","tracking_id":"la6Dt-e1TZui9NNAPD7TaQ","public_display_name":"Keanu Rochette-Yu T."},"response":null,"content_html":"<p>I did the R programming A to Z and once again, the content was greatly presented. The material was taught in an easy to grasp way. I know that the course does not include any practice exercise, but I wish it did, in order to practice those advanced skills</p>","created_formatted_with_time_since":"2 months ago"},{"_class":"course_review","id":120547284,"content":"The topics covered are truly useful and explained in the brilliant manner, easy to follow and to the point. \n\nI missed having the Homework part that were present in your other course (R programming A-Z) which I believed really helped to reinforce the knowledge of each section. In my opinion, that was the only thing I missed to give the 5/5","rating":4.0,"created":"2022-08-05T22:08:11-07:00","modified":"2022-08-06T16:06:41-07:00","user_modified":"2022-08-05T22:11:44-07:00","user":{"_class":"user","title":"Alvaro Diaz Soria","name":"Alvaro","display_name":"Alvaro Diaz Soria","image_50x50":"https://img-c.udemycdn.com/user/50x50/anonymous_3.png","initials":"AD","tracking_id":"3vQd2W88R5Od9ZCuTva1KQ","public_display_name":"Alvaro D."},"response":null,"content_html":"<p>The topics covered are truly useful and explained in the brilliant manner, easy to follow and to the point. </p>\n\n<p>I missed having the Homework part that were present in your other course (R programming A-Z) which I believed really helped to reinforce the knowledge of each section. In my opinion, that was the only thing I missed to give the 5/5</p>","created_formatted_with_time_since":"3 weeks ago"},{"_class":"course_review","id":112170916,"content":"Very good as usual. I like the approach of learning by doing exercises that are relevant to the real world. The course design is logical and step-by-step so that it needs an incremental effort to put in. What I hope to improve is the update to the current R version as some of the real output is not per the video. In addition, I'd love Kirill to explain a little bit more about the big-picture concept such as why we should use the list in R, as opposed to normal data frame, the way some syntax is organized, for instance - lapply(Weather, \"[\", 1, 7) - why the \"[\".","rating":4.0,"created":"2022-04-19T08:06:28-07:00","modified":"2022-04-20T16:10:41-07:00","user_modified":"2022-04-19T08:14:45-07:00","user":{"_class":"user","title":"Monson Marukatat","name":"Monson","display_name":"Monson Marukatat","image_50x50":"https://img-c.udemycdn.com/user/50x50/anonymous_3.png","initials":"MM","tracking_id":"iAt2KCAgSGi3WQjPbhjn7g","public_display_name":"Monson M."},"response":null,"content_html":"<p>Very good as usual. I like the approach of learning by doing exercises that are relevant to the real world. The course design is logical and step-by-step so that it needs an incremental effort to put in. What I hope to improve is the update to the current R version as some of the real output is not per the video. In addition, I'd love Kirill to explain a little bit more about the big-picture concept such as why we should use the list in R, as opposed to normal data frame, the way some syntax is organized, for instance - lapply(Weather, \"[\", 1, 7) - why the \"[\".</p>","created_formatted_with_time_since":"4 months ago"}]}