{"count":1022,"next":"https://www.udemy.com/api-2.0/courses/860812/reviews/?courseId=860812&fields%5Bcourse_review%5D=%40default%2Cresponse%2Ccontent_html%2Ccreated_formatted_with_time_since&fields%5Bcourse_review_response%5D=%40min%2Cuser%2Ccontent_html%2Ccreated_formatted_with_time_since&fields%5Buser%5D=%40min%2Cimage_50x50%2Cinitials%2Cpublic_display_name%2Ctracking_id&is_text_review=1&ordering=course_review_score__rank%2C-created&page=2","previous":null,"results":[{"_class":"course_review","id":120603376,"content":"Thank you for making this lesson much easier for beginners","rating":5.0,"created":"2022-08-07T01:38:02-07:00","modified":"2022-08-08T16:04:01-07:00","user_modified":"2022-08-07T01:38:19-07:00","user":{"_class":"user","title":"Cherry Rose Landiza","name":"Cherry Rose","display_name":"Cherry Rose Landiza","image_50x50":"https://img-c.udemycdn.com/user/50x50/anonymous_3.png","initials":"CL","tracking_id":"tWFOA63QSz6YhrssH9A04g","public_display_name":"Cherry Rose L."},"response":null,"content_html":"<p>Thank you for making this lesson much easier for beginners</p>","created_formatted_with_time_since":"3 weeks ago"},{"_class":"course_review","id":119116710,"content":"Very good for beginners.","rating":4.5,"created":"2022-07-19T06:46:51-07:00","modified":"2022-07-22T16:16:49-07:00","user_modified":"2022-07-19T06:47:07-07:00","user":{"_class":"user","title":"Radu Banas","name":"Radu","display_name":"Radu Banas","image_50x50":"https://img-c.udemycdn.com/user/50x50/anonymous_3.png","initials":"RB","tracking_id":"G9csI92sQs2b1DRW8i1jEQ","public_display_name":"Radu B."},"response":null,"content_html":"<p>Very good for beginners.</p>","created_formatted_with_time_since":"a month ago"},{"_class":"course_review","id":116382694,"content":"In the course you first get thought something basic, then something slightly more difficult, and after that something difficult, so it is very hard to follow along. \n\nIn the course, one is required to use if/else prior to being though the subject, and it is the same with math.round. \n\nIt do also have a fair amount of errors, so one might not get the right results even if the code is 100% like the authors. \n\nThis course would need twice as much data and I ended up choosing a course with a higher rating here on Udemy instead and I only wish I would not have wasted so much time on this course. \n\nI often times felt stupid while doing this course, but eventually found out I just needed to change instructor.","rating":2.0,"created":"2022-06-14T09:30:50-07:00","modified":"2022-06-16T16:08:08-07:00","user_modified":"2022-06-14T09:35:01-07:00","user":{"_class":"user","title":"Felix Westphal","name":"Felix","display_name":"Felix Westphal","image_50x50":"https://img-c.udemycdn.com/user/50x50/anonymous_3.png","initials":"FW","tracking_id":"n7sAmP2DTVSW3wH_TNv0MQ","public_display_name":"Felix W."},"response":null,"content_html":"<p>In the course you first get thought something basic, then something slightly more difficult, and after that something difficult, so it is very hard to follow along. </p>\n\n<p>In the course, one is required to use if/else prior to being though the subject, and it is the same with math.round. </p>\n\n<p>It do also have a fair amount of errors, so one might not get the right results even if the code is 100% like the authors. </p>\n\n<p>This course would need twice as much data and I ended up choosing a course with a higher rating here on Udemy instead and I only wish I would not have wasted so much time on this course. </p>\n\n<p>I often times felt stupid while doing this course, but eventually found out I just needed to change instructor.</p>","created_formatted_with_time_since":"2 months ago"},{"_class":"course_review","id":116042764,"content":"Excellent explain","rating":5.0,"created":"2022-06-09T11:37:05-07:00","modified":"2022-06-24T14:06:18-07:00","user_modified":"2022-06-24T14:06:18-07:00","user":{"_class":"user","title":"Israel Rincon","name":"Israel","display_name":"Israel Rincon","image_50x50":"https://img-c.udemycdn.com/user/50x50/anonymous_3.png","initials":"IR","tracking_id":"ABuUc3rHSIWb78kXL6JdCA","public_display_name":"Israel R."},"response":null,"content_html":"<p>Excellent explain</p>","created_formatted_with_time_since":"2 months ago"},{"_class":"course_review","id":113478156,"content":"I am really understanding all the syntax and usage of this language.","rating":5.0,"created":"2022-05-07T13:34:08-07:00","modified":"2022-05-08T16:07:18-07:00","user_modified":"2022-05-07T13:34:55-07:00","user":{"_class":"user","title":"Kaigh Taylor","name":"Kaigh","display_name":"Kaigh Taylor","image_50x50":"https://img-c.udemycdn.com/user/50x50/anonymous_3.png","initials":"KT","tracking_id":"J9ebKT6tSySprRY2Qq_zfw","public_display_name":"Kaigh T."},"response":null,"content_html":"<p>I am really understanding all the syntax and usage of this language.</p>","created_formatted_with_time_since":"3 months ago"},{"_class":"course_review","id":102212688,"content":"I think this course has all the content it needs to cover the basics and some advanced techniques in JavaScript. My only issue with this course is that it is way too long. It offers way too much content and too many project that I thought it would be better if it were split into multiple shorter courses.","rating":4.0,"created":"2021-12-09T17:05:34-08:00","modified":"2021-12-10T15:06:07-08:00","user_modified":"2021-12-09T17:08:12-08:00","user":{"_class":"user","title":"Victor Negron","name":"Victor","display_name":"Victor Negron","image_50x50":"https://img-c.udemycdn.com/user/50x50/anonymous_3.png","initials":"VN","tracking_id":"M2DDX4PxRFuyiOdoBYt39w","public_display_name":"Victor N."},"response":null,"content_html":"<p>I think this course has all the content it needs to cover the basics and some advanced techniques in JavaScript. My only issue with this course is that it is way too long. It offers way too much content and too many project that I thought it would be better if it were split into multiple shorter courses.</p>","created_formatted_with_time_since":"8 months ago"},{"_class":"course_review","id":120524170,"content":"the course starts off strong, and it does an ok job once it gets into website development, but it drops off pretty sharp after that. the svelt stuff I feel should be its own course.","rating":3.5,"created":"2022-08-05T11:32:46-07:00","modified":"2022-08-26T09:44:16-07:00","user_modified":"2022-08-26T09:44:16-07:00","user":{"_class":"user","title":"Jonathan Tigner","name":"Jonathan","display_name":"Jonathan Tigner","image_50x50":"https://img-c.udemycdn.com/user/50x50/anonymous_3.png","initials":"JT","tracking_id":"ZJ4Hsn5QT0WlnHg5ONM7Hg","public_display_name":"Jonathan T."},"response":null,"content_html":"<p>the course starts off strong, and it does an ok job once it gets into website development, but it drops off pretty sharp after that. the svelt stuff I feel should be its own course.</p>","created_formatted_with_time_since":"4 weeks ago"},{"_class":"course_review","id":109235690,"content":"says 2022 but uses old tech and needs a serious update.","rating":2.0,"created":"2022-03-09T09:50:43-08:00","modified":"2022-03-10T15:07:19-08:00","user_modified":"2022-03-09T09:51:05-08:00","user":{"_class":"user","title":"David Tesno","name":"David","display_name":"David Tesno","image_50x50":"https://img-c.udemycdn.com/user/50x50/anonymous_3.png","initials":"DT","tracking_id":"yy-7gnZvT0ucudDCDJu2RA","public_display_name":"David T."},"response":null,"content_html":"<p>says 2022 but uses old tech and needs a serious update.</p>","created_formatted_with_time_since":"5 months ago"},{"_class":"course_review","id":104068874,"content":"info not provided on what if it doesn't work","rating":3.5,"created":"2022-01-04T11:24:40-08:00","modified":"2022-01-07T12:27:09-08:00","user_modified":"2022-01-07T12:27:09-08:00","user":{"_class":"user","title":"Tasha Cervantes","name":"Tasha","display_name":"Tasha Cervantes","image_50x50":"https://img-c.udemycdn.com/user/50x50/anonymous_3.png","initials":"TC","tracking_id":"PNcWrPxRR861G9kAYRvyiw","public_display_name":"Tasha C."},"response":null,"content_html":"<p>info not provided on what if it doesn't work</p>","created_formatted_with_time_since":"8 months ago"},{"_class":"course_review","id":114687350,"content":"Fue muy buena elección pero siento que se pudieron haber tomado un poco de más tiempo explicando las variables.","rating":4.0,"created":"2022-05-23T16:23:43-07:00","modified":"2022-05-24T16:07:51-07:00","user_modified":"2022-05-23T16:24:12-07:00","user":{"_class":"user","title":"Pedro de la Fuente","name":"Pedro","display_name":"Pedro de la Fuente","image_50x50":"https://img-c.udemycdn.com/user/50x50/anonymous_3.png","initials":"PD","tracking_id":"T8iwdLAHTyarwg6ViwQhrA","public_display_name":"Pedro D."},"response":null,"content_html":"<p>Fue muy buena elección pero siento que se pudieron haber tomado un poco de más tiempo explicando las variables.</p>","created_formatted_with_time_since":"3 months ago"},{"_class":"course_review","id":109387166,"content":"Very detailed, but not overwhelmingly slow. I have taken other JavaScript courses before and they were either too fast for me or way too slow. This course is a happy medium! Great for beginners, but also good for developers who aren't used to working with JavaScript and need a refresher!","rating":4.0,"created":"2022-03-11T07:23:04-08:00","modified":"2022-03-12T15:03:34-08:00","user_modified":"2022-03-11T07:24:55-08:00","user":{"_class":"user","title":"Talia Johnson-Watkins","name":"Talia","display_name":"Talia Johnson-Watkins","image_50x50":"https://img-c.udemycdn.com/user/50x50/anonymous_3.png","initials":"TJ","tracking_id":"HQE1zZgmRHaVjD1li2st9A","public_display_name":"Talia J."},"response":null,"content_html":"<p>Very detailed, but not overwhelmingly slow. I have taken other JavaScript courses before and they were either too fast for me or way too slow. This course is a happy medium! Great for beginners, but also good for developers who aren't used to working with JavaScript and need a refresher!</p>","created_formatted_with_time_since":"5 months ago"},{"_class":"course_review","id":117545856,"content":"Excellent and friendly teacher that speaks clearly – truly a joy to learn from, and a great course so far :)","rating":5.0,"created":"2022-06-29T04:38:35-07:00","modified":"2022-06-30T16:07:55-07:00","user_modified":"2022-06-29T04:40:26-07:00","user":{"_class":"user","title":"Thomas Boelskifte","name":"Thomas","display_name":"Thomas Boelskifte","image_50x50":"https://img-c.udemycdn.com/user/50x50/anonymous_3.png","initials":"TB","tracking_id":"o3tVqkBjTsK2l9RD7OVaXA","public_display_name":"Thomas B."},"response":null,"content_html":"<p>Excellent and friendly teacher that speaks clearly – truly a joy to learn from, and a great course so far :)</p>","created_formatted_with_time_since":"2 months ago"}]}