{"count":2210,"next":"https://www.udemy.com/api-2.0/courses/861624/reviews/?courseId=861624&fields%5Bcourse_review%5D=%40default%2Cresponse%2Ccontent_html%2Ccreated_formatted_with_time_since&fields%5Bcourse_review_response%5D=%40min%2Cuser%2Ccontent_html%2Ccreated_formatted_with_time_since&fields%5Buser%5D=%40min%2Cimage_50x50%2Cinitials%2Cpublic_display_name%2Ctracking_id&is_text_review=1&ordering=course_review_score__rank%2C-created&page=2","previous":null,"results":[{"_class":"course_review","id":121442370,"content":"Gives a good segway into getting the groundwork for ES6 Javascript, which can be pretty quirky! I enjoyed taking this course and learnt a ton of stuff!","rating":4.0,"created":"2022-08-17T21:08:07-07:00","modified":"2022-08-18T16:07:00-07:00","user_modified":"2022-08-17T21:09:42-07:00","user":{"_class":"user","title":"Taimoor Javed","name":"Taimoor","display_name":"Taimoor Javed","image_50x50":"https://img-b.udemycdn.com/user/50x50/anonymous_3.png","initials":"TJ","tracking_id":"MmVD18RVTp6h9mLisgdakQ","public_display_name":"Taimoor J."},"response":null,"content_html":"<p>Gives a good segway into getting the groundwork for ES6 Javascript, which can be pretty quirky! I enjoyed taking this course and learnt a ton of stuff!</p>","created_formatted_with_time_since":"2 weeks ago"},{"_class":"course_review","id":121321486,"content":"Very detailed and easy to understand, although the order of some sections seemed like it could be better.","rating":4.5,"created":"2022-08-16T11:39:07-07:00","modified":"2022-08-18T16:08:09-07:00","user_modified":"2022-08-16T11:39:42-07:00","user":{"_class":"user","title":"","name":"","display_name":"Tanner Hart","image_50x50":"https://img-b.udemycdn.com/user/50x50/anonymous_3.png","initials":"","tracking_id":"gNRRw8QHT5GulNqBCq_F3w","public_display_name":"Udemy User"},"response":null,"content_html":"<p>Very detailed and easy to understand, although the order of some sections seemed like it could be better.</p>","created_formatted_with_time_since":"2 weeks ago"},{"_class":"course_review","id":121220050,"content":"The way Stephen builds up context, bringing in the concepts and writing code immediately for explanation on what was written means and then showing their practical use cases, makes for a great pedagogical method, which is rare seen in other instructors lectures.\nThis course practically leaves no stone unturned on ES6 new features, and I absolutely recommend it.","rating":5.0,"created":"2022-08-15T09:44:18-07:00","modified":"2022-08-16T16:06:16-07:00","user_modified":"2022-08-15T09:54:26-07:00","user":{"_class":"user","title":"Antonio Carlos Roque","name":"Antonio Carlos","display_name":"Antonio Carlos Roque","image_50x50":"https://img-b.udemycdn.com/user/50x50/anonymous_3.png","initials":"AR","tracking_id":"xvDHmgPXTCGAl9UnBcSSdw","public_display_name":"Antonio Carlos R."},"response":null,"content_html":"<p>The way Stephen builds up context, bringing in the concepts and writing code immediately for explanation on what was written means and then showing their practical use cases, makes for a great pedagogical method, which is rare seen in other instructors lectures.<br>This course practically leaves no stone unturned on ES6 new features, and I absolutely recommend it.</p>","created_formatted_with_time_since":"2 weeks ago"},{"_class":"course_review","id":120028984,"content":"Well-structured exercises that are pretty challenging and force you to think about the problem and its solution.","rating":5.0,"created":"2022-07-30T14:42:16-07:00","modified":"2022-07-31T16:05:22-07:00","user_modified":"2022-07-30T14:43:35-07:00","user":{"_class":"user","title":"Nikola Pavicevic","name":"Nikola","display_name":"Nikola Pavicevic","image_50x50":"https://img-b.udemycdn.com/user/50x50/anonymous_3.png","initials":"NP","tracking_id":"d-rbbkkyRNij8XEYrnbgiA","public_display_name":"Nikola P."},"response":null,"content_html":"<p>Well-structured exercises that are pretty challenging and force you to think about the problem and its solution.</p>","created_formatted_with_time_since":"a month ago"},{"_class":"course_review","id":119158182,"content":"This course was definitely a good match for me - especially since I am not completely new to this, but still a novice programmer with a new big break into a job, and now I have a lot of gaps to fill I was not initially aware of. This course was really helpful for me since it also did not attempt to teach me things that were completely above my head. It was just right. Thanks Stephen!","rating":5.0,"created":"2022-07-19T15:55:09-07:00","modified":"2022-07-22T16:07:41-07:00","user_modified":"2022-07-19T16:02:42-07:00","user":{"_class":"user","title":"Curtis Morris","name":"Curtis","display_name":"Curtis Morris","image_50x50":"https://img-b.udemycdn.com/user/50x50/anonymous_3.png","initials":"CM","tracking_id":"00TjGeX1SV6bAlGbiZZAaQ","public_display_name":"Curtis M."},"response":null,"content_html":"<p>This course was definitely a good match for me - especially since I am not completely new to this, but still a novice programmer with a new big break into a job, and now I have a lot of gaps to fill I was not initially aware of. This course was really helpful for me since it also did not attempt to teach me things that were completely above my head. It was just right. Thanks Stephen!</p>","created_formatted_with_time_since":"a month ago"},{"_class":"course_review","id":115116696,"content":"The course was great, it helped to fill gaps in my knowledge of ES6's features and syntax. I look forward to learning more from Stephen in the future.","rating":4.5,"created":"2022-05-28T19:07:20-07:00","modified":"2022-05-29T16:04:48-07:00","user_modified":"2022-05-28T19:14:31-07:00","user":{"_class":"user","title":"Jamal Jones","name":"Jamal","display_name":"Jamal Jones","image_50x50":"https://img-b.udemycdn.com/user/50x50/anonymous_3.png","initials":"JJ","tracking_id":"DjQGBGhuTVmCJ5DiXDEtxQ","public_display_name":"Jamal J."},"response":null,"content_html":"<p>The course was great, it helped to fill gaps in my knowledge of ES6's features and syntax. I look forward to learning more from Stephen in the future.</p>","created_formatted_with_time_since":"3 months ago"},{"_class":"course_review","id":112924826,"content":"Stephen has extensive knowledge of the material covered in this course and is able to convey it in a very straightforward way that even a newbie like me could follow easily.  Great job!!","rating":5.0,"created":"2022-04-29T09:36:30-07:00","modified":"2022-04-30T16:06:08-07:00","user_modified":"2022-04-29T09:38:31-07:00","user":{"_class":"user","title":"Stephen H Oswald","name":"Stephen H","display_name":"Stephen H Oswald","image_50x50":"https://img-b.udemycdn.com/user/50x50/anonymous_3.png","initials":"SO","tracking_id":"ZBTURL2_TcazrmTcvP5WQw","public_display_name":"Stephen H O."},"response":null,"content_html":"<p>Stephen has extensive knowledge of the material covered in this course and is able to convey it in a very straightforward way that even a newbie like me could follow easily.  Great job!!</p>","created_formatted_with_time_since":"4 months ago"},{"_class":"course_review","id":117867570,"content":"It's a great experience learning from this course. The topics are very clear. Thank you!!!!!!","rating":5.0,"created":"2022-07-03T11:13:10-07:00","modified":"2022-07-05T16:07:10-07:00","user_modified":"2022-07-03T11:14:49-07:00","user":{"_class":"user","title":"Supriya Sudini","name":"Supriya","display_name":"Supriya Sudini","image_50x50":"https://img-b.udemycdn.com/user/50x50/anonymous_3.png","initials":"SS","tracking_id":"JgajKN9pRBijwt4LYmeGuw","public_display_name":"Supriya S."},"response":null,"content_html":"<p>It's a great experience learning from this course. The topics are very clear. Thank you!!!!!!</p>","created_formatted_with_time_since":"2 months ago"},{"_class":"course_review","id":119187152,"content":"It's a amusing course. This guy is assume. He explain every topic and also so the real life example","rating":5.0,"created":"2022-07-20T01:24:05-07:00","modified":"2022-07-22T16:17:07-07:00","user_modified":"2022-07-20T01:25:08-07:00","user":{"_class":"user","title":"Md. Mahabur Rahman Nadim","name":"Md. Mahabur Rahman","display_name":"Md. Mahabur Rahman Nadim","image_50x50":"https://img-b.udemycdn.com/user/50x50/anonymous_3.png","initials":"MN","tracking_id":"xQZUizJTR9Woa5YA3L-dvA","public_display_name":"Md. Mahabur Rahman N."},"response":null,"content_html":"<p>It's a amusing course. This guy is assume. He explain every topic and also so the real life example</p>","created_formatted_with_time_since":"a month ago"},{"_class":"course_review","id":110522790,"content":"Stephen Grider is an excellent teacher! I appreciate that he breaks down the often quite abstract concepts (I'm a coding newbie) into comprehensible chunks and code snippets.  The exercises were well-chosen and manageable; it would have been nice to have additional videos explaining possible solutions, though. Thanks to the fellow coders here for chipping in with solutions and / or explanations.","rating":5.0,"created":"2022-03-27T06:31:21-07:00","modified":"2022-03-28T15:01:10-07:00","user_modified":"2022-03-27T06:40:48-07:00","user":{"_class":"user","title":"Anja Petry","name":"Anja","display_name":"Anja Petry","image_50x50":"https://img-b.udemycdn.com/user/50x50/180890010_8db2.jpg","initials":"AP","tracking_id":"0E71zVsaTFmC6-_I3sLEWg","public_display_name":"Anja P."},"response":null,"content_html":"<p>Stephen Grider is an excellent teacher! I appreciate that he breaks down the often quite abstract concepts (I'm a coding newbie) into comprehensible chunks and code snippets.  The exercises were well-chosen and manageable; it would have been nice to have additional videos explaining possible solutions, though. Thanks to the fellow coders here for chipping in with solutions and / or explanations.</p>","created_formatted_with_time_since":"5 months ago"},{"_class":"course_review","id":113138710,"content":"Great course, excellent explanation! I would like to highlight small exercises at the end of each lecture which you have to solve on your own. I also like the stories which are told by instructor to explain lectures.","rating":5.0,"created":"2022-05-03T00:51:03-07:00","modified":"2022-05-04T16:08:10-07:00","user_modified":"2022-05-03T00:53:25-07:00","user":{"_class":"user","title":"Marina Rezmer","name":"Marina","display_name":"Marina Rezmer","image_50x50":"https://img-b.udemycdn.com/user/50x50/anonymous_3.png","initials":"MR","tracking_id":"0QmWRvRFQ5uIgwA61YLPRQ","public_display_name":"Marina R."},"response":null,"content_html":"<p>Great course, excellent explanation! I would like to highlight small exercises at the end of each lecture which you have to solve on your own. I also like the stories which are told by instructor to explain lectures.</p>","created_formatted_with_time_since":"4 months ago"},{"_class":"course_review","id":110136548,"content":"I have given 4 rating to this course because I found lot's of examples which I can relate and implement in real life but I thing their is some things we need some notes at the end of the course for having more expertise in generator and other topics","rating":4.0,"created":"2022-03-22T00:13:15-07:00","modified":"2022-03-23T16:05:35-07:00","user_modified":"2022-03-22T00:18:37-07:00","user":{"_class":"user","title":"Deepak Nandkishor Chaurasiya","name":"Deepak Nandkishor","display_name":"Deepak Nandkishor Chaurasiya","image_50x50":"https://img-b.udemycdn.com/user/50x50/anonymous_3.png","initials":"DC","tracking_id":"DSNHDW9BTS255UJOGH0Xdw","public_display_name":"Deepak Nandkishor C."},"response":null,"content_html":"<p>I have given 4 rating to this course because I found lot's of examples which I can relate and implement in real life but I thing their is some things we need some notes at the end of the course for having more expertise in generator and other topics</p>","created_formatted_with_time_since":"5 months ago"}]}