{"count":2039,"next":"https://www.udemy.com/api-2.0/courses/881980/reviews/?courseId=881980&fields%5Bcourse_review%5D=%40default%2Cresponse%2Ccontent_html%2Ccreated_formatted_with_time_since&fields%5Bcourse_review_response%5D=%40min%2Cuser%2Ccontent_html%2Ccreated_formatted_with_time_since&fields%5Buser%5D=%40min%2Cimage_50x50%2Cinitials%2Cpublic_display_name%2Ctracking_id&is_text_review=1&ordering=course_review_score__rank%2C-created&page=2","previous":null,"results":[{"_class":"course_review","id":122023086,"content":"Good introduction into programming concepts, although heavily web-focused, which may not be a good fit for everyone. A decent starting point for plenty of people nonetheless.","rating":4.0,"created":"2022-08-25T04:51:08-07:00","modified":"2022-08-26T16:09:26-07:00","user_modified":"2022-08-25T04:52:40-07:00","user":{"_class":"user","title":"Artur Glegola","name":"Artur","display_name":"Artur Glegola","image_50x50":"https://img-c.udemycdn.com/user/50x50/anonymous_3.png","initials":"AG","tracking_id":"z8vQjfXLTZid69xe3HWC6g","public_display_name":"Artur G."},"response":null,"content_html":"<p>Good introduction into programming concepts, although heavily web-focused, which may not be a good fit for everyone. A decent starting point for plenty of people nonetheless.</p>","created_formatted_with_time_since":"a week ago"},{"_class":"course_review","id":121805588,"content":"It's a good course but not according to its title, that's why I didn't give 5 stars. It's a good background course for those who want to learn web development, it's too long a course for those who want to learn programming. In addition, there is a lot of unnecessary historical background.","rating":4.0,"created":"2022-08-22T23:33:47-07:00","modified":"2022-08-23T16:08:01-07:00","user_modified":"2022-08-23T02:01:07-07:00","user":{"_class":"user","title":"Yosef wollman","name":"Yosef","display_name":"Yosef wollman","image_50x50":"https://img-c.udemycdn.com/user/50x50/anonymous_3.png","initials":"YW","tracking_id":"4TSLA90_QF-PJGgfU4jxfw","public_display_name":"Yosef W."},"response":null,"content_html":"<p>It's a good course but not according to its title, that's why I didn't give 5 stars. It's a good background course for those who want to learn web development, it's too long a course for those who want to learn programming. In addition, there is a lot of unnecessary historical background.</p>","created_formatted_with_time_since":"a week ago"},{"_class":"course_review","id":120367748,"content":"Good Course take the first steps when you start programming, this course give short overview on how to go forward and which programming language is helpful to start with and so on.","rating":5.0,"created":"2022-08-03T17:13:26-07:00","modified":"2022-08-05T16:08:05-07:00","user_modified":"2022-08-03T17:14:45-07:00","user":{"_class":"user","title":"Sahas Nalluri","name":"Sahas","display_name":"Sahas Nalluri","image_50x50":"https://img-c.udemycdn.com/user/50x50/anonymous_3.png","initials":"SN","tracking_id":"PiJmIHPWS6Sr1D6veDdbRA","public_display_name":"Sahas N."},"response":null,"content_html":"<p>Good Course take the first steps when you start programming, this course give short overview on how to go forward and which programming language is helpful to start with and so on.</p>","created_formatted_with_time_since":"4 weeks ago"},{"_class":"course_review","id":117893060,"content":"I find the course very interesting and it covered a lot of the topics I wanted. For everyone who looks a birds-eye view of the programming world this course is for you.","rating":5.0,"created":"2022-07-03T22:54:26-07:00","modified":"2022-07-05T16:16:15-07:00","user_modified":"2022-07-03T22:54:26-07:00","user":{"_class":"user","title":"Gilad Molcho","name":"Gilad","display_name":"Gilad Molcho","image_50x50":"https://img-c.udemycdn.com/user/50x50/anonymous_3.png","initials":"GM","tracking_id":"_pM-U25lQbSYLgYJuWfDAA","public_display_name":"Gilad M."},"response":null,"content_html":"<p>I find the course very interesting and it covered a lot of the topics I wanted. For everyone who looks a birds-eye view of the programming world this course is for you.</p>","created_formatted_with_time_since":"2 months ago"},{"_class":"course_review","id":114782678,"content":"Well, it delivered exactly what it promised :) I now have a basic understanding of what is coding, so I’m more confident to move forward with my learn path and became a programmer","rating":5.0,"created":"2022-05-24T14:52:34-07:00","modified":"2022-05-26T16:08:46-07:00","user_modified":"2022-05-24T14:52:34-07:00","user":{"_class":"user","title":"Ana Carolina Aarts da Silva","name":"Ana Carolina","display_name":"Ana Carolina Aarts da Silva","image_50x50":"https://img-c.udemycdn.com/user/50x50/anonymous_3.png","initials":"AA","tracking_id":"FOldV5OnSBab5qk__hpueQ","public_display_name":"Ana Carolina A."},"response":null,"content_html":"<p>Well, it delivered exactly what it promised :) I now have a basic understanding of what is coding, so I’m more confident to move forward with my learn path and became a programmer</p>","created_formatted_with_time_since":"3 months ago"},{"_class":"course_review","id":115093164,"content":"It was a great intro course for someone without much of a technology background . The instructor explained the ideas well and was entertaining. A great way to dip your toe in the water.","rating":5.0,"created":"2022-05-28T07:32:01-07:00","modified":"2022-05-29T16:07:47-07:00","user_modified":"2022-05-28T07:32:01-07:00","user":{"_class":"user","title":"Catherine Parkhill","name":"Catherine","display_name":"Catherine Parkhill","image_50x50":"https://img-c.udemycdn.com/user/50x50/anonymous_3.png","initials":"CP","tracking_id":"tbprfufJSIuX2ylHL2TnAw","public_display_name":"Catherine P."},"response":null,"content_html":"<p>It was a great intro course for someone without much of a technology background . The instructor explained the ideas well and was entertaining. A great way to dip your toe in the water.</p>","created_formatted_with_time_since":"3 months ago"},{"_class":"course_review","id":115214912,"content":"Perfect course If you want to have a basic overview of what is like to be a programmer and what is a programming language in general. I definitely recommend this course if you’re not sure if you want to move into the programming direction with your career.","rating":5.0,"created":"2022-05-30T06:53:38-07:00","modified":"2022-06-02T21:12:14-07:00","user_modified":"2022-05-30T06:53:38-07:00","user":{"_class":"user","title":"Borislav Angelov","name":"Borislav","display_name":"Borislav Angelov","image_50x50":"https://img-c.udemycdn.com/user/50x50/64267666_73fe.jpg","initials":"BA","tracking_id":"sYSb9fKiRsuegcWLWd9I3w","public_display_name":"Borislav A."},"response":null,"content_html":"<p>Perfect course If you want to have a basic overview of what is like to be a programmer and what is a programming language in general. I definitely recommend this course if you’re not sure if you want to move into the programming direction with your career.</p>","created_formatted_with_time_since":"3 months ago"},{"_class":"course_review","id":114783424,"content":"The beginning of the course is very good, going into computers and internet. Then, some lectures are missing. Like on some language components (loops, functions, conditionals), types of frameworks, debugging.\nAnyway, I received useful things didn't know earlier which is the main goal.\nThank you.","rating":3.5,"created":"2022-05-24T15:06:47-07:00","modified":"2022-05-26T16:08:46-07:00","user_modified":"2022-05-24T15:11:04-07:00","user":{"_class":"user","title":"Alina Aleks","name":"Alina","display_name":"Alina Aleks","image_50x50":"https://img-c.udemycdn.com/user/50x50/175328062_e88b_2.jpg","initials":"AA","tracking_id":"Ta5AuKZETIuISnxwkx4ZqA","public_display_name":"Alina A."},"response":null,"content_html":"<p>The beginning of the course is very good, going into computers and internet. Then, some lectures are missing. Like on some language components (loops, functions, conditionals), types of frameworks, debugging.<br>Anyway, I received useful things didn't know earlier which is the main goal.<br>Thank you.</p>","created_formatted_with_time_since":"3 months ago"},{"_class":"course_review","id":120563506,"content":"Well I'm not going to talk too much about Evan's amazing teaching method, but I can speak about my personal experience..I just graduated from a french medium university and my major was sociology. So as you can guess, i spent my whole uni years by learning french and philosophy history etc.. the only thing that I knew about computer is to google for famous sociologist and to use powerpoint.. But I decided to learn software computer kind of things from scratch. And  i think  Evan  is one of the best teacher if you are like me -don't know anything about tech or computer- Give it a go, you won't regret. I learn so many things; thank you Evan.","rating":5.0,"created":"2022-08-06T05:57:45-07:00","modified":"2022-08-08T02:13:04-07:00","user_modified":"2022-08-08T02:13:04-07:00","user":{"_class":"user","title":"Ozge Eren","name":"Ozge","display_name":"Ozge Eren","image_50x50":"https://img-c.udemycdn.com/user/50x50/anonymous_3.png","initials":"OE","tracking_id":"414-HntWSIK0lNcgUZOjnw","public_display_name":"Ozge E."},"response":null,"content_html":"<p>Well I'm not going to talk too much about Evan's amazing teaching method, but I can speak about my personal experience..I just graduated from a french medium university and my major was sociology. So as you can guess, i spent my whole uni years by learning french and philosophy history etc.. the only thing that I knew about computer is to google for famous sociologist and to use powerpoint.. But I decided to learn software computer kind of things from scratch. And  i think  Evan  is one of the best teacher if you are like me -don't know anything about tech or computer- Give it a go, you won't regret. I learn so many things; thank you Evan.</p>","created_formatted_with_time_since":"3 weeks ago"},{"_class":"course_review","id":115409152,"content":"instructor gets to the point and is very engaging.  makes a topic that could be boring, easy to understand.","rating":5.0,"created":"2022-06-01T10:01:36-07:00","modified":"2022-06-03T16:06:46-07:00","user_modified":"2022-06-01T10:02:40-07:00","user":{"_class":"user","title":"Michael Wright","name":"Michael","display_name":"Michael Wright","image_50x50":"https://img-c.udemycdn.com/user/50x50/anonymous_3.png","initials":"MW","tracking_id":"XR3jEceQTlaTw2E7oGKf8Q","public_display_name":"Michael W."},"response":null,"content_html":"<p>instructor gets to the point and is very engaging.  makes a topic that could be boring, easy to understand.</p>","created_formatted_with_time_since":"3 months ago"},{"_class":"course_review","id":120590754,"content":"Evan presents the course in a easy to learn format with a recap of the learning objectives at the end of each video.  This great.  The pdf files he provides does the learner justice in help reinforce the material taught.\n\nMarlon Cole","rating":5.0,"created":"2022-08-06T17:58:29-07:00","modified":"2022-08-07T16:07:55-07:00","user_modified":"2022-08-06T18:01:20-07:00","user":{"_class":"user","title":"Marlon Cole","name":"Marlon","display_name":"Marlon Cole","image_50x50":"https://img-c.udemycdn.com/user/50x50/26208168_41d3.jpg","initials":"MC","tracking_id":"GEc8VU_AQf6budDBdfqSbg","public_display_name":"Marlon C."},"response":null,"content_html":"<p>Evan presents the course in a easy to learn format with a recap of the learning objectives at the end of each video.  This great.  The pdf files he provides does the learner justice in help reinforce the material taught.</p>\n\n<p>Marlon Cole</p>","created_formatted_with_time_since":"3 weeks ago"},{"_class":"course_review","id":116524248,"content":"Too Much Information, Informative, Good Amount Of Links, Materials However...\nLots Of Unrelated Information To Coding/Programming In My Opinion","rating":3.5,"created":"2022-06-16T02:11:12-07:00","modified":"2022-06-18T16:09:37-07:00","user_modified":"2022-06-16T02:12:54-07:00","user":{"_class":"user","title":"Mohammed Khaled Al Mattar","name":"Mohammed Khaled","display_name":"Mohammed Khaled Al Mattar","image_50x50":"https://img-c.udemycdn.com/user/50x50/anonymous_3.png","initials":"MA","tracking_id":"Vgg_yt2sQWCdPZJMgBX8rA","public_display_name":"Mohammed Khaled A."},"response":null,"content_html":"<p>Too Much Information, Informative, Good Amount Of Links, Materials However...<br>Lots Of Unrelated Information To Coding/Programming In My Opinion</p>","created_formatted_with_time_since":"2 months ago"}]}