{"count":1107,"next":"https://www.udemy.com/api-2.0/courses/886300/reviews/?courseId=886300&fields%5Bcourse_review%5D=%40default%2Cresponse%2Ccontent_html%2Ccreated_formatted_with_time_since&fields%5Bcourse_review_response%5D=%40min%2Cuser%2Ccontent_html%2Ccreated_formatted_with_time_since&fields%5Buser%5D=%40min%2Cimage_50x50%2Cinitials%2Cpublic_display_name%2Ctracking_id&is_text_review=1&ordering=course_review_score__rank%2C-created&page=2","previous":null,"results":[{"_class":"course_review","id":118895792,"content":"Loved covering the basics again in this amazing course!","rating":5.0,"created":"2022-07-16T07:53:08-07:00","modified":"2022-07-17T16:08:49-07:00","user_modified":"2022-07-16T07:54:14-07:00","user":{"_class":"user","title":"Harry Ashton","name":"Harry","display_name":"Harry Ashton","image_50x50":"https://img-c.udemycdn.com/user/50x50/29200352_19cb.jpg","initials":"HA","tracking_id":"WDhuRps0TtCzSqpg3PxaDg","public_display_name":"Harry A."},"response":null,"content_html":"<p>Loved covering the basics again in this amazing course!</p>","created_formatted_with_time_since":"a month ago"},{"_class":"course_review","id":116771498,"content":"Excelente curso, me ayudo a clarificar muchas cosas y saber el porque de su funcionamiento. Gracias!!","rating":4.5,"created":"2022-06-19T22:10:29-07:00","modified":"2022-06-21T16:07:21-07:00","user_modified":"2022-06-19T22:12:33-07:00","user":{"_class":"user","title":"M TL","name":"M","display_name":"M TL","image_50x50":"https://img-c.udemycdn.com/user/50x50/anonymous_3.png","initials":"MT","tracking_id":"vOXRA_5gQBKH3IhL_ZEnyQ","public_display_name":"M T."},"response":null,"content_html":"<p>Excelente curso, me ayudo a clarificar muchas cosas y saber el porque de su funcionamiento. Gracias!!</p>","created_formatted_with_time_since":"2 months ago"},{"_class":"course_review","id":115504654,"content":"This course covers a lot without overloading the topics. This is exactly what a beginner needs to get confident with the core functionality of JavaScript without being overwhelmed by the stuff.\n\nDaumen hoch Max!","rating":5.0,"created":"2022-06-02T12:18:39-07:00","modified":"2022-06-03T16:09:43-07:00","user_modified":"2022-06-02T12:23:49-07:00","user":{"_class":"user","title":"Santiago M.","name":"Santiago","display_name":"Santiago M.","image_50x50":"https://img-c.udemycdn.com/user/50x50/anonymous_3.png","initials":"SM","tracking_id":"FVu8_7CJTPu_tbC_t-hbTQ","public_display_name":"Santiago M."},"response":null,"content_html":"<p>This course covers a lot without overloading the topics. This is exactly what a beginner needs to get confident with the core functionality of JavaScript without being overwhelmed by the stuff.</p>\n\n<p>Daumen hoch Max!</p>","created_formatted_with_time_since":"3 months ago"},{"_class":"course_review","id":110816698,"content":"He explains every little detail and the working of the code very well. Topics which we usually overlook, are explained by him so well. I would really appreciate his effort, to make tiny videos of every little topic, just to clarify our doubts and clear our basic understanding.","rating":5.0,"created":"2022-03-30T20:55:18-07:00","modified":"2022-04-01T05:00:48-07:00","user_modified":"2022-04-01T05:00:48-07:00","user":{"_class":"user","title":"","name":"","display_name":"Bhawna Bmehbubani","image_50x50":"https://img-c.udemycdn.com/user/50x50/anonymous_3.png","initials":"","tracking_id":"BO4t2gIRR0mE4B1--FkcwQ","public_display_name":"Udemy User"},"response":null,"content_html":"<p>He explains every little detail and the working of the code very well. Topics which we usually overlook, are explained by him so well. I would really appreciate his effort, to make tiny videos of every little topic, just to clarify our doubts and clear our basic understanding.</p>","created_formatted_with_time_since":"5 months ago"},{"_class":"course_review","id":109379784,"content":"Really good course. Covers a lot and with good examples. Missing some of the latest ES6 updates but he has done another course for those which you can check out after.","rating":4.5,"created":"2022-03-11T05:35:31-08:00","modified":"2022-03-12T15:03:34-08:00","user_modified":"2022-03-11T05:36:09-08:00","user":{"_class":"user","title":"Nicholas Campbell","name":"Nicholas","display_name":"Nicholas Campbell","image_50x50":"https://img-c.udemycdn.com/user/50x50/anonymous_3.png","initials":"NC","tracking_id":"TlLdQQm_QFGjGzuNQmgk9A","public_display_name":"Nicholas C."},"response":null,"content_html":"<p>Really good course. Covers a lot and with good examples. Missing some of the latest ES6 updates but he has done another course for those which you can check out after.</p>","created_formatted_with_time_since":"5 months ago"},{"_class":"course_review","id":109090160,"content":"An excellent course where in a relative short time, the most important parts of Javascript are being taught in a very clear way with good examples. Maximilian is a gifted teacher who is able to explain complex things in a simple way. One of my favorite courses.","rating":5.0,"created":"2022-03-07T19:12:31-08:00","modified":"2022-04-08T12:16:35-07:00","user_modified":"2022-04-08T12:16:35-07:00","user":{"_class":"user","title":"Donald Klaassen","name":"Donald","display_name":"Donald Klaassen","image_50x50":"https://img-c.udemycdn.com/user/50x50/19116760_791b.jpg","initials":"DK","tracking_id":"wu81C_OdRBqHk8xxrYr6zA","public_display_name":"Donald K."},"response":null,"content_html":"<p>An excellent course where in a relative short time, the most important parts of Javascript are being taught in a very clear way with good examples. Maximilian is a gifted teacher who is able to explain complex things in a simple way. One of my favorite courses.</p>","created_formatted_with_time_since":"5 months ago"},{"_class":"course_review","id":113007880,"content":"It could be better by adding more projects and with good explanations.","rating":3.0,"created":"2022-05-01T00:23:57-07:00","modified":"2022-05-02T16:04:20-07:00","user_modified":"2022-05-01T00:25:11-07:00","user":{"_class":"user","title":"","name":"","display_name":"Shivam Sharma31A20A","image_50x50":"https://img-c.udemycdn.com/user/50x50/anonymous_3.png","initials":"","tracking_id":"ifa1ZWC-Rli2EerOtz6cPA","public_display_name":"Udemy User"},"response":null,"content_html":"<p>It could be better by adding more projects and with good explanations.</p>","created_formatted_with_time_since":"4 months ago"},{"_class":"course_review","id":110480072,"content":"He is not entertaining with the knowledge he has we the topics of javascript. Also there is no quiz to test our learnings.","rating":2.0,"created":"2022-03-26T08:22:51-07:00","modified":"2022-03-27T16:04:29-07:00","user_modified":"2022-03-27T07:15:27-07:00","user":{"_class":"user","title":"","name":"","display_name":"Trishali Deshmukh","image_50x50":"https://img-c.udemycdn.com/user/50x50/anonymous_3.png","initials":"","tracking_id":"Zpo41ZqsR1Ke7cnd-TsUFw","public_display_name":"Udemy User"},"response":null,"content_html":"<p>He is not entertaining with the knowledge he has we the topics of javascript. Also there is no quiz to test our learnings.</p>","created_formatted_with_time_since":"5 months ago"},{"_class":"course_review","id":110908422,"content":"simple words made the course more understandable and easier.","rating":5.0,"created":"2022-03-31T22:21:41-07:00","modified":"2022-04-01T16:02:43-07:00","user_modified":"2022-03-31T22:22:26-07:00","user":{"_class":"user","title":"","name":"","display_name":"Asit Biswas","image_50x50":"https://img-c.udemycdn.com/user/50x50/anonymous_3.png","initials":"","tracking_id":"d8xgRY-KR4uCQPc0WQB0dQ","public_display_name":"Udemy User"},"response":null,"content_html":"<p>simple words made the course more understandable and easier.</p>","created_formatted_with_time_since":"5 months ago"},{"_class":"course_review","id":113346084,"content":"Muy completo y recomendado para iniciar.","rating":5.0,"created":"2022-05-05T14:22:08-07:00","modified":"2022-05-06T16:10:11-07:00","user_modified":"2022-05-05T14:22:30-07:00","user":{"_class":"user","title":"Germán Darío Ruiz","name":"Germán Darío","display_name":"Germán Darío Ruiz","image_50x50":"https://img-c.udemycdn.com/user/50x50/anonymous_3.png","initials":"GR","tracking_id":"jE_EMdB_TRic24DmogScHA","public_display_name":"Germán Darío R."},"response":null,"content_html":"<p>Muy completo y recomendado para iniciar.</p>","created_formatted_with_time_since":"4 months ago"},{"_class":"course_review","id":107152750,"content":"Ottimo insegnante che sa catturare l'attenzione e nutrire curiosità verso l'argomento.","rating":5.0,"created":"2022-02-09T06:40:47-08:00","modified":"2022-02-11T15:08:11-08:00","user_modified":"2022-02-09T06:42:03-08:00","user":{"_class":"user","title":"Simona Tersigni","name":"Simona","display_name":"Simona Tersigni","image_50x50":"https://img-c.udemycdn.com/user/50x50/44021608_620c.jpg","initials":"ST","tracking_id":"QRvJy-G5RQqElReqLmg6CA","public_display_name":"Simona T."},"response":null,"content_html":"<p>Ottimo insegnante che sa catturare l'attenzione e nutrire curiosità verso l'argomento.</p>","created_formatted_with_time_since":"6 months ago"},{"_class":"course_review","id":115509256,"content":"Teşekkürler. Faydalı bir eğitim.","rating":4.5,"created":"2022-06-02T13:32:37-07:00","modified":"2022-06-14T13:36:06-07:00","user_modified":"2022-06-14T13:36:06-07:00","user":{"_class":"user","title":"BTGM Eğitim","name":"BTGM","display_name":"BTGM Eğitim","image_50x50":"https://img-c.udemycdn.com/user/50x50/anonymous_3.png","initials":"BE","tracking_id":"GNSn6dBGSd6vXX6NVyt97A","public_display_name":"BTGM E."},"response":null,"content_html":"<p>Teşekkürler. Faydalı bir eğitim.</p>","created_formatted_with_time_since":"3 months ago"}]}