{"count":10000,"next":"https://www.udemy.com/api-2.0/courses/903744/reviews/?courseId=903744&fields%5Bcourse_review%5D=%40default%2Cresponse%2Ccontent_html%2Ccreated_formatted_with_time_since&fields%5Bcourse_review_response%5D=%40min%2Cuser%2Ccontent_html%2Ccreated_formatted_with_time_since&fields%5Buser%5D=%40min%2Cimage_50x50%2Cinitials%2Cpublic_display_name%2Ctracking_id&is_text_review=1&ordering=course_review_score__rank%2C-created&page=2","previous":null,"results":[{"_class":"course_review","id":122241202,"content":"Thank you so much for this course, this single course helped me transition to a career in data analytics. All the concepts have been explained in the most simple manner possible.","rating":5.0,"created":"2022-08-28T02:41:41-07:00","modified":"2022-08-29T16:21:46-07:00","user_modified":"2022-08-28T02:42:22-07:00","user":{"_class":"user","title":"Neeraj Ingle","name":"Neeraj","display_name":"Neeraj Ingle","image_50x50":"https://img-c.udemycdn.com/user/50x50/anonymous_3.png","initials":"NI","tracking_id":"naty1oStSpuNs4lPK6EdZw","public_display_name":"Neeraj I."},"response":null,"content_html":"<p>Thank you so much for this course, this single course helped me transition to a career in data analytics. All the concepts have been explained in the most simple manner possible.</p>","created_formatted_with_time_since":"5 days ago"},{"_class":"course_review","id":122005616,"content":"Great course. José explains the theory very clear and the projects are a great way to implement it into action. I was able to use all I learned directly into my day to day job and feel confident on the data analysis reports that I can produce. One tip although would be to update some lecture, as some methods have become redundant. However, in most cases I was able to find an alternative or workaround via the Q&A board.","rating":4.5,"created":"2022-08-25T01:06:39-07:00","modified":"2022-08-26T16:09:44-07:00","user_modified":"2022-08-25T01:11:39-07:00","user":{"_class":"user","title":"Sietske Witvoet","name":"Sietske","display_name":"Sietske Witvoet","image_50x50":"https://img-c.udemycdn.com/user/50x50/anonymous_3.png","initials":"SW","tracking_id":"C6Q0AWbQT3iEgob1CZWtgw","public_display_name":"Sietske W."},"response":null,"content_html":"<p>Great course. José explains the theory very clear and the projects are a great way to implement it into action. I was able to use all I learned directly into my day to day job and feel confident on the data analysis reports that I can produce. One tip although would be to update some lecture, as some methods have become redundant. However, in most cases I was able to find an alternative or workaround via the Q&A board.</p>","created_formatted_with_time_since":"a week ago"},{"_class":"course_review","id":120612726,"content":"I  really appreciate  this course, it was more than I expected. It will be a great support When I had any doubt over my homework even I will been working  in this carrer as Data Analysis.","rating":5.0,"created":"2022-08-07T05:41:34-07:00","modified":"2022-08-08T16:09:18-07:00","user_modified":"2022-08-07T05:48:23-07:00","user":{"_class":"user","title":"Alexandre Silva dos Santos","name":"Alexandre","display_name":"Alexandre Silva dos Santos","image_50x50":"https://img-c.udemycdn.com/user/50x50/anonymous_3.png","initials":"AS","tracking_id":"4QCzoRKVRviDS6WPnGDfPQ","public_display_name":"Alexandre S."},"response":null,"content_html":"<p>I  really appreciate  this course, it was more than I expected. It will be a great support When I had any doubt over my homework even I will been working  in this carrer as Data Analysis.</p>","created_formatted_with_time_since":"3 weeks ago"},{"_class":"course_review","id":119461634,"content":"The course helped me a lot to start my data science journey. The lectures were mostly easy to follow and recreate.","rating":5.0,"created":"2022-07-23T14:56:30-07:00","modified":"2022-07-24T16:07:21-07:00","user_modified":"2022-07-23T14:57:20-07:00","user":{"_class":"user","title":"Md Abdullah Al Hasan","name":"Md Abdullah Al","display_name":"Md Abdullah Al Hasan","image_50x50":"https://img-c.udemycdn.com/user/50x50/116593554_868f.jpg","initials":"MH","tracking_id":"H7Q05sg8QPOHIzX90JEQkg","public_display_name":"Md Abdullah Al H."},"response":null,"content_html":"<p>The course helped me a lot to start my data science journey. The lectures were mostly easy to follow and recreate.</p>","created_formatted_with_time_since":"a month ago"},{"_class":"course_review","id":118978384,"content":"Straight to the point, yet informative course! I truly like that each lesson has portfolio projects to work on so that I can reinforce my knowledge! However for me personally, I did have lots of issues on the Big Data/Pyspark lecture trying to configure everything due to different versions of software from my machine and the video. Overall, great course!","rating":4.5,"created":"2022-07-17T21:10:15-07:00","modified":"2022-07-18T16:05:15-07:00","user_modified":"2022-07-17T21:13:02-07:00","user":{"_class":"user","title":"Justin Bui","name":"Justin","display_name":"Justin Bui","image_50x50":"https://img-c.udemycdn.com/user/50x50/anonymous_3.png","initials":"JB","tracking_id":"HehexedXQRuX54BUeesa6Q","public_display_name":"Justin B."},"response":null,"content_html":"<p>Straight to the point, yet informative course! I truly like that each lesson has portfolio projects to work on so that I can reinforce my knowledge! However for me personally, I did have lots of issues on the Big Data/Pyspark lecture trying to configure everything due to different versions of software from my machine and the video. Overall, great course!</p>","created_formatted_with_time_since":"a month ago"},{"_class":"course_review","id":113652762,"content":"Very interesting course with many important topics on Data Science and Machine Learning . And ;as usual , Jose is very explanatory !!","rating":5.0,"created":"2022-05-10T04:35:36-07:00","modified":"2022-05-11T16:05:51-07:00","user_modified":"2022-05-10T04:35:36-07:00","user":{"_class":"user","title":"Georgios Papaioannou","name":"Georgios","display_name":"Georgios Papaioannou","image_50x50":"https://img-c.udemycdn.com/user/50x50/anonymous_3.png","initials":"GP","tracking_id":"Tvn9VBR4SfCW01iHy2jaFA","public_display_name":"Georgios P."},"response":null,"content_html":"<p>Very interesting course with many important topics on Data Science and Machine Learning . And ;as usual , Jose is very explanatory !!</p>","created_formatted_with_time_since":"3 months ago"},{"_class":"course_review","id":118444690,"content":"The lecturer actually teaches what is required with a clear explanation of everything. I strongly recommend this course for data science, interested people.","rating":5.0,"created":"2022-07-11T01:52:16-07:00","modified":"2022-07-12T16:07:36-07:00","user_modified":"2022-07-11T01:53:43-07:00","user":{"_class":"user","title":"Elakkiya Geetha Karthikeyan","name":"Elakkiya Geetha","display_name":"Elakkiya Geetha Karthikeyan","image_50x50":"https://img-c.udemycdn.com/user/50x50/anonymous_3.png","initials":"EK","tracking_id":"Zgz5pLg2SN6Tlv5quf8aTw","public_display_name":"Elakkiya Geetha K."},"response":null,"content_html":"<p>The lecturer actually teaches what is required with a clear explanation of everything. I strongly recommend this course for data science, interested people.</p>","created_formatted_with_time_since":"a month ago"},{"_class":"course_review","id":121578898,"content":"The course wasn't bad. I did not like in the assignments how once you overwrite the code the correct answer disappeared. It also would have been useful to show how Python can work in coordination with tools the big corporations use such as Alteryx and Tableau.","rating":3.0,"created":"2022-08-19T10:58:47-07:00","modified":"2022-08-21T16:12:01-07:00","user_modified":"2022-08-19T11:00:23-07:00","user":{"_class":"user","title":"Uriah Baimakovich","name":"Uriah","display_name":"Uriah Baimakovich","image_50x50":"https://img-c.udemycdn.com/user/50x50/anonymous_3.png","initials":"UB","tracking_id":"Pjk0H24ARu2_L5VYbjI9dw","public_display_name":"Uriah B."},"response":null,"content_html":"<p>The course wasn't bad. I did not like in the assignments how once you overwrite the code the correct answer disappeared. It also would have been useful to show how Python can work in coordination with tools the big corporations use such as Alteryx and Tableau.</p>","created_formatted_with_time_since":"2 weeks ago"},{"_class":"course_review","id":120684806,"content":"Esse foi meu primeiro curso na Udemy e superou todas as minhas expectativas! Já tinha uma noção de Python, mas depois desse curso, consegui ter maturidade e insights sobre como resolver problemas com o Python. Mesmo sendo desatualizado, você consegue se virar com o Q&A aqui e o Stackoverflow. Recomendo a todos que queiram aprender Python e Machine Learning!\n---\nThis was my first course on Udemy and it exceeded all my expectations! I already had an idea of Python, but after this course, I managed to have maturity and insights on how to solve problems with Python. Even though it's outdated, you can go to the Q&A here and Stackoverflow. I high recommend it to everyone who wants to learn Python and Machine Learning!","rating":5.0,"created":"2022-08-08T06:05:25-07:00","modified":"2022-08-09T16:09:46-07:00","user_modified":"2022-08-08T06:13:35-07:00","user":{"_class":"user","title":"Sarah Barbosa","name":"Sarah","display_name":"Sarah Barbosa","image_50x50":"https://img-c.udemycdn.com/user/50x50/anonymous_3.png","initials":"SB","tracking_id":"Xf5ZXls7Qfe2U5G_qaR5LA","public_display_name":"Sarah B."},"response":null,"content_html":"<p>Esse foi meu primeiro curso na Udemy e superou todas as minhas expectativas! Já tinha uma noção de Python, mas depois desse curso, consegui ter maturidade e insights sobre como resolver problemas com o Python. Mesmo sendo desatualizado, você consegue se virar com o Q&A aqui e o Stackoverflow. Recomendo a todos que queiram aprender Python e Machine Learning!<br>---<br>This was my first course on Udemy and it exceeded all my expectations! I already had an idea of Python, but after this course, I managed to have maturity and insights on how to solve problems with Python. Even though it's outdated, you can go to the Q&A here and Stackoverflow. I high recommend it to everyone who wants to learn Python and Machine Learning!</p>","created_formatted_with_time_since":"3 weeks ago"},{"_class":"course_review","id":121639110,"content":"Overall the course is good, there are interesting topics and you can get the hang of them very quickly, at least the basics.\nMy main issue with the course, which is why I am rating 3.5 stars is that the course is very outdated and becomes frustrating to follow at times. The last section on Big data and Spark was extremely frustrating, as the code lines for setting up the virtual machine using AWS and ubuntu were all giving me errors and the Q&A was not helpful. I was not able to follow along this last part.\n\nI understand that it is impossible to update all lectures, overall, Jose did post some notes when changes happened and methods became outdated, but really, the last section was a headache and not useful.","rating":3.5,"created":"2022-08-20T13:21:03-07:00","modified":"2022-08-21T16:09:39-07:00","user_modified":"2022-08-20T13:28:30-07:00","user":{"_class":"user","title":"Abraham","name":"Abraham","display_name":"Abraham","image_50x50":"https://img-c.udemycdn.com/user/50x50/anonymous_3.png","initials":"A","tracking_id":"LjS-Rk8rRHq5LiDxuxGivA","public_display_name":"Abraham"},"response":null,"content_html":"<p>Overall the course is good, there are interesting topics and you can get the hang of them very quickly, at least the basics.<br>My main issue with the course, which is why I am rating 3.5 stars is that the course is very outdated and becomes frustrating to follow at times. The last section on Big data and Spark was extremely frustrating, as the code lines for setting up the virtual machine using AWS and ubuntu were all giving me errors and the Q&A was not helpful. I was not able to follow along this last part.</p>\n\n<p>I understand that it is impossible to update all lectures, overall, Jose did post some notes when changes happened and methods became outdated, but really, the last section was a headache and not useful.</p>","created_formatted_with_time_since":"a week ago"},{"_class":"course_review","id":121420924,"content":"It is a great starter for someone looking for Data Science courses. It has precise, too the point and very well explained lectures.","rating":5.0,"created":"2022-08-17T13:04:36-07:00","modified":"2022-08-18T16:10:23-07:00","user_modified":"2022-08-17T13:06:29-07:00","user":{"_class":"user","title":"Shubham Chaudhary","name":"Shubham","display_name":"Shubham Chaudhary","image_50x50":"https://img-c.udemycdn.com/user/50x50/anonymous_3.png","initials":"SC","tracking_id":"uObipZGfSG-lKcnHXp93hA","public_display_name":"Shubham C."},"response":null,"content_html":"<p>It is a great starter for someone looking for Data Science courses. It has precise, too the point and very well explained lectures.</p>","created_formatted_with_time_since":"2 weeks ago"},{"_class":"course_review","id":118237574,"content":"Fun to learn some new topics and teacher was great.  One negative however was on the Big Data and Spark section, the setup was pretty confusing and a bit outdated","rating":4.0,"created":"2022-07-07T13:45:17-07:00","modified":"2022-07-08T16:11:14-07:00","user_modified":"2022-07-07T13:46:26-07:00","user":{"_class":"user","title":"Jadon Lai","name":"Jadon","display_name":"Jadon Lai","image_50x50":"https://img-c.udemycdn.com/user/50x50/anonymous_3.png","initials":"JL","tracking_id":"zGTjEjzDSrWTc28h5qvbrQ","public_display_name":"Jadon L."},"response":null,"content_html":"<p>Fun to learn some new topics and teacher was great.  One negative however was on the Big Data and Spark section, the setup was pretty confusing and a bit outdated</p>","created_formatted_with_time_since":"a month ago"}]}