{"count":3779,"next":"https://www.udemy.com/api-2.0/courses/913448/reviews/?courseId=913448&fields%5Bcourse_review%5D=%40default%2Cresponse%2Ccontent_html%2Ccreated_formatted_with_time_since&fields%5Bcourse_review_response%5D=%40min%2Cuser%2Ccontent_html%2Ccreated_formatted_with_time_since&fields%5Buser%5D=%40min%2Cimage_50x50%2Cinitials%2Cpublic_display_name%2Ctracking_id&is_text_review=1&ordering=course_review_score__rank%2C-created&page=2","previous":null,"results":[{"_class":"course_review","id":122268468,"content":"actually the course is really a little bit challenging for complete beginner.\n\nI recommend to try what in the course multiple time before doing the home work.\n\nwhat I like is the logic and efficiency of the code writing.\n\nwhat I don't like is the other narrator that talk to low and slow, not interactive at all","rating":4.5,"created":"2022-08-28T11:55:21-07:00","modified":"2022-08-29T16:23:16-07:00","user_modified":"2022-08-28T11:58:49-07:00","user":{"_class":"user","title":"Akbar Kamil","name":"Akbar","display_name":"Akbar Kamil","image_50x50":"https://img-b.udemycdn.com/user/50x50/anonymous_3.png","initials":"AK","tracking_id":"Kap81qIPRsKyVCU6Yqd0Rw","public_display_name":"Akbar K."},"response":null,"content_html":"<p>actually the course is really a little bit challenging for complete beginner.</p>\n\n<p>I recommend to try what in the course multiple time before doing the home work.</p>\n\n<p>what I like is the logic and efficiency of the code writing.</p>\n\n<p>what I don't like is the other narrator that talk to low and slow, not interactive at all</p>","created_formatted_with_time_since":"5 days ago"},{"_class":"course_review","id":121138374,"content":"Crisp & Clear explain & quite challenging homework, was able to do it without looking into the fill in the blank's notebook. Looking forward to Advance the skills which i learnt. Thank you!","rating":5.0,"created":"2022-08-14T05:05:32-07:00","modified":"2022-08-15T16:10:15-07:00","user_modified":"2022-08-14T05:09:12-07:00","user":{"_class":"user","title":"Manjunath N","name":"Manjunath","display_name":"Manjunath N","image_50x50":"https://img-b.udemycdn.com/user/50x50/anonymous_3.png","initials":"MN","tracking_id":"cq500RazSxeCIX9_93aT6Q","public_display_name":"Manjunath N."},"response":null,"content_html":"<p>Crisp & Clear explain & quite challenging homework, was able to do it without looking into the fill in the blank's notebook. Looking forward to Advance the skills which i learnt. Thank you!</p>","created_formatted_with_time_since":"2 weeks ago"},{"_class":"course_review","id":119048816,"content":"I really liked this course, Kirill is clear with concepts, and straightforward.  Not too long, not too short, perfect for beginners. I know when you're starting you want that 76+ hrs course, but that ends up being overwhelming. Do this one first.","rating":5.0,"created":"2022-07-18T12:49:47-07:00","modified":"2022-07-20T16:03:36-07:00","user_modified":"2022-07-18T12:57:15-07:00","user":{"_class":"user","title":"Adriel Piacquadio","name":"Adriel","display_name":"Adriel Piacquadio","image_50x50":"https://img-b.udemycdn.com/user/50x50/anonymous_3.png","initials":"AP","tracking_id":"wXh7Lu5RQfCTaGOPAHpdaQ","public_display_name":"Adriel P."},"response":null,"content_html":"<p>I really liked this course, Kirill is clear with concepts, and straightforward.  Not too long, not too short, perfect for beginners. I know when you're starting you want that 76+ hrs course, but that ends up being overwhelming. Do this one first.</p>","created_formatted_with_time_since":"a month ago"},{"_class":"course_review","id":117752866,"content":"This is a great course for people introducing code concepts in their lifes. The content and exercises are accurate to develop hard skills in python and apply the concepts learn in the course.","rating":4.5,"created":"2022-07-01T08:14:09-07:00","modified":"2022-07-02T16:10:47-07:00","user_modified":"2022-07-01T08:16:18-07:00","user":{"_class":"user","title":"Hans Valderrama","name":"Hans","display_name":"Hans Valderrama","image_50x50":"https://img-b.udemycdn.com/user/50x50/anonymous_3.png","initials":"HV","tracking_id":"Zs0SdABKS7ulBajdxu4HIQ","public_display_name":"Hans V."},"response":null,"content_html":"<p>This is a great course for people introducing code concepts in their lifes. The content and exercises are accurate to develop hard skills in python and apply the concepts learn in the course.</p>","created_formatted_with_time_since":"2 months ago"},{"_class":"course_review","id":117683182,"content":"I learned Python from scratch to an advanced level. The course is well structured, complete, with exercises and tests.\nThe instructor has a clear and friendly voice that helps to better follow and understand the course.","rating":5.0,"created":"2022-06-30T11:30:28-07:00","modified":"2022-07-01T16:13:03-07:00","user_modified":"2022-06-30T11:41:36-07:00","user":{"_class":"user","title":"Coral Baas","name":"Coral","display_name":"Coral Baas","image_50x50":"https://img-b.udemycdn.com/user/50x50/anonymous_3.png","initials":"CB","tracking_id":"43BOUHYOSeuOoAI7VJBFMg","public_display_name":"Coral B."},"response":null,"content_html":"<p>I learned Python from scratch to an advanced level. The course is well structured, complete, with exercises and tests.<br>The instructor has a clear and friendly voice that helps to better follow and understand the course.</p>","created_formatted_with_time_since":"2 months ago"},{"_class":"course_review","id":112428618,"content":"Nice course! Loved the focus on advanced visualizations that are very relevant for a data scientist to build the story!","rating":5.0,"created":"2022-04-22T10:58:24-07:00","modified":"2022-04-23T16:08:06-07:00","user_modified":"2022-04-22T11:01:43-07:00","user":{"_class":"user","title":"Sitaram Cherukuvada","name":"Sitaram","display_name":"Sitaram Cherukuvada","image_50x50":"https://img-b.udemycdn.com/user/50x50/anonymous_3.png","initials":"SC","tracking_id":"J_35p2cRRzGE0-nE39_rcw","public_display_name":"Sitaram C."},"response":null,"content_html":"<p>Nice course! Loved the focus on advanced visualizations that are very relevant for a data scientist to build the story!</p>","created_formatted_with_time_since":"4 months ago"},{"_class":"course_review","id":122424294,"content":"I loved the way this program has been structured. I would recommend this to anyone starting their journey in Python!!","rating":5.0,"created":"2022-08-30T04:17:48-07:00","modified":"2022-08-31T16:07:48-07:00","user_modified":"2022-08-30T04:19:25-07:00","user":{"_class":"user","title":"Gaurav Malhotra1","name":"Gaurav","display_name":"Gaurav Malhotra1","image_50x50":"https://img-b.udemycdn.com/user/50x50/anonymous_3.png","initials":"GM","tracking_id":"aI27P1UJSnOYNInPbMyUIg","public_display_name":"Gaurav M."},"response":null,"content_html":"<p>I loved the way this program has been structured. I would recommend this to anyone starting their journey in Python!!</p>","created_formatted_with_time_since":"3 days ago"},{"_class":"course_review","id":119931718,"content":"A little bit outdated. A lot of suddenly unexplained concepts in the Homework. I get that coding is ultimately about self learning by googling, but some concepts were just mentioned in the homework solutions with no context.","rating":3.5,"created":"2022-07-29T03:55:36-07:00","modified":"2022-07-30T16:09:23-07:00","user_modified":"2022-07-29T03:57:57-07:00","user":{"_class":"user","title":"Daryl Lee","name":"Daryl","display_name":"Daryl Lee","image_50x50":"https://img-b.udemycdn.com/user/50x50/anonymous_3.png","initials":"DL","tracking_id":"QiYWSu2DQOGHoO9xben4DA","public_display_name":"Daryl L."},"response":null,"content_html":"<p>A little bit outdated. A lot of suddenly unexplained concepts in the Homework. I get that coding is ultimately about self learning by googling, but some concepts were just mentioned in the homework solutions with no context.</p>","created_formatted_with_time_since":"a month ago"},{"_class":"course_review","id":118501978,"content":"I learned Python from scratch to an advanced level. The course is well structured, and complete, with exercises and tests.\n\nThe instructor was very clear with the concepts and showed different ways to apply seaborn functions, plots for visualization.","rating":5.0,"created":"2022-07-11T14:55:31-07:00","modified":"2022-07-12T16:08:50-07:00","user_modified":"2022-07-11T15:00:52-07:00","user":{"_class":"user","title":"Vishal Kumar yadav","name":"Vishal Kumar","display_name":"Vishal Kumar yadav","image_50x50":"https://img-b.udemycdn.com/user/50x50/anonymous_3.png","initials":"VY","tracking_id":"TktrUXZ2QzazA840podDQA","public_display_name":"Vishal Kumar Y."},"response":null,"content_html":"<p>I learned Python from scratch to an advanced level. The course is well structured, and complete, with exercises and tests.</p>\n\n<p>The instructor was very clear with the concepts and showed different ways to apply seaborn functions, plots for visualization.</p>","created_formatted_with_time_since":"a month ago"},{"_class":"course_review","id":119547518,"content":"This is my first course on Python programming. The lectures were informative and easy to understand. Kudos to the team.","rating":5.0,"created":"2022-07-25T02:44:31-07:00","modified":"2022-07-26T16:26:01-07:00","user_modified":"2022-07-25T02:45:26-07:00","user":{"_class":"user","title":"KOCHU GOVIND SIVAKUMAR","name":"KOCHU GOVIND","display_name":"KOCHU GOVIND SIVAKUMAR","image_50x50":"https://img-b.udemycdn.com/user/50x50/anonymous_3.png","initials":"KS","tracking_id":"hi6ePFL_R2W6wXblI9ipZA","public_display_name":"KOCHU GOVIND S."},"response":null,"content_html":"<p>This is my first course on Python programming. The lectures were informative and easy to understand. Kudos to the team.</p>","created_formatted_with_time_since":"a month ago"},{"_class":"course_review","id":121923964,"content":"90% of the homework assignments can be solved using copy-paste from the course material. The assignments are not challenging and don't test if you really understand what you're doing. Shallow overview course.","rating":2.0,"created":"2022-08-24T04:18:48-07:00","modified":"2022-08-25T16:10:31-07:00","user_modified":"2022-08-24T06:20:49-07:00","user":{"_class":"user","title":"Josef van Wijk","name":"Josef","display_name":"Josef van Wijk","image_50x50":"https://img-b.udemycdn.com/user/50x50/anonymous_3.png","initials":"JV","tracking_id":"h9RsBO_pR_m5VFr8idXI_Q","public_display_name":"Josef V."},"response":null,"content_html":"<p>90% of the homework assignments can be solved using copy-paste from the course material. The assignments are not challenging and don't test if you really understand what you're doing. Shallow overview course.</p>","created_formatted_with_time_since":"a week ago"},{"_class":"course_review","id":118124502,"content":"This is a Great course on the subject!\nParticularly, the section on Advanced Visualization is amazing - loved the double plot i.e. stripplot on top of boxplot!!\nThanks a ton!","rating":5.0,"created":"2022-07-06T08:39:26-07:00","modified":"2022-07-08T16:14:01-07:00","user_modified":"2022-07-06T08:40:02-07:00","user":{"_class":"user","title":"Saurabh Gupta","name":"Saurabh","display_name":"Saurabh Gupta","image_50x50":"https://img-b.udemycdn.com/user/50x50/anonymous_3.png","initials":"SG","tracking_id":"vz6eQzCERWegkira6-64BQ","public_display_name":"Saurabh G."},"response":null,"content_html":"<p>This is a Great course on the subject!<br>Particularly, the section on Advanced Visualization is amazing - loved the double plot i.e. stripplot on top of boxplot!!<br>Thanks a ton!</p>","created_formatted_with_time_since":"a month ago"}]}