{"count":1438,"next":"https://www.udemy.com/api-2.0/courses/971154/reviews/?courseId=971154&fields%5Bcourse_review%5D=%40default%2Cresponse%2Ccontent_html%2Ccreated_formatted_with_time_since&fields%5Bcourse_review_response%5D=%40min%2Cuser%2Ccontent_html%2Ccreated_formatted_with_time_since&fields%5Buser%5D=%40min%2Cimage_50x50%2Cinitials%2Cpublic_display_name%2Ctracking_id&is_text_review=1&ordering=course_review_score__rank%2C-created&page=2","previous":null,"results":[{"_class":"course_review","id":121565204,"content":"Me pareció súper claro y bastante ilustrativo con los ejemplos mostrados durante el curso. Muchas gracias.","rating":4.5,"created":"2022-08-19T07:29:18-07:00","modified":"2022-08-21T16:09:25-07:00","user_modified":"2022-08-19T07:30:36-07:00","user":{"_class":"user","title":"Sandra Aurelia Ovando Barrientos","name":"Sandra Aurelia Ovando","display_name":"Sandra Aurelia Ovando Barrientos","image_50x50":"https://img-c.udemycdn.com/user/50x50/anonymous_3.png","initials":"SB","tracking_id":"V4zWD8NATbCZ65XXhKjQnw","public_display_name":"Sandra Aurelia Ovando B."},"response":null,"content_html":"<p>Me pareció súper claro y bastante ilustrativo con los ejemplos mostrados durante el curso. Muchas gracias.</p>","created_formatted_with_time_since":"2 weeks ago"},{"_class":"course_review","id":120293158,"content":"The course is good what seems more schematic. Should given more depth on the basics. Good overview for sales and management people","rating":3.5,"created":"2022-08-02T23:58:16-07:00","modified":"2022-08-04T16:06:13-07:00","user_modified":"2022-08-03T00:00:03-07:00","user":{"_class":"user","title":"Sujoy Modak","name":"Sujoy","display_name":"Sujoy Modak","image_50x50":"https://img-c.udemycdn.com/user/50x50/anonymous_3.png","initials":"SM","tracking_id":"mLMeaGQGQASw4-wvsZUKaQ","public_display_name":"Sujoy M."},"response":null,"content_html":"<p>The course is good what seems more schematic. Should given more depth on the basics. Good overview for sales and management people</p>","created_formatted_with_time_since":"a month ago"},{"_class":"course_review","id":119727922,"content":"its amazing dave is an outstanding teacher","rating":5.0,"created":"2022-07-27T00:10:20-07:00","modified":"2022-07-29T16:10:51-07:00","user_modified":"2022-07-27T00:10:42-07:00","user":{"_class":"user","title":"Muhammed lawal","name":"Muhammed","display_name":"Muhammed lawal","image_50x50":"https://img-c.udemycdn.com/user/50x50/anonymous_3.png","initials":"ML","tracking_id":"B76botTATteT93AKuCUWDQ","public_display_name":"Muhammed L."},"response":null,"content_html":"<p>its amazing dave is an outstanding teacher</p>","created_formatted_with_time_since":"a month ago"},{"_class":"course_review","id":119697408,"content":"This course helps to understand how you can use alogorithms.","rating":5.0,"created":"2022-07-26T13:51:07-07:00","modified":"2022-07-27T16:18:03-07:00","user_modified":"2022-07-26T13:51:54-07:00","user":{"_class":"user","title":"Sandeep Jadhav","name":"Sandeep","display_name":"Sandeep Jadhav","image_50x50":"https://img-c.udemycdn.com/user/50x50/anonymous_3.png","initials":"SJ","tracking_id":"LN2jkGuJTvmvegqW2hSv0g","public_display_name":"Sandeep J."},"response":null,"content_html":"<p>This course helps to understand how you can use alogorithms.</p>","created_formatted_with_time_since":"a month ago"},{"_class":"course_review","id":113379648,"content":"I'm learning to be a Data Scientist in my work and this course was a great overview. Enjoyed the delve into the history and the holistic view made really accessible to me in placing ML in context. Plenty of links to further reading too. David is clearly a passionate and knowledgeable teacher so overall would highly recommend as an intro!","rating":4.5,"created":"2022-05-06T02:23:32-07:00","modified":"2022-05-07T16:04:55-07:00","user_modified":"2022-05-06T02:26:08-07:00","user":{"_class":"user","title":"Amy Blessington","name":"Amy","display_name":"Amy Blessington","image_50x50":"https://img-c.udemycdn.com/user/50x50/anonymous_3.png","initials":"AB","tracking_id":"qqPAma2hTeavTknQHAvaBQ","public_display_name":"Amy B."},"response":null,"content_html":"<p>I'm learning to be a Data Scientist in my work and this course was a great overview. Enjoyed the delve into the history and the holistic view made really accessible to me in placing ML in context. Plenty of links to further reading too. David is clearly a passionate and knowledgeable teacher so overall would highly recommend as an intro!</p>","created_formatted_with_time_since":"3 months ago"},{"_class":"course_review","id":120692368,"content":"interesting and easy going introduction to ML !   good exercises to clarify concepts.","rating":4.5,"created":"2022-08-08T07:34:08-07:00","modified":"2022-08-09T16:09:46-07:00","user_modified":"2022-08-08T07:34:55-07:00","user":{"_class":"user","title":"Javier Eduardo Alfaro Zamora","name":"Javier Eduardo Alfaro","display_name":"Javier Eduardo Alfaro Zamora","image_50x50":"https://img-c.udemycdn.com/user/50x50/anonymous_3.png","initials":"JZ","tracking_id":"nNlMZ6riSXSCl1lUk99Jkg","public_display_name":"Javier Eduardo Alfaro Z."},"response":null,"content_html":"<p>interesting and easy going introduction to ML !   good exercises to clarify concepts.</p>","created_formatted_with_time_since":"3 weeks ago"},{"_class":"course_review","id":115562022,"content":"Great introduction to ML - I really appreciate the effort put into this, particular the bonus content using Python. Definitely got my feet wet and ready to dive in fully!","rating":4.5,"created":"2022-06-03T07:08:04-07:00","modified":"2022-06-04T16:09:37-07:00","user_modified":"2022-06-03T07:08:42-07:00","user":{"_class":"user","title":"Shaun Roberts","name":"Shaun","display_name":"Shaun Roberts","image_50x50":"https://img-c.udemycdn.com/user/50x50/anonymous_3.png","initials":"SR","tracking_id":"cQCrusTEQU2jBbWWXlSlxw","public_display_name":"Shaun R."},"response":null,"content_html":"<p>Great introduction to ML - I really appreciate the effort put into this, particular the bonus content using Python. Definitely got my feet wet and ready to dive in fully!</p>","created_formatted_with_time_since":"3 months ago"},{"_class":"course_review","id":121313550,"content":"The Course was well explanatory and full with relative examples","rating":3.5,"created":"2022-08-16T09:56:53-07:00","modified":"2022-08-18T16:08:09-07:00","user_modified":"2022-08-16T09:58:15-07:00","user":{"_class":"user","title":"Pankaj Shivnath Dandgaval","name":"Pankaj Shivnath","display_name":"Pankaj Shivnath Dandgaval","image_50x50":"https://img-c.udemycdn.com/user/50x50/anonymous_3.png","initials":"PD","tracking_id":"BGviMYeCT1u08xqZccxUyA","public_display_name":"Pankaj Shivnath D."},"response":null,"content_html":"<p>The Course was well explanatory and full with relative examples</p>","created_formatted_with_time_since":"2 weeks ago"},{"_class":"course_review","id":111599432,"content":"A good course, but it feels a bit unbalanced when it comes to the focus of themes. The longer portions on Computer Science basics and historical aspects such as the development of computational power could maybe be sacrificed to go a bit more into detail on the Machine Learning aspects. The bonus part of the lecture resulted in +1 star albeit similar to the core lecture scratching at the surface. I understand the intention of referring to further readings, but then maybe doing less breadth and a bit more depth would be the way to go (and then to refer to further reading for the breadth).","rating":4.0,"created":"2022-04-11T03:17:09-07:00","modified":"2022-04-12T16:06:33-07:00","user_modified":"2022-04-11T03:21:15-07:00","user":{"_class":"user","title":"David Rudi","name":"David","display_name":"David Rudi","image_50x50":"https://img-c.udemycdn.com/user/50x50/anonymous_3.png","initials":"DR","tracking_id":"iYSD1G5gQJuMj86Vm10WDw","public_display_name":"David R."},"response":null,"content_html":"<p>A good course, but it feels a bit unbalanced when it comes to the focus of themes. The longer portions on Computer Science basics and historical aspects such as the development of computational power could maybe be sacrificed to go a bit more into detail on the Machine Learning aspects. The bonus part of the lecture resulted in +1 star albeit similar to the core lecture scratching at the surface. I understand the intention of referring to further readings, but then maybe doing less breadth and a bit more depth would be the way to go (and then to refer to further reading for the breadth).</p>","created_formatted_with_time_since":"4 months ago"},{"_class":"course_review","id":115008562,"content":"+ Valuable knowledge\n+ Good examples \n- No exercises or homework","rating":3.5,"created":"2022-05-27T01:48:50-07:00","modified":"2022-05-29T16:05:20-07:00","user_modified":"2022-05-27T01:50:17-07:00","user":{"_class":"user","title":"Marek Musial","name":"Marek","display_name":"Marek Musial","image_50x50":"https://img-c.udemycdn.com/user/50x50/anonymous_3.png","initials":"MM","tracking_id":"49YPSx6_TkK9U7PQVvPEsg","public_display_name":"Marek M."},"response":null,"content_html":"<p>+ Valuable knowledge<br>+ Good examples <br>- No exercises or homework</p>","created_formatted_with_time_since":"3 months ago"},{"_class":"course_review","id":112319766,"content":"An excellent Primer into ML for anyone keen to pick up the concepts. The lecturer is extremely knowledgeable and is able to ensure that the course material remains relatable and exciting. Also appreciate all of the accompanying links and additional reading/ course material.\n\nI would recommend this as an introductory course to anyone wanting to explore machine learning.","rating":4.5,"created":"2022-04-21T03:22:05-07:00","modified":"2022-04-22T16:14:13-07:00","user_modified":"2022-04-21T03:24:51-07:00","user":{"_class":"user","title":"Uzair Parker","name":"Uzair","display_name":"Uzair Parker","image_50x50":"https://img-c.udemycdn.com/user/50x50/anonymous_3.png","initials":"UP","tracking_id":"ZGhQpHHDQHil3rwnVgrTfA","public_display_name":"Uzair P."},"response":null,"content_html":"<p>An excellent Primer into ML for anyone keen to pick up the concepts. The lecturer is extremely knowledgeable and is able to ensure that the course material remains relatable and exciting. Also appreciate all of the accompanying links and additional reading/ course material.</p>\n\n<p>I would recommend this as an introductory course to anyone wanting to explore machine learning.</p>","created_formatted_with_time_since":"4 months ago"},{"_class":"course_review","id":116989034,"content":"Fully satisfactory introduction! Thank you!","rating":5.0,"created":"2022-06-22T06:15:54-07:00","modified":"2022-06-24T00:37:51-07:00","user_modified":"2022-06-24T00:37:51-07:00","user":{"_class":"user","title":"Martin Segreto","name":"Martin","display_name":"Martin Segreto","image_50x50":"https://img-c.udemycdn.com/user/50x50/anonymous_3.png","initials":"MS","tracking_id":"BGFKHsTwSz6u8HwswLDRkg","public_display_name":"Martin S."},"response":null,"content_html":"<p>Fully satisfactory introduction! Thank you!</p>","created_formatted_with_time_since":"2 months ago"}]}