{"count":258,"next":"https://www.udemy.com/api-2.0/courses/99986/reviews/?courseId=99986&fields%5Bcourse_review%5D=%40default%2Cresponse%2Ccontent_html%2Ccreated_formatted_with_time_since&fields%5Bcourse_review_response%5D=%40min%2Cuser%2Ccontent_html%2Ccreated_formatted_with_time_since&fields%5Buser%5D=%40min%2Cimage_50x50%2Cinitials%2Cpublic_display_name%2Ctracking_id&is_text_review=1&ordering=course_review_score__rank%2C-created&page=2","previous":null,"results":[{"_class":"course_review","id":121159364,"content":"Mark was a very good speaker and I found his style engaging. Thank you","rating":5.0,"created":"2022-08-14T13:11:59-07:00","modified":"2022-08-15T16:10:14-07:00","user_modified":"2022-08-14T13:12:33-07:00","user":{"_class":"user","title":"Katherine Lindsey","name":"Katherine","display_name":"Katherine Lindsey","image_50x50":"https://img-c.udemycdn.com/user/50x50/anonymous_3.png","initials":"KL","tracking_id":"jaCagGJQSxi_j7L0iBXEzg","public_display_name":"Katherine L."},"response":null,"content_html":"<p>Mark was a very good speaker and I found his style engaging. Thank you</p>","created_formatted_with_time_since":"2 weeks ago"},{"_class":"course_review","id":118451050,"content":"i find its a great session even i'm very new to the concept.","rating":5.0,"created":"2022-07-11T03:29:35-07:00","modified":"2022-07-12T16:07:36-07:00","user_modified":"2022-07-11T03:31:05-07:00","user":{"_class":"user","title":"Raghuvamshi Mandaloju","name":"Raghuvamshi","display_name":"Raghuvamshi Mandaloju","image_50x50":"https://img-c.udemycdn.com/user/50x50/anonymous_3.png","initials":"RM","tracking_id":"DLf5tblgQ66Yp2u9U7F9PQ","public_display_name":"Raghuvamshi M."},"response":null,"content_html":"<p>i find its a great session even i'm very new to the concept.</p>","created_formatted_with_time_since":"a month ago"},{"_class":"course_review","id":118310640,"content":"Es bueno pero creo que un poco desacualizado en algunos puntos, pero es entendible por el año publicado.","rating":3.5,"created":"2022-07-08T11:53:06-07:00","modified":"2022-07-09T16:05:56-07:00","user_modified":"2022-07-08T11:53:35-07:00","user":{"_class":"user","title":"Belem Martinez","name":"Belem","display_name":"Belem Martinez","image_50x50":"https://img-c.udemycdn.com/user/50x50/anonymous_3.png","initials":"BM","tracking_id":"vtlDoqHvQHuJvQTsu8uHLw","public_display_name":"Belem M."},"response":null,"content_html":"<p>Es bueno pero creo que un poco desacualizado en algunos puntos, pero es entendible por el año publicado.</p>","created_formatted_with_time_since":"a month ago"},{"_class":"course_review","id":118260792,"content":"It is giving a enough explanation. \nBut one thing I suggested that help to learners by giving access for practicing.","rating":4.0,"created":"2022-07-07T23:05:37-07:00","modified":"2022-07-08T16:12:26-07:00","user_modified":"2022-07-07T23:07:53-07:00","user":{"_class":"user","title":"Venkata Malineni","name":"Venkata","display_name":"Venkata Malineni","image_50x50":"https://img-c.udemycdn.com/user/50x50/anonymous_3.png","initials":"VM","tracking_id":"SyP3IF1mReeKfXdty1ZKJQ","public_display_name":"Venkata M."},"response":null,"content_html":"<p>It is giving a enough explanation. <br>But one thing I suggested that help to learners by giving access for practicing.</p>","created_formatted_with_time_since":"a month ago"},{"_class":"course_review","id":118035316,"content":"I learned a lot and I feel this might help me as I further progress.","rating":4.5,"created":"2022-07-05T09:56:42-07:00","modified":"2022-07-06T16:06:58-07:00","user_modified":"2022-07-05T09:57:34-07:00","user":{"_class":"user","title":"Prince Amputu","name":"Prince","display_name":"Prince Amputu","image_50x50":"https://img-c.udemycdn.com/user/50x50/anonymous_3.png","initials":"PA","tracking_id":"HtH1_qnMT0ORQAnhtIPgjw","public_display_name":"Prince A."},"response":null,"content_html":"<p>I learned a lot and I feel this might help me as I further progress.</p>","created_formatted_with_time_since":"a month ago"},{"_class":"course_review","id":118470332,"content":"the course is good but it should have been from fundamentals and basics","rating":3.5,"created":"2022-07-11T07:41:07-07:00","modified":"2022-07-12T16:08:52-07:00","user_modified":"2022-07-11T07:41:55-07:00","user":{"_class":"user","title":"MUTTY VENKATESH","name":"MUTTY","display_name":"MUTTY VENKATESH","image_50x50":"https://img-c.udemycdn.com/user/50x50/anonymous_3.png","initials":"MV","tracking_id":"z6V2kvlpSLuIwi7t1Moxmg","public_display_name":"MUTTY V."},"response":null,"content_html":"<p>the course is good but it should have been from fundamentals and basics</p>","created_formatted_with_time_since":"a month ago"},{"_class":"course_review","id":118283072,"content":"it is very useful for beginners. thanks for wonderful sections","rating":4.0,"created":"2022-07-08T04:59:09-07:00","modified":"2022-07-09T16:06:58-07:00","user_modified":"2022-07-08T05:00:27-07:00","user":{"_class":"user","title":"Pardhasaradhi Bobbala","name":"Pardhasaradhi","display_name":"Pardhasaradhi Bobbala","image_50x50":"https://img-c.udemycdn.com/user/50x50/anonymous_3.png","initials":"PB","tracking_id":"I7cVxxz5TsCpONREYHPUgw","public_display_name":"Pardhasaradhi B."},"response":null,"content_html":"<p>it is very useful for beginners. thanks for wonderful sections</p>","created_formatted_with_time_since":"a month ago"},{"_class":"course_review","id":115942816,"content":"very good course for beginners to learn about Web development, teach step by step to easy  understanding.","rating":4.5,"created":"2022-06-08T08:40:12-07:00","modified":"2022-06-09T16:12:55-07:00","user_modified":"2022-06-08T08:41:25-07:00","user":{"_class":"user","title":"Wilailak Sribuarod","name":"Wilailak","display_name":"Wilailak Sribuarod","image_50x50":"https://img-c.udemycdn.com/user/50x50/anonymous_3.png","initials":"WS","tracking_id":"ORfWZqmmRKCKvjnMNliTkw","public_display_name":"Wilailak S."},"response":null,"content_html":"<p>very good course for beginners to learn about Web development, teach step by step to easy  understanding.</p>","created_formatted_with_time_since":"2 months ago"},{"_class":"course_review","id":118262430,"content":"It's really nice , very intrested to listen this topic","rating":4.0,"created":"2022-07-07T23:32:59-07:00","modified":"2022-07-08T16:12:26-07:00","user_modified":"2022-07-07T23:33:51-07:00","user":{"_class":"user","title":"Venkata Kiran Bonu","name":"Venkata Kiran","display_name":"Venkata Kiran Bonu","image_50x50":"https://img-c.udemycdn.com/user/50x50/anonymous_3.png","initials":"VB","tracking_id":"iCjXapgrRSWopLs2VNT5Bg","public_display_name":"Venkata Kiran B."},"response":null,"content_html":"<p>It's really nice , very intrested to listen this topic</p>","created_formatted_with_time_since":"a month ago"},{"_class":"course_review","id":119268656,"content":"The course is like Jack of all Trades but Master of None.","rating":2.5,"created":"2022-07-20T22:31:30-07:00","modified":"2022-07-22T16:17:47-07:00","user_modified":"2022-07-20T22:32:10-07:00","user":{"_class":"user","title":"Rajan Patwi","name":"Rajan","display_name":"Rajan Patwi","image_50x50":"https://img-c.udemycdn.com/user/50x50/anonymous_3.png","initials":"RP","tracking_id":"4oAYrrSPSU-ewcSKIb6taw","public_display_name":"Rajan P."},"response":null,"content_html":"<p>The course is like Jack of all Trades but Master of None.</p>","created_formatted_with_time_since":"a month ago"},{"_class":"course_review","id":118259586,"content":"beginner in this course, I am so excited. Thank you.","rating":5.0,"created":"2022-07-07T22:42:05-07:00","modified":"2022-07-08T16:12:26-07:00","user_modified":"2022-07-07T22:45:06-07:00","user":{"_class":"user","title":"Roobini K","name":"Roobini","display_name":"Roobini K","image_50x50":"https://img-c.udemycdn.com/user/50x50/anonymous_3.png","initials":"RK","tracking_id":"9oZEQ1NgQ9-DHlqsy_IwLQ","public_display_name":"Roobini K."},"response":null,"content_html":"<p>beginner in this course, I am so excited. Thank you.</p>","created_formatted_with_time_since":"a month ago"},{"_class":"course_review","id":118450516,"content":"Gaining some knowledge about CSS,HTML.Javascript","rating":5.0,"created":"2022-07-11T03:22:19-07:00","modified":"2022-07-12T16:07:36-07:00","user_modified":"2022-07-11T03:22:59-07:00","user":{"_class":"user","title":"Rachana Kothi","name":"Rachana","display_name":"Rachana Kothi","image_50x50":"https://img-c.udemycdn.com/user/50x50/anonymous_3.png","initials":"RK","tracking_id":"e74dfMHiQvCGpSJmduggqQ","public_display_name":"Rachana K."},"response":null,"content_html":"<p>Gaining some knowledge about CSS,HTML.Javascript</p>","created_formatted_with_time_since":"a month ago"}]}